清算中心流水号&交易所流水号&业务发生日期&交易所代码&会员编码&资金账号&出入金方式&出入金类型&出入金发起方&发生金额&币种&银行代码&银行产品代码&银行帐号&状态&备注
20042630020100822290&O865IO6Q48WEK34K&20200427&02000134&1813558749848&1813558749848&&0&1&20060&CNY&0040&boshzjjg&622468000107381150&0&
20042630010100822292&2F6C0743DCMUYZDY&20200427&02000134&1813558749848&1813558749848&&1&1&10000&CNY&0040&boshzjjg&622468000107381150&0&
20042630020100822294&EPODO9RGU5BAJ3XA&20200427&02000134&1813558749848&1813558749848&&0&1&100300&CNY&0040&boshzjjg&622468000107381150&0&
20042630010100822296&LJPGRKPT2L65HMOP&20200427&02000134&1817538719131&1817538719131&&1&1&20000&CNY&0040&boshzjjg&622468000107563344&0&
20042630020100822298&3OBZG2TCEINXTDQI&20200427&02000134&1817538719131&1817538719131&&0&1&10030&CNY&0040&boshzjjg&622468000107563344&0&
20042630010100822300&E6VYFFTIFZPHIWBG&20200427&02000134&1817538719131&1817538719131&&1&1&100000&CNY&0040&boshzjjg&622468000107563344&0&
20042630020100822302&ZNBOGT0RP7EVOUWX&20200427&02000134&1817538719131&1817538719131&&0&1&50150&CNY&0040&boshzjjg&622468000107563344&0&
