清算中心流水号&交易所流水号&业务发生日期&交易所代码&会员编码&资金账号&出入金方式&出入金类型&出入金发起方&发生金额&币种&银行代码&银行产品代码&银行帐号&状态&备注
20060590040021429557&20060590040021429557&20200605&02000016&1813231500951&1813231500951&&1&2&970000&CNY&0040&boshzjjg&6230520650040854077&0&
20060590040021429558&20060590040021429558&20200605&02000016&1813313124191&1813313124191&&1&2&200000&CNY&0040&boshzjjg&6228451266001426461&0&
20060590040021429521&20060590040021429521&20200605&02000016&1813870662832&1813870662832&&1&2&200000&CNY&0040&boshzjjg&6228450920007355618&0&
20060590040021429646&20060590040021429646&20200605&02000016&1815097746135&1815097746135&&1&2&15000&CNY&0040&boshzjjg&6228481269200656973&0&
20060590040021429520&20060590040021429520&20200605&02000016&1813572960606&1813572960606&&1&2&196000&CNY&0040&boshzjjg&6228480210093879117&0&
20060530020100429566&MPVL7OP17O196PG2&20200605&02000016&1818869202035&1818869202035&&0&1&100300&CNY&0040&boshzjjg&6228483358609435374&0&
20060530020100429533&IS9MWBRJKIW7SHMF&20200605&02000016&1818869202035&1818869202035&&0&1&100300&CNY&0040&boshzjjg&6228483358609435374&0&
20060530020100429669&64BLYL5DQDRS3H82&20200605&02000016&1813582743080&1813582743080&&0&1&186559&CNY&0040&boshzjjg&6217000150015693457&0&
20060530020100429673&P0UK0JGSOI6IVAI4&20200605&02000016&1818631760322&1818631760322&&0&1&186559&CNY&0040&boshzjjg&6212260408007820181&0&
20060530020100429676&YUGS3UQTAEX43DIW&20200605&02000016&1813700388839&1813700388839&&0&1&180541&CNY&0040&boshzjjg&6222020408003390445&0&
20060530020100429618&W00LUZ2SL3EXMVCG&20200605&02000016&1800100000071&1800100000071&&0&1&20060&CNY&0040&boshzjjg&6228272226027369472&0&
20060530020100429704&WMZ01TZD8QISS0HE&20200605&02000016&1813082311311&1813082311311&&0&1&9027&CNY&0040&boshzjjg&6228481269123313074&0&
20060530020100429782&BNL8SUHD0DYDWL9F&20200605&02000016&1813683131563&1813683131563&&0&1&20060&CNY&0040&boshzjjg&6228481009189128077&0&
20060530020100429713&86ZAG6UVR8O0YSQU&20200605&02000016&1818631760311&1818631760311&&0&1&10030&CNY&0040&boshzjjg&6236680150000093009&0&
20060530020100429800&NA1CEEKFPCD3FVB4&20200605&02000016&1817304211987&1817304211987&&0&1&10030&CNY&0040&boshzjjg&6217992340002158842&0&
20060530020100429853&PK0VZELHLV2HZIKN&20200605&02000016&1800100000347&1800100000347&&0&1&20545&CNY&0040&boshzjjg&6228481268946635879&0&
20060530020100429729&CTUFS9C0PV6Y2PIH&20200605&02000016&1818210293990&1818210293990&&0&1&20060&CNY&0040&boshzjjg&6236683320015427180&0&
20060530020100429813&6AL95YK00IBI54DG&20200605&02000016&1813385849623&1813385849623&&0&1&100300&CNY&0040&boshzjjg&6217251400025395932&0&
20060530020100429941&1A159ZN53F1PSW26&20200605&02000016&1815032232283&1815032232283&&0&1&10030&CNY&0040&boshzjjg&6228481268245286978&0&
20060530020100429943&LX8K06CCWX5HJ5V9&20200605&02000016&1815206929588&1815206929588&&0&1&10030&CNY&0040&boshzjjg&6212261612004191251&0&
20060530020100429869&1PDB92UNU9PJJIGS&20200605&02000016&1815931437146&1815931437146&&0&1&10030&CNY&0040&boshzjjg&6217855000032127169&0&
20060530020100429885&QIOGH48U6AROCXUL&20200605&02000016&1815903327688&1815903327688&&0&1&10130&CNY&0040&boshzjjg&6227000143210282613&0&
20060530020100430037&GXLU0AXSCWA3NXDO&20200605&02000016&1815630880329&1815630880329&&0&1&20260&CNY&0040&boshzjjg&4563515005004515888&0&
20060530020100429963&DGEPOMM1YEWE4RSC&20200605&02000016&1813385849623&1813385849623&&0&1&80240&CNY&0040&boshzjjg&6217251400025395932&0&
20060530020100430039&A2II8E32M59THUSF&20200605&02000016&1815818598480&1815818598480&&0&1&10030&CNY&0040&boshzjjg&6230520120003213679&0&
20060530020100429965&ODWVZ0841RXORIFX&20200605&02000016&1818233358282&1818233358282&&0&1&20260&CNY&0040&boshzjjg&6236680140003081960&0&
20060530020100430047&5BQXPLWJIQ90EYQB&20200605&02000016&1818931232281&1818931232281&&0&1&20060&CNY&0040&boshzjjg&6217855000069310779&0&
20060530020100429896&H8ZND1YI7CC2L8QI&20200605&02000016&1815211571887&1815211571887&&0&1&190571&CNY&0040&boshzjjg&6228481691102790115&0&
20060530020100429898&LUIS1MTTEH2YJ9JF&20200605&02000016&1818604681909&1818604681909&&0&1&10030&CNY&0040&boshzjjg&6217992610209647056&0&
20060530020100429984&L9W1CNOG6VIW933T&20200605&02000016&1813400267349&1813400267349&&0&1&10130&CNY&0040&boshzjjg&6217865000008146647&0&
20060530020100429915&K0R02EETMNIGLY4V&20200605&02000016&1817679265331&1817679265331&&0&1&23069&CNY&0040&boshzjjg&6216611900007594185&0&
20060530020100430007&T3AZVE6C12ZMS90K&20200605&02000016&1815127269046&1815127269046&&0&1&10030&CNY&0040&boshzjjg&6236680140000089750&0&
20060530020100429926&WMBY8OMCHWAMLOUW&20200605&02000016&1815127269046&1815127269046&&0&1&10030&CNY&0040&boshzjjg&6236680140000089750&0&
20060530020100430142&TR3NLL09I5Y1HW6P&20200605&02000016&1817732266277&1817732266277&&0&1&30090&CNY&0040&boshzjjg&6228481262349094115&0&
20060530020100430147&EYC3ZU0WQCJOA8NX&20200605&02000016&1813931359385&1813931359385&&0&1&10030&CNY&0040&boshzjjg&6228481269171838774&0&
20060530020100430033&XNEWYCZUW31P22EQ&20200605&02000016&1813931359385&1813931359385&&0&1&10030&CNY&0040&boshzjjg&6228481269171838774&0&
20060530020100430241&8KGWC9X8RCGO4JMV&20200605&02000016&1818875037395&1818875037395&&0&1&9528&CNY&0040&boshzjjg&6228480479009445673&0&
20060530020100430246&RWJV2X8MII567V90&20200605&02000016&1815097408526&1815097408526&&0&1&26278&CNY&0040&boshzjjg&6217855000063369987&0&
20060530020100430159&Z1YV7NNNHRCSYQ44&20200605&02000016&1813400267349&1813400267349&&0&1&16148&CNY&0040&boshzjjg&6217865000008146647&0&
20060530020100430250&MTYVUK4NBKRBNUH0&20200605&02000016&1818869202035&1818869202035&&0&1&17051&CNY&0040&boshzjjg&6228483358609435374&0&
20060530020100430353&6KOID9C91VVB40ML&20200605&02000016&1813577503685&1813577503685&&0&1&300902&CNY&0040&boshzjjg&6222082510000034051&0&
20060530020100430377&SX1JK5Q4DWR6AS0R&20200605&02000016&1815087553123&1815087553123&&0&1&401203&CNY&0040&boshzjjg&6212262510000321253&0&
20060530020100430392&JMU77IEYMHGUFDTS&20200605&02000016&1818787552261&1818787552261&&0&1&351053&CNY&0040&boshzjjg&6217003960003266703&0&
20060530020100430540&4R5CBM5EB73XK30D&20200605&02000016&1815108605312&1815108605312&&0&1&401203&CNY&0040&boshzjjg&6228483358465813672&0&
20060530020100430551&TRGPFHEPT5JFEKSA&20200605&02000016&1813429398439&1813429398439&&0&1&240722&CNY&0040&boshzjjg&6217920375437634&0&
20060530020100430410&9KPJ2KKQ4JSUT35U&20200605&02000016&1800100000045&1800100000045&&0&1&40120&CNY&0040&boshzjjg&6228481268397400476&0&
20060530020100430460&THF8QZECQNA2GOWG&20200605&02000016&1813628759556&1813628759556&&0&1&351053&CNY&0040&boshzjjg&6217852700001605003&0&
20060530020100430555&V9KWILT20DWV9JSM&20200605&02000016&1813486694384&1813486694384&&0&1&200601&CNY&0040&boshzjjg&6215583901002700468&0&
20060530020100430415&5NFBEAJAX1EPYF6U&20200605&02000016&1813703227331&1813703227331&&0&1&20060&CNY&0040&boshzjjg&6210810140000841083&0&
20060530020100430575&GMIS7DSIELWN8CCS&20200605&02000016&1813429398439&1813429398439&&0&1&100300&CNY&0040&boshzjjg&6217920375437634&0&
20060530020100430492&JQ7A3CMIHYT8ILUB&20200605&02000016&1813576268031&1813576268031&&0&1&4012036&CNY&0040&boshzjjg&6214837941340923&0&
20060530020100430493&C8GZNEQB9BDOUDZT&20200605&02000016&1813576268031&1813576268031&&0&1&4012036&CNY&0040&boshzjjg&6214837941340923&0&
20060530020100430595&3O6OLOP9BAYMB6CF&20200605&02000016&1813576268031&1813576268031&&0&1&4012036&CNY&0040&boshzjjg&6214837941340923&0&
20060530020100430658&V1M9SXP69WTKDDV3&20200605&02000016&1813576268031&1813576268031&&0&1&4012036&CNY&0040&boshzjjg&6214837941340923&0&
20060530020100430596&SS90ZH6EHJBG17Z8&20200605&02000016&1813576268031&1813576268031&&0&1&4012036&CNY&0040&boshzjjg&6214837941340923&0&
20060530020100430660&8R0J1JVN9AWEV79C&20200605&02000016&1813576268031&1813576268031&&0&1&4012036&CNY&0040&boshzjjg&6214837941340923&0&
20060530020100430661&8U3BSMYWCNZJODDR&20200605&02000016&1813576268031&1813576268031&&0&1&4012036&CNY&0040&boshzjjg&6214837941340923&0&
20060530020100430495&4MOJ4O2GSJ5LBI3X&20200605&02000016&1813576268031&1813576268031&&0&1&2006018&CNY&0040&boshzjjg&6214837941340923&0&
20060530020100430499&6A653LXBOURO61ZM&20200605&02000016&1813940459085&1813940459085&&0&1&2006&CNY&0040&boshzjjg&6225882405481471&0&
20060530020100430672&51Z5DZ4DKMJJTIPW&20200605&02000016&1815334465219&1815334465219&&0&1&100&CNY&0040&boshzjjg&6236684020000322953&0&
20060530020100430614&QHTX0563XWSYIHLL&20200605&02000016&1815334465219&1815334465219&&0&1&10030&CNY&0040&boshzjjg&6236684020000322953&0&
20060530020100430616&RVJTAUDJNQ3VS0DP&20200605&02000016&1818733254139&1818733254139&&0&1&9027&CNY&0040&boshzjjg&6217000140029656848&0&
20060530020100430517&E7TEATMZ5CJM8588&20200605&02000016&1815245431805&1815245431805&&0&1&20060&CNY&0040&boshzjjg&6222622380000218428&0&
20060530020100430684&85VU20YVD5SYJHQQ&20200605&02000016&1815288116989&1815288116989&&0&1&200601&CNY&0040&boshzjjg&6217003960000726766&0&
20060530020100430755&VKYL8KCXXH42P09O&20200605&02000016&1813988238986&1813988238986&&0&1&7221&CNY&0040&boshzjjg&6230523350012901777&0&
20060590040021429644&20060590040021429644&20200605&02000016&1813129593568&1813129593568&&1&2&10000&CNY&0040&boshzjjg&6230523440014533973&0&
20060590040021429645&20060590040021429645&20200605&02000016&1813949280669&1813949280669&&1&2&200000&CNY&0040&boshzjjg&6217984930000138430&0&
20060590040021429559&20060590040021429559&20200605&02000016&1815222123742&1815222123742&&1&2&200000&CNY&0040&boshzjjg&6230520650042982579&0&
20060590040021429564&20060590040021429564&20200605&02000016&1813385213554&1813385213554&&1&2&200000&CNY&0040&boshzjjg&6228483822137021410&0&
20060590040021429652&20060590040021429652&20200605&02000016&1818931441806&1818931441806&&1&2&478000&CNY&0040&boshzjjg&6222030403007736303&0&
20060590040021429565&20060590040021429565&20200605&02000016&1815389494945&1815389494945&&1&2&10000&CNY&0040&boshzjjg&6215592605003645908&0&
20060590040021429568&20060590040021429568&20200605&02000016&1815771836378&1815771836378&&1&2&10000&CNY&0040&boshzjjg&6215592605004136980&0&
20060590040021429580&20060590040021429580&20200605&02000016&1818889422056&1818889422056&&1&2&400000&CNY&0040&boshzjjg&6228410150025333913&0&
20060590040021429667&20060590040021429667&20200605&02000016&1813958157143&1813958157143&&1&2&200000&CNY&0040&boshzjjg&6228480329246610979&0&
20060590040021429750&20060590040021429750&20200605&02000016&1815100207285&1815100207285&&1&2&200000&CNY&0040&boshzjjg&6228481269145263778&0&
20060590040021429610&20060590040021429610&20200605&02000016&1818932692236&1818932692236&&1&2&12000&CNY&0040&boshzjjg&6228481269141588772&0&
20060590040021429691&20060590040021429691&20200605&02000016&1813739822199&1813739822199&&1&2&776000&CNY&0040&boshzjjg&6230520650041673575&0&
20060590040021429611&20060590040021429611&20200605&02000016&1813832526017&1813832526017&&1&2&500000&CNY&0040&boshzjjg&6217000180003186602&0&
20060590040021429777&20060590040021429777&20200605&02000016&1800100000107&1800100000107&&1&2&10000&CNY&0040&boshzjjg&6228481261659029018&0&
20060590040021429702&20060590040021429702&20200605&02000016&1819931210376&1819931210376&&1&2&100&CNY&0040&boshzjjg&6228481268296769575&0&
20060590040021429706&20060590040021429706&20200605&02000016&1815931511642&1815931511642&&1&2&390000&CNY&0040&boshzjjg&6217000180011897935&0&
20060590040021429789&20060590040021429789&20200605&02000016&1815871938967&1815871938967&&1&2&200000&CNY&0040&boshzjjg&6217857600036957400&0&
20060590040021429837&20060590040021429837&20200605&02000016&1817331503933&1817331503933&&1&2&194000&CNY&0040&boshzjjg&6230520650020456976&0&
20060590040021429792&20060590040021429792&20200605&02000016&1813733221116&1813733221116&&1&2&200000&CNY&0040&boshzjjg&6217000140011155742&0&
20060590040021429860&20060590040021429860&20200605&02000016&1813477461038&1813477461038&&1&2&1000000&CNY&0040&boshzjjg&6228483821578495711&0&
20060590040021429868&20060590040021429868&20200605&02000016&1818032526472&1818032526472&&1&2&194000&CNY&0040&boshzjjg&6222030403005785591&0&
20060590040021429879&20060590040021429879&20200605&02000016&1819931210376&1819931210376&&1&2&200000&CNY&0040&boshzjjg&6228481268296769575&0&
20060590040021429964&20060590040021429964&20200605&02000016&1813831723408&1813831723408&&1&2&620000&CNY&0040&boshzjjg&6228481736291499364&0&
20060590040021429975&20060590040021429975&20200605&02000016&1818903380276&1818903380276&&1&2&200000&CNY&0040&boshzjjg&6228480651703319012&0&
20060590040021430046&20060590040021430046&20200605&02000016&1813903228890&1813903228890&&1&2&200000&CNY&0040&boshzjjg&4367420140818834371&0&
20060590040021430049&20060590040021430049&20200605&02000016&1815393311758&1815393311758&&1&2&1000&CNY&0040&boshzjjg&6228483448012722177&0&
20060590040021429988&20060590040021429988&20200605&02000016&1815393311758&1815393311758&&1&2&240000&CNY&0040&boshzjjg&6228483448012722177&0&
20060590040021429911&20060590040021429911&20200605&02000016&1813988266618&1813988266618&&1&2&210000&CNY&0040&boshzjjg&6217852700023956459&0&
20060590040021429923&20060590040021429923&20200605&02000016&1815832267413&1815832267413&&1&2&200000&CNY&0040&boshzjjg&6222080409000809582&0&
20060590040021430136&20060590040021430136&20200605&02000016&1813808788999&1813808788999&&1&2&200000&CNY&0040&boshzjjg&6228483358604716075&0&
20060590040021430029&20060590040021430029&20200605&02000016&1817789888843&1817789888843&&1&2&200000&CNY&0040&boshzjjg&6222022201008354302&0&
20060590040021430146&20060590040021430146&20200605&02000016&1815752380909&1815752380909&&1&2&200000&CNY&0040&boshzjjg&6228483358606075678&0&
20060590040021430145&20060590040021430145&20200605&02000016&1815271903817&1815271903817&&1&2&1000000&CNY&0040&boshzjjg&6228270051257148475&0&
20060590040021430108&20060590040021430108&20200605&02000016&1815512595393&1815512595393&&1&2&200&CNY&0040&boshzjjg&6226195301284009&0&
20060590040021430236&20060590040021430236&20200605&02000016&1813832526017&1813832526017&&1&2&276000&CNY&0040&boshzjjg&6217000180003186602&0&
20060590040021430237&20060590040021430237&20200605&02000016&1818746536689&1818746536689&&1&2&210000&CNY&0040&boshzjjg&6217992610004803524&0&
20060590040021430110&20060590040021430110&20200605&02000016&1815512595393&1815512595393&&1&2&193600&CNY&0040&boshzjjg&6226195301284009&0&
20060590040021430153&20060590040021430153&20200605&02000016&1813931267078&1813931267078&&1&2&800000&CNY&0040&boshzjjg&6228411264507692974&0&
20060590040021430114&20060590040021430114&20200605&02000016&1815727280047&1815727280047&&1&2&200000&CNY&0040&boshzjjg&6215581809006272545&0&
20060590040021430117&20060590040021430117&20200605&02000016&1813463688778&1813463688778&&1&2&200000&CNY&0040&boshzjjg&6227000140110189583&0&
20060590040021430157&20060590040021430157&20200605&02000016&1813327034451&1813327034451&&1&2&1000&CNY&0040&boshzjjg&6228483718081962072&0&
20060590040021430119&20060590040021430119&20200605&02000016&1813931267078&1813931267078&&1&2&200000&CNY&0040&boshzjjg&6228411264507692974&0&
20060590040021430276&20060590040021430276&20200605&02000016&1818833231624&1818833231624&&1&2&200000&CNY&0040&boshzjjg&6212260409008198742&0&
20060590040021430282&20060590040021430282&20200605&02000016&1813988266809&1813988266809&&1&2&200000&CNY&0040&boshzjjg&6236683970000071912&0&
20060590040021430359&20060590040021430359&20200605&02000016&1815712597112&1815712597112&&1&2&200000&CNY&0040&boshzjjg&6222030409006237284&0&
20060590040021430288&20060590040021430288&20200605&02000016&1818132771303&1818132771303&&1&2&210000&CNY&0040&boshzjjg&6228480639286994475&0&
20060590040021430314&20060590040021430314&20200605&02000016&1815042400515&1815042400515&&1&2&200000&CNY&0040&boshzjjg&6215583400006811017&0&
20060590040021430445&20060590040021430445&20200605&02000016&1813988279079&1813988279079&&1&2&200000&CNY&0040&boshzjjg&6228483351069402315&0&
20060590040021430407&20060590040021430407&20200605&02000016&1813687247435&1813687247435&&1&2&200000&CNY&0040&boshzjjg&6230523820009349073&0&
20060590040021430420&20060590040021430420&20200605&02000016&1815032283311&1815032283311&&1&2&200000&CNY&0040&boshzjjg&6217885000000358741&0&
20060590040021430424&20060590040021430424&20200605&02000016&1813064860909&1813064860909&&1&2&181000&CNY&0040&boshzjjg&6228481985804145978&0&
20060590040021430430&20060590040021430430&20200605&02000016&1813064860909&1813064860909&&1&2&10000&CNY&0040&boshzjjg&6228481985804145978&0&
20060590040021430652&20060590040021430652&20200605&02000016&1813097309231&1813097309231&&1&2&200000&CNY&0040&boshzjjg&6217002020064199466&0&
20060590040021430489&20060590040021430489&20200605&02000016&1818725226619&1818725226619&&1&2&200000&CNY&0040&boshzjjg&6228483968609868174&0&
20060590040021430590&20060590040021430590&20200605&02000016&1813231508123&1813231508123&&1&2&195000&CNY&0040&boshzjjg&6217905000003669538&0&
20060590040021430659&20060590040021430659&20200605&02000016&1818132717939&1818132717939&&1&2&2000&CNY&0040&boshzjjg&6217000140026001923&0&
20060590040021430667&20060590040021430667&20200605&02000016&1813582206997&1813582206997&&1&2&200000&CNY&0040&boshzjjg&6217855000029829181&0&
20060590040021430692&20060590040021430692&20200605&02000016&1813633226628&1813633226628&&1&2&200000&CNY&0040&boshzjjg&6217000140001479730&0&
20060590040021430836&20060590040021430836&20200605&02000016&1815545833393&1815545833393&&1&2&210000&CNY&0040&boshzjjg&6217992610211827803&0&
20060590040021430837&20060590040021430837&20200605&02000016&1813582222311&1813582222311&&1&2&1000000&CNY&0040&boshzjjg&6222080409004719191&0&
20060590040021430729&20060590040021430729&20200605&02000016&1815215907729&1815215907729&&1&2&200000&CNY&0040&boshzjjg&6217002700008809391&0&
20060590040021430934&20060590040021430934&20200605&02000016&1813940459085&1813940459085&&1&2&3000&CNY&0040&boshzjjg&6225882405481471&0&
20060590040021430938&20060590040021430938&20200605&02000016&1815731210779&1815731210779&&1&2&200000&CNY&0040&boshzjjg&6228481268355749278&0&
20060590040021430774&20060590040021430774&20200605&02000016&1815894422287&1815894422287&&1&2&210000&CNY&0040&boshzjjg&6228483358596724079&0&
20060590040021430870&20060590040021430870&20200605&02000016&1813759208139&1813759208139&&1&2&200000&CNY&0040&boshzjjg&6217003970002400906&0&
20060590040021430780&20060590040021430780&20200605&02000016&1818507792116&1818507792116&&1&2&200000&CNY&0040&boshzjjg&6212262107002827815&0&
