20200616|02000016|91245240|1813472972651|1813472972651|20200511000080|B3UHWVR2|1|0|18600|18600|10|0|0|550|0|0|0|0|0|0|1|0|0|20200616140641
20200616|02000016|91245239|1815613265118|1815613265118|20200511000080|B3UHWVR2|1|0|18600|18600|10|0|0|550|0|0|0|0|0|0|1|0|0|20200616140623
20200616|02000016|91245235|1815368698377|1815368698377|20200511000080|B3UHWVR2|1|0|18600|18600|10|0|0|550|0|0|0|0|0|0|1|0|0|20200616140615
20200616|02000016|91245229|1818309859106|1818309859106|20200511000080|B3UHWVR2|1|0|18600|18600|10|0|0|550|0|0|0|0|0|0|1|0|0|20200616140450
20200616|02000016|91245227|1815142051751|1815142051751|20200511000080|B3UHWVR2|1|0|18600|18600|10|0|0|550|0|0|0|0|0|0|1|0|0|20200616140327
20200616|02000016|91245216|1818218183119|1818218183119|20200511000080|B3UHWVR2|1|0|18600|18600|10|0|0|550|0|0|0|0|0|0|1|0|0|20200616140122
20200616|02000016|91245215|1813152026763|1813152026763|20200511000080|B3UHWVR2|1|0|18600|18600|10|0|0|550|0|0|0|0|0|0|1|0|0|20200616140105
20200616|02000016|91245208|1813473122412|1813473122412|20200511000080|B3UHWVR2|1|0|18600|18600|10|0|0|550|0|0|0|0|0|0|1|0|0|20200616135735
20200616|02000016|91245201|1818088155607|1818088155607|20200511000080|B3UHWVR2|1|0|18600|18600|10|0|0|550|0|0|0|0|0|0|1|0|0|20200616135505
20200616|02000016|91245200|1818869202035|1818869202035|20200511000080|B3UHWVR2|1|0|18600|18600|10|0|0|550|0|0|0|0|0|0|1|0|0|20200616135450
20200616|02000016|91245194|1813578228698|1813578228698|20200511000080|B3UHWVR2|1|0|18600|18600|10|0|0|550|0|0|0|0|0|0|1|0|0|20200616135247
20200616|02000016|91245193|1818908820016|1818908820016|20200511000080|B3UHWVR2|1|0|18600|18600|10|0|0|550|0|0|0|0|0|0|1|0|0|20200616135244
20200616|02000016|91245179|1813759236567|1813759236567|20200511000080|B3UHWVR2|1|0|18600|18600|10|0|0|550|0|0|0|0|0|0|1|0|0|20200616135135
20200616|02000016|91245180|1813098067177|1813098067177|20200511000080|B3UHWVR2|1|0|18600|18600|10|0|0|550|0|0|0|0|0|0|1|0|0|20200616135135
20200616|02000016|91245178|1815108647893|1815108647893|20200511000080|B3UHWVR2|1|0|18600|18600|10|0|0|550|0|0|0|0|0|0|1|0|0|20200616135122
20200616|02000016|91245170|1815096682406|1815096682406|20200511000080|B3UHWVR2|1|0|18600|18600|10|0|0|550|0|0|0|0|0|0|1|0|0|20200616135112
20200616|02000016|91245169|1813578269567|1813578269567|20200511000080|B3UHWVR2|1|0|18600|18600|10|0|0|550|0|0|0|0|0|0|1|0|0|20200616135110
20200616|02000016|91245153|1815288130560|1815288130560|20200511000080|B3UHWVR2|1|0|18600|18600|10|0|0|550|0|0|0|0|0|0|1|0|0|20200616134913
20200616|02000016|91245142|1818846735652|1818846735652|20200511000080|B3UHWVR2|1|0|18600|18600|10|0|0|550|0|0|0|0|0|0|1|0|0|20200616134811
20200616|02000016|91245135|1813808788999|1813808788999|20200511000080|B3UHWVR2|1|0|18600|18600|10|0|0|550|0|0|0|0|0|0|1|0|0|20200616134645
20200616|02000016|91245133|1818371587990|1818371587990|20200511000080|B3UHWVR2|1|0|18600|18600|10|0|0|550|0|0|0|0|0|0|1|0|0|20200616134458
20200616|02000016|91245131|1813035964466|1813035964466|20200511000080|B3UHWVR2|1|0|18600|18600|10|0|0|550|0|0|0|0|0|0|1|0|0|20200616134438
20200616|02000016|91245126|1815930897190|1815930897190|20200511000080|B3UHWVR2|1|0|18600|18600|10|0|0|550|0|0|0|0|0|0|1|0|0|20200616134428
20200616|02000016|91245118|1818306924682|1818306924682|20200511000080|B3UHWVR2|1|0|18600|18600|10|0|0|550|0|0|0|0|0|0|1|0|0|20200616134308
20200616|02000016|91245117|1815070002292|1815070002292|20200511000080|B3UHWVR2|1|0|18600|18600|10|0|0|550|0|0|0|0|0|0|1|0|0|20200616134258
20200616|02000016|91245102|1818164754119|1818164754119|20200511000080|B3UHWVR2|1|0|18600|18600|10|0|0|550|0|0|0|0|0|0|1|0|0|20200616134155
20200616|02000016|91245091|1815038169553|1815038169553|20200511000080|B3UHWVR2|1|0|18600|18600|10|0|0|550|0|0|0|0|0|0|1|0|0|20200616134017
20200616|02000016|91245090|1815094223804|1815094223804|20200511000080|B3UHWVR2|1|0|18600|18600|10|0|0|550|0|0|0|0|0|0|1|0|0|20200616134009
20200616|02000016|91245069|1818674148199|1818674148199|20200511000080|B3UHWVR2|1|0|18600|18600|10|0|0|550|0|0|0|0|0|0|1|0|0|20200616133750
20200616|02000016|91245062|1813940061166|1813940061166|20200511000080|B3UHWVR2|1|0|18600|18600|10|0|0|550|0|0|0|0|0|0|1|0|0|20200616133551
20200616|02000016|91245058|1815630158606|1815630158606|20200511000080|B3UHWVR2|1|0|18600|18600|10|0|0|550|0|0|0|0|0|0|1|0|0|20200616133424
20200616|02000016|91245057|1815530206927|1815530206927|20200511000080|B3UHWVR2|1|0|18600|18600|10|0|0|550|0|0|0|0|0|0|1|0|0|20200616133403
20200616|02000016|91245054|1813555055525|1813555055525|20200511000080|B3UHWVR2|1|0|18600|18600|10|0|0|550|0|0|0|0|0|0|1|0|0|20200616133318
20200616|02000016|91245053|1818875037395|1818875037395|20200511000080|B3UHWVR2|1|0|18600|18600|10|0|0|550|0|0|0|0|0|0|1|0|0|20200616133306
20200616|02000016|91245031|1815184846114|1815184846114|20200511000080|B3UHWVR2|1|0|18600|18600|10|0|0|550|0|0|0|0|0|0|1|0|0|20200616133117
20200616|02000016|91245029|1818962060606|1818962060606|20200511000080|B3UHWVR2|1|0|18600|18600|10|0|0|550|0|0|0|0|0|0|1|0|0|20200616133016
20200616|02000016|91245016|1818833231624|1818833231624|20200511000080|B3UHWVR2|1|0|18600|18600|10|0|0|550|0|0|0|0|0|0|1|0|0|20200616132715
20200616|02000016|91245015|1818669254642|1818669254642|20200511000080|B3UHWVR2|1|0|18600|18600|10|0|0|550|0|0|0|0|0|0|1|0|0|20200616132712
20200616|02000016|91245014|1813331281727|1813331281727|20200511000080|B3UHWVR2|1|0|18600|18600|10|0|0|550|0|0|0|0|0|0|1|0|0|20200616132641
20200616|02000016|91245012|1813330594491|1813330594491|20200511000080|B3UHWVR2|1|0|18600|18600|10|0|0|550|0|0|0|0|0|0|1|0|0|20200616132632
20200616|02000016|91245010|1818330297314|1818330297314|20200511000080|B3UHWVR2|1|0|18600|18600|10|0|0|550|0|0|0|0|0|0|1|0|0|20200616132609
20200616|02000016|91245000|1815100273368|1815100273368|20200511000080|B3UHWVR2|1|0|18600|18600|10|0|0|550|0|0|0|0|0|0|1|0|0|20200616132533
20200616|02000016|91244999|1815303121880|1815303121880|20200511000080|B3UHWVR2|1|0|18600|18600|10|0|0|550|0|0|0|0|0|0|1|0|0|20200616132514
20200616|02000016|91244998|1815130317528|1815130317528|20200511000080|B3UHWVR2|1|0|18600|18600|10|0|0|550|0|0|0|0|0|0|1|0|0|20200616132512
20200616|02000016|91244997|1815208819237|1815208819237|20200511000080|B3UHWVR2|1|0|18600|18600|10|0|0|550|0|0|0|0|0|0|1|0|0|20200616132457
20200616|02000016|91244996|1815383327001|1815383327001|20200511000080|B3UHWVR2|1|0|18600|18600|10|0|0|550|0|0|0|0|0|0|1|0|0|20200616132453
20200616|02000016|91244986|1818103125352|1818103125352|20200511000080|B3UHWVR2|1|0|18600|18600|10|0|0|550|0|0|0|0|0|0|1|0|0|20200616132338
20200616|02000016|91244985|1815586314943|1815586314943|20200511000080|B3UHWVR2|1|0|18600|18600|10|0|0|550|0|0|0|0|0|0|1|0|0|20200616132325
20200616|02000016|91244984|1813988253077|1813988253077|20200511000080|B3UHWVR2|1|0|18600|18600|10|0|0|550|0|0|0|0|0|0|1|0|0|20200616132318
20200616|02000016|91244983|1813661262290|1813661262290|20200511000080|B3UHWVR2|1|0|18600|18600|10|0|0|550|0|0|0|0|0|0|1|0|0|20200616132215
20200616|02000016|91244977|1817611419351|1817611419351|20200511000080|B3UHWVR2|1|0|18600|18600|10|0|0|550|0|0|0|0|0|0|1|0|0|20200616132154
20200616|02000016|91244976|1813597431025|1813597431025|20200511000080|B3UHWVR2|1|0|18600|18600|10|0|0|550|0|0|0|0|0|0|1|0|0|20200616132101
20200616|02000016|91244975|1815969058018|1815969058018|20200511000080|B3UHWVR2|1|0|18600|18600|10|0|0|550|0|0|0|0|0|0|1|0|0|20200616132043
20200616|02000016|91244971|1815096988674|1815096988674|20200511000080|B3UHWVR2|1|0|18600|18600|10|0|0|550|0|0|0|0|0|0|1|0|0|20200616131911
20200616|02000016|91244956|1813607373680|1813607373680|20200511000080|B3UHWVR2|1|0|18600|18600|10|0|0|550|0|0|0|0|0|0|1|0|0|20200616131627
20200616|02000016|91244950|1813093021794|1813093021794|20200511000080|B3UHWVR2|1|0|18600|18600|10|0|0|550|0|0|0|0|0|0|1|0|0|20200616131553
20200616|02000016|91244947|1813808787391|1813808787391|20200511000080|B3UHWVR2|1|0|18600|18600|10|0|0|550|0|0|0|0|0|0|1|0|0|20200616131312
20200616|02000016|91244945|1818288143229|1818288143229|20200511000080|B3UHWVR2|1|0|18600|18600|10|0|0|550|0|0|0|0|0|0|1|0|0|20200616131107
20200616|02000016|91244936|1815512532000|1815512532000|20200511000080|B3UHWVR2|1|0|18600|18600|10|0|0|550|0|0|0|0|0|0|1|0|0|20200616130846
20200616|02000016|91244930|1813207048832|1813207048832|20200511000080|B3UHWVR2|1|0|18600|18600|10|0|0|550|0|0|0|0|0|0|1|0|0|20200616130824
20200616|02000016|91244929|1818966843973|1818966843973|20200511000080|B3UHWVR2|1|0|18600|18600|10|0|0|550|0|0|0|0|0|0|1|0|0|20200616130729
20200616|02000016|91244927|1813628842075|1813628842075|20200511000080|B3UHWVR2|1|0|18600|18600|10|0|0|550|0|0|0|0|0|0|1|0|0|20200616130706
20200616|02000016|91244926|1815130580430|1815130580430|20200511000080|B3UHWVR2|1|0|18600|18600|10|0|0|550|0|0|0|0|0|0|1|0|0|20200616130703
20200616|02000016|91244925|1813385213554|1813385213554|20200511000080|B3UHWVR2|1|0|18600|18600|10|0|0|550|0|0|0|0|0|0|1|0|0|20200616130613
20200616|02000016|91244923|1818741608136|1818741608136|20200511000080|B3UHWVR2|1|0|18600|18600|10|0|0|550|0|0|0|0|0|0|1|0|0|20200616130607
20200616|02000016|91244921|1818088176980|1818088176980|20200511000080|B3UHWVR2|1|0|18600|18600|10|0|0|550|0|0|0|0|0|0|1|0|0|20200616130550
20200616|02000016|91244914|1818387540732|1818387540732|20200511000080|B3UHWVR2|1|0|18600|18600|10|0|0|550|0|0|0|0|0|0|1|0|0|20200616130456
20200616|02000016|91244912|1815350622072|1815350622072|20200511000080|B3UHWVR2|1|0|18600|18600|10|0|0|550|0|0|0|0|0|0|1|0|0|20200616130428
20200616|02000016|91244905|1818689707602|1818689707602|20200511000080|B3UHWVR2|1|0|18600|18600|10|0|0|550|0|0|0|0|0|0|1|0|0|20200616130407
20200616|02000016|91244904|1813343521285|1813343521285|20200511000080|B3UHWVR2|1|0|18600|18600|10|0|0|550|0|0|0|0|0|0|1|0|0|20200616130329
20200616|02000016|91244903|1813731660124|1813731660124|20200511000080|B3UHWVR2|1|0|18600|18600|10|0|0|550|0|0|0|0|0|0|1|0|0|20200616130312
20200616|02000016|91244902|1818165273182|1818165273182|20200511000080|B3UHWVR2|1|0|18600|18600|10|0|0|550|0|0|0|0|0|0|1|0|0|20200616130304
20200616|02000016|91244895|1818803125896|1818803125896|20200511000080|B3UHWVR2|1|0|18600|18600|10|0|0|550|0|0|0|0|0|0|1|0|0|20200616130202
20200616|02000016|91244888|1813578273333|1813578273333|20200511000080|B3UHWVR2|1|0|18600|18600|10|0|0|550|0|0|0|0|0|0|1|0|0|20200616112901
20200616|02000016|91244882|1813578179142|1813578179142|20200511000080|B3UHWVR2|1|0|18600|18600|10|0|0|550|0|0|0|0|0|0|1|0|0|20200616112751
20200616|02000016|91244881|1818787537265|1818787537265|20200511000080|B3UHWVR2|1|0|18600|18600|10|0|0|550|0|0|0|0|0|0|1|0|0|20200616112745
20200616|02000016|91244872|1815087986225|1815087986225|20200511000080|B3UHWVR2|1|0|18600|18600|10|0|0|550|0|0|0|0|0|0|1|0|0|20200616112633
20200616|02000016|91244871|1815946109858|1815946109858|20200511000080|B3UHWVR2|1|0|18600|18600|10|0|0|550|0|0|0|0|0|0|1|0|0|20200616112631
20200616|02000016|91244853|1813349554467|1813349554467|20200511000080|B3UHWVR2|1|0|18600|18600|10|0|0|550|0|0|0|0|0|0|1|0|0|20200616112339
20200616|02000016|91244851|1813908813212|1813908813212|20200511000080|B3UHWVR2|1|0|18600|18600|10|0|0|550|0|0|0|0|0|0|1|0|0|20200616112135
20200616|02000016|91244846|1813368815583|1813368815583|20200511000080|B3UHWVR2|1|0|18600|18600|10|0|0|550|0|0|0|0|0|0|1|0|0|20200616112001
20200616|02000016|91244832|1813578198508|1813578198508|20200511000080|B3UHWVR2|1|0|18600|18600|10|0|0|550|0|0|0|0|0|0|1|0|0|20200616111545
20200616|02000016|91244831|1818103143885|1818103143885|20200511000080|B3UHWVR2|1|0|18600|18600|10|0|0|550|0|0|0|0|0|0|1|0|0|20200616111544
20200616|02000016|91244819|1815368798533|1815368798533|20200511000080|B3UHWVR2|1|0|18600|18600|10|0|0|550|0|0|0|0|0|0|1|0|0|20200616111437
20200616|02000016|91244810|1813378816227|1813378816227|20200511000080|B3UHWVR2|1|0|18600|18600|10|0|0|550|0|0|0|0|0|0|1|0|0|20200616111254
20200616|02000016|91244802|1815978647111|1815978647111|20200511000080|B3UHWVR2|1|0|18600|18600|10|0|0|550|0|0|0|0|0|0|1|0|0|20200616111204
20200616|02000016|91244800|1800100000138|1800100000138|20200511000080|B3UHWVR2|1|0|18600|18600|10|0|0|550|0|0|0|0|0|0|1|0|0|20200616111112
20200616|02000016|91244788|1813703389265|1813703389265|20200511000080|B3UHWVR2|1|0|18600|18600|10|0|0|550|0|0|0|0|0|0|1|0|0|20200616110922
20200616|02000016|91244787|1818889422056|1818889422056|20200511000080|B3UHWVR2|1|0|18600|18600|10|0|0|550|0|0|0|0|0|0|1|0|0|20200616110823
20200616|02000016|91244784|1818976770088|1818976770088|20200511000080|B3UHWVR2|1|0|18600|18600|10|0|0|550|0|0|0|0|0|0|1|0|0|20200616110714
20200616|02000016|91244778|1818987517957|1818987517957|20200511000080|B3UHWVR2|1|0|18600|18600|10|0|0|550|0|0|0|0|0|0|1|0|0|20200616110502
20200616|02000016|91244777|1815397618643|1815397618643|20200511000080|B3UHWVR2|1|0|18600|18600|10|0|0|550|0|0|0|0|0|0|1|0|0|20200616110453
20200616|02000016|91244771|1813813290931|1813813290931|20200511000080|B3UHWVR2|1|0|18600|18600|10|0|0|550|0|0|0|0|0|0|1|0|0|20200616110336
20200616|02000016|91244766|1818779955712|1818779955712|20200511000080|B3UHWVR2|1|0|18600|18600|10|0|0|550|0|0|0|0|0|0|1|0|0|20200616110302
20200616|02000016|91244758|1815670742888|1815670742888|20200511000080|B3UHWVR2|1|0|18600|18600|10|0|0|550|0|0|0|0|0|0|1|0|0|20200616110110
20200616|02000016|91244757|1815287565721|1815287565721|20200511000080|B3UHWVR2|1|0|18600|18600|10|0|0|550|0|0|0|0|0|0|1|0|0|20200616110059
20200616|02000016|91244756|1800100000236|1800100000236|20200511000080|B3UHWVR2|1|0|18600|18600|10|0|0|550|0|0|0|0|0|0|1|0|0|20200616110046
20200616|02000016|91244754|1813343028920|1813343028920|20200511000080|B3UHWVR2|1|0|18600|18600|10|0|0|550|0|0|0|0|0|0|1|0|0|20200616105934
20200616|02000016|91244748|1818908752966|1818908752966|20200511000080|B3UHWVR2|1|0|18600|18600|10|0|0|550|0|0|0|0|0|0|1|0|0|20200616105903
20200616|02000016|91244747|1819937271172|1819937271172|20200511000080|B3UHWVR2|1|0|18600|18600|10|0|0|550|0|0|0|0|0|0|1|0|0|20200616105838
20200616|02000016|91244746|1818306969995|1818306969995|20200511000080|B3UHWVR2|1|0|18600|18600|10|0|0|550|0|0|0|0|0|0|1|0|0|20200616105822
20200616|02000016|91244740|1815108633866|1815108633866|20200511000080|B3UHWVR2|1|0|18600|18600|10|0|0|550|0|0|0|0|0|0|1|0|0|20200616105731
20200616|02000016|91244738|1813887865192|1813887865192|20200511000080|B3UHWVR2|1|0|18600|18600|10|0|0|550|0|0|0|0|0|0|1|0|0|20200616105656
20200616|02000016|91244737|1815846656422|1815846656422|20200511000080|B3UHWVR2|1|0|18600|18600|10|0|0|550|0|0|0|0|0|0|1|0|0|20200616105627
20200616|02000016|91244720|1813831723408|1813831723408|20200511000080|B3UHWVR2|1|0|18600|18600|10|0|0|550|0|0|0|0|0|0|1|0|0|20200616105503
20200616|02000016|91244705|1818757332390|1818757332390|20200511000080|B3UHWVR2|1|0|18600|18600|10|0|0|550|0|0|0|0|0|0|1|0|0|20200616105139
20200616|02000016|91244696|1813555313989|1813555313989|20200511000080|B3UHWVR2|1|0|18600|18600|10|0|0|550|0|0|0|0|0|0|1|0|0|20200616105037
20200616|02000016|91244691|1815832295137|1815832295137|20200511000080|B3UHWVR2|1|0|18600|18600|10|0|0|550|0|0|0|0|0|0|1|0|0|20200616104919
20200616|02000016|91244682|1818979143369|1818979143369|20200511000080|B3UHWVR2|1|0|18600|18600|10|0|0|550|0|0|0|0|0|0|1|0|0|20200616104719
20200616|02000016|91244679|1813808781900|1813808781900|20200511000080|B3UHWVR2|1|0|18600|18600|10|0|0|550|0|0|0|0|0|0|1|0|0|20200616104613
20200616|02000016|91244678|1815987504832|1815987504832|20200511000080|B3UHWVR2|1|0|18600|18600|10|0|0|550|0|0|0|0|0|0|1|0|0|20200616104508
20200616|02000016|91244674|1800100000355|1800100000355|20200511000080|B3UHWVR2|1|0|18600|18600|10|0|0|550|0|0|0|0|0|0|1|0|0|20200616104439
20200616|02000016|91244663|1813887868883|1813887868883|20200511000080|B3UHWVR2|1|0|18600|18600|10|0|0|550|0|0|0|0|0|0|1|0|0|20200616104427
20200616|02000016|91244657|1813831588800|1813831588800|20200511000080|B3UHWVR2|1|0|18600|18600|10|0|0|550|0|0|0|0|0|0|1|0|0|20200616104407
20200616|02000016|91244654|1815940818417|1815940818417|20200511000080|B3UHWVR2|1|0|18600|18600|10|0|0|550|0|0|0|0|0|0|1|0|0|20200616104346
20200616|02000016|91244650|1815108646659|1815108646659|20200511000080|B3UHWVR2|1|0|18600|18600|10|0|0|550|0|0|0|0|0|0|1|0|0|20200616104320
20200616|02000016|91244649|1813466135914|1813466135914|20200511000080|B3UHWVR2|1|0|18600|18600|10|0|0|550|0|0|0|0|0|0|1|0|0|20200616104319
20200616|02000016|91244647|1813988238986|1813988238986|20200511000080|B3UHWVR2|1|0|18600|18600|10|0|0|550|0|0|0|0|0|0|1|0|0|20200616104316
20200616|02000016|91244628|1813930833053|1813930833053|20200511000080|B3UHWVR2|1|0|18600|18600|10|0|0|550|0|0|0|0|0|0|1|0|0|20200616104239
20200616|02000016|91244623|1813674575508|1813674575508|20200511000080|B3UHWVR2|1|0|18600|18600|10|0|0|550|0|0|0|0|0|0|1|0|0|20200616104229
20200616|02000016|91244618|1815030230206|1815030230206|20200511000080|B3UHWVR2|1|0|18600|18600|10|0|0|550|0|0|0|0|0|0|1|0|0|20200616104153
20200616|02000016|91244609|1813987510903|1813987510903|20200511000080|B3UHWVR2|1|0|18600|18600|10|0|0|550|0|0|0|0|0|0|1|0|0|20200616104128
20200616|02000016|91244588|1813816484689|1813816484689|20200511000080|B3UHWVR2|1|0|18600|18600|10|0|0|550|0|0|0|0|0|0|1|0|0|20200616103933
20200616|02000016|91244587|1815727394536|1815727394536|20200511000080|B3UHWVR2|1|0|18600|18600|10|0|0|550|0|0|0|0|0|0|1|0|0|20200616103926
20200616|02000016|91244586|1815840063631|1815840063631|20200511000080|B3UHWVR2|1|0|18600|18600|10|0|0|550|0|0|0|0|0|0|1|0|0|20200616103919
20200616|02000016|91244585|1813315273740|1813315273740|20200511000080|B3UHWVR2|1|0|18600|18600|10|0|0|550|0|0|0|0|0|0|1|0|0|20200616103907
20200616|02000016|91244584|1813320119811|1813320119811|20200511000080|B3UHWVR2|1|0|18600|18600|10|0|0|550|0|0|0|0|0|0|1|0|0|20200616103905
20200616|02000016|91244572|1818288560316|1818288560316|20200511000080|B3UHWVR2|1|0|18600|18600|10|0|0|550|0|0|0|0|0|0|1|0|0|20200616103821
20200616|02000016|91244571|1813730190518|1813730190518|20200511000080|B3UHWVR2|1|0|18600|18600|10|0|0|550|0|0|0|0|0|0|1|0|0|20200616103808
20200616|02000016|91244565|1813845158388|1813845158388|20200511000080|B3UHWVR2|1|0|18600|18600|10|0|0|550|0|0|0|0|0|0|1|0|0|20200616103752
20200616|02000016|91244556|1815907005758|1815907005758|20200511000080|B3UHWVR2|1|0|18600|18600|10|0|0|550|0|0|0|0|0|0|1|0|0|20200616103734
20200616|02000016|91244545|1813987581588|1813987581588|20200511000080|B3UHWVR2|1|0|18600|18600|10|0|0|550|0|0|0|0|0|0|1|0|0|20200616103721
20200616|02000016|91244544|1815170031559|1815170031559|20200511000080|B3UHWVR2|1|0|18600|18600|10|0|0|550|0|0|0|0|0|0|1|0|0|20200616103658
20200616|02000016|91244543|1813703283113|1813703283113|20200511000080|B3UHWVR2|1|0|18600|18600|10|0|0|550|0|0|0|0|0|0|1|0|0|20200616103653
20200616|02000016|91244530|1815140671196|1815140671196|20200511000080|B3UHWVR2|1|0|18600|18600|10|0|0|550|0|0|0|0|0|0|1|0|0|20200616103613
20200616|02000016|91244524|1800100000125|1800100000125|20200511000080|B3UHWVR2|1|0|18600|18600|10|0|0|550|0|0|0|0|0|0|1|0|0|20200616103539
20200616|02000016|91244505|1818157102425|1818157102425|20200511000080|B3UHWVR2|1|0|18600|18600|10|0|0|550|0|0|0|0|0|0|1|0|0|20200616103517
20200616|02000016|91244501|1813591148644|1813591148644|20200511000080|B3UHWVR2|1|0|18600|18600|10|0|0|550|0|0|0|0|0|0|1|0|0|20200616103434
20200616|02000016|91244486|1813628759556|1813628759556|20200511000080|B3UHWVR2|1|0|18600|18600|10|0|0|550|0|0|0|0|0|0|1|0|0|20200616103402
20200616|02000016|91244484|1813066713691|1813066713691|20200511000080|B3UHWVR2|1|0|18600|18600|10|0|0|550|0|0|0|0|0|0|1|0|0|20200616103401
20200616|02000016|91244478|1813584278719|1813584278719|20200511000080|B3UHWVR2|1|0|18600|18600|10|0|0|550|0|0|0|0|0|0|1|0|0|20200616103349
20200616|02000016|91244460|1818674147179|1818674147179|20200511000080|B3UHWVR2|1|0|18600|18600|10|0|0|550|0|0|0|0|0|0|1|0|0|20200616103326
20200616|02000016|91244456|1815947464963|1815947464963|20200511000080|B3UHWVR2|1|0|18600|18600|10|0|0|550|0|0|0|0|0|0|1|0|0|20200616103300
20200616|02000016|91244446|1813988239363|1813988239363|20200511000080|B3UHWVR2|1|0|18600|18600|10|0|0|550|0|0|0|0|0|0|1|0|0|20200616103245
20200616|02000016|91244439|1815636574848|1815636574848|20200511000080|B3UHWVR2|1|0|18600|18600|10|0|0|550|0|0|0|0|0|0|1|0|0|20200616103135
20200616|02000016|91244438|1813870832718|1813870832718|20200511000080|B3UHWVR2|1|0|18600|18600|10|0|0|550|0|0|0|0|0|0|1|0|0|20200616103113
20200616|02000016|91244433|1815925591567|1815925591567|20200511000080|B3UHWVR2|1|0|18600|18600|10|0|0|550|0|0|0|0|0|0|1|0|0|20200616102904
20200616|02000016|91244427|1815929113628|1815929113628|20200511000080|B3UHWVR2|1|0|18600|18600|10|0|0|550|0|0|0|0|0|0|1|0|0|20200616102829
20200616|02000016|91244424|1818507776297|1818507776297|20200511000080|B3UHWVR2|1|0|18600|18600|10|0|0|550|0|0|0|0|0|0|1|0|0|20200616102810
20200616|02000016|91244417|1800100000107|1800100000107|20200511000080|B3UHWVR2|1|0|18600|18600|10|0|0|550|0|0|0|0|0|0|1|0|0|20200616102754
20200616|02000016|91244416|1815697705772|1815697705772|20200511000080|B3UHWVR2|1|0|18600|18600|10|0|0|550|0|0|0|0|0|0|1|0|0|20200616102740
20200616|02000016|91244413|1815227788236|1815227788236|20200511000080|B3UHWVR2|1|0|18600|18600|10|0|0|550|0|0|0|0|0|0|1|0|0|20200616102728
20200616|02000016|91244399|1813992529265|1813992529265|20200511000080|B3UHWVR2|1|0|18600|18600|10|0|0|550|0|0|0|0|0|0|1|0|0|20200616102649
20200616|02000016|91244394|1815592260808|1815592260808|20200511000080|B3UHWVR2|1|0|18600|18600|10|0|0|550|0|0|0|0|0|0|1|0|0|20200616102639
20200616|02000016|91244387|1815271903817|1815271903817|20200511000080|B3UHWVR2|1|0|18600|18600|10|0|0|550|0|0|0|0|0|0|1|0|0|20200616102614
20200616|02000016|91244378|1818371580857|1818371580857|20200511000080|B3UHWVR2|1|0|18600|18600|10|0|0|550|0|0|0|0|0|0|1|0|0|20200616102602
20200616|02000016|91244376|1813393327863|1813393327863|20200511000080|B3UHWVR2|1|0|18600|18600|10|0|0|550|0|0|0|0|0|0|1|0|0|20200616102556
20200616|02000016|91244375|1818962075812|1818962075812|20200511000080|B3UHWVR2|1|0|18600|18600|10|0|0|550|0|0|0|0|0|0|1|0|0|20200616102552
20200616|02000016|91244374|1818132222901|1818132222901|20200511000080|B3UHWVR2|1|0|18600|18600|10|0|0|550|0|0|0|0|0|0|1|0|0|20200616102547
20200616|02000016|91244373|1813731284037|1813731284037|20200511000080|B3UHWVR2|1|0|18600|18600|10|0|0|550|0|0|0|0|0|0|1|0|0|20200616102546
20200616|02000016|91244362|1818788207781|1818788207781|20200511000080|B3UHWVR2|1|0|18600|18600|10|0|0|550|0|0|0|0|0|0|1|0|0|20200616102517
20200616|02000016|91244354|1818931232281|1818931232281|20200511000080|B3UHWVR2|1|0|18600|18600|10|0|0|550|0|0|0|0|0|0|1|0|0|20200616102452
20200616|02000016|91244353|1814708750317|1814708750317|20200511000080|B3UHWVR2|1|0|18600|18600|10|0|0|550|0|0|0|0|0|0|1|0|0|20200616102451
20200616|02000016|91244345|1815840520719|1815840520719|20200511000080|B3UHWVR2|1|0|18600|18600|10|0|0|550|0|0|0|0|0|0|1|0|0|20200616102424
20200616|02000016|91244344|1813477461038|1813477461038|20200511000080|B3UHWVR2|1|0|18600|18600|10|0|0|550|0|0|0|0|0|0|1|0|0|20200616102423
20200616|02000016|91244328|1818696301799|1818696301799|20200511000080|B3UHWVR2|1|0|18600|18600|10|0|0|550|0|0|0|0|0|0|1|0|0|20200616102343
20200616|02000016|91244320|1813669212329|1813669212329|20200511000080|B3UHWVR2|1|0|18600|18600|10|0|0|550|0|0|0|0|0|0|1|0|0|20200616102314
20200616|02000016|91244314|1800100000211|1800100000211|20200511000080|B3UHWVR2|1|0|18600|18600|10|0|0|550|0|0|0|0|0|0|1|0|0|20200616102240
20200616|02000016|91244290|1813846055840|1813846055840|20200511000080|B3UHWVR2|1|0|18600|18600|10|0|0|550|0|0|0|0|0|0|1|0|0|20200616102121
20200616|02000016|91244288|1818674146599|1818674146599|20200511000080|B3UHWVR2|1|0|18600|18600|10|0|0|550|0|0|0|0|0|0|1|0|0|20200616102105
20200616|02000016|91244283|1813312795959|1813312795959|20200511000080|B3UHWVR2|1|0|18600|18600|10|0|0|550|0|0|0|0|0|0|1|0|0|20200616102033
20200616|02000016|91244281|1800100000345|1800100000345|20200511000080|B3UHWVR2|1|0|18600|18600|10|0|0|550|0|0|0|0|0|0|1|0|0|20200616102031
20200616|02000016|91244257|1813932211661|1813932211661|20200511000080|B3UHWVR2|1|0|18600|18600|10|0|0|550|0|0|0|0|0|0|1|0|0|20200616101912
20200616|02000016|91244254|1800100000340|1800100000340|20200511000080|B3UHWVR2|1|0|18600|18600|10|0|0|550|0|0|0|0|0|0|1|0|0|20200616101835
20200616|02000016|91244253|1818220730920|1818220730920|20200511000080|B3UHWVR2|1|0|18600|18600|10|0|0|550|0|0|0|0|0|0|1|0|0|20200616101833
20200616|02000016|91244251|1800100000140|1800100000140|20200511000080|B3UHWVR2|1|0|18600|18600|10|0|0|550|0|0|0|0|0|0|1|0|0|20200616101815
20200616|02000016|91244252|1813578222161|1813578222161|20200511000080|B3UHWVR2|1|0|18600|18600|10|0|0|550|0|0|0|0|0|0|1|0|0|20200616101815
20200616|02000016|91244239|1815108605312|1815108605312|20200511000080|B3UHWVR2|1|0|18600|18600|10|0|0|550|0|0|0|0|0|0|1|0|0|20200616101732
20200616|02000016|91244232|1813315236132|1813315236132|20200511000080|B3UHWVR2|1|0|18600|18600|10|0|0|550|0|0|0|0|0|0|1|0|0|20200616101703
20200616|02000016|91244228|1800100000189|1800100000189|20200511000080|B3UHWVR2|1|0|18600|18600|10|0|0|550|0|0|0|0|0|0|1|0|0|20200616101649
20200616|02000016|91244226|1815871938967|1815871938967|20200511000080|B3UHWVR2|1|0|18600|18600|10|0|0|550|0|0|0|0|0|0|1|0|0|20200616101629
20200616|02000016|91244224|1813650053647|1813650053647|20200511000080|B3UHWVR2|1|0|18600|18600|10|0|0|550|0|0|0|0|0|0|1|0|0|20200616101624
20200616|02000016|91244225|1800100000260|1800100000260|20200511000080|B3UHWVR2|1|0|18600|18600|10|0|0|550|0|0|0|0|0|0|1|0|0|20200616101624
20200616|02000016|91244214|1800100000050|1800100000050|20200511000080|B3UHWVR2|1|0|18600|18600|10|0|0|550|0|0|0|0|0|0|1|0|0|20200616101536
20200616|02000016|91244213|1813636870153|1813636870153|20200511000080|B3UHWVR2|1|0|18600|18600|10|0|0|550|0|0|0|0|0|0|1|0|0|20200616101519
20200616|02000016|91244212|1815770280016|1815770280016|20200511000080|B3UHWVR2|1|0|18600|18600|10|0|0|550|0|0|0|0|0|0|1|0|0|20200616101518
20200616|02000016|91244211|1800100000257|1800100000257|20200511000080|B3UHWVR2|1|0|18600|18600|10|0|0|550|0|0|0|0|0|0|1|0|0|20200616101514
20200616|02000016|91244210|1813097309231|1813097309231|20200511000080|B3UHWVR2|1|0|18600|18600|10|0|0|550|0|0|0|0|0|0|1|0|0|20200616101456
20200616|02000016|91244197|1813324536769|1813324536769|20200511000080|B3UHWVR2|1|0|18600|18600|10|0|0|550|0|0|0|0|0|0|1|0|0|20200616101410
20200616|02000016|91244196|1813313124191|1813313124191|20200511000080|B3UHWVR2|1|0|18600|18600|10|0|0|550|0|0|0|0|0|0|1|0|0|20200616101409
20200616|02000016|91244182|1813235522109|1813235522109|20200511000080|B3UHWVR2|1|0|18600|18600|10|0|0|550|0|0|0|0|0|0|1|0|0|20200616101310
20200616|02000016|91244179|1815133232674|1815133232674|20200511000080|B3UHWVR2|1|0|18600|18600|10|0|0|550|0|0|0|0|0|0|1|0|0|20200616101259
20200616|02000016|91244178|1815512595393|1815512595393|20200511000080|B3UHWVR2|1|0|18600|18600|10|0|0|550|0|0|0|0|0|0|1|0|0|20200616101258
20200616|02000016|91244172|1800100000234|1800100000234|20200511000080|B3UHWVR2|1|0|18600|18600|10|0|0|550|0|0|0|0|0|0|1|0|0|20200616101241
20200616|02000016|91244170|1800100000088|1800100000088|20200511000080|B3UHWVR2|1|0|18600|18600|10|0|0|550|0|0|0|0|0|0|1|0|0|20200616101236
20200616|02000016|91244169|1813832228797|1813832228797|20200511000080|B3UHWVR2|1|0|18600|18600|10|0|0|550|0|0|0|0|0|0|1|0|0|20200616101235
20200616|02000016|91244148|1815393311758|1815393311758|20200511000080|B3UHWVR2|1|0|18600|18600|10|0|0|550|0|0|0|0|0|0|1|0|0|20200616101205
20200616|02000016|91244147|1813070527319|1813070527319|20200511000080|B3UHWVR2|1|0|18600|18600|10|0|0|550|0|0|0|0|0|0|1|0|0|20200616101146
20200616|02000016|91244146|1818103221322|1818103221322|20200511000080|B3UHWVR2|1|0|18600|18600|10|0|0|550|0|0|0|0|0|0|1|0|0|20200616101134
20200616|02000016|91244142|1813335339191|1813335339191|20200511000080|B3UHWVR2|1|0|18600|18600|10|0|0|550|0|0|0|0|0|0|1|0|0|20200616101118
20200616|02000016|91244138|1817304211987|1817304211987|20200511000080|B3UHWVR2|1|0|18600|18600|10|0|0|550|0|0|0|0|0|0|1|0|0|20200616101108
20200616|02000016|91244133|1813832526017|1813832526017|20200511000080|B3UHWVR2|1|0|18600|18600|10|0|0|550|0|0|0|0|0|0|1|0|0|20200616101057
20200616|02000016|91244132|1813190099140|1813190099140|20200511000080|B3UHWVR2|1|0|18600|18600|10|0|0|550|0|0|0|0|0|0|1|0|0|20200616101054
20200616|02000016|91244128|1813545932491|1813545932491|20200511000080|B3UHWVR2|1|0|18600|18600|10|0|0|550|0|0|0|0|0|0|1|0|0|20200616101044
20200616|02000016|91244116|1818468150535|1818468150535|20200511000080|B3UHWVR2|1|0|18600|18600|10|0|0|550|0|0|0|0|0|0|1|0|0|20200616101019
20200616|02000016|91244114|1817784230052|1817784230052|20200511000080|B3UHWVR2|1|0|18600|18600|10|0|0|550|0|0|0|0|0|0|1|0|0|20200616101008
20200616|02000016|91244104|1818802455863|1818802455863|20200511000080|B3UHWVR2|1|0|18600|18600|10|0|0|550|0|0|0|0|0|0|1|0|0|20200616100942
20200616|02000016|91244093|1815288116989|1815288116989|20200511000080|B3UHWVR2|1|0|18600|18600|10|0|0|550|0|0|0|0|0|0|1|0|0|20200616100932
20200616|02000016|91244090|1813739822199|1813739822199|20200511000080|B3UHWVR2|1|0|18600|18600|10|0|0|550|0|0|0|0|0|0|1|0|0|20200616100930
20200616|02000016|91244072|1800100000197|1800100000197|20200511000080|B3UHWVR2|1|0|18600|18600|10|0|0|550|0|0|0|0|0|0|1|0|0|20200616100907
20200616|02000016|91244071|1813604555811|1813604555811|20200511000080|B3UHWVR2|1|0|18600|18600|10|0|0|550|0|0|0|0|0|0|1|0|0|20200616100906
20200616|02000016|91244067|1817789888843|1817789888843|20200511000080|B3UHWVR2|1|0|18600|18600|10|0|0|550|0|0|0|0|0|0|1|0|0|20200616100902
20200616|02000016|91244041|1813194551998|1813194551998|20200511000080|B3UHWVR2|1|0|18600|18600|10|0|0|550|0|0|0|0|0|0|1|0|0|20200616100842
20200616|02000016|91244037|1813998824209|1813998824209|20200511000080|B3UHWVR2|1|0|18600|18600|10|0|0|550|0|0|0|0|0|0|1|0|0|20200616100836
20200616|02000016|91244035|1815208999328|1815208999328|20200511000080|B3UHWVR2|1|0|18600|18600|10|0|0|550|0|0|0|0|0|0|1|0|0|20200616100824
20200616|02000016|91244024|1818787552261|1818787552261|20200511000080|B3UHWVR2|1|0|18600|18600|10|0|0|550|0|0|0|0|0|0|1|0|0|20200616100814
20200616|02000016|91244020|1815837935909|1815837935909|20200511000080|B3UHWVR2|1|0|18600|18600|10|0|0|550|0|0|0|0|0|0|1|0|0|20200616100807
20200616|02000016|91244005|1818987538596|1818987538596|20200511000080|B3UHWVR2|1|0|18600|18600|10|0|0|550|0|0|0|0|0|0|1|0|0|20200616100741
20200616|02000016|91244002|1813082360764|1813082360764|20200511000080|B3UHWVR2|1|0|18600|18600|10|0|0|550|0|0|0|0|0|0|1|0|0|20200616100737
20200616|02000016|91243989|1813988266069|1813988266069|20200511000080|B3UHWVR2|1|0|18600|18600|10|0|0|550|0|0|0|0|0|0|1|0|0|20200616100719
20200616|02000016|91243985|1815830939311|1815830939311|20200511000080|B3UHWVR2|1|0|18600|18600|10|0|0|550|0|0|0|0|0|0|1|0|0|20200616100702
20200616|02000016|91243984|1813687506090|1813687506090|20200511000080|B3UHWVR2|1|0|18600|18600|10|0|0|550|0|0|0|0|0|0|1|0|0|20200616100701
20200616|02000016|91243983|1818731521085|1818731521085|20200511000080|B3UHWVR2|1|0|18600|18600|10|0|0|550|0|0|0|0|0|0|1|0|0|20200616100657
20200616|02000016|91243981|1818161735141|1818161735141|20200511000080|B3UHWVR2|1|0|18600|18600|10|0|0|550|0|0|0|0|0|0|1|0|0|20200616100656
20200616|02000016|91243982|1813735038903|1813735038903|20200511000080|B3UHWVR2|1|0|18600|18600|10|0|0|550|0|0|0|0|0|0|1|0|0|20200616100656
20200616|02000016|91243978|1815561743759|1815561743759|20200511000080|B3UHWVR2|1|0|18600|18600|10|0|0|550|0|0|0|0|0|0|1|0|0|20200616100648
20200616|02000016|91243975|1815087553123|1815087553123|20200511000080|B3UHWVR2|1|0|18600|18600|10|0|0|550|0|0|0|0|0|0|1|0|0|20200616100643
20200616|02000016|91243970|1815094234737|1815094234737|20200511000080|B3UHWVR2|1|0|18600|18600|10|0|0|550|0|0|0|0|0|0|1|0|0|20200616100641
20200616|02000016|91243948|1817612456397|1817612456397|20200511000080|B3UHWVR2|1|0|18600|18600|10|0|0|550|0|0|0|0|0|0|1|0|0|20200616100625
20200616|02000016|91243947|1800100000046|1800100000046|20200511000080|B3UHWVR2|1|0|18600|18600|10|0|0|550|0|0|0|0|0|0|1|0|0|20200616100624
20200616|02000016|91243928|1813636725549|1813636725549|20200511000080|B3UHWVR2|1|0|18600|18600|10|0|0|550|0|0|0|0|0|0|1|0|0|20200616100549
20200616|02000016|91243926|1815368948672|1815368948672|20200511000080|B3UHWVR2|1|0|18600|18600|10|0|0|550|0|0|0|0|0|0|1|0|0|20200616100548
20200616|02000016|91243922|1800100000040|1800100000040|20200511000080|B3UHWVR2|1|0|18600|18600|10|0|0|550|0|0|0|0|0|0|1|0|0|20200616100537
20200616|02000016|91243919|1813577503685|1813577503685|20200511000080|B3UHWVR2|1|0|18600|18600|10|0|0|550|0|0|0|0|0|0|1|0|0|20200616100531
20200616|02000016|91243910|1813932238474|1813932238474|20200511000080|B3UHWVR2|1|0|18600|18600|10|0|0|550|0|0|0|0|0|0|1|0|0|20200616100527
20200616|02000016|91243906|1815818598480|1815818598480|20200511000080|B3UHWVR2|1|0|18600|18600|10|0|0|550|0|0|0|0|0|0|1|0|0|20200616100525
20200616|02000016|91243901|1813931280204|1813931280204|20200511000080|B3UHWVR2|1|0|18600|18600|10|0|0|550|0|0|0|0|0|0|1|0|0|20200616100514
20200616|02000016|91243899|1813903228890|1813903228890|20200511000080|B3UHWVR2|1|0|18600|18600|10|0|0|550|0|0|0|0|0|0|1|0|0|20200616100509
20200616|02000016|91243880|1815033779933|1815033779933|20200511000080|B3UHWVR2|1|0|18600|18600|10|0|0|550|0|0|0|0|0|0|1|0|0|20200616100451
20200616|02000016|91243866|1813578288004|1813578288004|20200511000080|B3UHWVR2|1|0|18600|18600|10|0|0|550|0|0|0|0|0|0|1|0|0|20200616100428
20200616|02000016|91243864|1813978866093|1813978866093|20200511000080|B3UHWVR2|1|0|18600|18600|10|0|0|550|0|0|0|0|0|0|1|0|0|20200616100423
20200616|02000016|91243865|1815566052711|1815566052711|20200511000080|B3UHWVR2|1|0|18600|18600|10|0|0|550|0|0|0|0|0|0|1|0|0|20200616100423
20200616|02000016|91243863|1813513061187|1813513061187|20200511000080|B3UHWVR2|1|0|18600|18600|10|0|0|550|0|0|0|0|0|0|1|0|0|20200616100416
20200616|02000016|91243860|1813766708898|1813766708898|20200511000080|B3UHWVR2|1|0|18600|18600|10|0|0|550|0|0|0|0|0|0|1|0|0|20200616100409
20200616|02000016|91243834|1813769055559|1813769055559|20200511000080|B3UHWVR2|1|0|18600|18600|10|0|0|550|0|0|0|0|0|0|1|0|0|20200616100321
20200616|02000016|91243833|1818630239398|1818630239398|20200511000080|B3UHWVR2|1|0|18600|18600|10|0|0|550|0|0|0|0|0|0|1|0|0|20200616100320
20200616|02000016|91243831|1818046671766|1818046671766|20200511000080|B3UHWVR2|1|0|18600|18600|10|0|0|550|0|0|0|0|0|0|1|0|0|20200616100318
20200616|02000016|91243819|1813478653378|1813478653378|20200511000080|B3UHWVR2|1|0|18600|18600|10|0|0|550|0|0|0|0|0|0|1|0|0|20200616100305
20200616|02000016|91243818|1818988233957|1818988233957|20200511000080|B3UHWVR2|1|0|18600|18600|10|0|0|550|0|0|0|0|0|0|1|0|0|20200616100303
20200616|02000016|91243816|1815097408526|1815097408526|20200511000080|B3UHWVR2|1|0|18600|18600|10|0|0|550|0|0|0|0|0|0|1|0|0|20200616100247
20200616|02000016|91243815|1815699680001|1815699680001|20200511000080|B3UHWVR2|1|0|18600|18600|10|0|0|550|0|0|0|0|0|0|1|0|0|20200616100245
20200616|02000016|91243809|1813466177715|1813466177715|20200511000080|B3UHWVR2|1|0|18600|18600|10|0|0|550|0|0|0|0|0|0|1|0|0|20200616100231
20200616|02000016|91243790|1818091149039|1818091149039|20200511000080|B3UHWVR2|1|0|18600|18600|10|0|0|550|0|0|0|0|0|0|1|0|0|20200616100138
20200616|02000016|91243789|1815972280790|1815972280790|20200511000080|B3UHWVR2|1|0|18600|18600|10|0|0|550|0|0|0|0|0|0|1|0|0|20200616100135
20200616|02000016|91243778|1813609828405|1813609828405|20200511000080|B3UHWVR2|1|0|18600|18600|10|0|0|550|0|0|0|0|0|0|1|0|0|20200616100028
20200616|02000016|91243777|1818049119039|1818049119039|20200511000080|B3UHWVR2|1|0|18600|18600|10|0|0|550|0|0|0|0|0|0|1|0|0|20200616100008
20200616|02000016|91243776|1813582222311|1813582222311|20200511000080|B3UHWVR2|1|0|18600|18600|10|0|0|550|0|0|0|0|0|0|1|0|0|20200616095957
20200616|02000016|91243775|1813988247562|1813988247562|20200511000080|B3UHWVR2|1|0|18600|18600|10|0|0|550|0|0|0|0|0|0|1|0|0|20200616095955
20200616|02000016|91243771|1813604685553|1813604685553|20200511000080|B3UHWVR2|1|0|18600|18600|10|0|0|550|0|0|0|0|0|0|1|0|0|20200616095941
20200616|02000016|91243759|1815671191786|1815671191786|20200511000080|B3UHWVR2|1|0|18600|18600|10|0|0|550|0|0|0|0|0|0|1|0|0|20200616095917
20200616|02000016|91243748|1815222123742|1815222123742|20200511000080|B3UHWVR2|1|0|18600|18600|10|0|0|550|0|0|0|0|0|0|1|0|0|20200616095909
20200616|02000016|91243745|1815837935868|1815837935868|20200511000080|B3UHWVR2|1|0|18600|18600|10|0|0|550|0|0|0|0|0|0|1|0|0|20200616095904
20200616|02000016|91243733|1813731798775|1813731798775|20200511000080|B3UHWVR2|1|0|18600|18600|10|0|0|550|0|0|0|0|0|0|1|0|0|20200616095840
20200616|02000016|91243724|1815716865625|1815716865625|20200511000080|B3UHWVR2|1|0|18600|18600|10|0|0|550|0|0|0|0|0|0|1|0|0|20200616095825
20200616|02000016|91243721|1813638362781|1813638362781|20200511000080|B3UHWVR2|1|0|18600|18600|10|0|0|550|0|0|0|0|0|0|1|0|0|20200616095824
20200616|02000016|91243718|1813308791467|1813308791467|20200511000080|B3UHWVR2|1|0|18600|18600|10|0|0|550|0|0|0|0|0|0|1|0|0|20200616095822
20200616|02000016|91243715|1815620030555|1815620030555|20200511000080|B3UHWVR2|1|0|18600|18600|10|0|0|550|0|0|0|0|0|0|1|0|0|20200616095809
20200616|02000016|91243713|1813831220938|1813831220938|20200511000080|B3UHWVR2|1|0|18600|18600|10|0|0|550|0|0|0|0|0|0|1|0|0|20200616095759
20200616|02000016|91243699|1813933207826|1813933207826|20200511000080|B3UHWVR2|1|0|18600|18600|10|0|0|550|0|0|0|0|0|0|1|0|0|20200616095742
20200616|02000016|91243693|1813970039068|1813970039068|20200511000080|B3UHWVR2|1|0|18600|18600|10|0|0|550|0|0|0|0|0|0|1|0|0|20200616095738
20200616|02000016|91243678|1815161960908|1815161960908|20200511000080|B3UHWVR2|1|0|18600|18600|10|0|0|550|0|0|0|0|0|0|1|0|0|20200616095727
20200616|02000016|91243672|1813190040355|1813190040355|20200511000080|B3UHWVR2|1|0|18600|18600|10|0|0|550|0|0|0|0|0|0|1|0|0|20200616095714
20200616|02000016|91243669|1813400267349|1813400267349|20200511000080|B3UHWVR2|1|0|18600|18600|10|0|0|550|0|0|0|0|0|0|1|0|0|20200616095704
20200616|02000016|91243668|1818164319032|1818164319032|20200511000080|B3UHWVR2|1|0|18600|18600|10|0|0|550|0|0|0|0|0|0|1|0|0|20200616095651
20200616|02000016|91243667|1813516512882|1813516512882|20200511000080|B3UHWVR2|1|0|18600|18600|10|0|0|550|0|0|0|0|0|0|1|0|0|20200616095649
20200616|02000016|91243666|1813932271788|1813932271788|20200511000080|B3UHWVR2|1|0|18600|18600|10|0|0|550|0|0|0|0|0|0|1|0|0|20200616095645
20200616|02000016|91243661|1815731210779|1815731210779|20200511000080|B3UHWVR2|1|0|18600|18600|10|0|0|550|0|0|0|0|0|0|1|0|0|20200616095625
20200616|02000016|91243658|1813832256871|1813832256871|20200511000080|B3UHWVR2|1|0|18600|18600|10|0|0|550|0|0|0|0|0|0|1|0|0|20200616095619
20200616|02000016|91243656|1813082352837|1813082352837|20200511000080|B3UHWVR2|1|0|18600|18600|10|0|0|550|0|0|0|0|0|0|1|0|0|20200616095609
20200616|02000016|91243639|1818725226619|1818725226619|20200511000080|B3UHWVR2|1|0|18600|18600|10|0|0|550|0|0|0|0|0|0|1|0|0|20200616095545
20200616|02000016|91243637|1818908826659|1818908826659|20200511000080|B3UHWVR2|1|0|18600|18600|10|0|0|550|0|0|0|0|0|0|1|0|0|20200616095544
20200616|02000016|91243635|1815771836378|1815771836378|20200511000080|B3UHWVR2|1|0|18600|18600|10|0|0|550|0|0|0|0|0|0|1|0|0|20200616095542
20200616|02000016|91243625|1815633917679|1815633917679|20200511000080|B3UHWVR2|1|0|18600|18600|10|0|0|550|0|0|0|0|0|0|1|0|0|20200616095512
20200616|02000016|91243624|1813958157143|1813958157143|20200511000080|B3UHWVR2|1|0|18600|18600|10|0|0|550|0|0|0|0|0|0|1|0|0|20200616095508
20200616|02000016|91243621|1818921860818|1818921860818|20200511000080|B3UHWVR2|1|0|18600|18600|10|0|0|550|0|0|0|0|0|0|1|0|0|20200616095505
20200616|02000016|91243620|1815633362628|1815633362628|20200511000080|B3UHWVR2|1|0|18600|18600|10|0|0|550|0|0|0|0|0|0|1|0|0|20200616095503
20200616|02000016|91243615|1813429398439|1813429398439|20200511000080|B3UHWVR2|1|0|18600|18600|10|0|0|550|0|0|0|0|0|0|1|0|0|20200616095456
20200616|02000016|91243604|1815003129116|1815003129116|20200511000080|B3UHWVR2|1|0|18600|18600|10|0|0|550|0|0|0|0|0|0|1|0|0|20200616095435
20200616|02000016|91243601|1813021088510|1813021088510|20200511000080|B3UHWVR2|1|0|18600|18600|10|0|0|550|0|0|0|0|0|0|1|0|0|20200616095421
20200616|02000016|91243599|1813031511388|1813031511388|20200511000080|B3UHWVR2|1|0|18600|18600|10|0|0|550|0|0|0|0|0|0|1|0|0|20200616095417
20200616|02000016|91243596|1813587758991|1813587758991|20200511000080|B3UHWVR2|1|0|18600|18600|10|0|0|550|0|0|0|0|0|0|1|0|0|20200616095409
20200616|02000016|91243593|1813709999208|1813709999208|20200511000080|B3UHWVR2|1|0|18600|18600|10|0|0|550|0|0|0|0|0|0|1|0|0|20200616095404
20200616|02000016|91243591|1818233358282|1818233358282|20200511000080|B3UHWVR2|1|0|18600|18600|10|0|0|550|0|0|0|0|0|0|1|0|0|20200616095355
20200616|02000016|91243587|1818669281955|1818669281955|20200511000080|B3UHWVR2|1|0|18600|18600|10|0|0|550|0|0|0|0|0|0|1|0|0|20200616095350
20200616|02000016|91243585|1818179609669|1818179609669|20200511000080|B3UHWVR2|1|0|18600|18600|10|0|0|550|0|0|0|0|0|0|1|0|0|20200616095347
20200616|02000016|91243583|1813370555380|1813370555380|20200511000080|B3UHWVR2|1|0|18600|18600|10|0|0|550|0|0|0|0|0|0|1|0|0|20200616095346
20200616|02000016|91243581|1818987916981|1818987916981|20200511000080|B3UHWVR2|1|0|18600|18600|10|0|0|550|0|0|0|0|0|0|1|0|0|20200616095342
20200616|02000016|91243577|1813191775000|1813191775000|20200511000080|B3UHWVR2|1|0|18600|18600|10|0|0|550|0|0|0|0|0|0|1|0|0|20200616095333
20200616|02000016|91243575|1815389494945|1815389494945|20200511000080|B3UHWVR2|1|0|18600|18600|10|0|0|550|0|0|0|0|0|0|1|0|0|20200616095322
20200616|02000016|91243570|1813131286769|1813131286769|20200511000080|B3UHWVR2|1|0|18600|18600|10|0|0|550|0|0|0|0|0|0|1|0|0|20200616095313
20200616|02000016|91243567|1813730288889|1813730288889|20200511000080|B3UHWVR2|1|0|18600|18600|10|0|0|550|0|0|0|0|0|0|1|0|0|20200616095304
20200616|02000016|91243552|1813501288089|1813501288089|20200511000080|B3UHWVR2|1|0|18600|18600|10|0|0|550|0|0|0|0|0|0|1|0|0|20200616095234
20200616|02000016|91243549|1815903327688|1815903327688|20200511000080|B3UHWVR2|1|0|18600|18600|10|0|0|550|0|0|0|0|0|0|1|0|0|20200616095223
20200616|02000016|91243546|1813373551641|1813373551641|20200511000080|B3UHWVR2|1|0|18600|18600|10|0|0|550|0|0|0|0|0|0|1|0|0|20200616095217
20200616|02000016|91243542|1800100000347|1800100000347|20200511000080|B3UHWVR2|1|0|18600|18600|10|0|0|550|0|0|0|0|0|0|1|0|0|20200616095215
20200616|02000016|91243539|1813767188659|1813767188659|20200511000080|B3UHWVR2|1|0|18600|18600|10|0|0|550|0|0|0|0|0|0|1|0|0|20200616095213
20200616|02000016|91243536|1818032580086|1818032580086|20200511000080|B3UHWVR2|1|0|18600|18600|10|0|0|550|0|0|0|0|0|0|1|0|0|20200616095212
20200616|02000016|91243535|1813608767593|1813608767593|20200511000080|B3UHWVR2|1|0|18600|18600|10|0|0|550|0|0|0|0|0|0|1|0|0|20200616095211
20200616|02000016|91243524|1818788201666|1818788201666|20200511000080|B3UHWVR2|1|0|18600|18600|10|0|0|550|0|0|0|0|0|0|1|0|0|20200616095159
20200616|02000016|91243521|1815887537882|1815887537882|20200511000080|B3UHWVR2|1|0|18600|18600|10|0|0|550|0|0|0|0|0|0|1|0|0|20200616095152
20200616|02000016|91243516|1815632237118|1815632237118|20200511000080|B3UHWVR2|1|0|18600|18600|10|0|0|550|0|0|0|0|0|0|1|0|0|20200616095147
20200616|02000016|91243515|1813810810905|1813810810905|20200511000080|B3UHWVR2|1|0|18600|18600|10|0|0|550|0|0|0|0|0|0|1|0|0|20200616095145
20200616|02000016|91243509|1815334465219|1815334465219|20200511000080|B3UHWVR2|1|0|18600|18600|10|0|0|550|0|0|0|0|0|0|1|0|0|20200616095140
20200616|02000016|91243505|1815232607038|1815232607038|20200511000080|B3UHWVR2|1|0|18600|18600|10|0|0|550|0|0|0|0|0|0|1|0|0|20200616095138
20200616|02000016|91243503|1813831270832|1813831270832|20200511000080|B3UHWVR2|1|0|18600|18600|10|0|0|550|0|0|0|0|0|0|1|0|0|20200616095135
20200616|02000016|91243502|1813224207506|1813224207506|20200511000080|B3UHWVR2|1|0|18600|18600|10|0|0|550|0|0|0|0|0|0|1|0|0|20200616095133
20200616|02000016|91243481|1817167993679|1817167993679|20200511000080|B3UHWVR2|1|0|18600|18600|10|0|0|550|0|0|0|0|0|0|1|0|0|20200616095104
20200616|02000016|91243470|1818931441806|1818931441806|20200511000080|B3UHWVR2|1|0|18600|18600|10|0|0|550|0|0|0|0|0|0|1|0|0|20200616095038
20200616|02000016|91243465|1815232591002|1815232591002|20200511000080|B3UHWVR2|1|0|18600|18600|10|0|0|550|0|0|0|0|0|0|1|0|0|20200616095019
20200616|02000016|91243464|1813979604271|1813979604271|20200511000080|B3UHWVR2|1|0|18600|18600|10|0|0|550|0|0|0|0|0|0|1|0|0|20200616095018
20200616|02000016|91243458|1815630880329|1815630880329|20200511000080|B3UHWVR2|1|0|18600|18600|10|0|0|550|0|0|0|0|0|0|1|0|0|20200616095007
20200616|02000016|91243457|1813330093627|1813330093627|20200511000080|B3UHWVR2|1|0|18600|18600|10|0|0|550|0|0|0|0|0|0|1|0|0|20200616095005
20200616|02000016|91243442|1815974969450|1815974969450|20200511000080|B3UHWVR2|1|0|18600|18600|10|0|0|550|0|0|0|0|0|0|1|0|0|20200616094926
20200616|02000016|91243437|1815287222929|1815287222929|20200511000080|B3UHWVR2|1|0|18600|18600|10|0|0|550|0|0|0|0|0|0|1|0|0|20200616094921
20200616|02000016|91243435|1818468025462|1818468025462|20200511000080|B3UHWVR2|1|0|18600|18600|10|0|0|550|0|0|0|0|0|0|1|0|0|20200616094916
20200616|02000016|91243428|1815208802992|1815208802992|20200511000080|B3UHWVR2|1|0|18600|18600|10|0|0|550|0|0|0|0|0|0|1|0|0|20200616094911
20200616|02000016|91243429|1813836685281|1813836685281|20200511000080|B3UHWVR2|1|0|18600|18600|10|0|0|550|0|0|0|0|0|0|1|0|0|20200616094911
20200616|02000016|91243423|1813577513922|1813577513922|20200511000080|B3UHWVR2|1|0|18600|18600|10|0|0|550|0|0|0|0|0|0|1|0|0|20200616094854
20200616|02000016|91243422|1813785222268|1813785222268|20200511000080|B3UHWVR2|1|0|18600|18600|10|0|0|550|0|0|0|0|0|0|1|0|0|20200616094849
20200616|02000016|91243421|1818730588858|1818730588858|20200511000080|B3UHWVR2|1|0|18600|18600|10|0|0|550|0|0|0|0|0|0|1|0|0|20200616094844
20200616|02000016|91243419|1813930525191|1813930525191|20200511000080|B3UHWVR2|1|0|18600|18600|10|0|0|550|0|0|0|0|0|0|1|0|0|20200616094840
20200616|02000016|91243420|1813349569303|1813349569303|20200511000080|B3UHWVR2|1|0|18600|18600|10|0|0|550|0|0|0|0|0|0|1|0|0|20200616094840
20200616|02000016|91243418|1818468248611|1818468248611|20200511000080|B3UHWVR2|1|0|18600|18600|10|0|0|550|0|0|0|0|0|0|1|0|0|20200616094839
20200616|02000016|91243415|1813582628539|1813582628539|20200511000080|B3UHWVR2|1|0|18600|18600|10|0|0|550|0|0|0|0|0|0|1|0|0|20200616094829
20200616|02000016|91243414|1800100000036|1800100000036|20200511000080|B3UHWVR2|1|0|18600|18600|10|0|0|550|0|0|0|0|0|0|1|0|0|20200616094827
20200616|02000016|91243382|1815368684150|1815368684150|20200511000080|B3UHWVR2|1|0|18600|18600|10|0|0|550|0|0|0|0|0|0|1|0|0|20200616094750
20200616|02000016|91243381|1815933739943|1815933739943|20200511000080|B3UHWVR2|1|0|18600|18600|10|0|0|550|0|0|0|0|0|0|1|0|0|20200616094742
20200616|02000016|91243378|1813946835654|1813946835654|20200511000080|B3UHWVR2|1|0|18600|18600|10|0|0|550|0|0|0|0|0|0|1|0|0|20200616094736
20200616|02000016|91243363|1813904881393|1813904881393|20200511000080|B3UHWVR2|1|0|18600|18600|10|0|0|550|0|0|0|0|0|0|1|0|0|20200616094709
20200616|02000016|91243361|1813577500356|1813577500356|20200511000080|B3UHWVR2|1|0|18600|18600|10|0|0|550|0|0|0|0|0|0|1|0|0|20200616094704
20200616|02000016|91243359|1818187266755|1818187266755|20200511000080|B3UHWVR2|1|0|18600|18600|10|0|0|550|0|0|0|0|0|0|1|0|0|20200616094651
20200616|02000016|91243356|1813988271457|1813988271457|20200511000080|B3UHWVR2|1|0|18600|18600|10|0|0|550|0|0|0|0|0|0|1|0|0|20200616094645
20200616|02000016|91243350|1815042400515|1815042400515|20200511000080|B3UHWVR2|1|0|18600|18600|10|0|0|550|0|0|0|0|0|0|1|0|0|20200616094636
20200616|02000016|91243348|1813970022873|1813970022873|20200511000080|B3UHWVR2|1|0|18600|18600|10|0|0|550|0|0|0|0|0|0|1|0|0|20200616094635
20200616|02000016|91243343|1818729936598|1818729936598|20200511000080|B3UHWVR2|1|0|18600|18600|10|0|0|550|0|0|0|0|0|0|1|0|0|20200616094624
20200616|02000016|91243322|1818206761891|1818206761891|20200511000080|B3UHWVR2|1|0|18600|18600|10|0|0|550|0|0|0|0|0|0|1|0|0|20200616094551
20200616|02000016|91243303|1815887543597|1815887543597|20200511000080|B3UHWVR2|1|0|18600|18600|10|0|0|550|0|0|0|0|0|0|1|0|0|20200616094529
20200616|02000016|91243299|1817303121352|1817303121352|20200511000080|B3UHWVR2|1|0|18600|18600|10|0|0|550|0|0|0|0|0|0|1|0|0|20200616094524
20200616|02000016|91243296|1813932525581|1813932525581|20200511000080|B3UHWVR2|1|0|18600|18600|10|0|0|550|0|0|0|0|0|0|1|0|0|20200616094523
20200616|02000016|91243295|1813400336006|1813400336006|20200511000080|B3UHWVR2|1|0|18600|18600|10|0|0|550|0|0|0|0|0|0|1|0|0|20200616094521
20200616|02000016|91243292|1815870697192|1815870697192|20200511000080|B3UHWVR2|1|0|18600|18600|10|0|0|550|0|0|0|0|0|0|1|0|0|20200616094519
20200616|02000016|91243282|1818669296269|1818669296269|20200511000080|B3UHWVR2|1|0|18600|18600|10|0|0|550|0|0|0|0|0|0|1|0|0|20200616094512
20200616|02000016|91243281|1813733371391|1813733371391|20200511000080|B3UHWVR2|1|0|18600|18600|10|0|0|550|0|0|0|0|0|0|1|0|0|20200616094511
20200616|02000016|91243269|1813759221835|1813759221835|20200511000080|B3UHWVR2|1|0|18600|18600|10|0|0|550|0|0|0|0|0|0|1|0|0|20200616094459
20200616|02000016|91243257|1813630869724|1813630869724|20200511000080|B3UHWVR2|1|0|18600|18600|10|0|0|550|0|0|0|0|0|0|1|0|0|20200616094450
20200616|02000016|91243247|1813463503191|1813463503191|20200511000080|B3UHWVR2|1|0|18600|18600|10|0|0|550|0|0|0|0|0|0|1|0|0|20200616094436
20200616|02000016|91243240|1813486694384|1813486694384|20200511000080|B3UHWVR2|1|0|18600|18600|10|0|0|550|0|0|0|0|0|0|1|0|0|20200616094427
20200616|02000016|91243239|1815331520336|1815331520336|20200511000080|B3UHWVR2|1|0|18600|18600|10|0|0|550|0|0|0|0|0|0|1|0|0|20200616094426
20200616|02000016|91243224|1817866568244|1817866568244|20200511000080|B3UHWVR2|1|0|18600|18600|10|0|0|550|0|0|0|0|0|0|1|0|0|20200616094408
20200616|02000016|91243223|1818714555279|1818714555279|20200511000080|B3UHWVR2|1|0|18600|18600|10|0|0|550|0|0|0|0|0|0|1|0|0|20200616094406
20200616|02000016|91243217|1815733226550|1815733226550|20200511000080|B3UHWVR2|1|0|18600|18600|10|0|0|550|0|0|0|0|0|0|1|0|0|20200616094358
20200616|02000016|91243199|1813992400727|1813992400727|20200511000080|B3UHWVR2|1|0|18600|18600|10|0|0|550|0|0|0|0|0|0|1|0|0|20200616094335
20200616|02000016|91243198|1813555046898|1813555046898|20200511000080|B3UHWVR2|1|0|18600|18600|10|0|0|550|0|0|0|0|0|0|1|0|0|20200616094330
20200616|02000016|91243197|1813779583395|1813779583395|20200511000080|B3UHWVR2|1|0|18600|18600|10|0|0|550|0|0|0|0|0|0|1|0|0|20200616094328
20200616|02000016|91243194|1800100000043|1800100000043|20200511000080|B3UHWVR2|1|0|18600|18600|10|0|0|550|0|0|0|0|0|0|1|0|0|20200616094326
20200616|02000016|91243191|1813230331640|1813230331640|20200511000080|B3UHWVR2|1|0|18600|18600|8|0|0|440|0|0|0|0|0|0|1|0|0|20200616094321
20200616|02000016|91243189|1817317033540|1817317033540|20200511000080|B3UHWVR2|1|0|18600|18600|10|0|0|550|0|0|0|0|0|0|1|0|0|20200616094319
20200616|02000016|91243186|1813730157568|1813730157568|20200511000080|B3UHWVR2|1|0|18600|18600|10|0|0|550|0|0|0|0|0|0|1|0|0|20200616094317
20200616|02000016|91243174|1815833589669|1815833589669|20200511000080|B3UHWVR2|1|0|18600|18600|10|0|0|550|0|0|0|0|0|0|1|0|0|20200616094306
20200616|02000016|91243160|1813770855951|1813770855951|20200511000080|B3UHWVR2|1|0|18600|18600|10|0|0|550|0|0|0|0|0|0|1|0|0|20200616094256
20200616|02000016|91243161|1813230331640|1813230331640|20200511000080|B3UHWVR2|1|0|18600|18600|2|0|0|110|0|0|0|0|0|0|1|0|0|20200616094256
20200616|02000016|91243157|1813897985407|1813897985407|20200511000080|B3UHWVR2|1|0|18600|18600|10|0|0|550|0|0|0|0|0|0|1|0|0|20200616094249
20200616|02000016|91243153|1800100000221|1800100000221|20200511000080|B3UHWVR2|1|0|18600|18600|10|0|0|550|0|0|0|0|0|0|1|0|0|20200616094245
20200616|02000016|91243143|1815603268318|1815603268318|20200511000080|B3UHWVR2|1|0|18600|18600|10|0|0|550|0|0|0|0|0|0|1|0|0|20200616094236
20200616|02000016|91243132|1813555887026|1813555887026|20200511000080|B3UHWVR2|1|0|18600|18600|10|0|0|550|0|0|0|0|0|0|1|0|0|20200616094220
20200616|02000016|91243126|1815830799079|1815830799079|20200511000080|B3UHWVR2|1|0|18600|18600|10|0|0|550|0|0|0|0|0|0|1|0|0|20200616094209
20200616|02000016|91243121|1818720096449|1818720096449|20200511000080|B3UHWVR2|1|0|18600|18600|10|0|0|550|0|0|0|0|0|0|1|0|0|20200616094156
20200616|02000016|91243120|1815866353002|1815866353002|20200511000080|B3UHWVR2|1|0|18600|18600|10|0|0|550|0|0|0|0|0|0|1|0|0|20200616094155
20200616|02000016|91243117|1815887555058|1815887555058|20200511000080|B3UHWVR2|1|0|18600|18600|10|0|0|550|0|0|0|0|0|0|1|0|0|20200616094152
20200616|02000016|91243110|1813481184097|1813481184097|20200511000080|B3UHWVR2|1|0|18600|18600|10|0|0|550|0|0|0|0|0|0|1|0|0|20200616094145
20200616|02000016|91243105|1813383626357|1813383626357|20200511000080|B3UHWVR2|1|0|18600|18600|10|0|0|550|0|0|0|0|0|0|1|0|0|20200616094136
20200616|02000016|91243104|1818131276206|1818131276206|20200511000080|B3UHWVR2|1|0|18600|18600|10|0|0|550|0|0|0|0|0|0|1|0|0|20200616094128
20200616|02000016|91243101|1818103121030|1818103121030|20200511000080|B3UHWVR2|1|0|18600|18600|10|0|0|550|0|0|0|0|0|0|1|0|0|20200616094126
20200616|02000016|91243098|1813833201819|1813833201819|20200511000080|B3UHWVR2|1|0|18600|18600|10|0|0|550|0|0|0|0|0|0|1|0|0|20200616094123
20200616|02000016|91243096|1813988205870|1813988205870|20200511000080|B3UHWVR2|1|0|18600|18600|10|0|0|550|0|0|0|0|0|0|1|0|0|20200616094119
20200616|02000016|91243088|1813759215316|1813759215316|20200511000080|B3UHWVR2|1|0|18600|18600|10|0|0|550|0|0|0|0|0|0|1|0|0|20200616094111
20200616|02000016|91243080|1818834581128|1818834581128|20200511000080|B3UHWVR2|1|0|18600|18600|10|0|0|550|0|0|0|0|0|0|1|0|0|20200616094055
20200616|02000016|91243076|1815129878708|1815129878708|20200511000080|B3UHWVR2|1|0|18600|18600|10|0|0|550|0|0|0|0|0|0|1|0|0|20200616094050
20200616|02000016|91243073|1815933739942|1815933739942|20200511000080|B3UHWVR2|1|0|18600|18600|10|0|0|550|0|0|0|0|0|0|1|0|0|20200616094048
20200616|02000016|91243068|1813603225419|1813603225419|20200511000080|B3UHWVR2|1|0|18600|18600|10|0|0|550|0|0|0|0|0|0|1|0|0|20200616094047
20200616|02000016|91243065|1818309996978|1818309996978|20200511000080|B3UHWVR2|1|0|18600|18600|10|0|0|550|0|0|0|0|0|0|1|0|0|20200616094044
20200616|02000016|91243042|1813593926195|1813593926195|20200511000080|B3UHWVR2|1|0|18600|18600|10|0|0|550|0|0|0|0|0|0|1|0|0|20200616094017
20200616|02000016|91243039|1815969227585|1815969227585|20200511000080|B3UHWVR2|1|0|18600|18600|10|0|0|550|0|0|0|0|0|0|1|0|0|20200616094016
20200616|02000016|91243034|1815170047910|1815170047910|20200511000080|B3UHWVR2|1|0|18600|18600|10|0|0|550|0|0|0|0|0|0|1|0|0|20200616094012
20200616|02000016|91243031|1815601097966|1815601097966|20200511000080|B3UHWVR2|1|0|18600|18600|10|0|0|550|0|0|0|0|0|0|1|0|0|20200616094009
20200616|02000016|91243024|1813987956640|1813987956640|20200511000080|B3UHWVR2|1|0|18600|18600|10|0|0|550|0|0|0|0|0|0|1|0|0|20200616094004
20200616|02000016|91243019|1815175228012|1815175228012|20200511000080|B3UHWVR2|1|0|18600|18600|10|0|0|550|0|0|0|0|0|0|1|0|0|20200616093959
20200616|02000016|91243015|1818045556220|1818045556220|20200511000080|B3UHWVR2|1|0|18600|18600|10|0|0|550|0|0|0|0|0|0|1|0|0|20200616093954
20200616|02000016|91243011|1818210293990|1818210293990|20200511000080|B3UHWVR2|1|0|18600|18600|10|0|0|550|0|0|0|0|0|0|1|0|0|20200616093951
20200616|02000016|91243010|1815887550134|1815887550134|20200511000080|B3UHWVR2|1|0|18600|18600|10|0|0|550|0|0|0|0|0|0|1|0|0|20200616093943
20200616|02000016|91243009|1813673797843|1813673797843|20200511000080|B3UHWVR2|1|0|18600|18600|10|0|0|550|0|0|0|0|0|0|1|0|0|20200616093940
20200616|02000016|91243008|1818288188088|1818288188088|20200511000080|B3UHWVR2|1|0|18600|18600|10|0|0|550|0|0|0|0|0|0|1|0|0|20200616093938
20200616|02000016|91242997|1815233745111|1815233745111|20200511000080|B3UHWVR2|1|0|18600|18600|10|0|0|550|0|0|0|0|0|0|1|0|0|20200616093930
20200616|02000016|91242992|1815070004787|1815070004787|20200511000080|B3UHWVR2|1|0|18600|18600|10|0|0|550|0|0|0|0|0|0|1|0|0|20200616093923
20200616|02000016|91242988|1813909852916|1813909852916|20200511000080|B3UHWVR2|1|0|18600|18600|10|0|0|550|0|0|0|0|0|0|1|0|0|20200616093921
20200616|02000016|91242985|1813991898100|1813991898100|20200511000080|B3UHWVR2|1|0|18600|18600|10|0|0|550|0|0|0|0|0|0|1|0|0|20200616093918
20200616|02000016|91242977|1814787397187|1814787397187|20200511000080|B3UHWVR2|1|0|18600|18600|10|0|0|550|0|0|0|0|0|0|1|0|0|20200616093912
20200616|02000016|91242978|1815287133896|1815287133896|20200511000080|B3UHWVR2|1|0|18600|18600|10|0|0|550|0|0|0|0|0|0|1|0|0|20200616093912
20200616|02000016|91242972|1815921012597|1815921012597|20200511000080|B3UHWVR2|1|0|18600|18600|10|0|0|550|0|0|0|0|0|0|1|0|0|20200616093909
20200616|02000016|91242971|1813159989877|1813159989877|20200511000080|B3UHWVR2|1|0|18600|18600|10|0|0|550|0|0|0|0|0|0|1|0|0|20200616093908
20200616|02000016|91242963|1818288950291|1818288950291|20200511000080|B3UHWVR2|1|0|18600|18600|10|0|0|550|0|0|0|0|0|0|1|0|0|20200616093902
20200616|02000016|91242961|1813988267556|1813988267556|20200511000080|B3UHWVR2|1|0|18600|18600|10|0|0|550|0|0|0|0|0|0|1|0|0|20200616093857
20200616|02000016|91242957|1813346190092|1813346190092|20200511000080|B3UHWVR2|1|0|18600|18600|10|0|0|550|0|0|0|0|0|0|1|0|0|20200616093849
20200616|02000016|91242951|1818330218859|1818330218859|20200511000080|B3UHWVR2|1|0|18600|18600|10|0|0|550|0|0|0|0|0|0|1|0|0|20200616093839
20200616|02000016|91242940|1815208756608|1815208756608|20200511000080|B3UHWVR2|1|0|18600|18600|10|0|0|550|0|0|0|0|0|0|1|0|0|20200616093828
20200616|02000016|91242934|1813309116156|1813309116156|20200511000080|B3UHWVR2|1|0|18600|18600|10|0|0|550|0|0|0|0|0|0|1|0|0|20200616093819
20200616|02000016|91242919|1818313096871|1818313096871|20200511000080|B3UHWVR2|1|0|18600|18600|10|0|0|550|0|0|0|0|0|0|1|0|0|20200616093806
20200616|02000016|91242914|1815208896655|1815208896655|20200511000080|B3UHWVR2|1|0|18600|18600|10|0|0|550|0|0|0|0|0|0|1|0|0|20200616093803
20200616|02000016|91242908|1818231283196|1818231283196|20200511000080|B3UHWVR2|1|0|18600|18600|10|0|0|550|0|0|0|0|0|0|1|0|0|20200616093751
20200616|02000016|91242905|1815387777905|1815387777905|20200511000080|B3UHWVR2|1|0|18600|18600|10|0|0|550|0|0|0|0|0|0|1|0|0|20200616093744
20200616|02000016|91242904|1818909995887|1818909995887|20200511000080|B3UHWVR2|1|0|18600|18600|10|0|0|550|0|0|0|0|0|0|1|0|0|20200616093743
20200616|02000016|91242903|1818306923965|1818306923965|20200511000080|B3UHWVR2|1|0|18600|18600|10|0|0|550|0|0|0|0|0|0|1|0|0|20200616093741
20200616|02000016|91242894|1813780538684|1813780538684|20200511000080|B3UHWVR2|1|0|18600|18600|10|0|0|550|0|0|0|0|0|0|1|0|0|20200616093730
20200616|02000016|91242889|1818934819900|1818934819900|20200511000080|B3UHWVR2|1|0|18600|18600|10|0|0|550|0|0|0|0|0|0|1|0|0|20200616093725
20200616|02000016|91242876|1815911261986|1815911261986|20200511000080|B3UHWVR2|1|0|18600|18600|10|0|0|550|0|0|0|0|0|0|1|0|0|20200616093710
20200616|02000016|91242875|1815538816005|1815538816005|20200511000080|B3UHWVR2|1|0|18600|18600|10|0|0|550|0|0|0|0|0|0|1|0|0|20200616093708
20200616|02000016|91242860|1818469958663|1818469958663|20200511000080|B3UHWVR2|1|0|18600|18600|10|0|0|550|0|0|0|0|0|0|1|0|0|20200616093653
20200616|02000016|91242859|1813988202057|1813988202057|20200511000080|B3UHWVR2|1|0|18600|18600|10|0|0|550|0|0|0|0|0|0|1|0|0|20200616093651
20200616|02000016|91242856|1819931210376|1819931210376|20200511000080|B3UHWVR2|1|0|18600|18600|10|0|0|550|0|0|0|0|0|0|1|0|0|20200616093647
20200616|02000016|91242843|1818606548783|1818606548783|20200511000080|B3UHWVR2|1|0|18600|18600|10|0|0|550|0|0|0|0|0|0|1|0|0|20200616093635
20200616|02000016|91242844|1813520629383|1813520629383|20200511000080|B3UHWVR2|1|0|18600|18600|10|0|0|550|0|0|0|0|0|0|1|0|0|20200616093635
20200616|02000016|91242841|1813909114265|1813909114265|20200511000080|B3UHWVR2|1|0|18600|18600|10|0|0|550|0|0|0|0|0|0|1|0|0|20200616093630
20200616|02000016|91242840|1813903128198|1813903128198|20200511000080|B3UHWVR2|1|0|18600|18600|10|0|0|550|0|0|0|0|0|0|1|0|0|20200616093629
20200616|02000016|91242836|1815690228885|1815690228885|20200511000080|B3UHWVR2|1|0|18600|18600|10|0|0|550|0|0|0|0|0|0|1|0|0|20200616093624
20200616|02000016|91242828|1813998105808|1813998105808|20200511000080|B3UHWVR2|1|0|18600|18600|10|0|0|550|0|0|0|0|0|0|1|0|0|20200616093615
20200616|02000016|91242815|1813407259698|1813407259698|20200511000080|B3UHWVR2|1|0|18600|18600|10|0|0|550|0|0|0|0|0|0|1|0|0|20200616093550
20200616|02000016|91242814|1813879606751|1813879606751|20200511000080|B3UHWVR2|1|0|18600|18600|10|0|0|550|0|0|0|0|0|0|1|0|0|20200616093547
20200616|02000016|91242813|1818645566788|1818645566788|20200511000080|B3UHWVR2|1|0|18600|18600|10|0|0|550|0|0|0|0|0|0|1|0|0|20200616093545
20200616|02000016|91242810|1815087942456|1815087942456|20200511000080|B3UHWVR2|1|0|18600|18600|10|0|0|550|0|0|0|0|0|0|1|0|0|20200616093544
20200616|02000016|91242811|1813988240419|1813988240419|20200511000080|B3UHWVR2|1|0|18600|18600|10|0|0|550|0|0|0|0|0|0|1|0|0|20200616093544
20200616|02000016|91242807|1800100000104|1800100000104|20200511000080|B3UHWVR2|1|0|18600|18600|10|0|0|550|0|0|0|0|0|0|1|0|0|20200616093540
20200616|02000016|91242805|1813870662832|1813870662832|20200511000080|B3UHWVR2|1|0|18600|18600|10|0|0|550|0|0|0|0|0|0|1|0|0|20200616093531
20200616|02000016|91242803|1813095218509|1813095218509|20200511000080|B3UHWVR2|1|0|18600|18600|10|0|0|550|0|0|0|0|0|0|1|0|0|20200616093530
20200616|02000016|91242804|1800100000154|1800100000154|20200511000080|B3UHWVR2|1|0|18600|18600|10|0|0|550|0|0|0|0|0|0|1|0|0|20200616093530
20200616|02000016|91242800|1813231271852|1813231271852|20200511000080|B3UHWVR2|1|0|18600|18600|10|0|0|550|0|0|0|0|0|0|1|0|0|20200616093527
20200616|02000016|91242788|1815727280047|1815727280047|20200511000080|B3UHWVR2|1|0|18600|18600|10|0|0|550|0|0|0|0|0|0|1|0|0|20200616093516
20200616|02000016|91242789|1813931358252|1813931358252|20200511000080|B3UHWVR2|1|0|18600|18600|10|0|0|550|0|0|0|0|0|0|1|0|0|20200616093516
20200616|02000016|91242777|1815032925000|1815032925000|20200511000080|B3UHWVR2|1|0|18600|18600|10|0|0|550|0|0|0|0|0|0|1|0|0|20200616093509
20200616|02000016|91242773|1815308750506|1815308750506|20200511000080|B3UHWVR2|1|0|18600|18600|10|0|0|550|0|0|0|0|0|0|1|0|0|20200616093506
20200616|02000016|91242772|1813576146503|1813576146503|20200511000080|B3UHWVR2|1|0|18600|18600|10|0|0|550|0|0|0|0|0|0|1|0|0|20200616093505
20200616|02000016|91242766|1818787586472|1818787586472|20200511000080|B3UHWVR2|1|0|18600|18600|10|0|0|550|0|0|0|0|0|0|1|0|0|20200616093455
20200616|02000016|91242756|1815911281296|1815911281296|20200511000080|B3UHWVR2|1|0|18600|18600|10|0|0|550|0|0|0|0|0|0|1|0|0|20200616093448
20200616|02000016|91242754|1815925589060|1815925589060|20200511000080|B3UHWVR2|1|0|18600|18600|10|0|0|550|0|0|0|0|0|0|1|0|0|20200616093443
20200616|02000016|91242752|1815636926050|1815636926050|20200511000080|B3UHWVR2|1|0|18600|18600|10|0|0|550|0|0|0|0|0|0|1|0|0|20200616093442
20200616|02000016|91242750|1815184972700|1815184972700|20200511000080|B3UHWVR2|1|0|18600|18600|10|0|0|550|0|0|0|0|0|0|1|0|0|20200616093434
20200616|02000016|91242748|1815232508176|1815232508176|20200511000080|B3UHWVR2|1|0|18600|18600|10|0|0|550|0|0|0|0|0|0|1|0|0|20200616093426
20200616|02000016|91242743|1813555344462|1813555344462|20200511000080|B3UHWVR2|1|0|18600|18600|10|0|0|550|0|0|0|0|0|0|1|0|0|20200616093421
20200616|02000016|91242736|1813607196765|1813607196765|20200511000080|B3UHWVR2|1|0|18600|18600|10|0|0|550|0|0|0|0|0|0|1|0|0|20200616093407
20200616|02000016|91242735|1813832565805|1813832565805|20200511000080|B3UHWVR2|1|0|18600|18600|10|0|0|550|0|0|0|0|0|0|1|0|0|20200616093406
20200616|02000016|91242734|1815930276335|1815930276335|20200511000080|B3UHWVR2|1|0|18600|18600|10|0|0|550|0|0|0|0|0|0|1|0|0|20200616093404
20200616|02000016|91242732|1813949280669|1813949280669|20200511000080|B3UHWVR2|1|0|18600|18600|10|0|0|550|0|0|0|0|0|0|1|0|0|20200616093400
20200616|02000016|91242728|1813163653278|1813163653278|20200511000080|B3UHWVR2|1|0|18600|18600|10|0|0|550|0|0|0|0|0|0|1|0|0|20200616093344
20200616|02000016|91242727|1815232640847|1815232640847|20200511000080|B3UHWVR2|1|0|18600|18600|10|0|0|550|0|0|0|0|0|0|1|0|0|20200616093339
20200616|02000016|91242725|1813987581003|1813987581003|20200511000080|B3UHWVR2|1|0|18600|18600|10|0|0|550|0|0|0|0|0|0|1|0|0|20200616093330
20200616|02000016|91242726|1815184848605|1815184848605|20200511000080|B3UHWVR2|1|0|18600|18600|10|0|0|550|0|0|0|0|0|0|1|0|0|20200616093330
20200616|02000016|91242721|1817845057266|1817845057266|20200511000080|B3UHWVR2|1|0|18600|18600|10|0|0|550|0|0|0|0|0|0|1|0|0|20200616093326
20200616|02000016|91242716|1815840074214|1815840074214|20200511000080|B3UHWVR2|1|0|18600|18600|10|0|0|550|0|0|0|0|0|0|1|0|0|20200616093316
20200616|02000016|91242715|1813407207108|1813407207108|20200511000080|B3UHWVR2|1|0|18600|18600|10|0|0|550|0|0|0|0|0|0|1|0|0|20200616093311
20200616|02000016|91242714|1813887873327|1813887873327|20200511000080|B3UHWVR2|1|0|18600|18600|10|0|0|550|0|0|0|0|0|0|1|0|0|20200616093305
20200616|02000016|91242713|1815632218558|1815632218558|20200511000080|B3UHWVR2|1|0|18600|18600|10|0|0|550|0|0|0|0|0|0|1|0|0|20200616093304
20200616|02000016|91242712|1818855897042|1818855897042|20200511000080|B3UHWVR2|1|0|18600|18600|10|0|0|550|0|0|0|0|0|0|1|0|0|20200616093303
20200616|02000016|91242711|1813825724130|1813825724130|20200511000080|B3UHWVR2|1|0|18600|18600|10|0|0|550|0|0|0|0|0|0|1|0|0|20200616093259
20200616|02000016|91242710|1818730297466|1818730297466|20200511000080|B3UHWVR2|1|0|18600|18600|10|0|0|550|0|0|0|0|0|0|1|0|0|20200616093258
20200616|02000016|91242707|1813064860909|1813064860909|20200511000080|B3UHWVR2|1|0|18600|18600|10|0|0|550|0|0|0|0|0|0|1|0|0|20200616093255
20200616|02000016|91242706|1813324561701|1813324561701|20200511000080|B3UHWVR2|1|0|18600|18600|10|0|0|550|0|0|0|0|0|0|1|0|0|20200616093254
20200616|02000016|91242701|1813131233580|1813131233580|20200511000080|B3UHWVR2|1|0|18600|18600|10|0|0|550|0|0|0|0|0|0|1|0|0|20200616093239
20200616|02000016|91242703|1813988288595|1813988288595|20200511000080|B3UHWVR2|1|0|18600|18600|10|0|0|550|0|0|0|0|0|0|1|0|0|20200616093239
20200616|02000016|91242696|1813623333299|1813623333299|20200511000080|B3UHWVR2|1|0|18600|18600|10|0|0|550|0|0|0|0|0|0|1|0|0|20200616093236
20200616|02000016|91242689|1815187507752|1815187507752|20200511000080|B3UHWVR2|1|0|18600|18600|10|0|0|550|0|0|0|0|0|0|1|0|0|20200616093223
20200616|02000016|91242684|1815245431805|1815245431805|20200511000080|B3UHWVR2|1|0|18600|18600|10|0|0|550|0|0|0|0|0|0|1|0|0|20200616093219
20200616|02000016|91242681|1813709230552|1813709230552|20200511000080|B3UHWVR2|1|0|18600|18600|10|0|0|550|0|0|0|0|0|0|1|0|0|20200616093212
20200616|02000016|91242675|1817796982621|1817796982621|20200511000080|B3UHWVR2|1|0|18600|18600|10|0|0|550|0|0|0|0|0|0|1|0|0|20200616093200
20200616|02000016|91242674|1813578272885|1813578272885|20200511000080|B3UHWVR2|1|0|18600|18600|10|0|0|550|0|0|0|0|0|0|1|0|0|20200616093148
20200616|02000016|91242671|1815613556396|1815613556396|20200511000080|B3UHWVR2|1|0|18600|18600|10|0|0|550|0|0|0|0|0|0|1|0|0|20200616093147
20200616|02000016|91242669|1813089950930|1813089950930|20200511000080|B3UHWVR2|1|0|18600|18600|10|0|0|550|0|0|0|0|0|0|1|0|0|20200616093143
20200616|02000016|91242660|1815204689694|1815204689694|20200511000080|B3UHWVR2|1|0|18600|18600|10|0|0|550|0|0|0|0|0|0|1|0|0|20200616093128
20200616|02000016|91242659|1813779597882|1813779597882|20200511000080|B3UHWVR2|1|0|18600|18600|10|0|0|550|0|0|0|0|0|0|1|0|0|20200616093126
20200616|02000016|91242655|1815076235183|1815076235183|20200511000080|B3UHWVR2|1|0|18600|18600|10|0|0|550|0|0|0|0|0|0|1|0|0|20200616093115
20200616|02000016|91242652|1815333221709|1815333221709|20200511000080|B3UHWVR2|1|0|18600|18600|10|0|0|550|0|0|0|0|0|0|1|0|0|20200616093114
20200616|02000016|91242651|1815187541886|1815187541886|20200511000080|B3UHWVR2|1|0|18600|18600|10|0|0|550|0|0|0|0|0|0|1|0|0|20200616093113
20200616|02000016|91242649|1818733245321|1818733245321|20200511000080|B3UHWVR2|1|0|18600|18600|10|0|0|550|0|0|0|0|0|0|1|0|0|20200616093110
20200616|02000016|91242646|1818945765909|1818945765909|20200511000080|B3UHWVR2|1|0|18600|18600|10|0|0|550|0|0|0|0|0|0|1|0|0|20200616093102
20200616|02000016|91242641|1800100000280|1800100000280|20200511000080|B3UHWVR2|1|0|18600|18600|10|0|0|550|0|0|0|0|0|0|1|0|0|20200616092202
20200616|02000016|91242639|1815187564467|1815187564467|20200511000080|B3UHWVR2|1|0|18600|18600|10|0|0|550|0|0|0|0|0|0|1|0|0|20200616092154
20200616|02000016|91242635|1818511141687|1818511141687|20200511000080|B3UHWVR2|1|0|18600|18600|10|0|0|550|0|0|0|0|0|0|1|0|0|20200616092138
20200616|02000016|91242631|1815256323299|1815256323299|20200511000080|B3UHWVR2|1|0|18600|18600|10|0|0|0|0|0|0|0|0|0|1|0|0|20200616092051
20200616|02000016|91242630|1815256323299|1815256323299|20200511000080|B3UHWVR2|1|0|18600|18600|10|0|0|0|0|0|0|0|0|0|1|0|0|20200616092041
20200616|02000016|91242628|1815256323299|1815256323299|20200511000080|B3UHWVR2|1|0|18600|18600|10|0|0|0|0|0|0|0|0|0|1|0|0|20200616092029
20200616|02000016|91242627|1815256323299|1815256323299|20200511000080|B3UHWVR2|1|0|18600|18600|10|0|0|0|0|0|0|0|0|0|1|0|0|20200616092009
20200616|02000016|91242626|1818191539413|1818191539413|20200511000080|B3UHWVR2|1|0|18600|18600|10|0|0|550|0|0|0|0|0|0|1|0|0|20200616092005
20200616|02000016|91242623|1815256323299|1815256323299|20200511000080|B3UHWVR2|1|0|18600|18600|10|0|0|0|0|0|0|0|0|0|1|0|0|20200616091957
20200616|02000016|91242621|1815256323299|1815256323299|20200511000080|B3UHWVR2|1|0|18600|18600|10|0|0|0|0|0|0|0|0|0|1|0|0|20200616091944
20200616|02000016|91242620|1815256323299|1815256323299|20200511000080|B3UHWVR2|1|0|18600|18600|10|0|0|0|0|0|0|0|0|0|1|0|0|20200616091934
20200616|02000016|91242619|1815256323299|1815256323299|20200511000080|B3UHWVR2|1|0|18600|18600|10|0|0|0|0|0|0|0|0|0|1|0|0|20200616091923
20200616|02000016|91242618|1815256323299|1815256323299|20200511000080|B3UHWVR2|1|0|18600|18600|10|0|0|0|0|0|0|0|0|0|1|0|0|20200616091913
20200616|02000016|91242615|1813330597481|1813330597481|20200511000080|B3UHWVR2|1|0|18600|18600|10|0|0|550|0|0|0|0|0|0|1|0|0|20200616091911
20200616|02000016|91242613|1815256323299|1815256323299|20200511000080|B3UHWVR2|1|0|18600|18600|10|0|0|0|0|0|0|0|0|0|1|0|0|20200616091901
20200616|02000016|91242612|1815256323299|1815256323299|20200511000080|B3UHWVR2|1|0|18600|18600|10|0|0|0|0|0|0|0|0|0|1|0|0|20200616091852
20200616|02000016|91242611|1815256323299|1815256323299|20200511000080|B3UHWVR2|1|0|18600|18600|10|0|0|0|0|0|0|0|0|0|1|0|0|20200616091843
20200616|02000016|91242609|1815256323299|1815256323299|20200511000080|B3UHWVR2|1|0|18600|18600|10|0|0|0|0|0|0|0|0|0|1|0|0|20200616091828
20200616|02000016|91242608|1815256323299|1815256323299|20200511000080|B3UHWVR2|1|0|18600|18600|10|0|0|0|0|0|0|0|0|0|1|0|0|20200616091819
20200616|02000016|91242607|1815256323299|1815256323299|20200511000080|B3UHWVR2|1|0|18600|18600|10|0|0|0|0|0|0|0|0|0|1|0|0|20200616091803
20200616|02000016|91242606|1815256323299|1815256323299|20200511000080|B3UHWVR2|1|0|18600|18600|10|0|0|0|0|0|0|0|0|0|1|0|0|20200616091747
20200616|02000016|91242604|1815256323299|1815256323299|20200511000080|B3UHWVR2|1|0|18600|18600|10|0|0|0|0|0|0|0|0|0|1|0|0|20200616091705
