清算中心流水号&交易所流水号&业务发生日期&交易所代码&会员编码&资金账号&出入金方式&出入金类型&出入金发起方&发生金额&币种&银行代码&银行产品代码&银行帐号&状态&备注
20061990040021446437&20061990040021446437&20200619&02000016&1813988266809&1813988266809&&1&2&400000&CNY&0040&boshzjjg&6236683970000071912&0&
20061990040021446638&20061990040021446638&20200619&02000016&1800100000113&1800100000113&&1&2&200000&CNY&0040&boshzjjg&6217001040007991374&0&
20061990040021446538&20061990040021446538&20200619&02000016&1815389494945&1815389494945&&1&2&10000&CNY&0040&boshzjjg&6215592605003645908&0&
20061990040021446639&20061990040021446639&20200619&02000016&1813931203162&1813931203162&&1&2&1000000&CNY&0040&boshzjjg&6228271261255397276&0&
20061930020100446540&TH4GDS4Z7ACBSPWQ&20200619&02000016&1813578201088&1813578201088&&0&1&20060&CNY&0040&boshzjjg&6217003970001716211&0&
20061930020100446543&XPZ6LWB0EX8A7ZJ2&20200619&02000016&1817503250596&1817503250596&&0&1&50150&CNY&0040&boshzjjg&6228481268887277475&0&
20061930020100446644&71Y7J5ZUSLZJZNT4&20200619&02000016&1800100000033&1800100000033&&0&1&115346&CNY&0040&boshzjjg&6222001508100404933&0&
20061930020100446645&77SY3ARSHQ6508SN&20200619&02000016&1800100000033&1800100000033&&0&1&2507&CNY&0040&boshzjjg&6222001508100404933&0&
20061930020100446544&NEAMZZDE185R2YOJ&20200619&02000016&1813730190518&1813730190518&&0&1&40120&CNY&0040&boshzjjg&6222030409003835999&0&
20061930020100446649&FUKUWK4Y9V2HJKQC&20200619&02000016&1818088174982&1818088174982&&0&1&200601&CNY&0040&boshzjjg&6228483358609352975&0&
20061930020100446651&MWIH1SNKDQHZ8B5P&20200619&02000016&1813577500356&1813577500356&&0&1&20060&CNY&0040&boshzjjg&6212262510000520615&0&
20061930020100446653&CMHOIJBF6UVQ2BY9&20200619&02000016&1815129737661&1815129737661&&0&1&10030&CNY&0040&boshzjjg&6217004140008222246&0&
20061930020100446450&0M1Z1SBZY4LYSAGV&20200619&02000016&1818468025462&1818468025462&&0&1&20060&CNY&0040&boshzjjg&6228483968612650775&0&
20061930020100446656&DFDLOP7W8U5ZOT79&20200619&02000016&1818032526472&1818032526472&&0&1&200601&CNY&0040&boshzjjg&6222030403005785591&0&
20061930020100446657&HL4LWOF84CXL407S&20200619&02000016&1813703283113&1813703283113&&0&1&20060&CNY&0040&boshzjjg&6228481268439092075&0&
20061930020100446453&M038Y7XSTQLX2H7W&20200619&02000016&1815227788236&1815227788236&&0&1&20060&CNY&0040&boshzjjg&6217855000005841713&0&
20061930020100446456&MXY940VXL7ICJAK8&20200619&02000016&1813931267078&1813931267078&&0&1&20060&CNY&0040&boshzjjg&6228411264507692974&0&
20061930020100446459&AY8J3LN8QL3W8E0Z&20200619&02000016&1818191539413&1818191539413&&0&1&30090&CNY&0040&boshzjjg&6228482906150002661&0&
20061930020100446461&EK7DKO4BD3360VL5&20200619&02000016&1813836685281&1813836685281&&0&1&10030&CNY&0040&boshzjjg&6222622380000869378&0&
20061930020100446673&4JXE6ZCZZ3OAKQO4&20200619&02000016&1813363243535&1813363243535&&0&1&19558&CNY&0040&boshzjjg&6222020403009602828&0&
20061930020100446471&LIIPEFF7KXYA4DGM&20200619&02000016&1800100000213&1800100000213&&0&1&30090&CNY&0040&boshzjjg&6217855300027671225&0&
20061930020100446571&B6QWYITV3FIFVKSA&20200619&02000016&1800100000084&1800100000084&&0&1&20060&CNY&0040&boshzjjg&6228482688436843270&0&
20061930020100446483&OHUX8TNERXC7D945&20200619&02000016&1818903125539&1818903125539&&0&1&200601&CNY&0040&boshzjjg&6217000140023212705&0&
20061930020100446491&8WKN5CNEHIVRJEYD&20200619&02000016&1813932211661&1813932211661&&0&1&10030&CNY&0040&boshzjjg&6212260409009915227&0&
20061930020100446704&4VSYFJK4SJ1J3XAS&20200619&02000016&1818875037395&1818875037395&&0&1&10230&CNY&0040&boshzjjg&6228480479009445673&0&
20061930020100446591&LH6R3W33BOYRYSYV&20200619&02000016&1813931280204&1813931280204&&0&1&40120&CNY&0040&boshzjjg&6228271261255112576&0&
20061930020100446495&ON8TG3T613HGSLZ7&20200619&02000016&1815170899237&1815170899237&&0&1&10030&CNY&0040&boshzjjg&6217002110000855436&0&
20061930020100446600&OIM8KZI2F3TGGKFN&20200619&02000016&1815232607038&1815232607038&&0&1&20060&CNY&0040&boshzjjg&6228480652067343614&0&
20061930020100446720&E0017H569HRZPQ5E&20200619&02000016&1818179609669&1818179609669&&0&1&11033&CNY&0040&boshzjjg&6215581509002428428&0&
20061930020100446722&PXUJDFBKHRS95YUM&20200619&02000016&1813190040355&1813190040355&&0&1&40120&CNY&0040&boshzjjg&6217850400006393067&0&
20061930020100446725&K197WYXTTDPIF18U&20200619&02000016&1813520629383&1813520629383&&0&1&21063&CNY&0040&boshzjjg&6228481269250889979&0&
20061930020100446512&VHG0SBPV8PPC868P&20200619&02000016&1818746535653&1818746535653&&0&1&10030&CNY&0040&boshzjjg&6228482668494517271&0&
20061930020100446728&A5RYOFMXLMIF4KAE&20200619&02000016&1813909852916&1813909852916&&0&1&11434&CNY&0040&boshzjjg&6222033400007501767&0&
20061930020100446729&QNDIIZJDK11JJS5C&20200619&02000016&1813582219081&1813582219081&&0&1&30090&CNY&0040&boshzjjg&6228451268006825473&0&
20061930020100446515&6O5CNL0A5UZMRTKM&20200619&02000016&1818088167118&1818088167118&&0&1&10030&CNY&0040&boshzjjg&6230523350013666874&0&
20061930020100446517&LJ248866A3LJLXBJ&20200619&02000016&1815586314943&1815586314943&&0&1&250752&CNY&0040&boshzjjg&6217002700001598876&0&
20061930020100446614&B7U88QKWXBAMRF7U&20200619&02000016&1815933593100&1815933593100&&0&1&8024&CNY&0040&boshzjjg&6215580409003867826&0&
20061930020100446731&J76K9AUC5QS0LIBD&20200619&02000016&1818511141687&1818511141687&&0&1&28084&CNY&0040&boshzjjg&6217232607000418257&0&
20061930020100446522&576XBL3P3JL4XK25&20200619&02000016&1813388823626&1813388823626&&0&1&10030&CNY&0040&boshzjjg&6213363350003156919&0&
20061930020100446733&SFYEAIAYYPR6MXPS&20200619&02000016&1818088176980&1818088176980&&0&1&20060&CNY&0040&boshzjjg&6230523350004703074&0&
20061930020100446625&C8PQ23AVHLR7GMT8&20200619&02000016&1813808788999&1813808788999&&0&1&7021&CNY&0040&boshzjjg&6228483358604716075&0&
20061930020100446836&WFKLGVK1SJI52DET&20200619&02000016&1815187541886&1815187541886&&0&1&40120&CNY&0040&boshzjjg&6212262510002416168&0&
20061930020100446745&W40QEDPM1HQDNJZN&20200619&02000016&1818631228121&1818631228121&&0&1&50150&CNY&0040&boshzjjg&6217852600021512488&0&
20061930020100446934&7EQN0TBJM6MZ9M5L&20200619&02000016&1813393192793&1813393192793&&0&1&180541&CNY&0040&boshzjjg&6217000170004145426&0&
20061930020100446747&1R01TMU7YY6EYOEI&20200619&02000016&1813224207506&1813224207506&&0&1&30090&CNY&0040&boshzjjg&6228480568130950773&0&
20061930020100446935&WY2LCAB3I9HUT3EU&20200619&02000016&1813951695691&1813951695691&&0&1&3711&CNY&0040&boshzjjg&6217876100024713813&0&
20061930020100446752&FRISOA4487W8IAEW&20200619&02000016&1813992529265&1813992529265&&0&1&60180&CNY&0040&boshzjjg&6217004170003277606&0&
20061930020100446758&E928RDUCX3T3ZJPI&20200619&02000016&1818088167118&1818088167118&&0&1&10030&CNY&0040&boshzjjg&6230523350013666874&0&
20061930020100446953&ZLJU4MOSPESVXB3S&20200619&02000016&1813846055840&1813846055840&&0&1&10030&CNY&0040&boshzjjg&4367421041460035508&0&
20061930020100446850&ZAGL1QUNX8U2Q47W&20200619&02000016&1813633181332&1813633181332&&0&1&30090&CNY&0040&boshzjjg&6217000160005540212&0&
20061930020100446769&XB8EF1OV6SUOHVXA&20200619&02000016&1813308821971&1813308821971&&0&1&10030&CNY&0040&boshzjjg&6228483350106136712&0&
20061930020100446864&64WY4B0RC7LTTF3E&20200619&02000016&1813266662096&1813266662096&&0&1&10030&CNY&0040&boshzjjg&6217582000047574488&0&
20061930020100446968&47Z4ZWAV7N0N3962&20200619&02000016&1818987538596&1818987538596&&0&1&30090&CNY&0040&boshzjjg&6217003960001582077&0&
20061930020100446781&Q5JJO9OH7BA71ERU&20200619&02000016&1813769055559&1813769055559&&0&1&30090&CNY&0040&boshzjjg&6212262510000846770&0&
20061930020100446976&D1BDISTWU1IR1E0S&20200619&02000016&1818889422056&1818889422056&&0&1&10030&CNY&0040&boshzjjg&6228410150025333913&0&
20061930020100446977&MU7JG2AL1G8CNV05&20200619&02000016&1818834581128&1818834581128&&0&1&10030&CNY&0040&boshzjjg&6227001540050020699&0&
20061930020100446876&OZPPI6SDHA3VGCPH&20200619&02000016&1813393192793&1813393192793&&0&1&6018&CNY&0040&boshzjjg&6217000170004145426&0&
20061930020100446877&TOIJPABKJ00J1T4T&20200619&02000016&1818210293990&1818210293990&&0&1&10030&CNY&0040&boshzjjg&6236683320015427180&0&
20061930020100446883&YBWCJPUQ5ZEZQXV9&20200619&02000016&1818669254642&1818669254642&&0&1&100300&CNY&0040&boshzjjg&6217232511000071217&0&
20061930020100446787&RN7SMFEK0021TLVO&20200619&02000016&1813463503191&1813463503191&&0&1&10030&CNY&0040&boshzjjg&6222030403007685450&0&
20061930020100446884&WY687TV4Z7PGUGTS&20200619&02000016&1817304211987&1817304211987&&0&1&10030&CNY&0040&boshzjjg&6217992340002158842&0&
20061930020100446981&9XGBQ0834UW2SO12&20200619&02000016&1813932525581&1813932525581&&0&1&10030&CNY&0040&boshzjjg&6222030403007280369&0&
20061930020100446886&J8H2TACBYXDOFFRO&20200619&02000016&1813478653378&1813478653378&&0&1&30090&CNY&0040&boshzjjg&6228480568011405673&0&
20061930020100446888&04EXSJUZ0B9W3QYR&20200619&02000016&1815837935909&1815837935909&&0&1&200601&CNY&0040&boshzjjg&6217994930003845310&0&
20061930020100446986&A1GAMO2O75VNM86Q&20200619&02000016&1815230984209&1815230984209&&0&1&10030&CNY&0040&boshzjjg&6228480651416232510&0&
20061930020100446889&RNQE1KGVG7DK8DU2&20200619&02000016&1813785222268&1813785222268&&0&1&20060&CNY&0040&boshzjjg&6228481268948566478&0&
20061930020100446793&P4RUYBDDXDIND3ET&20200619&02000016&1813031511388&1813031511388&&0&1&10030&CNY&0040&boshzjjg&6217000180011149501&0&
20061930020100446797&ZW3N8NE59QMLS60O&20200619&02000016&1813785222268&1813785222268&&0&1&20060&CNY&0040&boshzjjg&6228481268948566478&0&
20061930020100447002&WJ0DKRL0VPO00PWV&20200619&02000016&1815389494945&1815389494945&&0&1&10030&CNY&0040&boshzjjg&6215592605003645908&0&
20061930020100446901&FB3OEQ9AAQ7T7CK8&20200619&02000016&1815208999328&1815208999328&&0&1&10030&CNY&0040&boshzjjg&6230520150011399475&0&
20061930020100447004&TGPIJ3023WNDIS7Y&20200619&02000016&1813619402778&1813619402778&&0&1&10030&CNY&0040&boshzjjg&6217997300042873276&0&
20061930020100447005&K38XN1AUUH9RCXAX&20200619&02000016&1813739822199&1813739822199&&0&1&30090&CNY&0040&boshzjjg&6230520650041673575&0&
20061930020100446905&HLER8KLMHJ19NHJG&20200619&02000016&1815771836378&1815771836378&&0&1&10030&CNY&0040&boshzjjg&6215592605004136980&0&
20061930020100447010&7PSFTFOCZ9EBQ9W6&20200619&02000016&1813731660124&1813731660124&&0&1&20060&CNY&0040&boshzjjg&6216695000002505127&0&
20061930020100447011&4GLRFST65YQEIIA9&20200619&02000016&1818820305412&1818820305412&&0&1&186559&CNY&0040&boshzjjg&6212263602131216947&0&
20061930020100446910&W2GBRQOGPHW0Q1RH&20200619&02000016&1818046671766&1818046671766&&0&1&20060&CNY&0040&boshzjjg&6221884280018439609&0&
20061930020100447012&5D7J9YQSW5B9O806&20200619&02000016&1813555046898&1813555046898&&0&1&50150&CNY&0040&boshzjjg&6212260907000013736&0&
20061930020100447014&J3FDS8SQ7325LNXK&20200619&02000016&1818161735141&1818161735141&&0&1&30090&CNY&0040&boshzjjg&6217997900073030546&0&
20061930020100446809&DGTMX54SPREOVOBQ&20200619&02000016&1813388823626&1813388823626&&0&1&10030&CNY&0040&boshzjjg&6213363350003156919&0&
20061930020100446810&1DTL377GNW086WEZ&20200619&02000016&1800100000347&1800100000347&&0&1&35506&CNY&0040&boshzjjg&6228481268946635879&0&
20061930020100447017&64SHNZIFZVB1UG1B&20200619&02000016&1817317033540&1817317033540&&0&1&15045&CNY&0040&boshzjjg&6217000140040036566&0&
20061930020100446815&URZTHZ58TN3NCUPC&20200619&02000016&1813400336006&1813400336006&&0&1&55165&CNY&0040&boshzjjg&6227000140710176493&0&
20061930020100446923&80XH73BVAE2FR3PF&20200619&02000016&1818730588858&1818730588858&&0&1&10030&CNY&0040&boshzjjg&6217000180014526994&0&
20061930020100446924&BOI4V764A016HPH4&20200619&02000016&1813832256871&1813832256871&&0&1&42728&CNY&0040&boshzjjg&6228481268439319270&0&
20061930020100446926&VY2XSMSTN7MVXWL2&20200619&02000016&1815630880329&1815630880329&&0&1&10130&CNY&0040&boshzjjg&4563515005004515888&0&
20061930020100447136&MC1ICXZZCXHSF2QW&20200619&02000016&1813832293322&1813832293322&&0&1&30090&CNY&0040&boshzjjg&6228481269174012971&0&
20061930020100447041&6X8D5QY6SOWD99K0&20200619&02000016&1815940818417&1815940818417&&0&1&10030&CNY&0040&boshzjjg&6217000780000487802&0&
20061930020100447042&LVNCBSNAQ3D6NPVY&20200619&02000016&1818313096871&1818313096871&&0&1&200601&CNY&0040&boshzjjg&6228483358596905173&0&
20061930020100446827&519EX2GX9TCIF86Z&20200619&02000016&1815969250481&1815969250481&&0&1&10030&CNY&0040&boshzjjg&6212262511001991102&0&
20061930020100447144&VN44Y9KCNWHFTD38&20200619&02000016&1815042400515&1815042400515&&0&1&10030&CNY&0040&boshzjjg&6215583400006811017&0&
20061930020100447145&TKXS6ZCXTQO8NZ47&20200619&02000016&1815987886307&1815987886307&&0&1&10030&CNY&0040&boshzjjg&6228483351166864912&0&
20061930020100446829&WGEOV0ZL2M3TPH38&20200619&02000016&1818313462142&1818313462142&&0&1&10030&CNY&0040&boshzjjg&6217003970001224661&0&
20061930020100447046&BVCH0OTNP3SM5I3V&20200619&02000016&1818306996472&1818306996472&&0&1&10030&CNY&0040&boshzjjg&6236683970000114936&0&
20061930020100447242&SFDA159602OT3GMK&20200619&02000016&1818507792116&1818507792116&&0&1&50150&CNY&0040&boshzjjg&6212262107002827815&0&
20061930020100447057&TXA22L75DXW6OYO3&20200619&02000016&1813903228890&1813903228890&&0&1&20060&CNY&0040&boshzjjg&4367420140818834371&0&
20061930020100447249&FSNHL62ZCKPJ3HFG&20200619&02000016&1800100000109&1800100000109&&0&1&10030&CNY&0040&boshzjjg&6228481268099506273&0&
20061930020100447058&T92A8SK5RTY971XP&20200619&02000016&1800100000100&1800100000100&&0&1&216649&CNY&0040&boshzjjg&6217002390008589373&0&
20061930020100447166&L6A5ZX4LX3GTXTEK&20200619&02000016&1813930238016&1813930238016&&0&1&10030&CNY&0040&boshzjjg&4367420140718182517&0&
20061930020100447172&J895G0S7UB51YTCK&20200619&02000016&1813930833053&1813930833053&&0&1&50150&CNY&0040&boshzjjg&6210810140000144322&0&
20061930020100447079&YJCUOPOFCSO5IIKR&20200619&02000016&1813796445877&1813796445877&&0&1&100300&CNY&0040&boshzjjg&6210952600001682669&0&
20061930020100447281&4PUH8BVOTVX6Z7LF&20200619&02000016&1818962060606&1818962060606&&0&1&1003&CNY&0040&boshzjjg&6228481980808931010&0&
20061930020100447088&UOPCW14A4DOVZMG0&20200619&02000016&1815818598480&1815818598480&&0&1&10030&CNY&0040&boshzjjg&6230520120003213679&0&
20061930020100447182&NZW637B5EF5MF547&20200619&02000016&1813064860909&1813064860909&&0&1&10030&CNY&0040&boshzjjg&6228481985804145978&0&
20061930020100447290&7K8AWCYDQABKSET9&20200619&02000016&1813478653378&1813478653378&&0&1&10030&CNY&0040&boshzjjg&6228480568011405673&0&
20061930020100447294&7NXNHEQTWM77NZQY&20200619&02000016&1800100000245&1800100000245&&0&1&10030&CNY&0040&boshzjjg&6228481008383090372&0&
20061930020100447097&W5VMXSMTAKJJ8XJT&20200619&02000016&1800100000229&1800100000229&&0&1&15045&CNY&0040&boshzjjg&6227000143410340294&0&
20061930020100447298&ISPCZ27KAJ8IMB74&20200619&02000016&1813555190027&1813555190027&&0&1&20060&CNY&0040&boshzjjg&6228482670574074017&0&
20061930020100447102&123D0KQXOU2TSLNW&20200619&02000016&1813901372244&1813901372244&&0&1&100&CNY&0040&boshzjjg&6228480018795468471&0&
20061930020100447300&C21TY5K8EISIN7OT&20200619&02000016&1817789888843&1817789888843&&0&1&10030&CNY&0040&boshzjjg&6222022201008354302&0&
20061930020100447302&GB3IQOOJVMZY9TE1&20200619&02000016&1813988266809&1813988266809&&0&1&200601&CNY&0040&boshzjjg&6236683970000071912&0&
20061930020100447115&GXN9BE08XTLNV4NN&20200619&02000016&1818931232281&1818931232281&&0&1&20060&CNY&0040&boshzjjg&6217855000069310779&0&
20061930020100447315&USWDZE1UBS9JO0JJ&20200619&02000016&1813763733303&1813763733303&&0&1&20060&CNY&0040&boshzjjg&6217001070009211950&0&
20061930020100447213&7NNG9B7S9F0P46LK&20200619&02000016&1813385213554&1813385213554&&0&1&220661&CNY&0040&boshzjjg&6228483822137021410&0&
20061930020100447443&L06ROPH03AO5I00T&20200619&02000016&1813825724130&1813825724130&&0&1&50150&CNY&0040&boshzjjg&6217857600045175572&0&
20061930020100447539&GCSI2V4UPDAI1LWF&20200619&02000016&1813069609860&1813069609860&&0&1&100&CNY&0040&boshzjjg&6222020905008132128&0&
20061930020100447552&8U2EURBZB46736BH&20200619&02000016&1813889877508&1813889877508&&0&1&2006&CNY&0040&boshzjjg&6228480049074333177&0&
20061930020100447366&U9UWPHGRGO31G528&20200619&02000016&1818931441806&1818931441806&&0&1&10030&CNY&0040&boshzjjg&6222030403007736303&0&
20061930020100447553&TWJVH71JZQKUABVQ&20200619&02000016&1800100000125&1800100000125&&0&1&10030&CNY&0040&boshzjjg&4340610140347896&0&
20061930020100447460&Z2NL67F6OMJNLF1U&20200619&02000016&1815100500891&1815100500891&&0&1&10030&CNY&0040&boshzjjg&6222080403002514662&0&
20061930020100447368&QT189M4Q7B69QLGQ&20200619&02000016&1818788207781&1818788207781&&0&1&30090&CNY&0040&boshzjjg&6228483358381747673&0&
20061930020100447555&VO6GZQ28FOZRJYTW&20200619&02000016&1818788207781&1818788207781&&0&1&20060&CNY&0040&boshzjjg&6228483358381747673&0&
20061930020100447466&CYSU931FIRLUQT9R&20200619&02000016&1818779740474&1818779740474&&0&1&5015&CNY&0040&boshzjjg&6214837972324085&0&
20061930020100447470&JNJGUVB8RZ4GGVIB&20200619&02000016&1818032580086&1818032580086&&0&1&30090&CNY&0040&boshzjjg&6212260403012654519&0&
20061930020100447481&Y4K7AN5NRGK9PZPD&20200619&02000016&1800100000109&1800100000109&&0&1&20060&CNY&0040&boshzjjg&6228481268099506273&0&
20061930020100447482&Y69Y388X5BL7I5E9&20200619&02000016&1818313234328&1818313234328&&0&1&20060&CNY&0040&boshzjjg&6230523330013007378&0&
20061930020100447587&KSXWCSVS8PJB980H&20200619&02000016&1813889877508&1813889877508&&0&1&501&CNY&0040&boshzjjg&6228480049074333177&0&
20061930020100447406&W86I1QT14ZGOUHQM&20200619&02000016&1813887865192&1813887865192&&0&1&120361&CNY&0040&boshzjjg&6230523350004150870&0&
20061930020100447594&G6JAVFRPQZH8FI5H&20200619&02000016&1818306969995&1818306969995&&0&1&120361&CNY&0040&boshzjjg&6217003970003542136&0&
20061930020100447504&X0YJB1XC3S71J963&20200619&02000016&1818159800103&1818159800103&&0&1&6018&CNY&0040&boshzjjg&6217566400004211720&0&
20061930020100447414&ISA86UWWYOESC5F6&20200619&02000016&1815161960908&1815161960908&&0&1&40120&CNY&0040&boshzjjg&6236681320001941667&0&
20061930020100447517&4SLTG6G4JFXXBK35&20200619&02000016&1815972280790&1815972280790&&0&1&50150&CNY&0040&boshzjjg&6236682660002898450&0&
20061930020100447616&UQKAA5LZDE02KRKA&20200619&02000016&1813731284037&1813731284037&&0&1&20060&CNY&0040&boshzjjg&6217991340030408996&0&
20061930020100447426&B16EO1TGGIYX29UR&20200619&02000016&1813335335656&1813335335656&&0&1&3009&CNY&0040&boshzjjg&6217004140002561193&0&
20061930020100447430&48D5JVL3K6OZ7VM2&20200619&02000016&1800100000057&1800100000057&&0&1&10030&CNY&0040&boshzjjg&6228482328554884471&0&
20061930020100447624&SBX6RT9QLM8ATU7Q&20200619&02000016&1813904881393&1813904881393&&0&1&10030&CNY&0040&boshzjjg&6217992610184002293&0&
20061930020100447749&6EWGF4O9GZZ15XAM&20200619&02000016&1815932240292&1815932240292&&0&1&10030&CNY&0040&boshzjjg&6228481269146533476&0&
20061930020100447648&2KP54I4WLL0IJA3Z&20200619&02000016&1815932240292&1815932240292&&0&1&10030&CNY&0040&boshzjjg&6228481269146533476&0&
20061930020100447842&I2BIWJ2SXOPP3NYM&20200619&02000016&1815087509852&1815087509852&&0&1&200601&CNY&0040&boshzjjg&6230523960012227070&0&
20061930020100447655&NFZKONZKIXC80HDR&20200619&02000016&1800100000161&1800100000161&&0&1&20060&CNY&0040&boshzjjg&6228481261491163611&0&
20061930020100447847&5E8C3MKU3FNIB8Z1&20200619&02000016&1813388758398&1813388758398&&0&1&200601&CNY&0040&boshzjjg&6228483968601129070&0&
20061930020100447659&EOQ49EE2H4WFXE2J&20200619&02000016&1815682951846&1815682951846&&0&1&10030&CNY&0040&boshzjjg&6222032709000584138&0&
20061930020100447668&UIAHYXDIYXPQYT95&20200619&02000016&1813731691285&1813731691285&&0&1&70210&CNY&0040&boshzjjg&6228451260023539211&0&
20061930020100447865&JVH4XTQ1F5CP77DP&20200619&02000016&1813335339191&1813335339191&&0&1&200601&CNY&0040&boshzjjg&6217004140003676727&0&
20061930020100447867&J9IRHWR5S0N8DAEA&20200619&02000016&1815238108000&1815238108000&&0&1&10030&CNY&0040&boshzjjg&6217002590007370226&0&
20061930020100447673&QS5BMAN599UAZWNZ&20200619&02000016&1818803126206&1818803126206&&0&1&10030&CNY&0040&boshzjjg&4367420140038202151&0&
20061930020100447875&H8KX95GBPOQYEK38&20200619&02000016&1813472972651&1813472972651&&0&1&12036&CNY&0040&boshzjjg&9558820403001406380&0&
20061930020100447879&REYJCR02Q3MBFNG6&20200619&02000016&1813483564692&1813483564692&&0&1&100&CNY&0040&boshzjjg&6217000180019627284&0&
20061930020100447682&CPCV3OFGXUB61C4P&20200619&02000016&1813785222268&1813785222268&&0&1&100300&CNY&0040&boshzjjg&6228481268948566478&0&
20061930020100447784&Y93P43OOUK496W0G&20200619&02000016&1813832993559&1813832993559&&0&1&100&CNY&0040&boshzjjg&6230520650041836875&0&
20061930020100447880&E1ENR575ZURB0WX8&20200619&02000016&1813785222268&1813785222268&&0&1&70210&CNY&0040&boshzjjg&6228481268948566478&0&
20061930020100447788&OQJUYPB7HA1EKQUP&20200619&02000016&1815949672286&1815949672286&&0&1&11434&CNY&0040&boshzjjg&6230522310004130273&0&
20061930020100447886&YQT4JCI1YWQB2K8A&20200619&02000016&1800100000154&1800100000154&&0&1&60180&CNY&0040&boshzjjg&6212260706002918813&0&
20061930020100447889&M2KJ3UXD5KYLMO46&20200619&02000016&1800100000221&1800100000221&&0&1&20060&CNY&0040&boshzjjg&6212260409014146438&0&
20061930020100447694&0E9FSNWHVI1HPA3N&20200619&02000016&1815561743759&1815561743759&&0&1&10030&CNY&0040&boshzjjg&6228482688418322475&0&
20061930020100447936&1R10O5V8VAXHO7KI&20200619&02000016&1818313472920&1818313472920&&0&1&10030&CNY&0040&boshzjjg&6228483358604616077&0&
20061930020100447941&WBBDS7ZDJISE5V3X&20200619&02000016&1815130317528&1815130317528&&0&1&200601&CNY&0040&boshzjjg&6215580409004137823&0&
20061930020100447930&W04FN6QUDY23P53I&20200619&02000016&1813171908620&1813171908620&&0&1&10030&CNY&0040&boshzjjg&6217711804108882&0&
20061930020100448035&UK49J5ZUWJ1HYG0M&20200619&02000016&1813231500951&1813231500951&&0&1&12036&CNY&0040&boshzjjg&6230520650040854077&0&
20061930020100447944&F4M33SN6CUOM2I2C&20200619&02000016&1813988238986&1813988238986&&0&1&20060&CNY&0040&boshzjjg&6230523350012901777&0&
20061930020100448053&JL33M744BYDFN452&20200619&02000016&1818732221628&1818732221628&&0&1&215646&CNY&0040&boshzjjg&6217000140027144870&0&
20061930020100448149&M64DD4CINPCB4K4Z&20200619&02000016&1813930246312&1813930246312&&0&1&9027&CNY&0040&boshzjjg&6217000140027149192&0&
20061930020100448150&ZYQVZ565N39OUHHO&20200619&02000016&1818846735652&1818846735652&&0&1&150451&CNY&0040&boshzjjg&6217001040008008442&0&
20061990040021446438&20061990040021446438&20200619&02000016&1815094690607&1815094690607&&1&2&200000&CNY&0040&boshzjjg&6217982610004127066&0&
20061990040021446539&20061990040021446539&20200619&02000016&1818046671766&1818046671766&&1&2&200000&CNY&0040&boshzjjg&6221884280018439609&0&
20061990040021446647&20061990040021446647&20200619&02000016&1813730445441&1813730445441&&1&2&200000&CNY&0040&boshzjjg&6217855000025947417&0&
20061990040021446451&20061990040021446451&20200619&02000016&1818306923965&1818306923965&&1&2&200000&CNY&0040&boshzjjg&6217003970002350234&0&
20061990040021446662&20061990040021446662&20200619&02000016&1819931458246&1819931458246&&1&2&200000&CNY&0040&boshzjjg&6217855000047822333&0&
20061990040021446457&20061990040021446457&20200619&02000016&1815127498151&1815127498151&&1&2&200000&CNY&0040&boshzjjg&6217000140030569147&0&
20061990040021446668&20061990040021446668&20200619&02000016&1813385213554&1813385213554&&1&2&200000&CNY&0040&boshzjjg&6228483822137021410&0&
20061990040021446465&20061990040021446465&20200619&02000016&1815128992230&1815128992230&&1&2&200000&CNY&0040&boshzjjg&6222030409003708410&0&
20061990040021446466&20061990040021446466&20200619&02000016&1815951703440&1815951703440&&1&2&2000&CNY&0040&boshzjjg&6217002200016513150&0&
20061990040021446674&20061990040021446674&20200619&02000016&1813931386960&1813931386960&&1&2&200000&CNY&0040&boshzjjg&6217000140006323651&0&
20061990040021446470&20061990040021446470&20200619&02000016&1813886968888&1813886968888&&1&2&200000&CNY&0040&boshzjjg&6236682700003311564&0&
20061990040021446688&20061990040021446688&20200619&02000016&1815387777905&1815387777905&&1&2&200000&CNY&0040&boshzjjg&6228480329551494779&0&
20061990040021446690&20061990040021446690&20200619&02000016&1813970601152&1813970601152&&1&2&3000&CNY&0040&boshzjjg&5240942110023944&0&
20061990040021446579&20061990040021446579&20200619&02000016&1818088155607&1818088155607&&1&2&50000&CNY&0040&boshzjjg&6236683970000076978&0&
20061990040021446693&20061990040021446693&20200619&02000016&1813576878317&1813576878317&&1&2&193200&CNY&0040&boshzjjg&9558821509000390414&0&
20061990040021446586&20061990040021446586&20200619&02000016&1818161735141&1818161735141&&1&2&200000&CNY&0040&boshzjjg&6217997900073030546&0&
20061990040021446502&20061990040021446502&20200619&02000016&1815079696414&1815079696414&&1&2&2000&CNY&0040&boshzjjg&6228480086827063479&0&
20061990040021446599&20061990040021446599&20200619&02000016&1800100000071&1800100000071&&1&2&10000&CNY&0040&boshzjjg&6228272226027369472&0&
20061990040021446718&20061990040021446718&20200619&02000016&1818392029751&1818392029751&&1&2&200000&CNY&0040&boshzjjg&6222620810020677544&0&
20061990040021446604&20061990040021446604&20200619&02000016&1813343521285&1813343521285&&1&2&200000&CNY&0040&boshzjjg&6213363829900086378&0&
20061990040021446506&20061990040021446506&20200619&02000016&1813315236132&1813315236132&&1&2&300000&CNY&0040&boshzjjg&6235010151300125775&0&
20061990040021446605&20061990040021446605&20200619&02000016&1815502925058&1815502925058&&1&2&2500&CNY&0040&boshzjjg&6212263700001397795&0&
20061990040021446606&20061990040021446606&20200619&02000016&1815578194090&1815578194090&&1&2&1000000&CNY&0040&boshzjjg&6228480838886267171&0&
20061990040021446727&20061990040021446727&20200619&02000016&1815538816005&1815538816005&&1&2&10000&CNY&0040&boshzjjg&6226622215867728&0&
20061990040021446726&20061990040021446726&20200619&02000016&1815129737661&1815129737661&&1&2&200000&CNY&0040&boshzjjg&6217004140008222246&0&
20061990040021446615&20061990040021446615&20200619&02000016&1818131201300&1818131201300&&1&2&10000&CNY&0040&boshzjjg&6236680140000463443&0&
20061990040021446532&20061990040021446532&20200619&02000016&1818060529819&1818060529819&&1&2&200000&CNY&0040&boshzjjg&6227002669640613256&0&
20061990040021446838&20061990040021446838&20200619&02000016&1814787397187&1814787397187&&1&2&400000&CNY&0040&boshzjjg&6228483358606209574&0&
20061990040021446940&20061990040021446940&20200619&02000016&1813879606751&1813879606751&&1&2&7000&CNY&0040&boshzjjg&6228482318561698378&0&
20061990040021446848&20061990040021446848&20200619&02000016&1818674147179&1818674147179&&1&2&200000&CNY&0040&boshzjjg&6217857600056693018&0&
20061990040021446851&20061990040021446851&20200619&02000016&1813324561701&1813324561701&&1&2&10000&CNY&0040&boshzjjg&6215593700016650885&0&
20061990040021446780&20061990040021446780&20200619&02000016&1813987091886&1813987091886&&1&2&200000&CNY&0040&boshzjjg&6228483318036742578&0&
20061990040021446873&20061990040021446873&20200619&02000016&1813335335656&1813335335656&&1&2&4000&CNY&0040&boshzjjg&6217004140002561193&0&
20061990040021446982&20061990040021446982&20200619&02000016&1817780514895&1817780514895&&1&2&200000&CNY&0040&boshzjjg&6212264402046129320&0&
20061990040021446991&20061990040021446991&20200619&02000016&1815130317528&1815130317528&&1&2&200000&CNY&0040&boshzjjg&6215580409004137823&0&
20061990040021446896&20061990040021446896&20200619&02000016&1818313082518&1818313082518&&1&2&200000&CNY&0040&boshzjjg&6230523350004423277&0&
20061990040021446798&20061990040021446798&20200619&02000016&1815727394536&1815727394536&&1&2&400000&CNY&0040&boshzjjg&9559982200454824818&0&
20061990040021446895&20061990040021446895&20200619&02000016&1813879606751&1813879606751&&1&2&5000&CNY&0040&boshzjjg&6228482318561698378&0&
20061990040021446800&20061990040021446800&20200619&02000016&1813578294167&1813578294167&&1&2&200000&CNY&0040&boshzjjg&6217003970003247470&0&
20061990040021446802&20061990040021446802&20200619&02000016&1815171555563&1815171555563&&1&2&1000000&CNY&0040&boshzjjg&6230523820009369378&0&
20061990040021446902&20061990040021446902&20200619&02000016&1813576878317&1813576878317&&1&2&6800&CNY&0040&boshzjjg&9558821509000390414&0&
20061990040021446812&20061990040021446812&20200619&02000016&1813628894679&1813628894679&&1&2&50000&CNY&0040&boshzjjg&6228483358594425570&0&
20061990040021447037&20061990040021447037&20200619&02000016&1815327855187&1815327855187&&1&2&200000&CNY&0040&boshzjjg&6228453828101011473&0&
20061990040021446824&20061990040021446824&20200619&02000016&1813224207506&1813224207506&&1&2&190000&CNY&0040&boshzjjg&6228480568130950773&0&
20061990040021447051&20061990040021447051&20200619&02000016&1813633226787&1813633226787&&1&2&186000&CNY&0040&boshzjjg&6217230409000055995&0&
20061990040021447237&20061990040021447237&20200619&02000016&1813310933838&1813310933838&&1&2&5000&CNY&0040&boshzjjg&6236684140002876762&0&
20061990040021447052&20061990040021447052&20200619&02000016&1813687247435&1813687247435&&1&2&200000&CNY&0040&boshzjjg&6230523820009349073&0&
20061990040021447254&20061990040021447254&20200619&02000016&1815871931238&1815871931238&&1&2&200&CNY&0040&boshzjjg&6236682700001675796&0&
20061990040021447158&20061990040021447158&20200619&02000016&1813503221210&1813503221210&&1&2&1000000&CNY&0040&boshzjjg&6228271261257628470&0&
20061990040021447253&20061990040021447253&20200619&02000016&1813619405650&1813619405650&&1&2&3000&CNY&0040&boshzjjg&6228481439237393078&0&
20061990040021447271&20061990040021447271&20200619&02000016&1813988229164&1813988229164&&1&2&200000&CNY&0040&boshzjjg&6228483358607041778&0&
20061990040021447275&20061990040021447275&20200619&02000016&1815025068429&1815025068429&&1&2&1000&CNY&0040&boshzjjg&6228483968366798879&0&
20061990040021447173&20061990040021447173&20200619&02000016&1813333126087&1813333126087&&1&2&1000000&CNY&0040&boshzjjg&6228481268847645076&0&
20061990040021447086&20061990040021447086&20200619&02000016&1815368969988&1815368969988&&1&2&200000&CNY&0040&boshzjjg&6217997300031430534&0&
20061990040021447180&20061990040021447180&20200619&02000016&1815025068429&1815025068429&&1&2&1000&CNY&0040&boshzjjg&6228483968366798879&0&
20061990040021447284&20061990040021447284&20200619&02000016&1815227098333&1815227098333&&1&2&200000&CNY&0040&boshzjjg&6228481261798664410&0&
20061990040021447292&20061990040021447292&20200619&02000016&1818994474771&1818994474771&&1&2&100000&CNY&0040&boshzjjg&6212261102023986238&0&
20061990040021447189&20061990040021447189&20200619&02000016&1815025068429&1815025068429&&1&2&7000&CNY&0040&boshzjjg&6228483968366798879&0&
20061990040021447098&20061990040021447098&20200619&02000016&1815931586164&1815931586164&&1&2&204000&CNY&0040&boshzjjg&6210810180000682046&0&
20061990040021447301&20061990040021447301&20200619&02000016&1813970601152&1813970601152&&1&2&1000&CNY&0040&boshzjjg&5240942110023944&0&
20061990040021447312&20061990040021447312&20200619&02000016&1813785222268&1813785222268&&1&2&2000&CNY&0040&boshzjjg&6228481268948566478&0&
20061990040021447214&20061990040021447214&20200619&02000016&1818732695797&1818732695797&&1&2&200000&CNY&0040&boshzjjg&6212260410013802641&0&
20061990040021447325&20061990040021447325&20200619&02000016&1817796969398&1817796969398&&1&2&195000&CNY&0040&boshzjjg&6236680180004236478&0&
20061990040021447335&20061990040021447335&20200619&02000016&1813988289221&1813988289221&&1&2&200000&CNY&0040&boshzjjg&6230523350004800375&0&
20061990040021447334&20061990040021447334&20200619&02000016&1813339582020&1813339582020&&1&2&200000&CNY&0040&boshzjjg&6216615300001573333&0&
20061990040021447232&20061990040021447232&20200619&02000016&1813009970011&1813009970011&&1&2&1000000&CNY&0040&boshzjjg&6221802610007911698&0&
20061990040021447343&20061990040021447343&20200619&02000016&1818742493073&1818742493073&&1&2&10000&CNY&0040&boshzjjg&6228480040464950019&0&
20061990040021447345&20061990040021447345&20200619&02000016&1818820305412&1818820305412&&1&2&186000&CNY&0040&boshzjjg&6212263602131216947&0&
20061990040021447131&20061990040021447131&20200619&02000016&1813577580787&1813577580787&&1&2&200000&CNY&0040&boshzjjg&6217003960002395974&0&
20061990040021447132&20061990040021447132&20200619&02000016&1815613227275&1815613227275&&1&2&800000&CNY&0040&boshzjjg&6228481268346343579&0&
20061990040021447349&20061990040021447349&20200619&02000016&1815216284718&1815216284718&&1&2&100&CNY&0040&boshzjjg&6222031509000684594&0&
20061990040021447447&20061990040021447447&20200619&02000016&1815216284718&1815216284718&&1&2&200000&CNY&0040&boshzjjg&6222031509000684594&0&
20061990040021447449&20061990040021447449&20200619&02000016&1815287635988&1815287635988&&1&2&200000&CNY&0040&boshzjjg&6214832158008222&0&
20061990040021447464&20061990040021447464&20200619&02000016&1813988279079&1813988279079&&1&2&200000&CNY&0040&boshzjjg&6228483351069402315&0&
20061990040021447475&20061990040021447475&20200619&02000016&1815096613672&1815096613672&&1&2&200000&CNY&0040&boshzjjg&6230520860104855270&0&
20061990040021447389&20061990040021447389&20200619&02000016&1813970022873&1813970022873&&1&2&150000&CNY&0040&boshzjjg&6228480920654025013&0&
20061990040021447493&20061990040021447493&20200619&02000016&1813988253077&1813988253077&&1&2&300000&CNY&0040&boshzjjg&6217003970003589830&0&
20061990040021447600&20061990040021447600&20200619&02000016&1813370899471&1813370899471&&1&2&1000000&CNY&0040&boshzjjg&6217002200014660268&0&
20061990040021447411&20061990040021447411&20200619&02000016&1813363382515&1813363382515&&1&2&1000&CNY&0040&boshzjjg&6212260403004978447&0&
20061990040021447507&20061990040021447507&20200619&02000016&1815846883336&1815846883336&&1&2&200000&CNY&0040&boshzjjg&6222030906000497814&0&
20061990040021447415&20061990040021447415&20200619&02000016&1815997422775&1815997422775&&1&2&200000&CNY&0040&boshzjjg&6216607600003251485&0&
20061990040021447417&20061990040021447417&20200619&02000016&1813870662832&1813870662832&&1&2&400000&CNY&0040&boshzjjg&6228450920007355618&0&
20061990040021447513&20061990040021447513&20200619&02000016&1815094529305&1815094529305&&1&2&200000&CNY&0040&boshzjjg&6222030906000497822&0&
20061990040021447611&20061990040021447611&20200619&02000016&1815094200319&1815094200319&&1&2&200000&CNY&0040&boshzjjg&6217997300098632295&0&
20061990040021447839&20061990040021447839&20200619&02000016&1813483564692&1813483564692&&1&2&195000&CNY&0040&boshzjjg&6217000180019627284&0&
20061990040021447849&20061990040021447849&20200619&02000016&1819871238258&1819871238258&&1&2&200000&CNY&0040&boshzjjg&6230523820008541571&0&
20061990040021447766&20061990040021447766&20200619&02000016&1813832993559&1813832993559&&1&2&195000&CNY&0040&boshzjjg&6230520650041836875&0&
20061990040021447664&20061990040021447664&20200619&02000016&1817761272857&1817761272857&&1&2&200000&CNY&0040&boshzjjg&6217003800032658217&0&
20061990040021447864&20061990040021447864&20200619&02000016&1817679024406&1817679024406&&1&2&1000&CNY&0040&boshzjjg&6228480078186287476&0&
20061990040021447777&20061990040021447777&20200619&02000016&1817679024406&1817679024406&&1&2&1000&CNY&0040&boshzjjg&6228480078186287476&0&
20061990040021447776&20061990040021447776&20200619&02000016&1813998259838&1813998259838&&1&2&400000&CNY&0040&boshzjjg&6217213301018827021&0&
20061990040021447779&20061990040021447779&20200619&02000016&1818787586472&1818787586472&&1&2&200000&CNY&0040&boshzjjg&6222032510000190201&0&
20061990040021447878&20061990040021447878&20200619&02000016&1818733245321&1818733245321&&1&2&400000&CNY&0040&boshzjjg&6228481269290173475&0&
20061990040021447888&20061990040021447888&20200619&02000016&1818972629192&1818972629192&&1&2&200000&CNY&0040&boshzjjg&6236682700004310094&0&
20061990040021447716&20061990040021447716&20200619&02000016&1813576820339&1813576820339&&1&2&200000&CNY&0040&boshzjjg&6217906500020446934&0&
20061990040021447731&20061990040021447731&20200619&02000016&1815969250778&1815969250778&&1&2&199000&CNY&0040&boshzjjg&6230523350013736875&0&
20061990040021448147&20061990040021448147&20200619&02000016&1813870088638&1813870088638&&1&2&10000&CNY&0040&boshzjjg&6226223500032423&0&
20061990040021448050&20061990040021448050&20200619&02000016&1813315236132&1813315236132&&1&2&314900&CNY&0040&boshzjjg&6235010151300125775&0&
20061990040021447956&20061990040021447956&20200619&02000016&1817731229787&1817731229787&&1&2&200000&CNY&0040&boshzjjg&6228271261253869177&0&
