清算中心流水号&交易所流水号&业务发生日期&交易所代码&会员编码&资金账号&出入金方式&出入金类型&出入金发起方&发生金额&币种&银行代码&银行产品代码&银行帐号&状态&备注
20071590040021504940&20071590040021504940&20200715&02000016&1815517971188&1815517971188&&1&2&200000&CNY&0040&boshzjjg&6222031705000337643&0&
20071590040021504908&20071590040021504908&20200715&02000016&1813987589789&1813987589789&&1&2&200000&CNY&0040&boshzjjg&6217232510000213738&0&
20071590040021504909&20071590040021504909&20200715&02000016&1818233358181&1818233358181&&1&2&1300&CNY&0040&boshzjjg&6217000140031920588&0&
20071590040021504828&20071590040021504828&20200715&02000016&1815758901497&1815758901497&&1&2&200000&CNY&0040&boshzjjg&6228483356140142160&0&
20071590040021504941&20071590040021504941&20200715&02000016&1818313076037&1818313076037&&1&2&200000&CNY&0040&boshzjjg&6230523350013665579&0&
20071530020100504917&GVOXPBJO2KZSMDQZ&20200715&02000016&1815146824446&1815146824446&&0&1&100&CNY&0040&boshzjjg&6217992610127217149&0&
20071530020100504949&DNTQUJHLPGQ43W88&20200715&02000016&1815146824446&1815146824446&&0&1&80240&CNY&0040&boshzjjg&6217992610127217149&0&
20071530020100505038&KSHL4O707XTRSR62&20200715&02000016&1800100000390&1800100000390&&0&1&10030&CNY&0040&boshzjjg&6221882600122646686&0&
20071530020100504919&WBC4RE47EMEMIJKS&20200715&02000016&1817325423850&1817325423850&&0&1&10030&CNY&0040&boshzjjg&6212260409010000191&0&
20071530020100504953&0N4XGIGLNXTNVQY1&20200715&02000016&1815208999328&1815208999328&&0&1&5015&CNY&0040&boshzjjg&6230520150011399475&0&
20071530020100504920&KIT83ZQHY4Z3XU2Z&20200715&02000016&1815231216025&1815231216025&&0&1&10130&CNY&0040&boshzjjg&6236680140000326509&0&
20071530020100504955&GTUNE13AUFXNVJCH&20200715&02000016&1813603225419&1813603225419&&0&1&130391&CNY&0040&boshzjjg&6228481269150456176&0&
20071530020100504921&46ZS2BOL2PWWPZ21&20200715&02000016&1815880931399&1815880931399&&0&1&50150&CNY&0040&boshzjjg&6217906500035689627&0&
20071530020100504922&JXU5FPZ3I5F0CT3D&20200715&02000016&1817689826169&1817689826169&&0&1&10030&CNY&0040&boshzjjg&6213360159902334672&0&
20071530020100504956&MA3UYUFJURLEJJHU&20200715&02000016&1800100000031&1800100000031&&0&1&230692&CNY&0040&boshzjjg&6230521260013799371&0&
20071530020100505041&UY4ASBLVAOMA147D&20200715&02000016&1818468025462&1818468025462&&0&1&10030&CNY&0040&boshzjjg&6228483968612650775&0&
20071530020100504957&B6BM8GWCJ9IDRZHF&20200715&02000016&1815930239024&1815930239024&&0&1&10030&CNY&0040&boshzjjg&6228481269243308178&0&
20071530020100505044&GK3PM0AQ14P1ACJY&20200715&02000016&1813523232008&1813523232008&&0&1&25075&CNY&0040&boshzjjg&6214833804847625&0&
20071530020100504923&XS8O9YYC2EF3V1JD&20200715&02000016&1813577500356&1813577500356&&0&1&10030&CNY&0040&boshzjjg&6212262510000520615&0&
20071530020100504958&XCG9EB9V5677CGES&20200715&02000016&1815109156089&1815109156089&&0&1&10030&CNY&0040&boshzjjg&6230521360035249973&0&
20071530020100504924&1N2PC8527V8R6TAG&20200715&02000016&1815170899237&1815170899237&&0&1&20060&CNY&0040&boshzjjg&6217002110000855436&0&
20071530020100504925&KA1RXNKAPF8UXLAC&20200715&02000016&1813324639668&1813324639668&&0&1&10030&CNY&0040&boshzjjg&6212960110000005918&0&
20071530020100504927&3M3AUBJX8S3NWBFK&20200715&02000016&1815709151444&1815709151444&&0&1&40120&CNY&0040&boshzjjg&6217004170001727701&0&
20071530020100504962&NUWZQFVW65IGA44L&20200715&02000016&1813379416382&1813379416382&&0&1&10030&CNY&0040&boshzjjg&6214483001100086904&0&
20071530020100504964&QTG75DEYLF5B19LN&20200715&02000016&1815175219511&1815175219511&&0&1&100300&CNY&0040&boshzjjg&6228481269255520173&0&
20071530020100505058&I6FQPW05U7KZAH6W&20200715&02000016&1813766269479&1813766269479&&0&1&100300&CNY&0040&boshzjjg&6217994350015242499&0&
20071530020100505059&AMDMEN9MU1K0S2ZD&20200715&02000016&1815208896655&1815208896655&&0&1&20060&CNY&0040&boshzjjg&6228483350109027017&0&
20071530020100505135&EW9X24XHM3U5TAQ9&20200715&02000016&1813576820339&1813576820339&&0&1&100300&CNY&0040&boshzjjg&6217906500020446934&0&
20071530020100505064&53MXQ833226V3WI4&20200715&02000016&1815216284718&1815216284718&&0&1&100300&CNY&0040&boshzjjg&6222031509000684594&0&
20071530020100505149&WEH7OAIZUQB6TVXV&20200715&02000016&1800100000071&1800100000071&&0&1&140421&CNY&0040&boshzjjg&6228272226027369472&0&
20071530020100505103&XT627C9VZS127WNO&20200715&02000016&1800100000094&1800100000094&&0&1&200601&CNY&0040&boshzjjg&6217000140036719878&0&
20071530020100504999&EPIEP969QUB33LXH&20200715&02000016&1800100000099&1800100000099&&0&1&30090&CNY&0040&boshzjjg&6236680140002035082&0&
20071530020100505008&9XEZH8M6A0DDAWNQ&20200715&02000016&1815033721326&1815033721326&&0&1&196589&CNY&0040&boshzjjg&6217000140035632445&0&
20071530020100505180&OUNFPM062MV0KYCN&20200715&02000016&1813769055559&1813769055559&&0&1&220661&CNY&0040&boshzjjg&6212262510000846770&0&
20071530020100505181&D42UY1LE3Q9ZQU15&20200715&02000016&1800100000040&1800100000040&&0&1&501504&CNY&0040&boshzjjg&6228271261249671877&0&
20071530020100505190&XTF1IGEY45C0X9OB&20200715&02000016&1815245431805&1815245431805&&0&1&60180&CNY&0040&boshzjjg&6222622380000218428&0&
20071530020100505025&TL1361EM5KQFLWLM&20200715&02000016&1813840542929&1813840542929&&0&1&270812&CNY&0040&boshzjjg&6217001040008514977&0&
20071530020100505195&INZU1YNRI9KIQTLF&20200715&02000016&1818210293990&1818210293990&&0&1&10030&CNY&0040&boshzjjg&6236683320015427180&0&
20071530020100505200&PVQHP7FAZJACH776&20200715&02000016&1813643126078&1813643126078&&0&1&70210&CNY&0040&boshzjjg&6228481269143994077&0&
20071530020100505201&S081YAEWEYVQA8GM&20200715&02000016&1818908752966&1818908752966&&0&1&371113&CNY&0040&boshzjjg&6215582510000004574&0&
20071530020100505234&VCK3L2EAAF7RN4EO&20200715&02000016&1815921807241&1815921807241&&0&1&200601&CNY&0040&boshzjjg&6228481985573802676&0&
20071530020100505207&RD0KG6U9KYY1C9PM&20200715&02000016&1813673128038&1813673128038&&0&1&10030&CNY&0040&boshzjjg&6228481266180496164&0&
20071530020100505335&NE7BPZSBJVZMDVNQ&20200715&02000016&1815100258404&1815100258404&&0&1&35105&CNY&0040&boshzjjg&6216605000008780905&0&
20071530020100505235&R3O17ENFQPZO6OGY&20200715&02000016&1818834581128&1818834581128&&0&1&10030&CNY&0040&boshzjjg&6227001540050020699&0&
20071530020100505240&8K1XPUB3QHE8QBAA&20200715&02000016&1818131201300&1818131201300&&0&1&100300&CNY&0040&boshzjjg&6236680140000463443&0&
20071530020100505243&20MB894BEGO31CBQ&20200715&02000016&1800100000125&1800100000125&&0&1&30090&CNY&0040&boshzjjg&4340610140347896&0&
20071530020100505214&JVU1PNEV5NWW6BA9&20200715&02000016&1815025068429&1815025068429&&0&1&30090&CNY&0040&boshzjjg&6228483968366798879&0&
20071530020100505346&1ODP0XHPF9DX6TZM&20200715&02000016&1813820546821&1813820546821&&0&1&50150&CNY&0040&boshzjjg&6228480020849517212&0&
20071530020100505215&SM6BW6MAAQ8BB4HR&20200715&02000016&1815925433800&1815925433800&&0&1&120361&CNY&0040&boshzjjg&6228483358585539876&0&
20071530020100505250&SH3TZ6H94QXHRAW2&20200715&02000016&1813230823996&1813230823996&&0&1&70210&CNY&0040&boshzjjg&6222020403012247439&0&
20071530020100505347&LI9C35ZPCR459IX1&20200715&02000016&1813400267349&1813400267349&&0&1&10130&CNY&0040&boshzjjg&6217865000008146647&0&
20071530020100505216&QJJ1SJL651WLYKV0&20200715&02000016&1800100000028&1800100000028&&0&1&80240&CNY&0040&boshzjjg&6227000143610252802&0&
20071530020100505251&624BX3K9OJ5MJPY3&20200715&02000016&1815925561179&1815925561179&&0&1&30090&CNY&0040&boshzjjg&6230523960012571675&0&
20071530020100505348&VB71BD6OW8FOAAM4&20200715&02000016&1800100000045&1800100000045&&0&1&35105&CNY&0040&boshzjjg&6228481268397400476&0&
20071530020100505217&GKIALCA989COU1AT&20200715&02000016&1813032006873&1813032006873&&0&1&20060&CNY&0040&boshzjjg&4367420140818824570&0&
20071530020100505349&CXU5DO5Z2P8BK72D&20200715&02000016&1818532109882&1818532109882&&0&1&190571&CNY&0040&boshzjjg&6230523820002267777&0&
20071530020100505254&2BSDN2K7ZOQ4AA64&20200715&02000016&1813931358252&1813931358252&&0&1&20060&CNY&0040&boshzjjg&6227000148210056461&0&
20071530020100505351&Z0SXFJAGMHL5YM6I&20200715&02000016&1815208756608&1815208756608&&0&1&120361&CNY&0040&boshzjjg&6212262510001366117&0&
20071530020100505223&S5BFU4RWXM5U71JM&20200715&02000016&1813932525581&1813932525581&&0&1&10030&CNY&0040&boshzjjg&6222030403007280369&0&
20071530020100505261&VVP869ATBMB8UV2Z&20200715&02000016&1818732221628&1818732221628&&0&1&60180&CNY&0040&boshzjjg&6217000140027144870&0&
20071530020100505232&FN3S65AWWG7KJTR4&20200715&02000016&1818531229892&1818531229892&&0&1&11033&CNY&0040&boshzjjg&6217000140008298133&0&
20071530020100505435&72SHQSCW878MO816&20200715&02000016&1818934819900&1818934819900&&0&1&200601&CNY&0040&boshzjjg&6216696200010203462&0&
20071530020100505436&XMK1UVMJLR5YY5MF&20200715&02000016&1815146194700&1815146194700&&0&1&10030&CNY&0040&boshzjjg&6212260907002391791&0&
20071530020100505363&LR5T89W33ZPIQQCB&20200715&02000016&1818714555279&1818714555279&&0&1&20060&CNY&0040&boshzjjg&6013825311000638164&0&
20071530020100505364&V5U0I93IQE2PVZ9Q&20200715&02000016&1813315292608&1813315292608&&0&1&10030&CNY&0040&boshzjjg&6210810140000140106&0&
20071530020100505438&6I193H00LSS6C8HH&20200715&02000016&1815630288845&1815630288845&&0&1&10030&CNY&0040&boshzjjg&6214990140278111&0&
20071530020100505366&WEE2UJZP9AJHZWRD&20200715&02000016&1800100000050&1800100000050&&0&1&70210&CNY&0040&boshzjjg&6228481269237824776&0&
20071530020100505441&MOOXG61DNS4N5SD7&20200715&02000016&1818875037395&1818875037395&&0&1&12036&CNY&0040&boshzjjg&6228480479009445673&0&
20071530020100505272&F3L681EZYAGPVK6H&20200715&02000016&1818631271361&1818631271361&&0&1&150451&CNY&0040&boshzjjg&6228481261308584215&0&
20071530020100505368&L1SM6VJBGRZY1WZR&20200715&02000016&1817689826169&1817689826169&&0&1&10030&CNY&0040&boshzjjg&6213360159902334672&0&
20071530020100505369&HR6UG6P39GNAJZRZ&20200715&02000016&1813012058379&1813012058379&&0&1&100300&CNY&0040&boshzjjg&6228481261926323111&0&
20071530020100505370&S90XYPNS0IUXCLR7&20200715&02000016&1815245436282&1815245436282&&0&1&10030&CNY&0040&boshzjjg&6217992610164485211&0&
20071530020100505371&A3SC4L4LX7E0QLJM&20200715&02000016&1815702129504&1815702129504&&0&1&20060&CNY&0040&boshzjjg&6236562110000275470&0&
20071530020100505275&XPJ3K4BNTLE832V9&20200715&02000016&1818161735141&1818161735141&&0&1&10030&CNY&0040&boshzjjg&6217997900073030546&0&
20071530020100505276&VZAMQLKHNWMYQ3BI&20200715&02000016&1813633226787&1813633226787&&0&1&18054&CNY&0040&boshzjjg&6217230409000055995&0&
20071530020100505279&KRY8QN2E3F768M2M&20200715&02000016&1813833007650&1813833007650&&0&1&10030&CNY&0040&boshzjjg&6228481269290695576&0&
20071530020100505447&70KCKO618CLBRSV7&20200715&02000016&1813628894679&1813628894679&&0&1&100300&CNY&0040&boshzjjg&6228483358594425570&0&
20071530020100505448&M7QDPD292G7VNPXN&20200715&02000016&1814784685555&1814784685555&&0&1&50150&CNY&0040&boshzjjg&6217855300005049576&0&
20071530020100505449&89TD9O1UUNH9Y261&20200715&02000016&1818909995887&1818909995887&&0&1&50150&CNY&0040&boshzjjg&6222033006001389313&0&
20071530020100505280&LUROEOQMQFWY86CH&20200715&02000016&1813930246312&1813930246312&&0&1&30090&CNY&0040&boshzjjg&6217000140027149192&0&
20071530020100505373&4WZ4J0IFFEZL7HNG&20200715&02000016&1818713290860&1818713290860&&0&1&30090&CNY&0040&boshzjjg&6228480010458467718&0&
20071530020100505375&WVL58QVV9AFMD3M1&20200715&02000016&1817845057266&1817845057266&&0&1&10030&CNY&0040&boshzjjg&6217992610222099277&0&
20071530020100505284&M1EX2I2KECAR8RUL&20200715&02000016&1818371580857&1818371580857&&0&1&100300&CNY&0040&boshzjjg&6228483829384377973&0&
20071530020100505286&VSKFS4POXB5T38P5&20200715&02000016&1815287565721&1815287565721&&0&1&130391&CNY&0040&boshzjjg&6222032510000142699&0&
20071530020100505380&YCHHRYLM49JG7SVP&20200715&02000016&1818335259239&1818335259239&&0&1&10030&CNY&0040&boshzjjg&6212260504007260822&0&
20071530020100505384&3SP2SEZDAE3FSWLE&20200715&02000016&1817304211987&1817304211987&&0&1&10030&CNY&0040&boshzjjg&6217992340002158842&0&
20071530020100505297&VLU7BESBZIRQFX49&20200715&02000016&1813988205870&1813988205870&&0&1&240722&CNY&0040&boshzjjg&6217003970001419030&0&
20071530020100505298&A05LN07PITSYD0VE&20200715&02000016&1817317033540&1817317033540&&0&1&10030&CNY&0040&boshzjjg&6217000140040036566&0&
20071530020100505466&3NYSE4HBVDHILXPK&20200715&02000016&1813796574791&1813796574791&&0&1&43129&CNY&0040&boshzjjg&6217001070003885148&0&
20071530020100505467&U3R3P6QXCKYIVM69&20200715&02000016&1813909852916&1813909852916&&0&1&10230&CNY&0040&boshzjjg&6222033400007501767&0&
20071530020100505389&77RWAKLQO6C3OXXR&20200715&02000016&1813464031228&1813464031228&&0&1&50150&CNY&0040&boshzjjg&6216690400002134255&0&
20071530020100505299&Z9GEZUW2CPEMDS7F&20200715&02000016&1813730157568&1813730157568&&0&1&30090&CNY&0040&boshzjjg&6228481269132560871&0&
20071530020100505391&H0ULNH2V41FPWK8S&20200715&02000016&1813582238836&1813582238836&&0&1&20060&CNY&0040&boshzjjg&6217000140039977259&0&
20071530020100505392&6C2L0JPFNIRHJCEY&20200715&02000016&1813603123859&1813603123859&&0&1&10030&CNY&0040&boshzjjg&6222600920006748245&0&
20071530020100505393&6PPYZF3R0ER5SL5W&20200715&02000016&1815933593100&1815933593100&&0&1&20060&CNY&0040&boshzjjg&6215580409003867826&0&
20071530020100505301&C18VTUR24ENW5312&20200715&02000016&1818640583537&1818640583537&&0&1&20060&CNY&0040&boshzjjg&6214830242282472&0&
20071530020100505302&DYR6ZI0J5UK9ITRR&20200715&02000016&1818187582339&1818187582339&&0&1&10030&CNY&0040&boshzjjg&6230523960012293072&0&
20071530020100505469&NOINLXN5B4HF9G40&20200715&02000016&1813323220289&1813323220289&&0&1&10030&CNY&0040&boshzjjg&6217981340000850823&0&
20071530020100505395&8FGFBPSVSTPG2WY5&20200715&02000016&1818159800103&1818159800103&&0&1&10030&CNY&0040&boshzjjg&6217566400004211720&0&
20071530020100505305&PNLYKWSG6E8JWMZH&20200715&02000016&1818945765909&1818945765909&&0&1&20060&CNY&0040&boshzjjg&6221802610007105754&0&
20071530020100505396&U0F114AQC90QSJ1D&20200715&02000016&1815389494945&1815389494945&&0&1&20060&CNY&0040&boshzjjg&6215592605003645908&0&
20071530020100505397&S6HSR4Q6ABA5WHAJ&20200715&02000016&1815102200735&1815102200735&&0&1&10030&CNY&0040&boshzjjg&6222030302005903040&0&
20071530020100505471&5RBXW4T9ZWPFQV66&20200715&02000016&1800100000225&1800100000225&&0&1&20060&CNY&0040&boshzjjg&6236680140003929549&0&
20071530020100505306&ELD9QK6P2VOCTTHH&20200715&02000016&1815887550134&1815887550134&&0&1&120361&CNY&0040&boshzjjg&6217003970000160544&0&
20071530020100505307&UNX2PLJ8TEZW2Q2Y&20200715&02000016&1813904881393&1813904881393&&0&1&10030&CNY&0040&boshzjjg&6217992610184002293&0&
20071530020100505472&5W4I3MRZRCEJU1JY&20200715&02000016&1818987538596&1818987538596&&0&1&70210&CNY&0040&boshzjjg&6217003960001582077&0&
20071530020100505398&O3LJ2AAZLY85XV30&20200715&02000016&1815206929588&1815206929588&&0&1&10030&CNY&0040&boshzjjg&6212261612004191251&0&
20071530020100505308&X7G5G3720YZBNDO1&20200715&02000016&1817332403134&1817332403134&&0&1&10030&CNY&0040&boshzjjg&6228481268295550570&0&
20071530020100505399&SVWHQOI83DEX629Q&20200715&02000016&1815208999328&1815208999328&&0&1&10030&CNY&0040&boshzjjg&6230520150011399475&0&
20071530020100505473&TBSYDI6491FGKKNG&20200715&02000016&1815630231725&1815630231725&&0&1&20060&CNY&0040&boshzjjg&6222030402002241319&0&
20071530020100505309&IS9Z71Z8IOZ3EQQE&20200715&02000016&1813383626357&1813383626357&&0&1&50150&CNY&0040&boshzjjg&6228481266482264062&0&
20071530020100505310&P9T4YJ64GWAIHB69&20200715&02000016&1815094529305&1815094529305&&0&1&10030&CNY&0040&boshzjjg&6222030906000497822&0&
20071530020100505476&F8SET0LL7ODNDCA5&20200715&02000016&1815636926050&1815636926050&&0&1&30090&CNY&0040&boshzjjg&6217992610170530364&0&
20071530020100505477&8P62MDBTM6JT9PU1&20200715&02000016&1813577525294&1813577525294&&0&1&10030&CNY&0040&boshzjjg&6217003960003627946&0&
20071530020100505483&SIEAUFFCOP1FT5DY&20200715&02000016&1815846883336&1815846883336&&0&1&10030&CNY&0040&boshzjjg&6222030906000497814&0&
20071530020100505413&N97DJYGYJGKO1NZ9&20200715&02000016&1817303121352&1817303121352&&0&1&20060&CNY&0040&boshzjjg&6212260409019068793&0&
20071530020100505324&GZUB2N1JHRPQ69K6&20200715&02000016&1813400336006&1813400336006&&0&1&40120&CNY&0040&boshzjjg&6227000140710176493&0&
20071530020100505414&YXJXS0SJC414IZIY&20200715&02000016&1815187507752&1815187507752&&0&1&70210&CNY&0040&boshzjjg&6212262511001960941&0&
20071530020100505490&HBZS280VRDATVSAI&20200715&02000016&1813089950930&1813089950930&&0&1&10030&CNY&0040&boshzjjg&6217992610095631354&0&
20071530020100505415&JI09B4LX1K0YA3MV&20200715&02000016&1815887508589&1815887508589&&0&1&20060&CNY&0040&boshzjjg&6212262510001682521&0&
20071530020100505416&K4W468JV5AE04J5W&20200715&02000016&1813339582020&1813339582020&&0&1&10030&CNY&0040&boshzjjg&6216615300001573333&0&
20071530020100505417&OXBGWIYOOD97EDJN&20200715&02000016&1818032526472&1818032526472&&0&1&50150&CNY&0040&boshzjjg&6222030403005785591&0&
20071530020100505325&PGFS7RAY58VAOBPR&20200715&02000016&1815210697195&1815210697195&&0&1&250752&CNY&0040&boshzjjg&6217000140034884559&0&
20071530020100505326&8BPGSL4H43B2DO94&20200715&02000016&1815887508589&1815887508589&&0&1&10030&CNY&0040&boshzjjg&6212262510001682521&0&
20071530020100505327&UBFTQAAYVJYUCN6D&20200715&02000016&1817761306261&1817761306261&&0&1&406218&CNY&0040&boshzjjg&6212261715005789963&0&
20071530020100505418&HLN0WL6TPT2HQ3ST&20200715&02000016&1813931289112&1813931289112&&0&1&160481&CNY&0040&boshzjjg&6227000140810084142&0&
20071530020100505421&9CDZ5IHLNBPYKPWA&20200715&02000016&1818689707602&1818689707602&&0&1&10030&CNY&0040&boshzjjg&6228480158299224671&0&
20071530020100505493&6V0UNM7WV352OEBE&20200715&02000016&1817611419351&1817611419351&&0&1&15045&CNY&0040&boshzjjg&4340610140356160&0&
20071530020100505423&TX92JKBMFBATZXOX&20200715&02000016&1815165142452&1815165142452&&0&1&10030&CNY&0040&boshzjjg&6217994510016848210&0&
20071530020100505424&CFU86EQXE0ORH5TN&20200715&02000016&1815127498151&1815127498151&&0&1&20060&CNY&0040&boshzjjg&6217000140030569147&0&
20071530020100505495&U8JI2A85ETXDJ7GL&20200715&02000016&1813478653378&1813478653378&&0&1&50150&CNY&0040&boshzjjg&6228480568011405673&0&
20071530020100505329&2X568AGO1DZ56IWD&20200715&02000016&1813803126152&1813803126152&&0&1&10030&CNY&0040&boshzjjg&6222020409026149818&0&
20071530020100505427&M03H6A49GUTMI40H&20200715&02000016&1816689634186&1816689634186&&0&1&10030&CNY&0040&boshzjjg&6217232201004854152&0&
20071530020100505432&B3FMGA3THON8RWCQ&20200715&02000016&1815887543597&1815887543597&&0&1&200601&CNY&0040&boshzjjg&6228483358580733276&0&
20071530020100505536&Y95V6IZNED2VVQFS&20200715&02000016&1815042400515&1815042400515&&0&1&10330&CNY&0040&boshzjjg&6215583400006811017&0&
20071530020100505504&7J7NSV9YZESMHJR0&20200715&02000016&1815921012597&1815921012597&&0&1&200601&CNY&0040&boshzjjg&6228480038164699977&0&
20071530020100505510&1P2296VZB25IF3XJ&20200715&02000016&1800100000022&1800100000022&&0&1&401203&CNY&0040&boshzjjg&6212260409014547189&0&
20071530020100505541&09F4NZPJGH88O469&20200715&02000016&1815303121880&1815303121880&&0&1&270812&CNY&0040&boshzjjg&6217000140008538074&0&
20071530020100505515&V7F46ACVPNTOAR9Y&20200715&02000016&1813803125311&1813803125311&&0&1&20060&CNY&0040&boshzjjg&6236680140001047997&0&
20071530020100505645&ABR6S7164EWCCW7X&20200715&02000016&1815925591567&1815925591567&&0&1&50150&CNY&0040&boshzjjg&6215582510000150351&0&
20071530020100505647&5192D7CXT30357LD&20200715&02000016&1813578237662&1813578237662&&0&1&30090&CNY&0040&boshzjjg&6230523350015127974&0&
20071530020100505525&8BD5Q7CERUZI0QHH&20200715&02000016&1818451316569&1818451316569&&0&1&10030&CNY&0040&boshzjjg&6228481985804147073&0&
20071530020100505648&0RH128BOQFGACOZG&20200715&02000016&1815331520336&1815331520336&&0&1&100300&CNY&0040&boshzjjg&6212262510001422985&0&
20071530020100505649&3A99IC7Y1QDBREDH&20200715&02000016&1813932256061&1813932256061&&0&1&20060&CNY&0040&boshzjjg&6222080409001330703&0&
20071530020100505554&XOC8O434S45WRAL6&20200715&02000016&1815108633866&1815108633866&&0&1&50150&CNY&0040&boshzjjg&6217003970000530878&0&
20071530020100505527&2J3S3CWHU4VN8H9K&20200715&02000016&1815940818417&1815940818417&&0&1&10531&CNY&0040&boshzjjg&6217000780000487802&0&
20071530020100505555&EFCEO3JGIKKRIV99&20200715&02000016&1818032580086&1818032580086&&0&1&40120&CNY&0040&boshzjjg&6212260403012654519&0&
20071530020100505556&FY23RAWCCH0GW4PV&20200715&02000016&1815894422287&1815894422287&&0&1&40120&CNY&0040&boshzjjg&6228483358596724079&0&
20071530020100505557&BO040RXFVC918X1H&20200715&02000016&1818931504408&1818931504408&&0&1&10030&CNY&0040&boshzjjg&6228480659131977376&0&
20071530020100505653&N2KLLM2UJPMWZZ13&20200715&02000016&1813932211661&1813932211661&&0&1&40120&CNY&0040&boshzjjg&6212260409009915227&0&
20071530020100505558&GVMEQO63Q9YSNV9N&20200715&02000016&1818233358282&1818233358282&&0&1&10130&CNY&0040&boshzjjg&6236680140003081960&0&
20071530020100505655&962W9CENBHIUQ1D7&20200715&02000016&1815727394536&1815727394536&&0&1&200601&CNY&0040&boshzjjg&9559982200454824818&0&
20071530020100505530&K0HS6P1N4WU14WDP&20200715&02000016&1813082311311&1813082311311&&0&1&41123&CNY&0040&boshzjjg&6228481269123313074&0&
20071530020100505531&QDWXXGRSXRT1RN79&20200715&02000016&1815818598480&1815818598480&&0&1&10030&CNY&0040&boshzjjg&6230520120003213679&0&
20071530020100505657&2LZEVG8QUKK549C8&20200715&02000016&1813785222268&1813785222268&&0&1&30090&CNY&0040&boshzjjg&6228481268948566478&0&
20071530020100505562&0VG8U6EG9BN9XTVN&20200715&02000016&1818889422056&1818889422056&&0&1&15045&CNY&0040&boshzjjg&6228410150025333913&0&
20071530020100505565&0GUKHK6M4QCJ4DGU&20200715&02000016&1813836555299&1813836555299&&0&1&20060&CNY&0040&boshzjjg&6228482678422975475&0&
20071530020100505533&SVXQTSPZ607N9NCO&20200715&02000016&1815030230206&1815030230206&&0&1&60180&CNY&0040&boshzjjg&6228481269246185771&0&
20071530020100505566&9VF5WG9XWXDSQE6A&20200715&02000016&1813998105808&1813998105808&&0&1&100300&CNY&0040&boshzjjg&6230580000261094093&0&
20071530020100505735&GIUFRXBPFLDCTS7T&20200715&02000016&1818741608136&1818741608136&&0&1&100300&CNY&0040&boshzjjg&6212260708008900761&0&
20071530020100505567&4ATFXV31N3C44CIC&20200715&02000016&1815184974413&1815184974413&&0&1&200601&CNY&0040&boshzjjg&6228483358597652972&0&
20071530020100505659&YBFH0YCYWNQDAMR1&20200715&02000016&1813009970011&1813009970011&&0&1&10030&CNY&0040&boshzjjg&6221802610007911698&0&
20071530020100505661&3PR8IRVA4EWTMIYZ&20200715&02000016&1815830908883&1815830908883&&0&1&250752&CNY&0040&boshzjjg&6217000140018014256&0&
20071530020100505569&U0HEOCY7H97AF2XU&20200715&02000016&1815032232283&1815032232283&&0&1&30090&CNY&0040&boshzjjg&6228481268245286978&0&
20071530020100505579&93NBBWZ4KMRWQYHF&20200715&02000016&1818088167118&1818088167118&&0&1&10531&CNY&0040&boshzjjg&6230523350013666874&0&
20071530020100505583&7PH4P9JBDCCY5PV2&20200715&02000016&1815933126808&1815933126808&&0&1&70210&CNY&0040&boshzjjg&6228481261924832113&0&
20071530020100505586&D86ASGDVCQ5BVJMP&20200715&02000016&1813731798775&1813731798775&&0&1&20060&CNY&0040&boshzjjg&6228480649169179276&0&
20071530020100505676&IIP9SH0U26FL5AY4&20200715&02000016&1813846873625&1813846873625&&0&1&10030&CNY&0040&boshzjjg&6222020906004913875&0&
20071530020100505750&W1OWI1E7BKWI880S&20200715&02000016&1813833495031&1813833495031&&0&1&10030&CNY&0040&boshzjjg&6212260409018864176&0&
20071530020100505587&6HNL0AS959YP72TN&20200715&02000016&1813825724130&1813825724130&&0&1&50150&CNY&0040&boshzjjg&6217857600045175572&0&
20071530020100505589&HVH2F8L5KJX7JNYT&20200715&02000016&1813388823626&1813388823626&&0&1&10030&CNY&0040&boshzjjg&6213363350003156919&0&
20071530020100505678&RV2OR9VCXM114EAJ&20200715&02000016&1818742493073&1818742493073&&0&1&50150&CNY&0040&boshzjjg&6228480040464950019&0&
20071530020100505754&NSEBIKEIDDKP5349&20200715&02000016&1818788224059&1818788224059&&0&1&10030&CNY&0040&boshzjjg&6228483358070515670&0&
20071530020100505590&EI0BXZMEHBNTR5ZI&20200715&02000016&1813238826869&1813238826869&&0&1&200601&CNY&0040&boshzjjg&6217000730027018668&0&
20071530020100505756&HOB9A39P22ZSMHAH&20200715&02000016&1815333262646&1815333262646&&0&1&10030&CNY&0040&boshzjjg&6228481268296948575&0&
20071530020100505593&DUM2G3FMMK9OH0VW&20200715&02000016&1818741608136&1818741608136&&0&1&100300&CNY&0040&boshzjjg&6212260708008900761&0&
20071530020100505759&QHGCWXYXZP4NMAFP&20200715&02000016&1815232607038&1815232607038&&0&1&10030&CNY&0040&boshzjjg&6228480652067343614&0&
20071530020100505680&01VXB7DAW25IQX07&20200715&02000016&1815716865625&1815716865625&&0&1&50150&CNY&0040&boshzjjg&6217855000043214923&0&
20071530020100505760&GA2TLNX6PP8TEMLH&20200715&02000016&1813930241343&1813930241343&&0&1&50150&CNY&0040&boshzjjg&6212260409003672139&0&
20071530020100505682&VAS6Q68EOQPGB58B&20200715&02000016&1813803283883&1813803283883&&0&1&11434&CNY&0040&boshzjjg&6214660140105271&0&
20071530020100505683&XZQ4J92F1RD4LUHE&20200715&02000016&1818976770088&1818976770088&&0&1&40120&CNY&0040&boshzjjg&6212262201024968523&0&
20071530020100505684&D7036LP8L9OSB9P3&20200715&02000016&1813731660124&1813731660124&&0&1&20060&CNY&0040&boshzjjg&6216695000002505127&0&
20071530020100505594&3FC9MP7SMRMZGOMI&20200715&02000016&1815502925058&1815502925058&&0&1&40120&CNY&0040&boshzjjg&6212263700001397795&0&
20071530020100505595&B5VJQS96YNMMB2ZS&20200715&02000016&1815931895927&1815931895927&&0&1&30090&CNY&0040&boshzjjg&6217000140034130391&0&
20071530020100505761&R6MFUGRPLP0SAH3O&20200715&02000016&1813988266618&1813988266618&&0&1&20060&CNY&0040&boshzjjg&6217852700023956459&0&
20071530020100505685&RBFTZ3Q22N28W2O7&20200715&02000016&1813619647900&1813619647900&&0&1&100300&CNY&0040&boshzjjg&6217003860019630217&0&
20071530020100505686&3OI8P9SGUSPRK62X&20200715&02000016&1815771836378&1815771836378&&0&1&15045&CNY&0040&boshzjjg&6215592605004136980&0&
20071530020100505596&HKBBQJTGAOLDHL4C&20200715&02000016&1813064860909&1813064860909&&0&1&20060&CNY&0040&boshzjjg&6228481985804145978&0&
20071530020100505597&RDQAI9WW7LNS95IW&20200715&02000016&1800100000106&1800100000106&&0&1&260782&CNY&0040&boshzjjg&6228481749121580972&0&
20071530020100505762&ENZOD7JTIQDKI6TJ&20200715&02000016&1815579647169&1815579647169&&0&1&20060&CNY&0040&boshzjjg&6217002110005451819&0&
20071530020100505599&RTG4PD1E76B1XZ0B&20200715&02000016&1815969250481&1815969250481&&0&1&10030&CNY&0040&boshzjjg&6212262511001991102&0&
20071530020100505763&BFH6S37IXO2JKCBS&20200715&02000016&1815630880329&1815630880329&&0&1&10130&CNY&0040&boshzjjg&4563515005004515888&0&
20071530020100505600&XGBQEKX6IGR7TSPX&20200715&02000016&1817679024406&1817679024406&&0&1&40120&CNY&0040&boshzjjg&6228480078186287476&0&
20071530020100505601&XYZYZJ35OXUVXFP8&20200715&02000016&1813031511388&1813031511388&&0&1&10030&CNY&0040&boshzjjg&6217000180011149501&0&
20071530020100505689&OCHDWF908LPF19U9&20200715&02000016&1813687247435&1813687247435&&0&1&50150&CNY&0040&boshzjjg&6230523820009349073&0&
20071530020100505603&3O048KV9PPPLVKDZ&20200715&02000016&1813323228902&1813323228902&&0&1&100300&CNY&0040&boshzjjg&6236680140001843411&0&
20071530020100505764&BWW4T610AX0CWTZF&20200715&02000016&1815931773590&1815931773590&&0&1&196589&CNY&0040&boshzjjg&6217000140035632999&0&
20071530020100505606&UXWZAB4NM393P0DH&20200715&02000016&1813230331640&1813230331640&&0&1&10030&CNY&0040&boshzjjg&6228480649169025172&0&
20071530020100505700&H29MISDKSU7LJBTW&20200715&02000016&1818631228121&1818631228121&&0&1&50150&CNY&0040&boshzjjg&6217852600021512488&0&
20071530020100505620&EZYWLS4ZU4FZYK4X&20200715&02000016&1813946779996&1813946779996&&0&1&10030&CNY&0040&boshzjjg&6212260906002203667&0&
20071530020100505783&6L6Z8Z6B1638NCKL&20200715&02000016&1818988233957&1818988233957&&0&1&160481&CNY&0040&boshzjjg&6228483358606325073&0&
20071530020100505622&7VF42XI0C6SVAF95&20200715&02000016&1815633362628&1815633362628&&0&1&10030&CNY&0040&boshzjjg& 6216695000010405609&0&
20071530020100505784&PX5ZA1X4HM7NSJ22&20200715&02000016&1815227098333&1815227098333&&0&1&10030&CNY&0040&boshzjjg&6228481261798664410&0&
20071530020100505714&86NIHM1LD2442TAR&20200715&02000016&1815903327688&1815903327688&&0&1&30090&CNY&0040&boshzjjg&6227000143210282613&0&
20071530020100505624&NB7H9JXXTYDUCD5R&20200715&02000016&1813429897976&1813429897976&&0&1&10030&CNY&0040&boshzjjg&6217857600056687507&0&
20071530020100505625&NAAOUK56CT67TECJ&20200715&02000016&1815887537882&1815887537882&&0&1&250752&CNY&0040&boshzjjg&6228483350665716318&0&
20071530020100505715&NGR5NJYNGUKX5QWF&20200715&02000016&1800100000080&1800100000080&&0&1&60180&CNY&0040&boshzjjg&6217855300030279677&0&
20071530020100505716&SNVJ8AJQXP7TTQGW&20200715&02000016&1818932692236&1818932692236&&0&1&20060&CNY&0040&boshzjjg&6228481269141588772&0&
20071530020100505626&DM5O523Q5BBMB3EC&20200715&02000016&1818962075812&1818962075812&&0&1&50150&CNY&0040&boshzjjg&6228481985094841773&0&
20071530020100505787&ABWZYU4R6E764KSW&20200715&02000016&1815561743759&1815561743759&&0&1&10030&CNY&0040&boshzjjg&6228482688418322475&0&
20071530020100505788&BDJCP0V5EVBSWB2Y&20200715&02000016&1818164646890&1818164646890&&0&1&70210&CNY&0040&boshzjjg&6228483318336892578&0&
20071530020100505789&1LOXWU26VR3I2Y4G&20200715&02000016&1813785550440&1813785550440&&0&1&20060&CNY&0040&boshzjjg&6222020403024592509&0&
20071530020100505717&JFAGA79JT00DJV7F&20200715&02000016&1818313096871&1818313096871&&0&1&110330&CNY&0040&boshzjjg&6228483358596905173&0&
20071530020100505790&H1809EO1YYWCYQK1&20200715&02000016&1815033779933&1815033779933&&0&1&60180&CNY&0040&boshzjjg&6217000140034587533&0&
20071530020100505629&NO49PXI1ZZGNVI2B&20200715&02000016&1815511520473&1815511520473&&0&1&20060&CNY&0040&boshzjjg&6228230655150233363&0&
20071530020100505630&YBPRPEE7BPAR1QRQ&20200715&02000016&1818872629912&1818872629912&&0&1&50150&CNY&0040&boshzjjg&6228483822136976614&0&
20071530020100505791&MLDNAXMPD3M0620Q&20200715&02000016&1818604681909&1818604681909&&0&1&60180&CNY&0040&boshzjjg&6217992610209647056&0&
20071530020100505631&B7XI8893XI8WNXT5&20200715&02000016&1813292999216&1813292999216&&0&1&60180&CNY&0040&boshzjjg&6222621360001603761&0&
20071530020100505632&7PVCGYRVHR6OY5MJ&20200715&02000016&1813378816227&1813378816227&&0&1&100300&CNY&0040&boshzjjg&6228483318352011871&0&
20071530020100505633&YSNT8EQJ41F261YV&20200715&02000016&1818855897042&1818855897042&&0&1&60180&CNY&0040&boshzjjg&6217993720003051402&0&
20071530020100505719&NXCQYWTKOIVFWMP9&20200715&02000016&1818131516269&1818131516269&&0&1&20060&CNY&0040&boshzjjg&6228480659211340974&0&
20071530020100505834&31O6YTKYSI8QOQVS&20200715&02000016&1813378824457&1813378824457&&0&1&100&CNY&0040&boshzjjg&6230523350013046077&0&
20071530020100505835&I8T4UVB0AICOMH00&20200715&02000016&1818049119039&1818049119039&&0&1&1003009&CNY&0040&boshzjjg&6215512511040043833&0&
20071530020100505728&FYX97QNCIGALNAOH&20200715&02000016&1818049119039&1818049119039&&0&1&1003009&CNY&0040&boshzjjg&6215512511040043833&0&
20071530020100505844&XIBMLDMGQV6JXD7E&20200715&02000016&1817789888843&1817789888843&&0&1&10030&CNY&0040&boshzjjg&6222022201008354302&0&
20071530020100505845&QPEC0LGMZR0K10QE&20200715&02000016&1813161708337&1813161708337&&0&1&10030&CNY&0040&boshzjjg&6217000140023533928&0&
20071530020100505729&J96UB0VSSQQ6Y0GT&20200715&02000016&1818088176980&1818088176980&&0&1&220661&CNY&0040&boshzjjg&6230523350004703074&0&
20071530020100505849&1938XKYCKRIY76P7&20200715&02000016&1813578268057&1813578268057&&0&1&60180&CNY&0040&boshzjjg&6217003970003416869&0&
20071530020100505803&7T9LNC4W6YWVP58J&20200715&02000016&1813231500951&1813231500951&&0&1&11033&CNY&0040&boshzjjg&6230520650040854077&0&
20071530020100505804&F7JD38WUX8SIZ50M&20200715&02000016&1813933309467&1813933309467&&0&1&20060&CNY&0040&boshzjjg&6228270651229151976&0&
20071530020100505850&2J2BA51LP5AHSD6G&20200715&02000016&1800100000080&1800100000080&&0&1&60180&CNY&0040&boshzjjg&6217855300030279677&0&
20071530020100505805&EHEFD13VJ7B05DES&20200715&02000016&1818531222131&1818531222131&&0&1&10030&CNY&0040&boshzjjg&6217000140012949192&0&
20071530020100505934&SVSJ22ONBY8W2JO5&20200715&02000016&1813324977927&1813324977927&&0&1&100&CNY&0040&boshzjjg&6228483356068787061&0&
20071530020100505852&A47MUOURT2R8HD32&20200715&02000016&1815911281296&1815911281296&&0&1&200601&CNY&0040&boshzjjg&6217997300096189835&0&
20071530020100505811&LFM4UYLF2HJWFI6L&20200715&02000016&1813483536053&1813483536053&&0&1&10030&CNY&0040&boshzjjg&6217000180005468214&0&
20071530020100505853&XBF1Y9H139Y88E8G&20200715&02000016&1813191758429&1813191758429&&0&1&20060&CNY&0040&boshzjjg&6217991240007416891&0&
20071530020100505855&VB3AGWUQ8X210NWE&20200715&02000016&1813931386960&1813931386960&&0&1&120361&CNY&0040&boshzjjg&6217000140006323651&0&
20071530020100505856&WXZNXJV1ROP5JUG9&20200715&02000016&1813832565805&1813832565805&&0&1&10030&CNY&0040&boshzjjg&6228480658670262075&0&
20071530020100505857&O2O2388YVKIYCGX8&20200715&02000016&1818233358282&1818233358282&&0&1&1404&CNY&0040&boshzjjg&6236680140003081960&0&
20071530020100505815&89MKVVZQDUN5AJTO&20200715&02000016&1813324977927&1813324977927&&0&1&13390&CNY&0040&boshzjjg&6228483356068787061&0&
20071530020100505816&WVWC5VFUM98RRY1X&20200715&02000016&1813930238016&1813930238016&&0&1&30090&CNY&0040&boshzjjg&4367420140718182517&0&
20071530020100505817&VZYVTRC8BZSE8UXD&20200715&02000016&1818531767801&1818531767801&&0&1&10030&CNY&0040&boshzjjg&6228480651622950616&0&
20071530020100505940&ZER62NRMAY06PLN3&20200715&02000016&1815929113628&1815929113628&&0&1&100300&CNY&0040&boshzjjg&6228481008543004172&0&
20071530020100505858&XZEBJUXIKDL9M0CU&20200715&02000016&1813931214281&1813931214281&&0&1&80240&CNY&0040&boshzjjg&6228461260013069011&0&
20071530020100505818&CBZS9O2QX4J9Y1QI&20200715&02000016&1815633298879&1815633298879&&0&1&20060&CNY&0040&boshzjjg&6226200204208467&0&
20071530020100505942&RUBO2P8LNCN39L29&20200715&02000016&1818330218859&1818330218859&&0&1&30090&CNY&0040&boshzjjg&6228481269217496777&0&
20071530020100505943&6WG5I86RF2OY71UN&20200715&02000016&1813324977927&1813324977927&&0&1&100&CNY&0040&boshzjjg&6228483356068787061&0&
20071530020100505822&A64A70VP1Q2VUG7P&20200715&02000016&1813324977927&1813324977927&&0&1&170511&CNY&0040&boshzjjg&6228483356068787061&0&
20071530020100505861&AGNAXWLR8PH24VTK&20200715&02000016&1815866353002&1815866353002&&0&1&20060&CNY&0040&boshzjjg&6228480268676852075&0&
20071530020100505825&02H94Z7MBR2Q6F23&20200715&02000016&1813483435916&1813483435916&&0&1&90270&CNY&0040&boshzjjg&6236680130002387492&0&
20071530020100505862&3TEZY81O89IZSIM9&20200715&02000016&1815972280790&1815972280790&&0&1&50150&CNY&0040&boshzjjg&6236682660002898450&0&
20071530020100505948&K6ER3OCC9GJHAVGC&20200715&02000016&1817761272857&1817761272857&&0&1&40120&CNY&0040&boshzjjg&6217003800032658217&0&
20071530020100505863&MF03G57W82QOA162&20200715&02000016&1813324977927&1813324977927&&0&1&15847&CNY&0040&boshzjjg&6228483356068787061&0&
20071530020100505959&741BC8TR2D8AX7SX&20200715&02000016&1813520629383&1813520629383&&0&1&10030&CNY&0040&boshzjjg&6228481269250889979&0&
20071530020100506038&6OT31PKA56FRA8QF&20200715&02000016&1818746710622&1818746710622&&0&1&50150&CNY&0040&boshzjjg&6228482680624947310&0&
20071530020100505874&Z7CC5UUXOQZW8KG3&20200715&02000016&1800100000041&1800100000041&&0&1&140421&CNY&0040&boshzjjg&6228481268439100175&0&
20071530020100506039&Y2AK8NX5ULUCHI3Y&20200715&02000016&1813886994818&1813886994818&&0&1&20060&CNY&0040&boshzjjg&6217002700007692848&0&
20071530020100505877&DM35H46QPZ1292IU&20200715&02000016&1815368486928&1815368486928&&0&1&110330&CNY&0040&boshzjjg&6222082510000337827&0&
20071530020100506041&O2SZMWGOBPCQUPA2&20200715&02000016&1813324977927&1813324977927&&0&1&52&CNY&0040&boshzjjg&6228483356068787061&0&
20071530020100505963&SZ67DJXNR91X3VCA&20200715&02000016&1815949672286&1815949672286&&0&1&10030&CNY&0040&boshzjjg&6230522310004130273&0&
20071530020100506045&1NZCWOPU1LO3SXVY&20200715&02000016&1815633917679&1815633917679&&0&1&50150&CNY&0040&boshzjjg&6216725000000187492&0&
20071530020100506046&GITUR048R1EESLES&20200715&02000016&1818431266975&1818431266975&&0&1&10030&CNY&0040&boshzjjg&6217000140034044378&0&
20071530020100505879&XVY3XJO6FUEFQPLS&20200715&02000016&1817331503933&1817331503933&&0&1&50150&CNY&0040&boshzjjg&6230520650020456976&0&
20071530020100506047&GLQ3YX1EC964TH4T&20200715&02000016&1813393192793&1813393192793&&0&1&18555&CNY&0040&boshzjjg&6217000170004145426&0&
20071530020100505886&RLIBDR33LW7CN8RY&20200715&02000016&1813997953437&1813997953437&&0&1&30090&CNY&0040&boshzjjg&6213363829900696176&0&
20071530020100506054&4FE5YYOP39ZOWQPW&20200715&02000016&1813970601152&1813970601152&&0&1&100300&CNY&0040&boshzjjg&5240942110023944&0&
20071530020100505969&JD0ABAK3U0KTCIP6&20200715&02000016&1818903125539&1818903125539&&0&1&75225&CNY&0040&boshzjjg&6217000140023212705&0&
20071530020100506056&SGRNTSB3GF5W35AU&20200715&02000016&1813274543299&1813274543299&&0&1&50150&CNY&0040&boshzjjg&6212260904005137735&0&
20071530020100506057&4STY2WI6L2UGNEUI&20200715&02000016&1815933739943&1815933739943&&0&1&60180&CNY&0040&boshzjjg&6227000140230002146&0&
20071530020100505892&IPJ468J5LDCF3VXV&20200715&02000016&1800100000287&1800100000287&&0&1&30090&CNY&0040&boshzjjg&6217856000061097936&0&
20071530020100505905&65NYUH7KKCLFVAIG&20200715&02000016&1813846055840&1813846055840&&0&1&13039&CNY&0040&boshzjjg&4367421041460035508&0&
20071530020100506073&PVXBDN4IZUWJCVRS&20200715&02000016&1813780323381&1813780323381&&0&1&50150&CNY&0040&boshzjjg&6217991340025582813&0&
20071530020100506076&KVL6Y97B7RLW3ATP&20200715&02000016&1813220168777&1813220168777&&0&1&10030&CNY&0040&boshzjjg&6227000013780798803&0&
20071530020100505991&3ARXV23CS76VUDUH&20200715&02000016&1815161960908&1815161960908&&0&1&10030&CNY&0040&boshzjjg&6236681320001941667&0&
20071530020100505992&HE7PNYEPFBVJADN1&20200715&02000016&1813463503191&1813463503191&&0&1&10030&CNY&0040&boshzjjg&6222030403007685450&0&
20071530020100506082&E5AAVKKMNRFHZ084&20200715&02000016&1813159989877&1813159989877&&0&1&50150&CNY&0040&boshzjjg&6228480190286820013&0&
20071530020100505909&LTPVMVXKX80T2EA9&20200715&02000016&1813703283113&1813703283113&&0&1&50150&CNY&0040&boshzjjg&6228481268439092075&0&
20071530020100505910&DTKORUDSX2R0MGWJ&20200715&02000016&1818008829058&1818008829058&&0&1&50150&CNY&0040&boshzjjg&6217003970001982961&0&
20071530020100506083&Y43ACWNYWZ529BAC&20200715&02000016&1818921860818&1818921860818&&0&1&10030&CNY&0040&boshzjjg&6228431989604774772&0&
20071530020100506087&U5CZ9VIPR2X1UVG3&20200715&02000016&1818306924682&1818306924682&&0&1&100300&CNY&0040&boshzjjg&6217003970001585715&0&
20071530020100505995&9PMIEJRX5EXD5FEZ&20200715&02000016&1815170510050&1815170510050&&0&1&80240&CNY&0040&boshzjjg&6217002020063188189&0&
20071530020100505996&L605W52LNGQXNPHE&20200715&02000016&1818132565769&1818132565769&&0&1&10030&CNY&0040&boshzjjg&6212880409000244080&0&
20071530020100505913&DJXHWQOEY1QOM49P&20200715&02000016&1800100000043&1800100000043&&0&1&992978&CNY&0040&boshzjjg&6228480190737213818&0&
20071530020100505998&60OT3WEQ4119PEI1&20200715&02000016&1818246371598&1818246371598&&0&1&10030&CNY&0040&boshzjjg&6217992610079187985&0&
20071530020100506009&DTM82H1GOH8SIK4I&20200715&02000016&1818032581693&1818032581693&&0&1&10030&CNY&0040&boshzjjg&6228480659211103471&0&
20071530020100505922&WPMQWEDVXNI2RHDK&20200715&02000016&1815613502427&1815613502427&&0&1&41123&CNY&0040&boshzjjg&6231562800348242&0&
20071530020100506102&VUSE1GCUY6B5FCBG&20200715&02000016&1813831522789&1813831522789&&0&1&50150&CNY&0040&boshzjjg&6217000180004322685&0&
20071530020100506011&IEM515D8418C2EN6&20200715&02000016&1815003151816&1815003151816&&0&1&10030&CNY&0040&boshzjjg&6212260403018835666&0&
20071530020100505924&LQ775RASPNTQPIDE&20200715&02000016&1817732266277&1817732266277&&0&1&601805&CNY&0040&boshzjjg&6228481262349094115&0&
20071530020100506104&4NGEAY9361MQGXKU&20200715&02000016&1800100000060&1800100000060&&0&1&195586&CNY&0040&boshzjjg&6228480198414160970&0&
20071530020100506014&XJ79B7MUPRRPTF14&20200715&02000016&1818674146599&1818674146599&&0&1&90270&CNY&0040&boshzjjg&6228483828878286773&0&
20071530020100506108&W14K8X6YGNI0IMUS&20200715&02000016&1815175228012&1815175228012&&0&1&20060&CNY&0040&boshzjjg&6228481269185401577&0&
20071530020100505928&GD70JLQ0JFTVB87W&20200715&02000016&1813832296893&1813832296893&&0&1&10030&CNY&0040&boshzjjg&6216605000008103157&0&
20071530020100506023&GN9B9FCK6UBB9X52&20200715&02000016&1818103121030&1818103121030&&0&1&10030&CNY&0040&boshzjjg&6236680140002963580&0&
20071530020100506134&F2BM6UZ352MHLORI&20200715&02000016&1813582623427&1813582623427&&0&1&8024&CNY&0040&boshzjjg&6217000140014130130&0&
20071530020100506117&8Y1CTNJC4RPE9FDX&20200715&02000016&1813930808723&1813930808723&&0&1&30090&CNY&0040&boshzjjg&6217210409010287913&0&
20071530020100506238&Q3IT51UXZNKNL5RZ&20200715&02000016&1815512595393&1815512595393&&0&1&10030&CNY&0040&boshzjjg&6226195301284009&0&
20071530020100506239&2OJDUSABQVS4XI27&20200715&02000016&1815333221709&1815333221709&&0&1&50150&CNY&0040&boshzjjg&6217855000039539457&0&
20071530020100506133&RQTOB2BAXF8Q7QWZ&20200715&02000016&1813730257156&1813730257156&&0&1&18555&CNY&0040&boshzjjg&6212260409003069617&0&
20071530020100506334&X3LGGS1IT9Y5O1VR&20200715&02000016&1813513121930&1813513121930&&0&1&40120&CNY&0040&boshzjjg&6013825002007063429&0&
20071530020100506335&3TES85IAKVF0NH8F&20200715&02000016&1818730588858&1818730588858&&0&1&10030&CNY&0040&boshzjjg&6217000180014526994&0&
20071530020100506243&WSIKC3BKAMW1OFQ4&20200715&02000016&1815126963815&1815126963815&&0&1&20060&CNY&0040&boshzjjg&6217902700004471866&0&
20071530020100506156&IJMKOSZXQ2XVDLKX&20200715&02000016&1815931586164&1815931586164&&0&1&10030&CNY&0040&boshzjjg&6210810180000682046&0&
20071530020100506345&40CC4UL29MKJJ8TP&20200715&02000016&1813472972651&1813472972651&&0&1&20060&CNY&0040&boshzjjg&9558820403001406380&0&
20071530020100506165&H7O666UPSRI98KW4&20200715&02000016&1818674148199&1818674148199&&0&1&150451&CNY&0040&boshzjjg&6228483829038873773&0&
20071530020100506252&EOHESZYLEX0Y69NH&20200715&02000016&1815613556396&1815613556396&&0&1&10030&CNY&0040&boshzjjg&6228480659215979777&0&
20071530020100506254&EH0HY8II910KCG2L&20200715&02000016&1815094690607&1815094690607&&0&1&10030&CNY&0040&boshzjjg&6217982610004127066&0&
20071530020100506172&4DMBIKDGDQEGGV2K&20200715&02000016&1813349569303&1813349569303&&0&1&20060&CNY&0040&boshzjjg&6217992610148766140&0&
20071530020100506262&9TKG1AHKTYPQY4XE&20200715&02000016&1813231271852&1813231271852&&0&1&50150&CNY&0040&boshzjjg&6222030409005538716&0&
20071530020100506264&BMDXEX29TLC6TVTF&20200715&02000016&1818617854952&1818617854952&&0&1&10030&CNY&0040&boshzjjg&6212260403021156779&0&
20071530020100506358&148E5LS0R6M0202P&20200715&02000016&1800100000085&1800100000085&&0&1&50150&CNY&0040&boshzjjg&6228481269136633674&0&
20071530020100506269&UL7ZTM4DZXIZR4L0&20200715&02000016&1813887868883&1813887868883&&0&1&100300&CNY&0040&boshzjjg&6214993970005596&0&
20071530020100506270&U12MDIOR8IFY72LP&20200715&02000016&1815076235183&1815076235183&&0&1&80240&CNY&0040&boshzjjg&6228480659132065874&0&
20071530020100506180&9THLGTY9LKJDG1TL&20200715&02000016&1818032588673&1818032588673&&0&1&10030&CNY&0040&boshzjjg&6212260403022148239&0&
20071530020100506361&RNE8GK90V8WWWG40&20200715&02000016&1813931214281&1813931214281&&0&1&80240&CNY&0040&boshzjjg&6228461260013069011&0&
20071530020100506182&R46QWP5EPG5MZEYC&20200715&02000016&1818088200256&1818088200256&&0&1&200&CNY&0040&boshzjjg&6212262511000621759&0&
20071530020100506274&FMW1H2XOCGN1IHUZ&20200715&02000016&1813164343454&1813164343454&&0&1&26078&CNY&0040&boshzjjg&6217868000010167687&0&
20071530020100506276&17OL3PDZKYOL9PMK&20200715&02000016&1815100500891&1815100500891&&0&1&15045&CNY&0040&boshzjjg&6222080403002514662&0&
20071530020100506192&TJFK6WMFZ9Z0RCU0&20200715&02000016&1818931441806&1818931441806&&0&1&10030&CNY&0040&boshzjjg&6222030403007736303&0&
20071530020100506193&9J9SNKKZY22HI6DL&20200715&02000016&1813703151462&1813703151462&&0&1&12036&CNY&0040&boshzjjg&6217855000054129564&0&
20071530020100506194&PL4RA09U9MUTH952&20200715&02000016&1818908820122&1818908820122&&0&1&10030&CNY&0040&boshzjjg&6230523350009043070&0&
20071530020100506195&8RQRTF4B1YTYSPJ6&20200715&02000016&1813584278719&1813584278719&&0&1&10030&CNY&0040&boshzjjg&6230520660061593777&0&
20071530020100506368&61I0F97M1GLLTZLT&20200715&02000016&1813623333299&1813623333299&&0&1&20060&CNY&0040&boshzjjg&6228480658461337573&0&
20071530020100506287&ZJTDRKBJUBKWC0H3&20200715&02000016&1800100000063&1800100000063&&0&1&200601&CNY&0040&boshzjjg&6228482680558013519&0&
20071530020100506288&ERI2F6ZRQ0GTD66B&20200715&02000016&1817796982621&1817796982621&&0&1&12036&CNY&0040&boshzjjg&6228480658461327673&0&
20071530020100506300&43Y8ZI1MZ4GS7ZA9&20200715&02000016&1800100000048&1800100000048&&0&1&250752&CNY&0040&boshzjjg&6217000140028374146&0&
20071530020100506217&BM4TTAFXEVFOK0XC&20200715&02000016&1815830219313&1815830219313&&0&1&13941&CNY&0040&boshzjjg&6217000140015555129&0&
20071530020100506223&HANWF7WP33IBTHFA&20200715&02000016&1813931359385&1813931359385&&0&1&10030&CNY&0040&boshzjjg&6228481269171838774&0&
20071530020100506393&YKNPPO8VQIRSYV28&20200715&02000016&1800100000361&1800100000361&&0&1&10030&CNY&0040&boshzjjg&6217855000069267581&0&
20071530020100506319&Z99FUD4XOMNH5DHZ&20200715&02000016&1813988247562&1813988247562&&0&1&20060&CNY&0040&boshzjjg&6212262511001634553&0&
20071530020100506329&CXB6NL65FQJ90GYS&20200715&02000016&1818945101437&1818945101437&&0&1&30090&CNY&0040&boshzjjg&6222620410010698723&0&
20071530020100506330&K14IBAQO7GN869KY&20200715&02000016&1818826447446&1818826447446&&0&1&50150&CNY&0040&boshzjjg&6222003602103247668&0&
20071530020100506440&91SS7OL6UA7WDVFD&20200715&02000016&1815524873254&1815524873254&&0&1&10030&CNY&0040&boshzjjg&6230580000278650515&0&
20071530020100506408&E2K1ECQ7I5L4KR57&20200715&02000016&1815930276335&1815930276335&&0&1&10030&CNY&0040&boshzjjg&6222080409003770310&0&
20071530020100506536&9JLA65BOAYQMCVSY&20200715&02000016&1813370555380&1813370555380&&0&1&20060&CNY&0040&boshzjjg&6228480258142932072&0&
20071530020100506449&2LQK0PE9CAGBEH6D&20200715&02000016&1815246489748&1815246489748&&0&1&22066&CNY&0040&boshzjjg&6212260904007862686&0&
20071530020100506414&GD7VPTL2Q0BA6IIU&20200715&02000016&1815133232674&1815133232674&&0&1&20060&CNY&0040&boshzjjg&6228481269291377877&0&
20071530020100506455&G1ZNELV0PH5TM123&20200715&02000016&1813477836573&1813477836573&&0&1&200601&CNY&0040&boshzjjg&6236682700002326886&0&
20071530020100506456&NBYZVA8J9EMFYGS8&20200715&02000016&1813584278719&1813584278719&&0&1&10030&CNY&0040&boshzjjg&6230520660061593777&0&
20071530020100506556&8ENM36XVZOBI3M99&20200715&02000016&1815187700939&1815187700939&&0&1&100300&CNY&0040&boshzjjg&6217997300002642893&0&
20071530020100506470&4QICDRA4WLBMHOQ0&20200715&02000016&1813988238986&1813988238986&&0&1&10030&CNY&0040&boshzjjg&6230523350012901777&0&
20071530020100506635&S6BQY639WTLELVBI&20200715&02000016&1819979689479&1819979689479&&0&1&10030&CNY&0040&boshzjjg&6217856200036006612&0&
20071530020100506641&89Z32UKBR8BVO3KB&20200715&02000016&1813722255068&1813722255068&&0&1&100300&CNY&0040&boshzjjg&6228481268540555077&0&
20071530020100506481&LCFSTNV0SHB65MPE&20200715&02000016&1813832263840&1813832263840&&0&1&2006&CNY&0040&boshzjjg&6222020409032260237&0&
20071530020100506482&FYSTK50V0YJQB0EM&20200715&02000016&1818729936598&1818729936598&&0&1&10030&CNY&0040&boshzjjg&6227004143490146997&0&
20071530020100506495&DXH9KOGQMG3QI7RF&20200715&02000016&1813191775000&1813191775000&&0&1&80240&CNY&0040&boshzjjg&6228480659144404376&0&
20071530020100506501&2FJQ3MIMSLQ3QK8P&20200715&02000016&1815512532000&1815512532000&&0&1&150451&CNY&0040&boshzjjg&6222080403002647884&0&
20071530020100506592&HEUF8GDZ4O4V2NSX&20200715&02000016&1815232640847&1815232640847&&0&1&80240&CNY&0040&boshzjjg&6228480659200859174&0&
20071530020100506507&M3SOOJ4XZJXR1OMC&20200715&02000016&1815107963447&1815107963447&&0&1&10030&CNY&0040&boshzjjg&6215994350000163829&0&
20071530020100506607&2ATNAX4KC4EOMEIP&20200715&02000016&1815232591002&1815232591002&&0&1&50150&CNY&0040&boshzjjg&6227000180890120309&0&
20071530020100506515&3LRSKE4B1Y4T4LWO&20200715&02000016&1813930525191&1813930525191&&0&1&50150&CNY&0040&boshzjjg&6212260403010790091&0&
20071530020100506523&DOYNQV1DDQ3B4P1P&20200715&02000016&1818731521085&1818731521085&&0&1&30090&CNY&0040&boshzjjg&6228230655260666668&0&
20071530020100506618&IVLNFJ9G8QIKZUUD&20200715&02000016&1815970230203&1815970230203&&0&1&60180&CNY&0040&boshzjjg&6226822017601717379&0&
20071530020100506524&NUGXPIL2CPXQVX1T&20200715&02000016&1818045556220&1818045556220&&0&1&20060&CNY&0040&boshzjjg&6216696000006598028&0&
20071530020100506680&HL36W2QJ7SVCPEXB&20200715&02000016&1818827799445&1818827799445&&0&1&80240&CNY&0040&boshzjjg&6222031509000699386&0&
20071530020100506530&Z88ZOIR3AU86A7VI&20200715&02000016&1813879694168&1813879694168&&0&1&10030&CNY&0040&boshzjjg&6236682110001808589&0&
20071530020100506684&HIP61J18FF714G3M&20200715&02000016&1813235522109&1813235522109&&0&1&30090&CNY&0040&boshzjjg&4563517612300638286&0&
20071530020100506686&83J2QHRGOSFKU1U0&20200715&02000016&1813545932491&1813545932491&&0&1&30090&CNY&0040&boshzjjg&6228453828123642370&0&
20071530020100506628&BTUFIL8Z94KQ1PYJ&20200715&02000016&1813477461038&1813477461038&&0&1&50150&CNY&0040&boshzjjg&6228483821578495711&0&
20071530020100506738&M391PV5Y7K6C5TVU&20200715&02000016&1813510564251&1813510564251&&0&1&40120&CNY&0040&boshzjjg&6217007200008195755&0&
20071530020100506630&K327AC2T10TQAY17&20200715&02000016&1813556430912&1813556430912&&0&1&40120&CNY&0040&boshzjjg&6222082003002115920&0&
20071530020100506836&E8X2AG0LT5VMJ0KQ&20200715&02000016&1813578273333&1813578273333&&0&1&300902&CNY&0040&boshzjjg&6228453358003254872&0&
20071530020100506702&5N0XXQSZ7YHBD8K4&20200715&02000016&1815524484454&1815524484454&&0&1&100&CNY&0040&boshzjjg&6212263301021119564&0&
20071530020100506760&E34HRJBEVDGNPMAY&20200715&02000016&1818724403294&1818724403294&&0&1&10030&CNY&0040&boshzjjg&6217992610150996585&0&
20071530020100506711&0IDA4WZQN8KEDL2J&20200715&02000016&1813657964642&1813657964642&&0&1&10030&CNY&0040&boshzjjg&6230522310014193873&0&
20071530020100506725&YF0X2D6BYF6CX4WP&20200715&02000016&1818371587990&1818371587990&&0&1&100300&CNY&0040&boshzjjg&6228463828033893772&0&
20071530020100506859&359NZ5TAFO01CXAP&20200715&02000016&1818966843973&1818966843973&&0&1&100300&CNY&0040&boshzjjg&6228480216106879564&0&
20071530020100506728&RSF26KHSO127VHF1&20200715&02000016&1815894436377&1815894436377&&0&1&120361&CNY&0040&boshzjjg&6217003970001791479&0&
20071530020100506729&JC0IQ78GT8XRRIWV&20200715&02000016&1815129878708&1815129878708&&0&1&100300&CNY&0040&boshzjjg&6230270900002043413&0&
20071530020100506780&J73TXI44PBFFQXEH&20200715&02000016&1818103125352&1818103125352&&0&1&300902&CNY&0040&boshzjjg&6217855000057738395&0&
20071530020100506783&GEJE7ANPZJ2XNBFN&20200715&02000016&1813628842075&1813628842075&&0&1&100300&CNY&0040&boshzjjg&6228483358606381670&0&
20071530020100506786&5O9ED7O94IUM13AR&20200715&02000016&1817762349589&1817762349589&&0&1&200601&CNY&0040&boshzjjg&6228453828124258879&0&
20071530020100506938&5MECEEZZTVRDQ3SH&20200715&02000016&1819987541980&1819987541980&&0&1&10030&CNY&0040&boshzjjg&6230520600054738872&0&
20071530020100506978&CJPOULPF8MIKLOYE&20200715&02000016&1815170031559&1815170031559&&0&1&200601&CNY&0040&boshzjjg&6217002020065102162&0&
20071530020100506827&2FYLF46YXODN0FEV&20200715&02000016&1800100000104&1800100000104&&0&1&90270&CNY&0040&boshzjjg&6217933501713984&0&
20071530020100506909&AE8FI1RTBN47KCKB&20200715&02000016&1813261856831&1813261856831&&0&1&100&CNY&0040&boshzjjg&6214831005153975&0&
20071530020100506913&MADBV89OKWC8TUU6&20200715&02000016&1818774626308&1818774626308&&0&1&10030&CNY&0040&boshzjjg&6228480328660061172&0&
20071530020100506983&Z8QKSFBTFWV7NWCT&20200715&02000016&1800100000340&1800100000340&&0&1&100300&CNY&0040&boshzjjg&6217002020076391689&0&
20071530020100507037&9E9DZ46ZBVH6KLW4&20200715&02000016&1813931267078&1813931267078&&0&1&10030&CNY&0040&boshzjjg&6228411264507692974&0&
20071530020100506921&SJZ5MDW9977KVHHW&20200715&02000016&1813946835654&1813946835654&&0&1&30090&CNY&0040&boshzjjg&6217001040005814453&0&
20071530020100506999&Q9EMO4VBWU09JC5J&20200715&02000016&1815894443268&1815894443268&&0&1&65195&CNY&0040&boshzjjg&6212262511001333024&0&
20071530020100507051&D2FHE7XL1L5UONUP&20200715&02000016&1813368829597&1813368829597&&0&1&100300&CNY&0040&boshzjjg&6228483358275302171&0&
20071530020100507141&M9XJ9ZU0YOHGA0DK&20200715&02000016&1818792337677&1818792337677&&0&1&10030&CNY&0040&boshzjjg&6216613600030495040&0&
20071530020100507142&VBMRF5TXFT7KEC0Z&20200715&02000016&1813961081945&1813961081945&&0&1&20060&CNY&0040&boshzjjg&6228483422865691714&0&
20071530020100507078&ZF3EYTK3YP1B4PU5&20200715&02000016&1815946631777&1815946631777&&0&1&90270&CNY&0040&boshzjjg&6217992610114376478&0&
20071530020100507079&7SGGIQ8BGWCEUFOV&20200715&02000016&1818088174982&1818088174982&&0&1&80240&CNY&0040&boshzjjg&6228483358609352975&0&
20071530020100507023&X99QGOBGC2E95IYG&20200715&02000016&1817614685531&1817614685531&&0&1&60180&CNY&0040&boshzjjg&6217992610207873787&0&
20071530020100507083&V0AF4J8SUUN44R2Y&20200715&02000016&1813832228797&1813832228797&&0&1&180541&CNY&0040&boshzjjg&6228481266296734367&0&
20071530020100507155&XT96BO3ENGNGCPIY&20200715&02000016&1818088174982&1818088174982&&0&1&50150&CNY&0040&boshzjjg&6228483358609352975&0&
20071530020100507236&Y2BONZT5R6H8VLKI&20200715&02000016&1813619405650&1813619405650&&0&1&130391&CNY&0040&boshzjjg&6228481439237393078&0&
20071530020100507099&URICGOWC0O5O25PQ&20200715&02000016&1818725226619&1818725226619&&0&1&70210&CNY&0040&boshzjjg&6228483968609868174&0&
20071530020100507181&SXEJOZKC6VIWAF0Z&20200715&02000016&1818507222058&1818507222058&&0&1&200601&CNY&0040&boshzjjg&6228483829749170675&0&
20071530020100507185&3SXXMVYSINWP3USX&20200715&02000016&1813733221116&1813733221116&&0&1&14042&CNY&0040&boshzjjg&6217000140011155742&0&
20071530020100507124&H2NJ7OH6FBL27QQX&20200715&02000016&1818507792116&1818507792116&&0&1&30090&CNY&0040&boshzjjg&6212262107002827815&0&
20071530020100507198&UB8IF3WPTLRAXNUE&20200715&02000016&1819995866890&1819995866890&&0&1&10030&CNY&0040&boshzjjg&6217902700003414214&0&
20071530020100507132&5BXS03IC1NGCGV16&20200715&02000016&1813363243535&1813363243535&&0&1&11033&CNY&0040&boshzjjg&6222020403009602828&0&
20071530020100507282&5TFWEGQNN9H7DBMR&20200715&02000016&1813582884362&1813582884362&&0&1&40120&CNY&0040&boshzjjg&6228480658265660873&0&
20071530020100507285&2VYT37QJ4RKUII8D&20200715&02000016&1813739822199&1813739822199&&0&1&10330&CNY&0040&boshzjjg&6230520650041673575&0&
20071530020100507223&VCFQFZ977FA09QZF&20200715&02000016&1818987916981&1818987916981&&0&1&200601&CNY&0040&boshzjjg&6217004020003203179&0&
20071530020100507293&54LQ7VNNDT0Z4OBV&20200715&02000016&1813889877508&1813889877508&&0&1&10030&CNY&0040&boshzjjg&6228480049074333177&0&
20071530020100507297&6PY6JGRLQC50SZBG&20200715&02000016&1815334465219&1815334465219&&0&1&180541&CNY&0040&boshzjjg&6236684020000322953&0&
20071530020100507354&3FN6TDCP7XWXDUJD&20200715&02000016&1818788202588&1818788202588&&0&1&40120&CNY&0040&boshzjjg&6230523350007559770&0&
20071530020100507230&M7P1VS77WT5G6T4S&20200715&02000016&1818313234328&1818313234328&&0&1&30090&CNY&0040&boshzjjg&6230523330013007378&0&
20071530020100507316&ULM78FYUA6L5Q4Q8&20200715&02000016&1813398818422&1813398818422&&0&1&30090&CNY&0040&boshzjjg&6217003930002145422&0&
20071530020100507319&8K5QA459V5CMUSCM&20200715&02000016&1815945805951&1815945805951&&0&1&10030&CNY&0040&boshzjjg&6228482698421651877&0&
20071530020100507380&ZTCCC77XXA2NUQ0Y&20200715&02000016&1813633389021&1813633389021&&0&1&50150&CNY&0040&boshzjjg&6217000010109224058&0&
20071530020100507329&TBF2D593IHQAWILZ&20200715&02000016&1818788201666&1818788201666&&0&1&50150&CNY&0040&boshzjjg&6228483358596549179&0&
20071530020100507451&7LVDB1JHS8TRXRUJ&20200715&02000016&1813887902815&1813887902815&&0&1&100300&CNY&0040&boshzjjg&6217997300050053118&0&
20071530020100507401&QG2KFILD089C2KVO&20200715&02000016&1800100000229&1800100000229&&0&1&30090&CNY&0040&boshzjjg&6227000143410340294&0&
20071530020100507403&2I2Q9WC0HN1RS35Z&20200715&02000016&1813576800999&1813576800999&&0&1&20060&CNY&0040&boshzjjg&6212260200048160390&0&
20071530020100507411&CAXRCYN43MVYAVJK&20200715&02000016&1815227234914&1815227234914&&0&1&50150&CNY&0040&boshzjjg&6228481262464651814&0&
20071530020100507474&2KLEETX49KWNHHJ6&20200715&02000016&1813131233580&1813131233580&&0&1&10030&CNY&0040&boshzjjg&6228481268625339272&0&
20071530020100507634&QA6S313LNXD8LD7V&20200715&02000016&1813940561661&1813940561661&&0&1&1003&CNY&0040&boshzjjg&6217850400010086988&0&
20071530020100507594&E1EW1Q7QTHUYIIWE&20200715&02000016&1813582233927&1813582233927&&0&1&100300&CNY&0040&boshzjjg&6217000140037793120&0&
20071530020100507598&4CMTMEBXUDYWGVFE&20200715&02000016&1813463442485&1813463442485&&0&1&30090&CNY&0040&boshzjjg&6217000140038296206&0&
20071530020100507599&956TUVZRSLJAF0W0&20200715&02000016&1813331310643&1813331310643&&0&1&25075&CNY&0040&boshzjjg&6212260412001285037&0&
20071530020100507647&N8D71QNC48MH9Q9J&20200715&02000016&1815324285825&1815324285825&&0&1&50150&CNY&0040&boshzjjg&6228480279033771270&0&
20071530020100507652&9D9VN691VQ43N1FZ&20200715&02000016&1813630869724&1813630869724&&0&1&40120&CNY&0040&boshzjjg&6217000140039554454&0&
20071530020100507515&BR1WMY9H5YRH84VI&20200715&02000016&1813398637313&1813398637313&&0&1&10060&CNY&0040&boshzjjg&6228481268509032175&0&
20071530020100507605&V2F4IEJJT41HYX6U&20200715&02000016&1818003324318&1818003324318&&0&1&20060&CNY&0040&boshzjjg&6217000140014667842&0&
20071530020100507609&PTK93ZDHSA5KQ5YW&20200715&02000016&1818909995887&1818909995887&&0&1&20060&CNY&0040&boshzjjg&6222033006001389313&0&
20071590040021504827&20071590040021504827&20200715&02000016&1813889148575&1813889148575&&1&2&90000&CNY&0040&boshzjjg&6226631901823960&0&
20071590040021504913&20071590040021504913&20200715&02000016&1813393029437&1813393029437&&1&2&400000&CNY&0040&boshzjjg&6216695000006447904&0&
20071590040021505045&20071590040021505045&20200715&02000016&1815838593992&1815838593992&&1&2&100&CNY&0040&boshzjjg&6222021705005346344&0&
20071590040021505049&20071590040021505049&20200715&02000016&1815170899237&1815170899237&&1&2&3000&CNY&0040&boshzjjg&6217002110000855436&0&
20071590040021505048&20071590040021505048&20200715&02000016&1813011521522&1813011521522&&1&2&500&CNY&0040&boshzjjg&6228481262395632016&0&
20071590040021504963&20071590040021504963&20200715&02000016&1815838593992&1815838593992&&1&2&10000&CNY&0040&boshzjjg&6222021705005346344&0&
20071590040021504971&20071590040021504971&20200715&02000016&1818962072211&1818962072211&&1&2&200000&CNY&0040&boshzjjg&6228481989278665370&0&
20071590040021505075&20071590040021505075&20200715&02000016&1815838593992&1815838593992&&1&2&140000&CNY&0040&boshzjjg&6222021705005346344&0&
20071590040021505086&20071590040021505086&20200715&02000016&1815368498738&1815368498738&&1&2&200000&CNY&0040&boshzjjg&6228483968092729974&0&
20071590040021505164&20071590040021505164&20200715&02000016&1818261202683&1818261202683&&1&2&198000&CNY&0040&boshzjjg&6228481989699350370&0&
20071590040021504997&20071590040021504997&20200715&02000016&1813697384802&1813697384802&&1&2&800000&CNY&0040&boshzjjg&6217995200297806587&0&
20071590040021505003&20071590040021505003&20200715&02000016&1813011521522&1813011521522&&1&2&195500&CNY&0040&boshzjjg&6228481262395632016&0&
20071590040021505020&20071590040021505020&20200715&02000016&1818225032580&1818225032580&&1&2&200000&CNY&0040&boshzjjg&6216693200004649095&0&
20071590040021505029&20071590040021505029&20200715&02000016&1815930220232&1815930220232&&1&2&200000&CNY&0040&boshzjjg&6217991340012563701&0&
20071590040021505030&20071590040021505030&20200715&02000016&1819922324459&1819922324459&&1&2&200000&CNY&0040&boshzjjg&6228480479051606578&0&
20071590040021505126&20071590040021505126&20200715&02000016&1813136814477&1813136814477&&1&2&200000&CNY&0040&boshzjjg&6212260905005270293&0&
20071590040021505334&20071590040021505334&20200715&02000016&1813851015847&1813851015847&&1&2&180000&CNY&0040&boshzjjg&6228481989474308577&0&
20071590040021505206&20071590040021505206&20200715&02000016&1818371585598&1818371585598&&1&2&600000&CNY&0040&boshzjjg&6221805200009419911&0&
20071590040021505212&20071590040021505212&20200715&02000016&1818937738323&1818937738323&&1&2&195000&CNY&0040&boshzjjg&6228480979527730779&0&
20071590040021505345&20071590040021505345&20200715&02000016&1818032588673&1818032588673&&1&2&1000&CNY&0040&boshzjjg&6212260403022148239&0&
20071590040021505218&20071590040021505218&20200715&02000016&1815930220232&1815930220232&&1&2&800000&CNY&0040&boshzjjg&6217991340012563701&0&
20071590040021505231&20071590040021505231&20200715&02000016&1818770604856&1818770604856&&1&2&190000&CNY&0040&boshzjjg&6222031509000686193&0&
20071590040021505362&null&20200715&02000016&1818032588673&1818032588673&&1&2&399000&CNY&0040&boshzjjg&6212260403022148239&0&
20071590040021505442&20071590040021505442&20200715&02000016&1813909147787&1813909147787&&1&2&200000&CNY&0040&boshzjjg&6228482958374033873&0&
20071590040021505451&20071590040021505451&20200715&02000016&1818132730301&1818132730301&&1&2&6000&CNY&0040&boshzjjg&6215580409001640449&0&
20071590040021505450&20071590040021505450&20200715&02000016&1813820546821&1813820546821&&1&2&10000&CNY&0040&boshzjjg&6228480020849517212&0&
20071590040021505291&20071590040021505291&20200715&02000016&1813478825729&1813478825729&&1&2&205000&CNY&0040&boshzjjg&6217850400010207634&0&
20071590040021505303&20071590040021505303&20200715&02000016&1818632288543&1818632288543&&1&2&195000&CNY&0040&boshzjjg&6236680140000463906&0&
20071590040021505470&20071590040021505470&20200715&02000016&1813767188659&1813767188659&&1&2&50000&CNY&0040&boshzjjg&6217866500004189367&0&
20071590040021505474&20071590040021505474&20200715&02000016&1818970607159&1818970607159&&1&2&152360&CNY&0040&boshzjjg&6228480928729743072&0&
20071590040021505430&20071590040021505430&20200715&02000016&1815998234506&1815998234506&&1&2&200000&CNY&0040&boshzjjg&6217000730011677552&0&
20071590040021505658&20071590040021505658&20200715&02000016&1813180237679&1813180237679&&1&2&1000000&CNY&0040&boshzjjg&6228481262582047515&0&
20071590040021505564&20071590040021505564&20200715&02000016&1813131286769&1813131286769&&1&2&200000&CNY&0040&boshzjjg&6216665000000445165&0&
20071590040021505662&20071590040021505662&20200715&02000016&1815629288828&1815629288828&&1&2&800000&CNY&0040&boshzjjg&6228483829406701978&0&
20071590040021505570&20071590040021505570&20200715&02000016&1813933380665&1813933380665&&1&2&200000&CNY&0040&boshzjjg&6217000180039963008&0&
20071590040021505731&20071590040021505731&20200715&02000016&1813870088638&1813870088638&&1&2&1000000&CNY&0040&boshzjjg&6226223500032423&0&
20071590040021505854&20071590040021505854&20200715&02000016&1813529527711&1813529527711&&1&2&200000&CNY&0040&boshzjjg&6212262511001332182&0&
20071590040021505812&20071590040021505812&20200715&02000016&1815903126412&1815903126412&&1&2&5000&CNY&0040&boshzjjg&6216911006315258&0&
20071590040021505819&20071590040021505819&20200715&02000016&1815620918665&1815620918665&&1&2&200000&CNY&0040&boshzjjg&6228480028181743577&0&
20071590040021505944&20071590040021505944&20200715&02000016&1813949291950&1813949291950&&1&2&200000&CNY&0040&boshzjjg&6212261705012004548&0&
20071590040021505882&20071590040021505882&20200715&02000016&1813908824988&1813908824988&&1&2&1000000&CNY&0040&boshzjjg&6230523350004170878&0&
20071590040021505964&20071590040021505964&20200715&02000016&1815352338039&1815352338039&&1&2&61000&CNY&0040&boshzjjg&6217004280000698579&0&
20071590040021505971&20071590040021505971&20200715&02000016&1813133696117&1813133696117&&1&2&198000&CNY&0040&boshzjjg&6228482318152302075&0&
20071590040021505893&20071590040021505893&20200715&02000016&1813603123859&1813603123859&&1&2&200000&CNY&0040&boshzjjg&6222600920006748245&0&
20071590040021505972&20071590040021505972&20200715&02000016&1813261856831&1813261856831&&1&2&200&CNY&0040&boshzjjg&6214831005153975&0&
20071590040021506079&20071590040021506079&20200715&02000016&1813578277223&1813578277223&&1&2&400000&CNY&0040&boshzjjg&6217003970000024773&0&
20071590040021506081&20071590040021506081&20200715&02000016&1815605110960&1815605110960&&1&2&195000&CNY&0040&boshzjjg&6217993000395399226&0&
20071590040021505911&20071590040021505911&20200715&02000016&1818909341350&1818909341350&&1&2&203400&CNY&0040&boshzjjg&6217858500000556973&0&
20071590040021506090&20071590040021506090&20200715&02000016&1815130469806&1815130469806&&1&2&196000&CNY&0040&boshzjjg&6217000140035631751&0&
20071590040021506010&20071590040021506010&20200715&02000016&1815233123371&1815233123371&&1&2&200000&CNY&0040&boshzjjg&6212260409019307456&0&
20071590040021505926&20071590040021505926&20200715&02000016&1818348991105&1818348991105&&1&2&1000000&CNY&0040&boshzjjg&6226632801751509&0&
20071590040021505927&20071590040021505927&20200715&02000016&1818809152800&1818809152800&&1&2&195000&CNY&0040&boshzjjg&6217853600053136122&0&
20071590040021505925&20071590040021505925&20200715&02000016&1818088200256&1818088200256&&1&2&200000&CNY&0040&boshzjjg&6212262511000621759&0&
20071590040021506116&20071590040021506116&20200715&02000016&1813315210136&1813315210136&&1&2&5000&CNY&0040&boshzjjg&6222080409003510518&0&
20071590040021506130&20071590040021506130&20200715&02000016&1815393987758&1815393987758&&1&2&200000&CNY&0040&boshzjjg&6228483350802315610&0&
20071590040021506245&20071590040021506245&20200715&02000016&1813388827661&1813388827661&&1&2&3000&CNY&0040&boshzjjg&6228483358580489473&0&
20071590040021506336&20071590040021506336&20200715&02000016&1815931271087&1815931271087&&1&2&800000&CNY&0040&boshzjjg&6217991340000792460&0&
20071590040021506160&20071590040021506160&20200715&02000016&1815210572275&1815210572275&&1&2&196000&CNY&0040&boshzjjg&6216695000010036834&0&
20071590040021506159&20071590040021506159&20200715&02000016&1813379416382&1813379416382&&1&2&1000&CNY&0040&boshzjjg&6214483001100086904&0&
20071590040021506166&20071590040021506166&20200715&02000016&1813703362146&1813703362146&&1&2&200000&CNY&0040&boshzjjg&6216695000009542453&0&
20071590040021506167&20071590040021506167&20200715&02000016&1818049119039&1818049119039&&1&2&1000000&CNY&0040&boshzjjg&6215512511040043833&0&
20071590040021506350&20071590040021506350&20200715&02000016&1818970607159&1818970607159&&1&2&20000&CNY&0040&boshzjjg&6228480928729743072&0&
20071590040021506169&20071590040021506169&20200715&02000016&1815633758236&1815633758236&&1&2&200000&CNY&0040&boshzjjg&6228411264505402277&0&
20071590040021506258&20071590040021506258&20200715&02000016&1813932592260&1813932592260&&1&2&200000&CNY&0040&boshzjjg&6212260403007880129&0&
20071590040021506265&20071590040021506265&20200715&02000016&1818903361766&1818903361766&&1&2&200000&CNY&0040&boshzjjg&6217000140012236731&0&
20071590040021506356&20071590040021506356&20200715&02000016&1815931825938&1815931825938&&1&2&200000&CNY&0040&boshzjjg&6228481268829336272&0&
20071590040021506179&20071590040021506179&20200715&02000016&1818787585469&1818787585469&&1&2&170000&CNY&0040&boshzjjg&6222032510000192579&0&
20071590040021506267&20071590040021506267&20200715&02000016&1813931214281&1813931214281&&1&2&80000&CNY&0040&boshzjjg&6228461260013069011&0&
20071590040021506362&20071590040021506362&20200715&02000016&1818750280961&1818750280961&&1&2&10000&CNY&0040&boshzjjg&6217993900070005081&0&
20071590040021506283&20071590040021506283&20200715&02000016&1818772341318&1818772341318&&1&2&400000&CNY&0040&boshzjjg&6221805200006060957&0&
20071590040021506298&20071590040021506298&20200715&02000016&1818531222093&1818531222093&&1&2&200000&CNY&0040&boshzjjg&6221801340001088654&0&
20071590040021506379&20071590040021506379&20200715&02000016&1813674277407&1813674277407&&1&2&200000&CNY&0040&boshzjjg&6216600400000577447&0&
20071590040021506437&20071590040021506437&20200715&02000016&1813998199121&1813998199121&&1&2&200000&CNY&0040&boshzjjg&6210810730004198710&0&
20071590040021506421&20071590040021506421&20200715&02000016&1813584278719&1813584278719&&1&2&190000&CNY&0040&boshzjjg&6230520660061593777&0&
20071590040021506461&20071590040021506461&20200715&02000016&1800100000187&1800100000187&&1&2&200000&CNY&0040&boshzjjg&6212260402011707591&0&
20071590040021506558&20071590040021506558&20200715&02000016&1815619623000&1815619623000&&1&2&170000&CNY&0040&boshzjjg&6228482908693037170&0&
20071590040021506468&20071590040021506468&20200715&02000016&1815932005092&1815932005092&&1&2&60000&CNY&0040&boshzjjg&6228480659170682275&0&
20071590040021506565&20071590040021506565&20200715&02000016&1815090182890&1815090182890&&1&2&200000&CNY&0040&boshzjjg&6210812450003212457&0&
20071590040021506488&20071590040021506488&20200715&02000016&1813310933838&1813310933838&&1&2&123000&CNY&0040&boshzjjg&6236684140002876762&0&
20071590040021506510&20071590040021506510&20200715&02000016&1815096988545&1815096988545&&1&2&400000&CNY&0040&boshzjjg&6217003970002037419&0&
20071590040021506613&20071590040021506613&20200715&02000016&1813165578768&1813165578768&&1&2&200&CNY&0040&boshzjjg&6228481268301089779&0&
20071590040021506675&20071590040021506675&20200715&02000016&1815097795020&1815097795020&&1&2&500000&CNY&0040&boshzjjg&6217000140015552639&0&
20071590040021506679&20071590040021506679&20200715&02000016&1815100239537&1815100239537&&1&2&10000&CNY&0040&boshzjjg&6212260409007146130&0&
20071590040021506627&20071590040021506627&20200715&02000016&1813623321182&1813623321182&&1&2&1000000&CNY&0040&boshzjjg&6230521260027218376&0&
20071590040021506745&20071590040021506745&20200715&02000016&1813503321198&1813503321198&&1&2&1000&CNY&0040&boshzjjg&6217000140022541229&0&
20071590040021506694&20071590040021506694&20200715&02000016&1815871921299&1815871921299&&1&2&800000&CNY&0040&boshzjjg&6217857600012948308&0&
20071590040021506632&20071590040021506632&20200715&02000016&1815131285566&1815131285566&&1&2&180000&CNY&0040&boshzjjg&6214922800542460&0&
20071590040021506840&20071590040021506840&20200715&02000016&1815609151431&1815609151431&&1&2&5000&CNY&0040&boshzjjg&6214484001100071848&0&
20071590040021506757&20071590040021506757&20200715&02000016&1813898834999&1813898834999&&1&2&200000&CNY&0040&boshzjjg&6214830244579628&0&
20071590040021506706&20071590040021506706&20200715&02000016&1813578236615&1813578236615&&1&2&200000&CNY&0040&boshzjjg&6228483358577917171&0&
20071590040021506709&20071590040021506709&20200715&02000016&1813731200919&1813731200919&&1&2&190000&CNY&0040&boshzjjg&6228411264504583374&0&
20071590040021506710&20071590040021506710&20200715&02000016&1815087549557&1815087549557&&1&2&200000&CNY&0040&boshzjjg&6230523960013382874&0&
20071590040021506773&20071590040021506773&20200715&02000016&1818633129536&1818633129536&&1&2&200000&CNY&0040&boshzjjg&6228480656424243169&0&
20071590040021506779&20071590040021506779&20200715&02000016&1813988567037&1813988567037&&1&2&400000&CNY&0040&boshzjjg&6236683950001184013&0&
20071590040021506781&20071590040021506781&20200715&02000016&1813833058688&1813833058688&&1&2&200000&CNY&0040&boshzjjg&622908573065046815&0&
20071590040021506876&20071590040021506876&20200715&02000016&1818602472187&1818602472187&&1&2&200000&CNY&0040&boshzjjg&6228480048030137870&0&
20071590040021506950&20071590040021506950&20200715&02000016&1813832825311&1813832825311&&1&2&200000&CNY&0040&boshzjjg&6217855000054359922&0&
20071590040021506822&20071590040021506822&20200715&02000016&1815797950574&1815797950574&&1&2&195000&CNY&0040&boshzjjg&6212836502000199745&0&
20071590040021506902&20071590040021506902&20200715&02000016&1813323226666&1813323226666&&1&2&800000&CNY&0040&boshzjjg&6210810140000084072&0&
20071590040021506828&20071590040021506828&20200715&02000016&1817762349589&1817762349589&&1&2&1000000&CNY&0040&boshzjjg&6228453828124258879&0&
20071590040021506914&20071590040021506914&20200715&02000016&1813171818731&1813171818731&&1&2&980000&CNY&0040&boshzjjg&6217000180002163438&0&
20071590040021506996&20071590040021506996&20200715&02000016&1818792337677&1818792337677&&1&2&200000&CNY&0040&boshzjjg&6216613600030495040&0&
20071590040021507001&20071590040021507001&20200715&02000016&1818507222058&1818507222058&&1&2&400000&CNY&0040&boshzjjg&6228483829749170675&0&
20071590040021507064&20071590040021507064&20200715&02000016&1800100000253&1800100000253&&1&2&200000&CNY&0040&boshzjjg&6216615000003409698&0&
20071590040021507170&20071590040021507170&20200715&02000016&1818993687705&1818993687705&&1&2&200000&CNY&0040&boshzjjg&6228484058397362777&0&
20071590040021507169&20071590040021507169&20200715&02000016&1818912528799&1818912528799&&1&2&200000&CNY&0040&boshzjjg&6213361988015402177&0&
20071590040021507105&20071590040021507105&20200715&02000016&1800100000242&1800100000242&&1&2&200000&CNY&0040&boshzjjg&6217000140010401857&0&
20071590040021507173&20071590040021507173&20200715&02000016&1818792337677&1818792337677&&1&2&10000&CNY&0040&boshzjjg&6216613600030495040&0&
20071590040021507248&20071590040021507248&20200715&02000016&1818045872581&1818045872581&&1&2&799500&CNY&0040&boshzjjg&6228482228422707179&0&
20071590040021507110&20071590040021507110&20200715&02000016&1813503321198&1813503321198&&1&2&999000&CNY&0040&boshzjjg&6217000140022541229&0&
20071590040021507252&20071590040021507252&20200715&02000016&1815246263199&1815246263199&&1&2&200000&CNY&0040&boshzjjg&6217905300005337518&0&
20071590040021507183&20071590040021507183&20200715&02000016&1818961951960&1818961951960&&1&2&200000&CNY&0040&boshzjjg&6228481985794280371&0&
20071590040021507188&20071590040021507188&20200715&02000016&1813008224712&1813008224712&&1&2&199500&CNY&0040&boshzjjg&6230520040057183877&0&
20071590040021507269&20071590040021507269&20200715&02000016&1815083929036&1815083929036&&1&2&200000&CNY&0040&boshzjjg&6217002050002883434&0&
20071590040021507129&20071590040021507129&20200715&02000016&1813709296961&1813709296961&&1&2&1000000&CNY&0040&boshzjjg&6222023700032510630&0&
20071590040021507283&20071590040021507283&20200715&02000016&1813940525739&1813940525739&&1&2&400000&CNY&0040&boshzjjg&6212263301011623393&0&
20071590040021507218&20071590040021507218&20200715&02000016&1815226565837&1815226565837&&1&2&200000&CNY&0040&boshzjjg&6228480639302017772&0&
20071590040021507217&20071590040021507217&20200715&02000016&1813653389009&1813653389009&&1&2&200000&CNY&0040&boshzjjg&6222080402002491574&0&
20071590040021507348&20071590040021507348&20200715&02000016&1813833202559&1813833202559&&1&2&1000&CNY&0040&boshzjjg&6217865000003500186&0&
20071590040021507303&20071590040021507303&20200715&02000016&1813946477448&1813946477448&&1&2&1000000&CNY&0040&boshzjjg&6228480198458004571&0&
20071590040021507228&20071590040021507228&20200715&02000016&1813703222606&1813703222606&&1&2&200000&CNY&0040&boshzjjg&6228481269213532971&0&
20071590040021507317&20071590040021507317&20200715&02000016&1813730151226&1813730151226&&1&2&200000&CNY&0040&boshzjjg&6222030409000310632&0&
20071590040021507368&20071590040021507368&20200715&02000016&1818371583464&1818371583464&&1&2&600000&CNY&0040&boshzjjg&6217985200017967497&0&
20071590040021507323&20071590040021507323&20200715&02000016&1813833202559&1813833202559&&1&2&1000000&CNY&0040&boshzjjg&6217865000003500186&0&
20071590040021507443&20071590040021507443&20200715&02000016&1813261856831&1813261856831&&1&2&210000&CNY&0040&boshzjjg&6214831005153975&0&
20071590040021507446&20071590040021507446&20200715&02000016&1817331297670&1817331297670&&1&2&800000&CNY&0040&boshzjjg&6217000140024407155&0&
20071590040021507447&20071590040021507447&20200715&02000016&1818531222093&1818531222093&&1&2&600000&CNY&0040&boshzjjg&6221801340001088654&0&
20071590040021507553&20071590040021507553&20200715&02000016&1813313063898&1813313063898&&1&2&1000000&CNY&0040&boshzjjg&6214670210009716502&0&
20071590040021507469&20071590040021507469&20200715&02000016&1813933267761&1813933267761&&1&2&10000&CNY&0040&boshzjjg&6217865000006538811&0&
20071590040021507415&20071590040021507415&20200715&02000016&1815632265119&1815632265119&&1&2&195000&CNY&0040&boshzjjg&6217000140005953003&0&
20071590040021507477&20071590040021507477&20200715&02000016&1813931611982&1813931611982&&1&2&1000000&CNY&0040&boshzjjg&6214670210009670105&0&
20071590040021507566&20071590040021507566&20200715&02000016&1813214672666&1813214672666&&1&2&200000&CNY&0040&boshzjjg&6217992610192513802&0&
20071590040021507421&20071590040021507421&20200715&02000016&1813940561661&1813940561661&&1&2&1000&CNY&0040&boshzjjg&6217850400010086988&0&
20071590040021507497&20071590040021507497&20200715&02000016&1815175745983&1815175745983&&1&2&195000&CNY&0040&boshzjjg&6217000140040035550&0&
20071590040021507499&20071590040021507499&20200715&02000016&1813940561661&1813940561661&&1&2&1000000&CNY&0040&boshzjjg&6217850400010086988&0&
20071590040021507583&20071590040021507583&20200715&02000016&1815036381560&1815036381560&&1&2&200000&CNY&0040&boshzjjg&6222021705004019991&0&
20071590040021507433&20071590040021507433&20200715&02000016&1818331155511&1818331155511&&1&2&800000&CNY&0040&boshzjjg&6217000140006987240&0&
20071590040021507507&20071590040021507507&20200715&02000016&1818233313819&1818233313819&&1&2&600000&CNY&0040&boshzjjg&6216605000008806940&0&
20071590040021507651&20071590040021507651&20200715&02000016&1813833051355&1813833051355&&1&2&800000&CNY&0040&boshzjjg&6013825002007676832&0&
20071590040021507520&20071590040021507520&20200715&02000016&1815184804624&1815184804624&&1&2&1000000&CNY&0040&boshzjjg&6228483968416829476&0&
20071590040021507525&20071590040021507525&20200715&02000016&1813721627456&1813721627456&&1&2&200000&CNY&0040&boshzjjg&6212261705016414719&0&
