清算中心流水号&交易所流水号&业务发生日期&交易所代码&会员编码&资金账号&出入金类型&发生金额&手续费金额&银行产品代码&备注
20060930020100433383&VIICOFSH93P112W9&20200609&02000016&1815382494511&1815382494511&0&50150&150&boshzjjg&
20060930020100433307&PXXAKUUMB8R5UQW3&20200609&02000016&1815382494511&1815382494511&0&153761&461&boshzjjg&
20060930020100433308&X2VRXSBHOAFD2VT0&20200609&02000016&1815716865625&1815716865625&0&100300&300&boshzjjg&
20060930020100433309&QA71X267RAUUZ5LM&20200609&02000016&1813628890031&1813628890031&0&19602&58&boshzjjg&
20060930020100433384&5INBZ8YVZW7AHP3R&20200609&02000016&1818257932275&1818257932275&0&150451&451&boshzjjg&
20060930020100433219&NFV566ATGCI22AX3&20200609&02000016&1818257932275&1818257932275&0&53460&160&boshzjjg&
20060930020100433313&XJUK1R4JHRFBKITQ&20200609&02000016&1813588336535&1813588336535&0&204112&612&boshzjjg&
20060930020100433315&JF6BVTT2PIXS4XKI&20200609&02000016&1815831252582&1815831252582&0&207622&622&boshzjjg&
20060930020100433390&M2QC8VKGCZJ1JAVR&20200609&02000016&1813238826869&1813238826869&0&20060&60&boshzjjg&
20060930020100433391&HB3QCNUR1ZNBKBDA&20200609&02000016&1813292419437&1813292419437&0&20060&60&boshzjjg&
20060930020100433401&YP3OCK85WNDH5666&20200609&02000016&1813940459085&1813940459085&0&19057&57&boshzjjg&
20060930020100433444&OQEQABI1GB7TDADA&20200609&02000016&1813111603824&1813111603824&0&10030&30&boshzjjg&
20060930020100433413&264L3LX5SUS8ZJCL&20200609&02000016&1815132225088&1815132225088&0&10030&30&boshzjjg&
20060930020100433333&Q1AHX5SZ216YEAFU&20200609&02000016&1817317025629&1817317025629&0&200601&601&boshzjjg&
20060930020100433417&PXLQOZFZHNM9VY2A&20200609&02000016&1813946779996&1813946779996&0&586359&1759&boshzjjg&
20060930020100433452&AXQ70WNVE6Q6KCBB&20200609&02000016&1813633226787&1813633226787&0&180541&541&boshzjjg&
20060930020100433453&LSL0DK4BZKTRWQQX&20200609&02000016&1817317025629&1817317025629&0&6018&18&boshzjjg&
20060930020100433423&SA1QHT3WR434MSVD&20200609&02000016&1800100000154&1800100000154&0&20060&60&boshzjjg&
20060930020100433543&0ZFW35RR555ZD8OT&20200609&02000016&1818330218859&1818330218859&0&50150&150&boshzjjg&
20060930020100433428&J6R09ULGE8R4GZXA&20200609&02000016&1800100000189&1800100000189&0&15045&45&boshzjjg&
20060930020100433545&PG3IHZ60XLABPVP0&20200609&02000016&1815245431805&1815245431805&0&10030&30&boshzjjg&
20060930020100433546&ZX4UEU6YZFVUZ025&20200609&02000016&1815840074214&1815840074214&0&10030&30&boshzjjg&
20060930020100433547&JYWU93VZCCMC76O7&20200609&02000016&1800100000140&1800100000140&0&20060&60&boshzjjg&
20060930020100433456&JBVQ8C8WMEYVVCMW&20200609&02000016&1813930246312&1813930246312&0&22066&66&boshzjjg&
20060930020100433467&9BKFMNDOOJJ2NPP9&20200609&02000016&1815903327688&1815903327688&0&10130&30&boshzjjg&
20060930020100433468&OQBY88P7L3JI6VDT&20200609&02000016&1813904881393&1813904881393&0&10030&30&boshzjjg&
20060930020100433553&16GF7IQQS8A00GCS&20200609&02000016&1813988259242&1813988259242&0&20060&60&boshzjjg&
20060930020100433470&EPJAN8MC2P5QPKT0&20200609&02000016&1815630880329&1815630880329&0&10130&30&boshzjjg&
20060930020100433637&LUSUA0JXI0UND9WV&20200609&02000016&1814708750317&1814708750317&0&30090&90&boshzjjg&
20060930020100433557&IAPKY98LPTV8FERU&20200609&02000016&1815712555457&1815712555457&0&21063&63&boshzjjg&
20060930020100433559&YETOZE84NV1MYNAA&20200609&02000016&1818233358282&1818233358282&0&10130&30&boshzjjg&
20060930020100433643&CJPCQFNVNXFE33YJ&20200609&02000016&1800100000225&1800100000225&0&190571&571&boshzjjg&
20060930020100433646&X3HZ5AMEQQPHVXYZ&20200609&02000016&1817304211987&1817304211987&0&20060&60&boshzjjg&
20060930020100433482&MYBH4FNL582OAMMO&20200609&02000016&1813731284037&1813731284037&0&20060&60&boshzjjg&
20060930020100433649&KLPDGVXUD4JUT0A4&20200609&02000016&1813400267349&1813400267349&0&10130&30&boshzjjg&
20060930020100433565&I28VG99S1WG1RVQQ&20200609&02000016&1813932238474&1813932238474&0&40120&120&boshzjjg&
20060930020100433566&BQ3YALS2A1XJB08S&20200609&02000016&1815100269110&1815100269110&0&10030&30&boshzjjg&
20060930020100433651&YKHC2IOR9BP7VW9I&20200609&02000016&1815389494945&1815389494945&0&20060&60&boshzjjg&
20060930020100433484&16VJFL5DWTZ8V80X&20200609&02000016&1815097408526&1815097408526&0&10130&30&boshzjjg&
20060930020100433485&ICN8E1BT3X3U7M0S&20200609&02000016&1815771836378&1815771836378&0&17051&51&boshzjjg&
20060930020100433567&KXNNH9C2WNLTMO5L&20200609&02000016&1815094665586&1815094665586&0&10030&30&boshzjjg&
20060930020100433572&TSC1LQ2BVG7RA2KF&20200609&02000016&1815831252582&1815831252582&0&1504&4&boshzjjg&
20060930020100433492&9X6XKVJSTCL1UTMV&20200609&02000016&1818210293990&1818210293990&0&10030&30&boshzjjg&
20060930020100433575&K6PJF057T1QBPWP0&20200609&02000016&1818834581128&1818834581128&0&10030&30&boshzjjg&
20060930020100433493&RC1GSGXTGXX4E5LS&20200609&02000016&1813992186412&1813992186412&0&10030&30&boshzjjg&
20060930020100433495&YBOWJTOS61VKURVB&20200609&02000016&1818714555279&1818714555279&0&10030&30&boshzjjg&
20060930020100433501&VVPPXF6CSDX18THQ&20200609&02000016&1817697226810&1817697226810&0&10030&30&boshzjjg&
20060930020100433585&IHHXD230F45BGCFF&20200609&02000016&1815038169553&1815038169553&0&180541&541&boshzjjg&
20060930020100433666&K1T56VB1RE8HLNSP&20200609&02000016&1813628894679&1813628894679&0&10030&30&boshzjjg&
20060930020100433508&Z8AYFISSLCOMH6L3&20200609&02000016&1815636926050&1815636926050&0&10030&30&boshzjjg&
20060930020100433597&V2TACTQ1VPRKR5DU&20200609&02000016&1815029688272&1815029688272&0&20060&60&boshzjjg&
20060930020100433675&4IRTJYKZPO29JKYN&20200609&02000016&1813378816227&1813378816227&0&30090&90&boshzjjg&
20060930020100433612&OE3GD8EJYUY605R6&20200609&02000016&1815636926050&1815636926050&0&10030&30&boshzjjg&
20060930020100433614&31BB0BQPHT38A7AJ&20200609&02000016&1818313096871&1818313096871&0&190571&571&boshzjjg&
20060930020100433688&HJIZTXFFMSUOGOA6&20200609&02000016&1818788201666&1818788201666&0&210631&631&boshzjjg&
20060930020100433693&33YVZ5D5XX5X96O9&20200609&02000016&1813263638109&1813263638109&0&2006&6&boshzjjg&
20060930020100433624&K6LNWUK0BGOF3DM4&20200609&02000016&1815818598480&1815818598480&0&10030&30&boshzjjg&
20060930020100433734&JUPHDQ0MYFZP3MUC&20200609&02000016&1813263638109&1813263638109&0&10030&30&boshzjjg&
20060930020100433625&56VHXO5NKH023HJ5&20200609&02000016&1813263638109&1813263638109&0&8024&24&boshzjjg&
20060930020100433695&7BS140AB318AE0RI&20200609&02000016&1813478653378&1813478653378&0&10030&30&boshzjjg&
20060930020100433736&FFHEEQAW2P9F86FT&20200609&02000016&1818002496102&1818002496102&0&1404&4&boshzjjg&
20060930020100433697&QCNW76GCIBFPYRCV&20200609&02000016&1800100000080&1800100000080&0&30090&90&boshzjjg&
20060930020100433630&AFB9WFMRIQPUYYHI&20200609&02000016&1813070527319&1813070527319&0&20060&60&boshzjjg&
20060930020100433745&3XZYHB1852V4WYKK&20200609&02000016&1813909852916&1813909852916&0&10230&30&boshzjjg&
20060930020100433748&Q1H0NGWZV7BKBN9S&20200609&02000016&1813657964642&1813657964642&0&10030&30&boshzjjg&
20060930020100433837&GEANT9Z29GLRJCCY&20200609&02000016&1815184848605&1815184848605&0&27081&81&boshzjjg&
20060930020100433717&P1MOKE0U61HW3K2Q&20200609&02000016&1815170827317&1815170827317&0&10030&30&boshzjjg&
20060930020100433754&Q2VZDCZF7IW1RXBD&20200609&02000016&1800100000106&1800100000106&0&30090&90&boshzjjg&
20060930020100433725&OWVEKP8IFV9656TX&20200609&02000016&1813832293322&1813832293322&0&30090&90&boshzjjg&
20060930020100433726&UIFR8D75P7C0MB86&20200609&02000016&1800100000050&1800100000050&0&20060&60&boshzjjg&
20060930020100433858&6JQNUJU72KVJGR8W&20200609&02000016&1813577525294&1813577525294&0&10030&30&boshzjjg&
20060930020100433860&VIE2VAVL01JZ1H11&20200609&02000016&1815211571887&1815211571887&0&30090&90&boshzjjg&
20060930020100433861&605X9MXP05WE0QNM&20200609&02000016&1815887508589&1815887508589&0&30090&90&boshzjjg&
20060930020100433733&0PH2IIL0PJVFY8DB&20200609&02000016&1818187582339&1818187582339&0&10030&30&boshzjjg&
20060930020100433773&UXEOZ4OZRHFECALA&20200609&02000016&1815333225923&1815333225923&0&20060&60&boshzjjg&
20060930020100433778&NA2VPKE3FDX1WQ78&20200609&02000016&1813887868883&1813887868883&0&100300&300&boshzjjg&
20060930020100433941&TW4UIO09JVIDIX3V&20200609&02000016&1800100000188&1800100000188&0&20060&60&boshzjjg&
20060930020100433949&HU9NV6BVWPGXLQM3&20200609&02000016&1818945765909&1818945765909&0&20060&60&boshzjjg&
20060930020100433794&Q509FRAYNGBN03PF&20200609&02000016&1814784685555&1814784685555&0&20060&60&boshzjjg&
20060930020100433959&1DTAZ3MU2BJ3F55J&20200609&02000016&1813584278719&1813584278719&0&200601&601&boshzjjg&
20060930020100433803&5KDIF8JRBQYCP6BR&20200609&02000016&1813582246755&1813582246755&0&30090&90&boshzjjg&
20060930020100433901&01G2UYKCEM32XLKG&20200609&02000016&1813722255068&1813722255068&0&50150&150&boshzjjg&
20060930020100433823&JN9UV6DTWHEL5AWI&20200609&02000016&1813988238986&1813988238986&0&30090&90&boshzjjg&
20060930020100433916&W185ZP9LH23FO7XZ&20200609&02000016&1815233745111&1815233745111&0&20060&60&boshzjjg&
20060930020100434041&I1W7LJ838MEJKAK9&20200609&02000016&1815231216025&1815231216025&0&10130&30&boshzjjg&
20060930020100433922&OCE3VISNKS2Q4XNJ&20200609&02000016&1813429398439&1813429398439&0&200601&601&boshzjjg&
20060930020100434043&PEACDFTPJTK0IOJZ&20200609&02000016&1815770327841&1815770327841&0&200601&601&boshzjjg&
20060930020100433932&M3FYCNNAO58JBDII&20200609&02000016&1813224207506&1813224207506&0&50150&150&boshzjjg&
20060930020100434005&8DPJLKLB81HGSMFN&20200609&02000016&1813400336006&1813400336006&0&60180&180&boshzjjg&
20060930020100434160&M0LJ8RG12B3ZR6ZS&20200609&02000016&1813703283113&1813703283113&0&2006&6&boshzjjg&
20060930020100434098&D4TK7L2Y5T90F3TH&20200609&02000016&1818833201891&1818833201891&0&20060&60&boshzjjg&
20060930020100434030&ZBZ3GEDI6LKQ737O&20200609&02000016&1815933739943&1815933739943&0&30090&90&boshzjjg&
20060930020100434116&M242TOAKFX447Q4R&20200609&02000016&1800100000114&1800100000114&0&150451&451&boshzjjg&
20060930020100434123&968DTA4S237D1CR1&20200609&02000016&1818931232281&1818931232281&0&20060&60&boshzjjg&
20060930020100434124&XJDR60RL3A2MJY3Z&20200609&02000016&1815045780980&1815045780980&0&20060&60&boshzjjg&
20060930020100434125&71AKN29OJP50JXLM&20200609&02000016&1815146194700&1815146194700&0&20060&60&boshzjjg&
20060930020100434127&0HP5ZBAP52RIVXLU&20200609&02000016&1818970607159&1818970607159&0&50150&150&boshzjjg&
20060930020100434265&QUYEVOTZD3P8TH6X&20200609&02000016&1813998105808&1813998105808&0&10030&30&boshzjjg&
20060930020100434274&O4LCBSBO6UFEQFA8&20200609&02000016&1813310933838&1813310933838&0&10030&30&boshzjjg&
20060930020100434352&G5NER7JUUPZ9GW5E&20200609&02000016&1800100000127&1800100000127&0&222166&666&boshzjjg&
20060930020100434232&8WFOSS20HEHK3H5V&20200609&02000016&1800100000125&1800100000125&0&40120&120&boshzjjg&
20060930020100434286&L5QNSF0KSGR5XX5V&20200609&02000016&1815129878708&1815129878708&0&80240&240&boshzjjg&
20060930020100434294&DF58TRDCZP3XNKH5&20200609&02000016&1818889422056&1818889422056&0&20060&60&boshzjjg&
20060930020100434366&CGL4GK04O13XFDGD&20200609&02000016&1818976770088&1818976770088&0&20060&60&boshzjjg&
20060930020100434440&T9UDAMU0L3S8NU3B&20200609&02000016&1815930276335&1815930276335&0&20060&60&boshzjjg&
20060930020100434394&886OU5JGXPRDJS3I&20200609&02000016&1818645566788&1818645566788&0&20060&60&boshzjjg&
20060930020100434543&AF4Q64LQ38JEGC85&20200609&02000016&1813730837693&1813730837693&0&10030&30&boshzjjg&
20060930020100434529&D4K1ED1CTWUYML6V&20200609&02000016&1815042400515&1815042400515&0&20060&60&boshzjjg&
20060930020100434601&COV0HDCENMUB3HV0&20200609&02000016&1815146824446&1815146824446&0&10030&30&boshzjjg&
