清算中心流水号&交易所流水号&业务发生日期&交易所代码&会员编码&资金账号&出入金方式&出入金类型&出入金发起方&发生金额&币种&银行代码&银行产品代码&银行帐号&状态&备注
20041630010100821132&H7NQZZF3GZ1HUUCG&20200416&02000134&1817538719131&1817538719131&&1&1&12300&CNY&0040&boshzjjg&622468000107563344&0&
20041630020100821135&JATK05XPQ9XP9XV0&20200416&02000134&1817538719131&1817538719131&&0&1&32196&CNY&0040&boshzjjg&622468000107563344&0&
20041630010100821140&GYBQYLOYP7RGQBRY&20200416&02000134&1817538719131&1817538719131&&1&1&100&CNY&0040&boshzjjg&622468000107563344&0&
20041630020100821143&O14PG911RK7R4VSP&20200416&02000134&1817538719135&1817538719135&&0&1&2006&CNY&0040&boshzjjg&622468001020019869&0&
20041630010100821145&NYHOKGKGE1GNEX5B&20200416&02000134&1817538719135&1817538719135&&1&1&5200&CNY&0040&boshzjjg&622468001020019869&0&
20041630020100821147&ZXOHM7IDM2LFKHYO&20200416&02000134&1817538719135&1817538719135&&0&1&10030&CNY&0040&boshzjjg&622468001020019869&0&
20041630010100821149&SIQIC8ZVDLHT9X1E&20200416&02000134&1817538719135&1817538719135&&1&1&9400&CNY&0040&boshzjjg&622468001020019869&0&
20041630020100821151&03VZ5V7P2MEHJWCL&20200416&02000134&1817538719135&1817538719135&&0&1&5215&CNY&0040&boshzjjg&622468001020019869&0&
20041630010100821153&CLM0RA8JBWWPG7P0&20200416&02000134&1817538719131&1817538719131&&1&1&100&CNY&0040&boshzjjg&622468000107563344&0&
20041630020100821155&NCTLMXBPRG1B9MWM&20200416&02000134&1817538719131&1817538719131&&0&1&100&CNY&0040&boshzjjg&622468000107563344&0&
20041630020100821157&P1XSO4Y2NZA6FDY5&20200416&02000134&1817538719131&1817538719131&&0&1&100&CNY&0040&boshzjjg&622468000107563344&0&
