清算中心流水号&交易所流水号&业务发生日期&交易所代码&会员编码&资金账号&出入金方式&出入金类型&出入金发起方&发生金额&币种&银行代码&银行产品代码&银行帐号&状态&备注
20051890040021401650&20051890040021401650&20200518&02000016&1818210293990&1818210293990&&1&2&1000000&CNY&0040&boshzjjg&6236683320015427180&0&
20051890040021401469&20051890040021401469&20200518&02000016&1815970230203&1815970230203&&1&2&200000&CNY&0040&boshzjjg&6226822017601717379&0&
20051890040021401563&20051890040021401563&20200518&02000016&1815933739942&1815933739942&&1&2&1000000&CNY&0040&boshzjjg&6217000140003977665&0&
20051890040021401652&20051890040021401652&20200518&02000016&1813578198508&1813578198508&&1&2&200&CNY&0040&boshzjjg&6217997300096189504&0&
20051890040021401565&20051890040021401565&20200518&02000016&1813308821769&1813308821769&&1&2&10000&CNY&0040&boshzjjg&6236683970000107203&0&
20051830020100401502&FWUN3709XWDKP4WO&20200518&02000016&1813663315968&1813663315968&&0&1&220661&CNY&0040&boshzjjg&6228411263022242869&0&
20051830020100401606&8GXL6Q5P8OP7APUG&20200518&02000016&1800100000302&1800100000302&&0&1&236208&CNY&0040&boshzjjg&6222031210000544652&0&
20051830020100401609&6VLSORAXMSOOWPM0&20200518&02000016&1800100000177&1800100000177&&0&1&20060&CNY&0040&boshzjjg&6217001490003900459&0&
20051830020100401613&LI4ZJSDFH9O9HMIF&20200518&02000016&1800100000332&1800100000332&&0&1&17552&CNY&0040&boshzjjg&6236681490002533969&0&
20051830020100401511&PGUYBWGTEOZAOP90&20200518&02000016&1818057812357&1818057812357&&0&1&21063&CNY&0040&boshzjjg&6222031210001020678&0&
20051830020100401521&RCDO9IH74UZ0EZIT&20200518&02000016&1815057868078&1815057868078&&0&1&8024&CNY&0040&boshzjjg&6217856200027232672&0&
20051830020100401699&UVPDW86BO5ND0520&20200518&02000016&1815356155658&1815356155658&&0&1&8024&CNY&0040&boshzjjg&6222031210000902306&0&
20051830020100401522&2Y2CW640ESOID1WI&20200518&02000016&1815709151444&1815709151444&&0&1&40120&CNY&0040&boshzjjg&6217004170001727701&0&
20051830020100401628&R147ROIK37HLTTAV&20200518&02000016&1817705788090&1817705788090&&0&1&101303&CNY&0040&boshzjjg&6222031210001021569&0&
20051830020100401632&ERR6AN5JFWEIHVYI&20200518&02000016&1818072677667&1818072677667&&0&1&7021&CNY&0040&boshzjjg&6228481082166760519&0&
20051830020100401528&AT1ZNRQTCTZLNYX2&20200518&02000016&1818867803303&1818867803303&&0&1&85255&CNY&0040&boshzjjg&6222031210001965534&0&
20051830020100401702&9TTQZYJTUJNXA59X&20200518&02000016&1813645784978&1813645784978&&0&1&14042&CNY&0040&boshzjjg&6236681460009881752&0&
20051830020100401738&P5JI0MFUA6L43IHG&20200518&02000016&1815057868317&1815057868317&&0&1&13039&CNY&0040&boshzjjg&6212261210002881526&0&
20051830020100401530&RJUU3LABHBS3005H&20200518&02000016&1813395881687&1813395881687&&0&1&10030&CNY&0040&boshzjjg&6217866200020776806&0&
20051830020100401707&SCSSR9ZVM3UXFPHZ&20200518&02000016&1818767811827&1818767811827&&0&1&214643&CNY&0040&boshzjjg&6210580999001988013&0&
20051830020100401532&U737UI2NG6L63MUU&20200518&02000016&1815157898394&1815157898394&&0&1&213640&CNY&0040&boshzjjg&6222081210004554169&0&
20051830020100401744&OWFQT249ZZ30DC9U&20200518&02000016&1813606699357&1813606699357&&0&1&8024&CNY&0040&boshzjjg&6228481088058824875&0&
20051830020100401710&YBP2VVUR2OZT7D2P&20200518&02000016&1800100000142&1800100000142&&0&1&10030&CNY&0040&boshzjjg&6222081210003769776&0&
20051830020100401841&17K9Q0WIEGOK4WEC&20200518&02000016&1813395881687&1813395881687&&0&1&120361&CNY&0040&boshzjjg&6217866200020776806&0&
20051830020100401845&KO64R9P0FS1Y3EIF&20200518&02000016&1813619405650&1813619405650&&0&1&200601&CNY&0040&boshzjjg&6228481439237393078&0&
20051830020100401862&Z1KW6WFUYPRPSIGN&20200518&02000016&1818993303292&1818993303292&&0&1&10030&CNY&0040&boshzjjg&6217004280009870112&0&
20051830020100401883&I59YJIG1S26NEGMF&20200518&02000016&1800100000358&1800100000358&&0&1&200601&CNY&0040&boshzjjg&6217992610007794647&0&
20051830020100401896&7N095LTDWPV2OWAZ&20200518&02000016&1815279193370&1815279193370&&0&1&60&CNY&0040&boshzjjg&6217735701939032&0&
20051830020100401977&NHXAMTE9FVX5L545&20200518&02000016&1818679687885&1818679687885&&0&1&40&CNY&0040&boshzjjg&6217002020028658763&0&
20051830020100401980&54JB9RWAOMR7OIIO&20200518&02000016&1817679147786&1817679147786&&0&1&50&CNY&0040&boshzjjg&6227002090540164896&0&
20051830020100401815&XBA67UNYSTEBMEEM&20200518&02000016&1818000210736&1818000210736&&0&1&20&CNY&0040&boshzjjg&6222021502018413603&0&
20051830020100401816&SA5LAFCINSWH8SGD&20200518&02000016&1818119672820&1818119672820&&0&1&20&CNY&0040&boshzjjg&6215581302001940746&0&
20051830020100401904&AG98G2RNDQRCWUS0&20200518&02000016&1800100000106&1800100000106&&0&1&30090&CNY&0040&boshzjjg&6228481749121580972&0&
20051830020100401821&TG5XX8MEUHNKN00V&20200518&02000016&1813932256061&1813932256061&&0&1&9929&CNY&0040&boshzjjg&6222080409001330703&0&
20051830020100401908&0IJ426PCLUV1DMDA&20200518&02000016&1818159800103&1818159800103&&0&1&1003&CNY&0040&boshzjjg&6217566400004211720&0&
20051830020100401928&18JMU9VDFWXXXZQN&20200518&02000016&1813333799393&1813333799393&&0&1&100300&CNY&0040&boshzjjg&6217002450011806865&0&
20051830020100402041&SSY8OXCP7HT0D938&20200518&02000016&1813333799393&1813333799393&&0&1&100300&CNY&0040&boshzjjg&6217002450011806865&0&
20051830020100402044&Y3UXJTWCQLL6I16G&20200518&02000016&1818987916256&1818987916256&&0&1&20060&CNY&0040&boshzjjg&6236684020000323225&0&
20051830020100402160&WHNX5LPGY249DO20&20200518&02000016&1818164646890&1818164646890&&0&1&53560&CNY&0040&boshzjjg&6228483318336892578&0&
20051830020100402067&2Q4ACNZAE19UVBVX&20200518&02000016&1813400267349&1813400267349&&0&1&23069&CNY&0040&boshzjjg&6217865000008146647&0&
20051830020100402068&GGJDS0YPGWBK3KGN&20200518&02000016&1813378816227&1813378816227&&0&1&54162&CNY&0040&boshzjjg&6228483318352011871&0&
20051830020100402236&F1IICNHDFHLZN6EW&20200518&02000016&1815184848605&1815184848605&&0&1&200601&CNY&0040&boshzjjg&6228483966003082665&0&
20051830020100402073&P61A5J12T9A7DILR&20200518&02000016&1815097408526&1815097408526&&0&1&23069&CNY&0040&boshzjjg&6217855000063369987&0&
20051830020100402076&WPKH97H8XKO7THL4&20200518&02000016&1818932685729&1818932685729&&0&1&10030&CNY&0040&boshzjjg&6217855000075105189&0&
20051830020100402172&HFX7SLWXLTQULESN&20200518&02000016&1813988266069&1813988266069&&0&1&4174&CNY&0040&boshzjjg&6217003970001256606&0&
20051830020100402252&B6P3CA920IQFI8XL&20200518&02000016&1813988266069&1813988266069&&0&1&60080&CNY&0040&boshzjjg&6217003970001256606&0&
20051830020100402192&2N8NPJZ75NTGZBEX&20200518&02000016&1818931222380&1818931222380&&0&1&50150&CNY&0040&boshzjjg&6217855000052124005&0&
20051830020100402200&22VUH4G526QUPSF7&20200518&02000016&1818233358282&1818233358282&&0&1&23069&CNY&0040&boshzjjg&6236680140003081960&0&
20051830020100402268&MZJZZKS29MTRZ9XN&20200518&02000016&1800100000127&1800100000127&&0&1&8024&CNY&0040&boshzjjg&6217001490003296593&0&
20051830020100402225&1PPJ4QB27SV6C8JV&20200518&02000016&1818993303292&1818993303292&&0&1&80240&CNY&0040&boshzjjg&6217004280009870112&0&
20051830020100402348&PCDPOQKZM3C7STE2&20200518&02000016&1800100000041&1800100000041&&0&1&50150&CNY&0040&boshzjjg&6228481268439100175&0&
20051830020100402355&UYJF0KNJZN39NJQF&20200518&02000016&1813567094825&1813567094825&&0&1&4914&CNY&0040&boshzjjg&6212261210002701062&0&
20051830020100402320&XNBBZYHKAXDHMAOQ&20200518&02000016&1815630880329&1815630880329&&0&1&47141&CNY&0040&boshzjjg&4563515005004515888&0&
20051830020100402368&DY74JD98I670RDB7&20200518&02000016&1813645788835&1813645788835&&0&1&4914&CNY&0040&boshzjjg&6212261210002946147&0&
20051830020100402552&11IBRI8OBUZNBWDY&20200518&02000016&1815903327688&1815903327688&&0&1&11434&CNY&0040&boshzjjg&6227000143210282613&0&
20051830020100402503&6W1R3LRHNTWFU3C7&20200518&02000016&1813846055840&1813846055840&&0&1&100300&CNY&0040&boshzjjg&4367421041460035508&0&
20051830020100402529&VP4X2LHSZ6GHTG5S&20200518&02000016&1818132758604&1818132758604&&0&1&10030&CNY&0040&boshzjjg&6228481268440158675&0&
20051830020100402598&HCRO0YAXOH3FEQ90&20200518&02000016&1815097746135&1815097746135&&0&1&200601&CNY&0040&boshzjjg&6228481269200656973&0&
20051830020100402609&XUI8VXY0AT3Q431Y&20200518&02000016&1813082311311&1813082311311&&0&1&10030&CNY&0040&boshzjjg&6228481269123313074&0&
20051830020100402612&9LNW8PFSM61WA05T&20200518&02000016&1813932256061&1813932256061&&0&1&2006&CNY&0040&boshzjjg&6222080409001330703&0&
20051830020100402838&PKLEOT6XU9ZSIHV5&20200518&02000016&1815208808189&1815208808189&&0&1&10030&CNY&0040&boshzjjg&6228483350106186410&0&
20051830020100402796&XPN3BEQ9JV8K4DPG&20200518&02000016&1818875037395&1818875037395&&0&1&10230&CNY&0040&boshzjjg&6228480479009445673&0&
20051830020100402887&DLK4ZDNANT7SA83I&20200518&02000016&1815931775090&1815931775090&&0&1&6018&CNY&0040&boshzjjg&6216615002001917052&0&
20051830020100402829&0SOM4R7W133JPPW7&20200518&02000016&1813571459983&1813571459983&&0&1&30090&CNY&0040&boshzjjg&6236684170000559672&0&
20051830020100402733&ZAAW0OPJYBJADJL2&20200518&02000016&1813691234502&1813691234502&&0&1&40&CNY&0040&boshzjjg&6228482908299346272&0&
20051830020100402950&DCRK97XZ9VIH65QG&20200518&02000016&1800100000060&1800100000060&&0&1&10030&CNY&0040&boshzjjg&6228480198414160970&0&
20051830020100402956&UF18AFAYDJDIHI1B&20200518&02000016&1818335259239&1818335259239&&0&1&10030&CNY&0040&boshzjjg&6212260504007260822&0&
20051830020100403053&QB7SAPURAJSSH0AS&20200518&02000016&1813769055559&1813769055559&&0&1&230692&CNY&0040&boshzjjg&6212262510000846770&0&
20051830020100402976&FU38FPGRIVZUO4BV&20200518&02000016&1818132758604&1818132758604&&0&1&100&CNY&0040&boshzjjg&6228481268440158675&0&
20051830020100403056&WVJWXIQ01YVYTLGZ&20200518&02000016&1814708750317&1814708750317&&0&1&10030&CNY&0040&boshzjjg&6228483968092580377&0&
20051830020100403153&ETX0EWHRXX8QFPUZ&20200518&02000016&1818132758604&1818132758604&&0&1&200&CNY&0040&boshzjjg&6228481268440158675&0&
20051830020100403154&OZYHTHU6FOP0GJ10&20200518&02000016&1800100000122&1800100000122&&0&1&20060&CNY&0040&boshzjjg&6228451268042593978&0&
20051830020100403001&XZWY2OI1Q7C2R43A&20200518&02000016&1818987538596&1818987538596&&0&1&70210&CNY&0040&boshzjjg&6217003960001582077&0&
20051830020100403080&PIXHCGJQTG1HA9N6&20200518&02000016&1817703687887&1817703687887&&0&1&10030&CNY&0040&boshzjjg&6217855300030641983&0&
20051830020100403169&PLI6RNYW9XCG6IW3&20200518&02000016&1815887550134&1815887550134&&0&1&23671&CNY&0040&boshzjjg&6217003970000160544&0&
20051830020100403019&JYD40XMHW1CDL287&20200518&02000016&1815233745111&1815233745111&&0&1&10030&CNY&0040&boshzjjg&6222030409001568568&0&
20051830020100403020&SDOC3IBV4MRMR83Y&20200518&02000016&1815100269110&1815100269110&&0&1&10030&CNY&0040&boshzjjg&6228481268511222673&0&
20051830020100403182&7YK05W5GTWCF5CZP&20200518&02000016&1818309996978&1818309996978&&0&1&50150&CNY&0040&boshzjjg&6222033006003874965&0&
20051830020100403184&6HZ8SDOAW2MS3ORO&20200518&02000016&1818909995887&1818909995887&&0&1&40120&CNY&0040&boshzjjg&6222033006001389313&0&
20051830020100403103&DNENH2HOAOSOIP9N&20200518&02000016&1800100000071&1800100000071&&0&1&10030&CNY&0040&boshzjjg&6228272226027369472&0&
20051830020100403109&XU9XEPHAYYONLQRZ&20200518&02000016&1813578222161&1813578222161&&0&1&200601&CNY&0040&boshzjjg&6217997300002074667&0&
20051830020100403125&M930VMIUPM0GEIQM&20200518&02000016&1815057868078&1815057868078&&0&1&1003&CNY&0040&boshzjjg&6217856200027232672&0&
20051830020100403128&US30HJ4PA13GU1C2&20200518&02000016&1813587765311&1813587765311&&0&1&100&CNY&0040&boshzjjg&6236681420015050297&0&
20051830020100403224&E1I18UQCAQ6BJPU1&20200518&02000016&1818086369975&1818086369975&&0&1&1504&CNY&0040&boshzjjg&6217995200056984864&0&
20051830020100403334&7K4U23E4TU6CRAKJ&20200518&02000016&1817386323731&1817386323731&&0&1&401&CNY&0040&boshzjjg&6230520790032553178&0&
20051830020100403225&K5S9TCG0ANNWD57S&20200518&02000016&1813828106867&1813828106867&&0&1&401&CNY&0040&boshzjjg&6228480086943580372&0&
20051830020100403348&2DNGMDLD43NG324U&20200518&02000016&1813988238986&1813988238986&&0&1&20060&CNY&0040&boshzjjg&6230523350012901777&0&
20051830020100403435&DAR6DM3NLX61H5KK&20200518&02000016&1818827967748&1818827967748&&0&1&2006&CNY&0040&boshzjjg&6215581509002825284&0&
20051830020100403436&DZZKAX7AEKJRKJ5T&20200518&02000016&1800100000261&1800100000261&&0&1&501504&CNY&0040&boshzjjg&6236682020000195104&0&
20051830020100403355&KU583QQFAV00ODAH&20200518&02000016&1815204682299&1815204682299&&0&1&10030&CNY&0040&boshzjjg&6228482226175661064&0&
20051830020100403280&RQBOE6ERWLISWYH0&20200518&02000016&1813967066813&1813967066813&&0&1&9027&CNY&0040&boshzjjg&6212261210000904403&0&
20051830020100403360&JTKTLT7GOG30EHNI&20200518&02000016&1815990428194&1815990428194&&0&1&9027&CNY&0040&boshzjjg&6228481088481167876&0&
20051830020100403444&7RYR8R7RHYNJGROK&20200518&02000016&1815967919905&1815967919905&&0&1&9027&CNY&0040&boshzjjg&6222021208017949650&0&
20051830020100403301&6JLG54VL9BKDB6X7&20200518&02000016&1813473122412&1813473122412&&0&1&10030&CNY&0040&boshzjjg&6228481266474990260&0&
20051830020100403376&W60YIXLHY31OXQK9&20200518&02000016&1800100000298&1800100000298&&0&1&30090&CNY&0040&boshzjjg&6222020906003758198&0&
20051830020100403303&MTIAT3SYH04RP6XT&20200518&02000016&1813006233652&1813006233652&&0&1&65195&CNY&0040&boshzjjg&6222081506000105207&0&
20051830020100403479&HEDLT6ZJ700YYR0T&20200518&02000016&1813191684413&1813191684413&&0&1&10030&CNY&0040&boshzjjg&6217000140024766428&0&
20051830020100403645&Z4PPNDIBBLM5UBSQ&20200518&02000016&1818468025462&1818468025462&&0&1&10030&CNY&0040&boshzjjg&6228483968612650775&0&
20051830020100403650&F08NY65Z5W5UUWLD&20200518&02000016&1813577500356&1813577500356&&0&1&10030&CNY&0040&boshzjjg&6212262510000520615&0&
20051830020100403581&QNJ1EGORXINVQKP0&20200518&02000016&1818604681909&1818604681909&&0&1&20060&CNY&0040&boshzjjg&6217992610209647056&0&
20051830020100403588&HJO8N2G7RPVUL5Y9&20200518&02000016&1813796290795&1813796290795&&0&1&70210&CNY&0040&boshzjjg&6217000990004835092&0&
20051830020100403653&I8QPLTL8BYX05HRZ&20200518&02000016&1800100000213&1800100000213&&0&1&70210&CNY&0040&boshzjjg&6217855300027671225&0&
20051830020100403529&QYNF3G36JYNMQSN4&20200518&02000016&1818291527998&1818291527998&&0&1&43129&CNY&0040&boshzjjg&6227004171150115549&0&
20051830020100403657&DMQPM01ZPPP829G2&20200518&02000016&1818714555279&1818714555279&&0&1&10030&CNY&0040&boshzjjg&6013825311000638164&0&
20051830020100403619&VO5H6EVJ8R8JNJ28&20200518&02000016&1815288130560&1815288130560&&0&1&125376&CNY&0040&boshzjjg&6212262502013060523&0&
20051830020100403790&YUB2DZ2YFAOL7SEF&20200518&02000016&1817784230052&1817784230052&&0&1&12036&CNY&0040&boshzjjg&6227003764760002767&0&
20051830020100403940&1WEL10XSLMTR3VYC&20200518&02000016&1800100000182&1800100000182&&0&1&1003&CNY&0040&boshzjjg&6212261210002792467&0&
20051830020100403961&4RSKJ2PO3X3S2ELC&20200518&02000016&1818468025462&1818468025462&&0&1&50150&CNY&0040&boshzjjg&6228483968612650775&0&
20051830020100403963&ZHZL01HRVRG7KLK2&20200518&02000016&1800100000022&1800100000022&&0&1&20060&CNY&0040&boshzjjg&6212260409014547189&0&
20051830020100403819&IPBS0LH64QQINTPF&20200518&02000016&1813870608160&1813870608160&&0&1&200601&CNY&0040&boshzjjg&6214857906729373&0&
20051830020100403997&IF7JW3Y2IVDRAU6Q&20200518&02000016&1815368486928&1815368486928&&0&1&10030&CNY&0040&boshzjjg&6222082510000337827&0&
20051830020100403998&PNO6KBLIV6GITQOI&20200518&02000016&1813673221558&1813673221558&&0&1&200601&CNY&0040&boshzjjg&6236680140001116693&0&
20051830020100404007&YMRWUM32HL8EIWPV&20200518&02000016&1815630279935&1815630279935&&0&1&3309&CNY&0040&boshzjjg&6212260409009932560&0&
20051830020100404021&XBWCDCCMBNBSBE0D&20200518&02000016&1815603255558&1815603255558&&0&1&180541&CNY&0040&boshzjjg&6236680140001985725&0&
20051830020100404108&H855YVEPEGEY7LFD&20200518&02000016&1815709151444&1815709151444&&0&1&15045&CNY&0040&boshzjjg&6217004170001727701&0&
20051830020100404194&2K1CGR6WP3W0V85O&20200518&02000016&1813315272938&1813315272938&&0&1&200601&CNY&0040&boshzjjg&6236680140002613771&0&
20051830020100404208&Y92P7XPQ65HEDMZ0&20200518&02000016&1815268612201&1815268612201&&0&1&100&CNY&0040&boshzjjg&6217856200041679064&0&
20051830020100404284&N1WP0L1NUO3TNE2E&20200518&02000016&1817692238970&1817692238970&&0&1&200601&CNY&0040&boshzjjg&6212260409010163916&0&
20051830020100404290&XABXZVZMYIV2MCN5&20200518&02000016&1813769999509&1813769999509&&0&1&20060&CNY&0040&boshzjjg&6217004020000613909&0&
20051830020100404315&UJJE2LDU2STCX03X&20200518&02000016&1813643126078&1813643126078&&0&1&10030&CNY&0040&boshzjjg&6228481269143994077&0&
20051830020100404463&WSQNYX6GWTWZSF4C&20200518&02000016&1800100000046&1800100000046&&0&1&1003&CNY&0040&boshzjjg&6210981340006426557&0&
20051830020100404420&4KYQ4PU768ZDGPIW&20200518&02000016&1800100000041&1800100000041&&0&1&150451&CNY&0040&boshzjjg&6228481268439100175&0&
20051830020100404423&BU49IU7WXJ6PS4Q7&20200518&02000016&1817732266277&1817732266277&&0&1&42302&CNY&0040&boshzjjg&6228481262349094115&0&
20051830020100404640&DYUN2GYFXEBJPAPT&20200518&02000016&1818009990778&1818009990778&&0&1&20060&CNY&0040&boshzjjg&6217233006000810358&0&
20051830020100404594&JJ99P3UNM52KTH6U&20200518&02000016&1800100000197&1800100000197&&0&1&10030&CNY&0040&boshzjjg&6225887901012811&0&
20051830020100404603&LGD80WW1KOCUS6PC&20200518&02000016&1800100000237&1800100000237&&0&1&10030&CNY&0040&boshzjjg&6217681805871384&0&
20051830020100404606&RLUBB6J3LOCJB0G5&20200518&02000016&1815857889599&1815857889599&&0&1&30090&CNY&0040&boshzjjg&6228481088364243273&0&
20051830020100404866&CBDIKRPAP86JIHN0&20200518&02000016&1815109156089&1815109156089&&0&1&10030&CNY&0040&boshzjjg&6230521360035249973&0&
20051890040021401651&20051890040021401651&20200518&02000016&1813305788506&1813305788506&&1&2&6000&CNY&0040&boshzjjg&6212261210002695223&0&
20051890040021401468&20051890040021401468&20200518&02000016&1813305788506&1813305788506&&1&2&170000&CNY&0040&boshzjjg&6212261210002695223&0&
20051890040021401566&20051890040021401566&20200518&02000016&1818335259239&1818335259239&&1&2&10000&CNY&0040&boshzjjg&6212260504007260822&0&
20051890040021401669&20051890040021401669&20200518&02000016&1818869127192&1818869127192&&1&2&200000&CNY&0040&boshzjjg&6217997300054257160&0&
20051890040021401584&20051890040021401584&20200518&02000016&1813759241776&1813759241776&&1&2&200000&CNY&0040&boshzjjg&6228483358063848377&0&
20051890040021401587&20051890040021401587&20200518&02000016&1815175228012&1815175228012&&1&2&1000000&CNY&0040&boshzjjg&6228481269185401577&0&
20051890040021401673&20051890040021401673&20200518&02000016&1813473122412&1813473122412&&1&2&400000&CNY&0040&boshzjjg&6228481266474990260&0&
20051890040021401864&20051890040021401864&20200518&02000016&1813722243235&1813722243235&&1&2&200000&CNY&0040&boshzjjg&6217855000035912377&0&
20051890040021401943&20051890040021401943&20200518&02000016&1800100000048&1800100000048&&1&2&200000&CNY&0040&boshzjjg&6217000140028374146&0&
20051890040021401946&20051890040021401946&20200518&02000016&1818787552261&1818787552261&&1&2&980000&CNY&0040&boshzjjg&6217003960003266703&0&
20051890040021401785&20051890040021401785&20200518&02000016&1815334341131&1815334341131&&1&2&200000&CNY&0040&boshzjjg&6217003970002037427&0&
20051890040021401885&20051890040021401885&20200518&02000016&1813759236567&1813759236567&&1&2&1000000&CNY&0040&boshzjjg&6228483358274324879&0&
20051890040021401927&20051890040021401927&20200518&02000016&1815334341131&1815334341131&&1&2&200000&CNY&0040&boshzjjg&6217003970002037427&0&
20051890040021402008&20051890040021402008&20200518&02000016&1818131201300&1818131201300&&1&2&200000&CNY&0040&boshzjjg&6236680140000463443&0&
20051890040021402069&20051890040021402069&20200518&02000016&1815978647111&1815978647111&&1&2&200000&CNY&0040&boshzjjg&6217004400013694437&0&
20051890040021402246&20051890040021402246&20200518&02000016&1817304211987&1817304211987&&1&2&400000&CNY&0040&boshzjjg&6217992340002158842&0&
20051890040021402101&20051890040021402101&20200518&02000016&1818288950291&1818288950291&&1&2&200000&CNY&0040&boshzjjg&6228450860019060519&0&
20051890040021402201&20051890040021402201&20200518&02000016&1813513121930&1813513121930&&1&2&200000&CNY&0040&boshzjjg&6013825002007063429&0&
20051890040021402269&20051890040021402269&20200518&02000016&1800100000028&1800100000028&&1&2&2000&CNY&0040&boshzjjg&6227000143610252802&0&
20051890040021402371&20051890040021402371&20200518&02000016&1815079696414&1815079696414&&1&2&200000&CNY&0040&boshzjjg&6228480086827063479&0&
20051890040021402526&20051890040021402526&20200518&02000016&1800100000127&1800100000127&&1&2&500&CNY&0040&boshzjjg&6217001490003296593&0&
20051890040021402645&20051890040021402645&20200518&02000016&1813628890031&1813628890031&&1&2&200000&CNY&0040&boshzjjg&6228483358584997372&0&
20051890040021402644&20051890040021402644&20200518&02000016&1800100000127&1800100000127&&1&2&19500&CNY&0040&boshzjjg&6217001490003296593&0&
20051890040021402664&20051890040021402664&20200518&02000016&1815894439256&1815894439256&&1&2&200000&CNY&0040&boshzjjg&6228483358378815079&0&
20051890040021402835&20051890040021402835&20200518&02000016&1813992529265&1813992529265&&1&2&1000000&CNY&0040&boshzjjg&6217004170003277606&0&
20051890040021402797&20051890040021402797&20200518&02000016&1813593926195&1813593926195&&1&2&200000&CNY&0040&boshzjjg&6228483828115704471&0&
20051890040021402813&20051890040021402813&20200518&02000016&1815109233126&1815109233126&&1&2&200000&CNY&0040&boshzjjg&6217997900024413254&0&
20051890040021402708&20051890040021402708&20200518&02000016&1813993467318&1813993467318&&1&2&2000&CNY&0040&boshzjjg&622908453065809217&0&
20051890040021402889&20051890040021402889&20200518&02000016&1813577525294&1813577525294&&1&2&400000&CNY&0040&boshzjjg&6217003960003627946&0&
20051890040021403156&20051890040021403156&20200518&02000016&1815333221545&1815333221545&&1&2&200000&CNY&0040&boshzjjg&6217565000065729007&0&
20051890040021403105&20051890040021403105&20200518&02000016&1818690049591&1818690049591&&1&2&200000&CNY&0040&boshzjjg&6228480231197014211&0&
20051890040021403246&20051890040021403246&20200518&02000016&1813730190518&1813730190518&&1&2&400000&CNY&0040&boshzjjg&6222030409003835999&0&
20051890040021403247&20051890040021403247&20200518&02000016&1815231216025&1815231216025&&1&2&200000&CNY&0040&boshzjjg&6236680140000326509&0&
20051890040021403215&20051890040021403215&20200518&02000016&1815389494945&1815389494945&&1&2&170000&CNY&0040&boshzjjg&6215592605003645908&0&
20051890040021403216&20051890040021403216&20200518&02000016&1813578222161&1813578222161&&1&2&200000&CNY&0040&boshzjjg&6217997300002074667&0&
20051890040021403217&20051890040021403217&20200518&02000016&1818165477289&1818165477289&&1&2&200000&CNY&0040&boshzjjg&6235733600000210804&0&
20051890040021403222&20051890040021403222&20200518&02000016&1815257296726&1815257296726&&1&2&1000&CNY&0040&boshzjjg&4340621430040703&0&
20051890040021403266&20051890040021403266&20200518&02000016&1815257296726&1815257296726&&1&2&195000&CNY&0040&boshzjjg&4340621430040703&0&
20051890040021403352&20051890040021403352&20200518&02000016&1800100000358&1800100000358&&1&2&180000&CNY&0040&boshzjjg&6217992610007794647&0&
20051890040021403454&20051890040021403454&20200518&02000016&1800100000066&1800100000066&&1&2&2000&CNY&0040&boshzjjg&6216615002005232763&0&
20051890040021403482&20051890040021403482&20200518&02000016&1815129737661&1815129737661&&1&2&10000&CNY&0040&boshzjjg&6217004140008222246&0&
20051890040021403404&20051890040021403404&20200518&02000016&1813988239712&1813988239712&&1&2&200000&CNY&0040&boshzjjg&6228483350469834713&0&
20051890040021403584&20051890040021403584&20200518&02000016&1813587758991&1813587758991&&1&2&200000&CNY&0040&boshzjjg&6228430338131279874&0&
20051890040021403661&20051890040021403661&20200518&02000016&1813466192760&1813466192760&&1&2&200&CNY&0040&boshzjjg&6228483338585726970&0&
20051890040021403595&20051890040021403595&20200518&02000016&1813191684413&1813191684413&&1&2&5000&CNY&0040&boshzjjg&6217000140024766428&0&
20051890040021403605&20051890040021403605&20200518&02000016&1813466192760&1813466192760&&1&2&400000&CNY&0040&boshzjjg&6228483338585726970&0&
20051890040021403610&20051890040021403610&20200518&02000016&1813578198508&1813578198508&&1&2&400000&CNY&0040&boshzjjg&6217997300096189504&0&
20051890040021403697&20051890040021403697&20200518&02000016&1813633226787&1813633226787&&1&2&200000&CNY&0040&boshzjjg&6217230409000055995&0&
20051890040021403701&20051890040021403701&20200518&02000016&1813577500356&1813577500356&&1&2&200000&CNY&0040&boshzjjg&6212262510000520615&0&
20051890040021403709&20051890040021403709&20200518&02000016&1819931217298&1819931217298&&1&2&200000&CNY&0040&boshzjjg&6222020409009790406&0&
20051890040021403948&20051890040021403948&20200518&02000016&1813722978286&1813722978286&&1&2&200000&CNY&0040&boshzjjg&6217000140034194637&0&
20051890040021403884&20051890040021403884&20200518&02000016&1813483293913&1813483293913&&1&2&1000000&CNY&0040&boshzjjg&6217000140018241396&0&
20051890040021403887&20051890040021403887&20200518&02000016&1813961081945&1813961081945&&1&2&5000&CNY&0040&boshzjjg&6228483422865691714&0&
20051890040021403903&20051890040021403903&20200518&02000016&1818788207781&1818788207781&&1&2&800000&CNY&0040&boshzjjg&6228483358381747673&0&
20051890040021404037&20051890040021404037&20200518&02000016&1818962075812&1818962075812&&1&2&1000000&CNY&0040&boshzjjg&6228481985094841773&0&
20051890040021404042&20051890040021404042&20200518&02000016&1800100000064&1800100000064&&1&2&3000&CNY&0040&boshzjjg&6228481269164514978&0&
20051890040021404044&20051890040021404044&20200518&02000016&1813628894679&1813628894679&&1&2&10000&CNY&0040&boshzjjg&6228483358594425570&0&
20051890040021404051&20051890040021404051&20200518&02000016&1818187582339&1818187582339&&1&2&200000&CNY&0040&boshzjjg&6230523960012293072&0&
20051890040021404000&20051890040021404000&20200518&02000016&1818812455746&1818812455746&&1&2&1200&CNY&0040&boshzjjg&6230521360024510179&0&
20051890040021403999&20051890040021403999&20200518&02000016&1818788207781&1818788207781&&1&2&200000&CNY&0040&boshzjjg&6228483358381747673&0&
20051890040021404001&20051890040021404001&20200518&02000016&1819187901601&1819187901601&&1&2&200000&CNY&0040&boshzjjg&6221887300017719863&0&
20051890040021404144&20051890040021404144&20200518&02000016&1818208857326&1818208857326&&1&2&191000&CNY&0040&boshzjjg&6217003850008749979&0&
20051890040021404023&20051890040021404023&20200518&02000016&1815168014087&1815168014087&&1&2&8000&CNY&0040&boshzjjg&6212261210002694408&0&
20051890040021404024&20051890040021404024&20200518&02000016&1815538816005&1815538816005&&1&2&200000&CNY&0040&boshzjjg&6226622215867728&0&
20051890040021404234&20051890040021404234&20200518&02000016&1813715622986&1813715622986&&1&2&200000&CNY&0040&boshzjjg&6230520100011676976&0&
20051890040021404158&20051890040021404158&20200518&02000016&1813335339191&1813335339191&&1&2&1000000&CNY&0040&boshzjjg&6217004140003676727&0&
20051890040021404162&20051890040021404162&20200518&02000016&1818132723583&1818132723583&&1&2&200000&CNY&0040&boshzjjg&6228480648923575977&0&
20051890040021404161&20051890040021404161&20200518&02000016&1813310933838&1813310933838&&1&2&220000&CNY&0040&boshzjjg&6236684140002876762&0&
20051890040021404104&20051890040021404104&20200518&02000016&1813315273740&1813315273740&&1&2&200000&CNY&0040&boshzjjg&6213361269900930972&0&
20051890040021404113&20051890040021404113&20200518&02000016&1819937271172&1819937271172&&1&2&200000&CNY&0040&boshzjjg&6214833792203286&0&
20051890040021404264&20051890040021404264&20200518&02000016&1818132717939&1818132717939&&1&2&200000&CNY&0040&boshzjjg&6217000140026001923&0&
20051890040021404273&20051890040021404273&20200518&02000016&1800100000142&1800100000142&&1&2&600&CNY&0040&boshzjjg&6222081210003769776&0&
20051890040021404341&20051890040021404341&20200518&02000016&1813277695928&1813277695928&&1&2&195000&CNY&0040&boshzjjg&4563517612300910784&0&
20051890040021404286&20051890040021404286&20200518&02000016&1813779583395&1813779583395&&1&2&600000&CNY&0040&boshzjjg&6222033006002054429&0&
20051890040021404345&20051890040021404345&20200518&02000016&1815670742888&1815670742888&&1&2&200000&CNY&0040&boshzjjg&6230520730030540678&0&
20051890040021404358&20051890040021404358&20200518&02000016&1813070527319&1813070527319&&1&2&200000&CNY&0040&boshzjjg&6228490010015685214&0&
20051890040021404360&20051890040021404360&20200518&02000016&1813867085658&1813867085658&&1&2&200&CNY&0040&boshzjjg&6222801499011138459&0&
20051890040021404379&20051890040021404379&20200518&02000016&1813383320308&1813383320308&&1&2&193200&CNY&0040&boshzjjg&6217000140003195151&0&
20051890040021404386&20051890040021404386&20200518&02000016&1813731660124&1813731660124&&1&2&200000&CNY&0040&boshzjjg&6216695000002505127&0&
20051890040021404321&20051890040021404321&20200518&02000016&1818832529652&1818832529652&&1&2&200000&CNY&0040&boshzjjg&6217000180038579367&0&
20051890040021404397&20051890040021404397&20200518&02000016&1818352027259&1818352027259&&1&2&200000&CNY&0040&boshzjjg&6217001320006564236&0&
20051890040021404478&20051890040021404478&20200518&02000016&1818976770088&1818976770088&&1&2&1000000&CNY&0040&boshzjjg&6212262201024968523&0&
20051890040021404484&20051890040021404484&20200518&02000016&1818352021124&1818352021124&&1&2&500000&CNY&0040&boshzjjg&6236681320001524901&0&
20051890040021404643&20051890040021404643&20200518&02000016&1818889422056&1818889422056&&1&2&1000000&CNY&0040&boshzjjg&6228410150025333913&0&
20051890040021404490&20051890040021404490&20200518&02000016&1813383320308&1813383320308&&1&2&5000&CNY&0040&boshzjjg&6217000140003195151&0&
20051890040021404590&20051890040021404590&20200518&02000016&1818696301799&1818696301799&&1&2&200000&CNY&0040&boshzjjg&6228483829384391974&0&
20051890040021404593&20051890040021404593&20200518&02000016&1818220730920&1818220730920&&1&2&200000&CNY&0040&boshzjjg&6222627140000512310&0&
20051890040021404659&20051890040021404659&20200518&02000016&1813884332947&1813884332947&&1&2&200000&CNY&0040&boshzjjg&6217906200001783195&0&
20051890040021404519&20051890040021404519&20200518&02000016&1815837935909&1815837935909&&1&2&199900&CNY&0040&boshzjjg&6217994930003845310&0&
20051890040021404680&20051890040021404680&20200518&02000016&1815887508589&1815887508589&&1&2&200000&CNY&0040&boshzjjg&6212262510001682521&0&
20051890040021404696&20051890040021404696&20200518&02000016&1817784230052&1817784230052&&1&2&200000&CNY&0040&boshzjjg&6227003764760002767&0&
20051890040021404761&20051890040021404761&20200518&02000016&1817789888843&1817789888843&&1&2&200000&CNY&0040&boshzjjg&6222022201008354302&0&
20051890040021404868&20051890040021404868&20200518&02000016&1815813676802&1815813676802&&1&2&200000&CNY&0040&boshzjjg&6228480096647356177&0&
20051890040021404867&20051890040021404867&20200518&02000016&1813303322686&1813303322686&&1&2&1000&CNY&0040&boshzjjg&6227000140810115953&0&
