20200509|02000134|1818032308691|1818032308691|CNY|0|6242
20200509|02000134|1814708750317|1814708750317|CNY|0|12484
20200509|02000134|1813628759556|1813628759556|CNY|0|194968
20200509|02000134|1815682951846|1815682951846|CNY|0|0
20200509|02000134|1815025020128|1815025020128|CNY|0|0
20200509|02000134|1813578201088|1813578201088|CNY|0|6242
20200509|02000134|1815503215222|1815503215222|CNY|0|0
20200509|02000134|1815619623000|1815619623000|CNY|0|0
20200509|02000134|1818288549796|1818288549796|CNY|0|6242
20200509|02000134|1815025068429|1815025068429|CNY|0|0
20200509|02000134|1813466148055|1813466148055|CNY|0|0
20200509|02000134|1818813396359|1818813396359|CNY|0|0
20200509|02000134|1815896686678|1815896686678|CNY|0|0
20200509|02000134|1813663317713|1813663317713|CNY|0|0
20200509|02000134|1818516898911|1818516898911|CNY|0|0
20200509|02000134|1818833239911|1818833239911|CNY|0|6242
20200509|02000134|1813908822711|1813908822711|CNY|0|0
20200509|02000134|1818787516848|1818787516848|CNY|0|2484
20200509|02000134|1815096988674|1815096988674|CNY|0|0
20200509|02000134|1818916702038|1818916702038|CNY|0|0
20200509|02000134|1815129878708|1815129878708|CNY|1000100|1000100
20200509|02000134|1815969344486|1815969344486|CNY|0|0
20200509|02000134|1813628822646|1813628822646|CNY|0|0
20200509|02000134|1818608820875|1818608820875|CNY|0|0
20200509|02000134|1815087527527|1815087527527|CNY|0|0
20200509|02000134|1813308821971|1813308821971|CNY|0|0
20200509|02000134|1818387527986|1818387527986|CNY|0|0
20200509|02000134|1818669298362|1818669298362|CNY|0|0
20200509|02000134|1818869202278|1818869202278|CNY|0|0
20200509|02000134|1813887868518|1813887868518|CNY|0|0
20200509|02000134|1813566373447|1813566373447|CNY|0|2002
20200509|02000134|1815631238078|1815631238078|CNY|0|0
20200509|02000134|1815025007693|1815025007693|CNY|0|6242
20200509|02000134|1818304684246|1818304684246|CNY|0|6242
20200509|02000134|1818088155607|1818088155607|CNY|0|13442
20200509|02000134|1815987884158|1815987884158|CNY|0|4437
20200509|02000134|1813759204028|1813759204028|CNY|0|6242
20200509|02000134|1813643393067|1813643393067|CNY|0|6242
20200509|02000134|1815232235991|1815232235991|CNY|0|0
20200509|02000134|1818987500186|1818987500186|CNY|0|0
20200509|02000134|1813429398439|1813429398439|CNY|0|18726
20200509|02000134|1813895018416|1813895018416|CNY|0|0
20200509|02000134|1818832529652|1818832529652|CNY|0|0
20200509|02000134|1813840468900|1813840468900|CNY|0|6242
20200509|02000134|1818214662231|1818214662231|CNY|0|0
20200509|02000134|1813970955648|1813970955648|CNY|0|200
20200509|02000134|1815686745787|1815686745787|CNY|0|0
20200509|02000134|1813988687925|1813988687925|CNY|0|0
20200509|02000134|1813398828698|1813398828698|CNY|0|6242
20200509|02000134|1815303122844|1815303122844|CNY|0|0
20200509|02000134|1813987595577|1813987595577|CNY|0|0
20200509|02000134|1813065172689|1813065172689|CNY|0|100
20200509|02000134|1818887533319|1818887533319|CNY|0|0
20200509|02000134|1815005786263|1815005786263|CNY|0|0
20200509|02000134|1818869202035|1818869202035|CNY|0|12484
20200509|02000134|1815208819237|1815208819237|CNY|0|6242
20200509|02000134|1818691110283|1818691110283|CNY|0|0
20200509|02000134|1813988259242|1813988259242|CNY|0|6242
20200509|02000134|1813578288004|1813578288004|CNY|0|418726
20200509|02000134|1815025033359|1815025033359|CNY|0|0
20200509|02000134|1818887512877|1818887512877|CNY|0|0
20200509|02000134|1817791269722|1817791269722|CNY|0|0
20200509|02000134|1815108605312|1815108605312|CNY|0|194968
20200509|02000134|1813613813995|1813613813995|CNY|0|0
20200509|02000134|1815731210779|1815731210779|CNY|0|0
20200509|02000134|1815129737661|1815129737661|CNY|0|13442
20200509|02000134|1818187582339|1818187582339|CNY|0|18226
20200509|02000134|1815333221545|1815333221545|CNY|0|0
20200509|02000134|1818908826659|1818908826659|CNY|0|418726
20200509|02000134|1815389551286|1815389551286|CNY|0|0
20200509|02000134|1816606922129|1816606922129|CNY|0|0
20200509|02000134|1813486694384|1813486694384|CNY|0|2523
20200509|02000134|1813987956640|1813987956640|CNY|0|224968
20200509|02000134|1815969042814|1815969042814|CNY|0|0
20200509|02000134|1818987511266|1818987511266|CNY|0|106242
20200509|02000134|1818159800103|1818159800103|CNY|0|12484
20200509|02000134|1813383128767|1813383128767|CNY|0|0
20200509|02000134|1813992148070|1813992148070|CNY|0|0
20200509|02000134|1815368798533|1815368798533|CNY|0|225068
20200509|02000134|1815287565721|1815287565721|CNY|0|12484
20200509|02000134|1815925448288|1815925448288|CNY|0|0
20200509|02000134|1818669254642|1818669254642|CNY|0|6242
20200509|02000134|1815969231848|1815969231848|CNY|0|6242
20200509|02000134|1815887508589|1815887508589|CNY|0|18726
20200509|02000134|1813991020881|1813991020881|CNY|0|0
20200509|02000134|1815925594498|1815925594498|CNY|0|0
20200509|02000134|1818468025462|1818468025462|CNY|0|18726
20200509|02000134|1815187507752|1815187507752|CNY|0|12484
20200509|02000134|1818392967498|1818392967498|CNY|0|6242
20200509|02000134|1817384836617|1817384836617|CNY|0|0
20200509|02000134|1814787364407|1814787364407|CNY|0|0
20200509|02000134|1813035952711|1813035952711|CNY|0|0
20200509|02000134|1818725332375|1818725332375|CNY|0|0
20200509|02000134|1818987916256|1818987916256|CNY|0|225268
20200509|02000134|1815925591567|1815925591567|CNY|0|224968
20200509|02000134|1818987538596|1818987538596|CNY|0|18726
20200509|02000134|1813772263673|1813772263673|CNY|0|0
20200509|02000134|1815288116989|1815288116989|CNY|0|0
20200509|02000134|1815108647893|1815108647893|CNY|0|6242
20200509|02000134|1818787552261|1818787552261|CNY|0|0
20200509|02000134|1818687948655|1818687948655|CNY|0|0
20200509|02000134|1813628853769|1813628853769|CNY|0|16242
20200509|02000134|1815087553123|1815087553123|CNY|0|194968
20200509|02000134|1818987916981|1818987916981|CNY|0|225168
20200509|02000134|1813529527711|1813529527711|CNY|0|0
20200509|02000134|1815025092367|1815025092367|CNY|0|0
20200509|02000134|1815331519738|1815331519738|CNY|0|6242
20200509|02000134|1815368750346|1815368750346|CNY|0|0
20200509|02000134|1813577525294|1813577525294|CNY|0|18226
20200509|02000134|1815334465219|1815334465219|CNY|0|224066
20200509|02000134|1815921012597|1815921012597|CNY|0|18726
20200509|02000134|1815946740910|1815946740910|CNY|0|6242
20200509|02000134|1813796415062|1813796415062|CNY|0|0
20200509|02000134|1815591159637|1815591159637|CNY|0|0
20200509|02000134|1813992106110|1813992106110|CNY|0|0
20200509|02000134|1813892542691|1813892542691|CNY|0|0
20200509|02000134|1813987581003|1813987581003|CNY|0|13442
20200509|02000134|1813577503685|1813577503685|CNY|20000|20709
20200509|02000134|1813731200919|1813731200919|CNY|0|1000
20200509|02000134|1813400267349|1813400267349|CNY|0|6242
20200509|02000134|1815812516805|1815812516805|CNY|0|0
20200509|02000134|1818787590852|1818787590852|CNY|0|0
20200509|02000134|1818088174982|1818088174982|CNY|0|2826
20200509|02000134|1815812564327|1815812564327|CNY|0|0
20200509|02000134|1817846813139|1817846813139|CNY|0|0
20200509|02000134|1817709111773|1817709111773|CNY|0|0
20200509|02000134|1813399343222|1813399343222|CNY|0|0
20200509|02000134|1813304107148|1813304107148|CNY|0|0
20200509|02000134|1813988255301|1813988255301|CNY|0|0
20200509|02000134|1815334341131|1815334341131|CNY|0|17523
20200509|02000134|1815770327841|1815770327841|CNY|0|6242
20200509|02000134|1813887829820|1813887829820|CNY|0|0
20200509|02000134|1813846095286|1813846095286|CNY|0|0
20200509|02000134|1813992118944|1813992118944|CNY|0|0
20200509|02000134|1813988271457|1813988271457|CNY|0|224968
20200509|02000134|1813987581588|1813987581588|CNY|1000|1000
20200509|02000134|1818788001556|1818788001556|CNY|0|0
20200509|02000134|1813988238986|1813988238986|CNY|0|224968
20200509|02000134|1813577500356|1813577500356|CNY|0|18726
20200509|02000134|1813992117776|1813992117776|CNY|0|0
20200509|02000134|1815891569614|1815891569614|CNY|0|0
20200509|02000134|1819931210376|1819931210376|CNY|0|0
20200509|02000134|1818931232281|1818931232281|CNY|0|18726
20200509|02000134|1818724403294|1818724403294|CNY|0|7242
20200509|02000134|1813840542929|1813840542929|CNY|0|224968
20200509|02000134|1815291131526|1815291131526|CNY|0|0
20200509|02000134|1813772895188|1813772895188|CNY|0|0
20200509|02000134|1813111603824|1813111603824|CNY|0|0
20200509|02000134|1815209129381|1815209129381|CNY|0|0
20200509|02000134|1813945860022|1813945860022|CNY|0|6242
20200509|02000134|1813991780399|1813991780399|CNY|0|100000
20200509|02000134|1818292122729|1818292122729|CNY|0|0
20200509|02000134|1818287556198|1818287556198|CNY|0|0
20200509|02000134|1813991770613|1813991770613|CNY|0|0
20200509|02000134|1815912705961|1815912705961|CNY|0|499
20200509|02000134|1813289113831|1813289113831|CNY|0|0
20200509|02000134|1815894436377|1815894436377|CNY|0|18726
20200509|02000134|1815191178341|1815191178341|CNY|0|0
20200509|02000134|1818392881911|1818392881911|CNY|0|0
20200509|02000134|1815231216025|1815231216025|CNY|0|0
20200509|02000134|1815137117832|1815137117832|CNY|0|0
20200509|02000134|1815083108167|1815083108167|CNY|0|0
20200509|02000134|1818233358282|1818233358282|CNY|0|6242
20200509|02000134|1813887868883|1813887868883|CNY|0|224968
20200509|02000134|1815630880329|1815630880329|CNY|0|12484
20200509|02000134|1815887657769|1815887657769|CNY|0|0
20200509|02000134|1813708757787|1813708757787|CNY|0|0
20200509|02000134|1815903327688|1815903327688|CNY|0|12484
20200509|02000134|1813473214668|1813473214668|CNY|0|0
20200509|02000134|1818988233319|1818988233319|CNY|0|0
20200509|02000134|1813832243557|1813832243557|CNY|0|0
20200509|02000134|1813488373818|1813488373818|CNY|0|0
20200509|02000134|1813987578771|1813987578771|CNY|0|0
20200509|02000134|1815991577667|1815991577667|CNY|0|0
20200509|02000134|1815945537804|1815945537804|CNY|0|612484
20200509|02000134|1817736297679|1817736297679|CNY|0|0
20200509|02000134|1813808788999|1813808788999|CNY|0|18726
20200509|02000134|1818645566467|1818645566467|CNY|0|0
20200509|02000134|1813098096755|1813098096755|CNY|0|0
20200509|02000134|1813571140723|1813571140723|CNY|0|0
20200509|02000134|1818087517065|1818087517065|CNY|0|0
20200509|02000134|1817868800449|1817868800449|CNY|0|0
20200509|02000134|1813578286883|1813578286883|CNY|0|31210
20200509|02000134|1815094223804|1815094223804|CNY|0|500
20200509|02000134|1817391958688|1817391958688|CNY|0|0
20200509|02000134|1818629039483|1818629039483|CNY|0|0
20200509|02000134|1816609114058|1816609114058|CNY|0|0
20200509|02000134|1819909111566|1819909111566|CNY|0|0
20200509|02000134|1815930284881|1815930284881|CNY|0|0
20200509|02000134|1817809111921|1817809111921|CNY|0|0
20200509|02000134|1818700162982|1818700162982|CNY|0|0
20200509|02000134|1815368486928|1815368486928|CNY|0|206242
20200509|02000134|1818840251155|1818840251155|CNY|0|0
20200509|02000134|1813992318598|1813992318598|CNY|0|0
20200509|02000134|1813988267556|1813988267556|CNY|0|224868
20200509|02000134|1813474458851|1813474458851|CNY|0|0
20200509|02000134|1815334310834|1815334310834|CNY|0|0
20200509|02000134|1815029530248|1815029530248|CNY|0|0
20200509|02000134|1813809349928|1813809349928|CNY|0|0
20200509|02000134|1815331528359|1815331528359|CNY|0|0
20200509|02000134|1813399115742|1813399115742|CNY|0|100000
20200509|02000134|1815996086632|1815996086632|CNY|0|0
20200509|02000134|1815368948672|1815368948672|CNY|0|224968
20200509|02000134|1815087509852|1815087509852|CNY|0|384726
20200509|02000134|1813772718111|1813772718111|CNY|0|0
20200509|02000134|1815045780980|1815045780980|CNY|0|6242
20200509|02000134|1815592260808|1815592260808|CNY|0|0
20200509|02000134|1815093210309|1815093210309|CNY|0|490
20200509|02000134|1815957203988|1815957203988|CNY|0|0
20200509|02000134|1818298839905|1818298839905|CNY|0|0
20200509|02000134|1815293423077|1815293423077|CNY|0|0
20200509|02000134|1815591123721|1815591123721|CNY|0|0
20200509|02000134|1818737962228|1818737962228|CNY|0|0
20200509|02000134|1813263346688|1813263346688|CNY|0|0
20200509|02000134|1813330594491|1813330594491|CNY|0|29210
20200509|02000134|1818687838558|1818687838558|CNY|0|6242
20200509|02000134|1815288130560|1815288130560|CNY|0|325068
20200509|02000134|1818994474771|1818994474771|CNY|0|1380693
20200509|02000134|1818091155128|1818091155128|CNY|0|0
20200509|02000134|1817719748304|1817719748304|CNY|0|0
20200509|02000134|1813772344055|1813772344055|CNY|0|0
20200509|02000134|1813988266069|1813988266069|CNY|0|8696
20200509|02000134|1815331520336|1815331520336|CNY|0|212484
20200509|02000134|1818736050656|1818736050656|CNY|0|0
20200509|02000134|1815829737978|1815829737978|CNY|0|0
20200509|02000134|1815894439153|1815894439153|CNY|0|0
20200509|02000134|1813636725549|1813636725549|CNY|0|0
20200509|02000134|1813884188962|1813884188962|CNY|0|0
20200509|02000134|1817709117170|1817709117170|CNY|0|0
20200509|02000134|1818291148070|1818291148070|CNY|0|0
20200509|02000134|1813510915931|1813510915931|CNY|0|0
20200509|02000134|1815143013819|1815143013819|CNY|0|0
20200509|02000134|1813359117768|1813359117768|CNY|0|0
20200509|02000134|1813389116777|1813389116777|CNY|0|0
20200509|02000134|1813194551998|1813194551998|CNY|0|0
20200509|02000134|1815969053582|1815969053582|CNY|0|6242
20200509|02000134|1815308750767|1815308750767|CNY|0|12484
20200509|02000134|1813224207506|1813224207506|CNY|0|0
20200509|02000134|1818840286258|1818840286258|CNY|0|0
20200509|02000134|1818940967978|1818940967978|CNY|0|608484
20200509|02000134|1815951703440|1815951703440|CNY|0|0
20200509|02000134|1813830402848|1813830402848|CNY|0|0
20200509|02000134|1818193499977|1818193499977|CNY|0|0
20200509|02000134|1813679280838|1813679280838|CNY|0|0
20200509|02000134|1813698871528|1813698871528|CNY|0|0
20200509|02000134|1815101878935|1815101878935|CNY|0|0
20200509|02000134|1815339748998|1815339748998|CNY|0|0
20200509|02000134|1813958157143|1813958157143|CNY|0|0
20200509|02000134|1813831284573|1813831284573|CNY|200000|200000
20200509|02000134|1813503063215|1813503063215|CNY|0|0
20200509|02000134|1817703158656|1817703158656|CNY|0|0
20200509|02000134|1818082236663|1818082236663|CNY|0|0
20200509|02000134|1813730451279|1813730451279|CNY|0|13442
20200509|02000134|1813315427245|1813315427245|CNY|0|6242
20200509|02000134|1813331236246|1813331236246|CNY|0|12484
20200509|02000134|1813889198577|1813889198577|CNY|0|0
20200509|02000134|1814787853587|1814787853587|CNY|0|6242
20200509|02000134|1813273388518|1813273388518|CNY|0|0
20200509|02000134|1815632277008|1815632277008|CNY|0|0
20200509|02000134|1813552101589|1813552101589|CNY|0|0
20200509|02000134|1813335339191|1813335339191|CNY|0|0
20200509|02000134|1813388758398|1813388758398|CNY|0|384726
20200509|02000134|1815933553201|1815933553201|CNY|0|12484
20200509|02000134|1813613128663|1813613128663|CNY|0|6242
20200509|02000134|1815830793323|1815830793323|CNY|0|0
20200509|02000134|1818739083906|1818739083906|CNY|0|0
20200509|02000134|1817304211987|1817304211987|CNY|0|418726
20200509|02000134|1813684675119|1813684675119|CNY|0|6242
20200509|02000134|1813555046898|1813555046898|CNY|0|225014
20200509|02000134|1815175219511|1815175219511|CNY|0|6242
20200509|02000134|1818679633997|1818679633997|CNY|0|0
20200509|02000134|1813102743377|1813102743377|CNY|0|0
20200509|02000134|1818707798297|1818707798297|CNY|0|0
20200509|02000134|1817331241623|1817331241623|CNY|0|0
20200509|02000134|1819831229668|1819831229668|CNY|0|0
20200509|02000134|1818220358251|1818220358251|CNY|0|0
20200509|02000134|1818330218859|1818330218859|CNY|0|12484
20200509|02000134|1813263638109|1813263638109|CNY|0|206242
20200509|02000134|1815716865625|1815716865625|CNY|0|18726
20200509|02000134|1815561743759|1815561743759|CNY|0|0
20200509|02000134|1813089950930|1813089950930|CNY|0|6242
20200509|02000134|1813089614313|1813089614313|CNY|0|6242
20200509|02000134|1813330597481|1813330597481|CNY|0|6242
20200509|02000134|1813157116491|1813157116491|CNY|0|0
20200509|02000134|1813571354287|1813571354287|CNY|0|0
20200509|02000134|1817733229292|1817733229292|CNY|0|0
20200509|02000134|1815246290569|1815246290569|CNY|0|19684
20200509|02000134|1819995866890|1819995866890|CNY|0|0
20200509|02000134|1813779583395|1813779583395|CNY|0|0
20200509|02000134|1815969220999|1815969220999|CNY|0|0
20200509|02000134|1817795672148|1817795672148|CNY|0|0
20200509|02000134|1813633222106|1813633222106|CNY|0|0
20200509|02000134|1813378763351|1813378763351|CNY|0|0
20200509|02000134|1818788201666|1818788201666|CNY|0|18726
20200509|02000134|1813769055559|1813769055559|CNY|0|243458
20200509|02000134|1815614233791|1815614233791|CNY|0|0
20200509|02000134|1815094234737|1815094234737|CNY|0|6242
20200509|02000134|1813887838521|1813887838521|CNY|0|21973
20200509|02000134|1813739331106|1813739331106|CNY|0|0
20200509|02000134|1818992181168|1818992181168|CNY|0|0
20200509|02000134|1815225163642|1815225163642|CNY|0|0
20200509|02000134|1815208756608|1815208756608|CNY|0|12484
20200509|02000134|1813238826869|1813238826869|CNY|0|25337
20200509|02000134|1815931796166|1815931796166|CNY|0|0
20200509|02000134|1818061071886|1818061071886|CNY|0|0
20200509|02000134|1813807005654|1813807005654|CNY|0|0
20200509|02000134|1815398728698|1815398728698|CNY|0|0
20200509|02000134|1813576641198|1813576641198|CNY|0|13444
20200509|02000134|1813903321663|1813903321663|CNY|0|227
20200509|02000134|1813473122412|1813473122412|CNY|0|17611
20200509|02000134|1815961046838|1815961046838|CNY|0|0
20200509|02000134|1813930246312|1813930246312|CNY|0|13442
20200509|02000134|1813763733303|1813763733303|CNY|0|5128
20200509|02000134|1815146194700|1815146194700|CNY|0|6242
20200509|02000134|1819940522710|1819940522710|CNY|0|0
20200509|02000134|1815238108000|1815238108000|CNY|0|13443
20200509|02000134|1817631643762|1817631643762|CNY|0|5130
20200509|02000134|1813509153281|1813509153281|CNY|0|193885
20200509|02000134|1813866142870|1813866142870|CNY|0|8444
20200509|02000134|1813979167776|1813979167776|CNY|0|0
20200509|02000134|1815236299699|1815236299699|CNY|0|398886
20200509|02000134|1813582217784|1813582217784|CNY|0|11369
20200509|02000134|1815184848605|1815184848605|CNY|0|18726
20200509|02000134|1818908752966|1818908752966|CNY|0|19684
20200509|02000134|1819108423726|1819108423726|CNY|0|0
20200509|02000134|1815333262646|1815333262646|CNY|0|18717
20200509|02000134|1815990849987|1815990849987|CNY|0|3943
20200509|02000134|1818330262360|1818330262360|CNY|0|0
20200509|02000134|1813572733058|1813572733058|CNY|0|0
20200509|02000134|1818170083766|1818170083766|CNY|0|0
20200509|02000134|1813731661948|1813731661948|CNY|0|0
20200509|02000134|1813314681055|1813314681055|CNY|0|0
20200509|02000134|1815208808189|1815208808189|CNY|0|10375
20200509|02000134|1815529156862|1815529156862|CNY|0|0
20200509|02000134|1813846055840|1813846055840|CNY|0|224968
20200509|02000134|1818911520925|1818911520925|CNY|0|0
20200509|02000134|1815609151431|1815609151431|CNY|0|447208
20200509|02000134|1815204682299|1815204682299|CNY|0|219380
20200509|02000134|1813767977037|1813767977037|CNY|0|217568
20200509|02000134|1815127269046|1815127269046|CNY|0|28626
20200509|02000134|1813576928088|1813576928088|CNY|0|210152
20200509|02000134|1815202419589|1815202419589|CNY|0|10194
20200509|02000134|1815146868665|1815146868665|CNY|0|219380
20200509|02000134|1813909114265|1813909114265|CNY|10000|8148
20200509|02000134|1818191539413|1818191539413|CNY|0|232168
20200509|02000134|1815845468057|1815845468057|CNY|0|213361
20200509|02000134|1818550513122|1818550513122|CNY|0|0
20200509|02000134|1818732221628|1818732221628|CNY|5000|2905
20200509|02000134|1813619405650|1813619405650|CNY|0|6242
20200509|02000134|1815667899659|1815667899659|CNY|0|19421
20200509|02000134|1813992186412|1813992186412|CNY|0|68485
20200509|02000134|1818993303292|1818993303292|CNY|0|417592
20200509|02000134|1813932211661|1813932211661|CNY|200000|206242
20200509|02000134|1813369291965|1813369291965|CNY|0|185443
20200509|02000134|1813891167478|1813891167478|CNY|0|0
20200509|02000134|1813029890582|1813029890582|CNY|0|0
20200509|02000134|1813931358252|1813931358252|CNY|0|11494
20200509|02000134|1813772856518|1813772856518|CNY|0|0
20200509|02000134|1813730288889|1813730288889|CNY|0|0
20200509|02000134|1813932201758|1813932201758|CNY|0|222403
20200509|02000134|1819937183090|1819937183090|CNY|0|13443
20200509|02000134|1813619647900|1813619647900|CNY|0|16396
20200509|02000134|1813463442485|1813463442485|CNY|0|237462
20200509|02000134|1817386323731|1817386323731|CNY|0|213379
20200509|02000134|1813698809219|1813698809219|CNY|0|55528
20200509|02000134|1813292419437|1813292419437|CNY|0|6242
20200509|02000134|1813832212723|1813832212723|CNY|0|16393
20200509|02000134|1817749583303|1817749583303|CNY|0|1000
20200509|02000134|1813584278719|1813584278719|CNY|15000|200443
20200509|02000134|1813164330393|1813164330393|CNY|0|0
20200509|02000134|1813833495031|1813833495031|CNY|0|11495
20200509|02000134|1815319563437|1815319563437|CNY|0|0
20200509|02000134|1815931760357|1815931760357|CNY|0|0
20200509|02000134|1815246230377|1815246230377|CNY|0|24710
20200509|02000134|1815353070080|1815353070080|CNY|0|6220
20200509|02000134|1813796445877|1813796445877|CNY|0|214015
20200509|02000134|1818137837007|1818137837007|CNY|0|62
20200509|02000134|1815705193619|1815705193619|CNY|0|11380
20200509|02000134|1818164319032|1818164319032|CNY|0|24767
20200509|02000134|1818379168116|1818379168116|CNY|0|210325
20200509|02000134|1813904881393|1813904881393|CNY|0|198887
20200509|02000134|1815517105401|1815517105401|CNY|0|5105
20200509|02000134|1813018636355|1813018636355|CNY|0|214379
20200509|02000134|1818009990778|1818009990778|CNY|0|74990
20200509|02000134|1813911318605|1813911318605|CNY|0|2096
20200509|02000134|1815113380706|1815113380706|CNY|0|1325
20200509|02000134|1815032232283|1815032232283|CNY|0|33883
20200509|02000134|1813961081945|1813961081945|CNY|0|109
20200509|02000134|1815231225276|1815231225276|CNY|0|18594
20200509|02000134|1815233123371|1815233123371|CNY|0|269750
20200509|02000134|1815957902628|1815957902628|CNY|0|223292
20200509|02000134|1813082311311|1813082311311|CNY|0|30783
20200509|02000134|1813513425869|1813513425869|CNY|0|0
20200509|02000134|1818036311516|1818036311516|CNY|0|0
20200509|02000134|1813703227817|1813703227817|CNY|0|0
20200509|02000134|1813324639668|1813324639668|CNY|0|10194
20200509|02000134|1813566943256|1813566943256|CNY|0|18796
20200509|02000134|1813933229549|1813933229549|CNY|0|279
20200509|02000134|1818855897042|1818855897042|CNY|0|6453
20200509|02000134|1813796574791|1813796574791|CNY|0|21545
20200509|02000134|1813615847631|1813615847631|CNY|0|0
20200509|02000134|1818932692236|1818932692236|CNY|0|28713
20200509|02000134|1813813290931|1813813290931|CNY|0|23496
20200509|02000134|1815630231725|1815630231725|CNY|0|47288
20200509|02000134|1818220323568|1818220323568|CNY|0|37089
20200509|02000134|1815829788677|1815829788677|CNY|0|0
20200509|02000134|1813831230719|1813831230719|CNY|0|0
20200509|02000134|1818767853616|1818767853616|CNY|0|0
20200509|02000134|1818667101556|1818667101556|CNY|0|29403
20200509|02000134|1815890000242|1815890000242|CNY|0|63
20200509|02000134|1813755657889|1813755657889|CNY|0|0
20200509|02000134|1813767988121|1813767988121|CNY|0|0
20200509|02000134|1813892350948|1813892350948|CNY|0|0
20200509|02000134|1813582246755|1813582246755|CNY|0|33748
20200509|02000134|1818604031950|1818604031950|CNY|0|33881
20200509|02000134|1818291527998|1818291527998|CNY|0|43755
20200509|02000134|1815925729121|1815925729121|CNY|0|5105
20200509|02000134|1815257996892|1815257996892|CNY|0|28745
20200509|02000134|1815175323250|1815175323250|CNY|0|0
20200509|02000134|1813754273333|1813754273333|CNY|0|18545
20200509|02000134|1813567619865|1813567619865|CNY|0|0
20200509|02000134|1813967061868|1813967061868|CNY|0|0
20200509|02000134|1813807929932|1813807929932|CNY|0|0
20200509|02000134|1815857828285|1815857828285|CNY|0|0
20200509|02000134|1813831231957|1813831231957|CNY|0|0
20200509|02000134|1818257097983|1818257097983|CNY|0|18544
20200509|02000134|1813603225419|1813603225419|CNY|0|43120
20200509|02000134|1813803125311|1813803125311|CNY|0|12924
20200509|02000134|1813803126152|1813803126152|CNY|0|16544
20200509|02000134|1818159823668|1818159823668|CNY|0|0
20200509|02000134|1813513061187|1813513061187|CNY|0|87151
20200509|02000134|1818975225517|1818975225517|CNY|0|213689
20200509|02000134|1818086369975|1818086369975|CNY|0|417335
20200509|02000134|1813310933838|1813310933838|CNY|0|18174
20200509|02000134|1818257932275|1818257932275|CNY|0|40746
20200509|02000134|1813819943894|1813819943894|CNY|0|52
20200509|02000134|1818860362717|1818860362717|CNY|0|0
20200509|02000134|1818829756688|1818829756688|CNY|0|447208
20200509|02000134|1818511141687|1818511141687|CNY|0|3883
20200509|02000134|1813315720787|1813315720787|CNY|0|0
20200509|02000134|1813554575360|1813554575360|CNY|0|222520
20200509|02000134|1813731691285|1813731691285|CNY|0|26547
20200509|02000134|1815070922178|1815070922178|CNY|0|378
20200509|02000134|1815389494945|1815389494945|CNY|0|20181
20200509|02000134|1813951695691|1813951695691|CNY|0|204403
20200509|02000134|1815931730560|1815931730560|CNY|0|13442
20200509|02000134|1815305796690|1815305796690|CNY|0|30357
20200509|02000134|1818729936598|1818729936598|CNY|0|211932
20200509|02000134|1815033779933|1815033779933|CNY|0|63307
20200509|02000134|1813065190016|1813065190016|CNY|0|0
20200509|02000134|1813473208632|1813473208632|CNY|0|0
20200509|02000134|1818631222983|1818631222983|CNY|0|10249
20200509|02000134|1815136188661|1815136188661|CNY|0|185459
20200509|02000134|1815771836378|1815771836378|CNY|0|195651
20200509|02000134|1815030230206|1815030230206|CNY|0|26379
20200509|02000134|1813335335656|1813335335656|CNY|0|29033
20200509|02000134|1815268612201|1815268612201|CNY|0|29407
20200509|02000134|1817607082603|1817607082603|CNY|0|204106
20200509|02000134|1818867803303|1818867803303|CNY|0|88368
20200509|02000134|1815933913379|1815933913379|CNY|0|198362
20200509|02000134|1815924117387|1815924117387|CNY|0|30021
20200509|02000134|1815832285526|1815832285526|CNY|0|17748
20200509|02000134|1813770855951|1813770855951|CNY|0|74945
20200509|02000134|1813730229934|1813730229934|CNY|0|11547
20200509|02000134|1813857151023|1813857151023|CNY|0|53
20200509|02000134|1815303121880|1815303121880|CNY|30000|221257
20200509|02000134|1813819169781|1813819169781|CNY|0|956
20200509|02000134|1813588336535|1813588336535|CNY|0|208311
20200509|02000134|1818192909939|1818192909939|CNY|0|0
20200509|02000134|1818309996978|1818309996978|CNY|0|18187
20200509|02000134|1815168014087|1815168014087|CNY|0|231695
20200509|02000134|1813306881828|1813306881828|CNY|0|34498
20200509|02000134|1815038169553|1815038169553|CNY|0|82816
20200509|02000134|1815924222226|1815924222226|CNY|0|0
20200509|02000134|1815195994166|1815195994166|CNY|0|0
20200509|02000134|1813991898100|1813991898100|CNY|0|88853
20200509|02000134|1818170064881|1818170064881|CNY|0|222791
20200509|02000134|1815657925017|1815657925017|CNY|0|86
20200509|02000134|1813674575508|1813674575508|CNY|0|31768
20200509|02000134|1813515799998|1813515799998|CNY|0|8
20200509|02000134|1815509150202|1815509150202|CNY|0|0
20200509|02000134|1818970818141|1818970818141|CNY|0|15258
20200509|02000134|1815382494511|1815382494511|CNY|0|224056
20200509|02000134|1819909235532|1819909235532|CNY|0|59556
20200509|02000134|1815907052137|1815907052137|CNY|0|420006
20200509|02000134|1813309116156|1813309116156|CNY|0|4948
20200509|02000134|1813586951967|1813586951967|CNY|0|0
20200509|02000134|1818700281551|1818700281551|CNY|0|0
20200509|02000134|1813730198476|1813730198476|CNY|0|12547
20200509|02000134|1815070979869|1815070979869|CNY|0|407886
20200509|02000134|1818149061051|1818149061051|CNY|0|35152
20200509|02000134|1818119672820|1818119672820|CNY|0|222533
20200509|02000134|1818857909742|1818857909742|CNY|0|28752
20200509|02000134|1815215865578|1815215865578|CNY|0|28747
20200509|02000134|1815353294588|1815353294588|CNY|0|205929
20200509|02000134|1815233745111|1815233745111|CNY|0|26702
20200509|02000134|1815600666119|1815600666119|CNY|0|0
20200509|02000134|1813607918208|1813607918208|CNY|0|32746
20200509|02000134|1813617009398|1813617009398|CNY|0|412909
20200509|02000134|1815857462887|1815857462887|CNY|0|1000
20200509|02000134|1815271373251|1815271373251|CNY|0|0
20200509|02000134|1813857096004|1813857096004|CNY|0|1000
20200509|02000134|1815829415554|1815829415554|CNY|0|19401
20200509|02000134|1818058777858|1818058777858|CNY|0|0
20200509|02000134|1813266662096|1813266662096|CNY|0|29732
20200509|02000134|1818165273182|1818165273182|CNY|0|95227
20200509|02000134|1818720096449|1818720096449|CNY|0|188806
20200509|02000134|1813706799682|1813706799682|CNY|0|212594
20200509|02000134|1818379877758|1818379877758|CNY|0|0
20200509|02000134|1813957952322|1813957952322|CNY|0|63
20200509|02000134|1813931280093|1813931280093|CNY|0|26700
20200509|02000134|1813578273333|1813578273333|CNY|0|24875
20200509|02000134|1813098812743|1813098812743|CNY|0|222593
20200509|02000134|1818958463402|1818958463402|CNY|0|28766
20200509|02000134|1813506593224|1813506593224|CNY|0|223480
20200509|02000134|1815958405457|1815958405457|CNY|0|1
20200509|02000134|1818758949435|1818758949435|CNY|0|18499
20200509|02000134|1815931279585|1815931279585|CNY|0|10174
20200509|02000134|1815932133134|1815932133134|CNY|0|0
20200509|02000134|1813698002339|1813698002339|CNY|0|194868
20200509|02000134|1813931360238|1813931360238|CNY|0|45926
20200509|02000134|1813628894679|1813628894679|CNY|0|0
20200509|02000134|1818833201891|1818833201891|CNY|0|26701
20200509|02000134|1818233291091|1818233291091|CNY|0|33881
20200509|02000134|1815291917684|1815291917684|CNY|0|193290
20200509|02000134|1818767845169|1818767845169|CNY|0|214212
20200509|02000134|1813379416382|1813379416382|CNY|0|10199
20200509|02000134|1815933526748|1815933526748|CNY|0|50574
20200509|02000134|1813463287557|1813463287557|CNY|0|25931
20200509|02000134|1818789386862|1818789386862|CNY|0|0
20200509|02000134|1813559987851|1813559987851|CNY|0|259258
20200509|02000134|1818331088485|1818331088485|CNY|0|33880
20200509|02000134|1815596230859|1815596230859|CNY|0|35775
20200509|02000134|1815100269110|1815100269110|CNY|0|21699
20200509|02000134|1813335311791|1813335311791|CNY|0|69060
20200509|02000134|1813643126078|1813643126078|CNY|0|26687
20200509|02000134|1815891187077|1815891187077|CNY|0|5710
20200509|02000134|1813163743109|1813163743109|CNY|0|219107
20200509|02000134|1818172871314|1818172871314|CNY|0|0
20200509|02000134|1818288188088|1818288188088|CNY|0|353777
20200509|02000134|1819931270007|1819931270007|CNY|0|31800
20200509|02000134|1813098067177|1813098067177|CNY|0|48172
20200509|02000134|1813571459983|1813571459983|CNY|0|47495
20200509|02000134|1815094526270|1815094526270|CNY|0|25928
20200509|02000134|1815132437141|1815132437141|CNY|0|13092
20200509|02000134|1818057897187|1818057897187|CNY|0|37157
20200509|02000134|1813289636561|1813289636561|CNY|0|0
20200509|02000134|1813689152309|1813689152309|CNY|0|67
20200509|02000134|1815383228251|1815383228251|CNY|0|0
20200509|02000134|1815109156089|1815109156089|CNY|0|29574
20200509|02000134|1815094564333|1815094564333|CNY|0|222620
20200509|02000134|1813645151985|1813645151985|CNY|0|12
20200509|02000134|1813263090451|1813263090451|CNY|0|481873
20200509|02000134|1815146755908|1815146755908|CNY|0|0
20200509|02000134|1813567094825|1813567094825|CNY|0|195485
20200509|02000134|1815857856070|1815857856070|CNY|0|0
20200509|02000134|1815070654425|1815070654425|CNY|0|222944
20200509|02000134|1813970904040|1813970904040|CNY|0|222536
20200509|02000134|1813308821769|1813308821769|CNY|0|44717
20200509|02000134|1815925718701|1815925718701|CNY|0|52
20200509|02000134|1818079110216|1818079110216|CNY|0|222385
20200509|02000134|1813129593568|1813129593568|CNY|0|29298
20200509|02000134|1813731284037|1813731284037|CNY|0|187229
20200509|02000134|1815931271087|1815931271087|CNY|0|18704
20200509|02000134|1815804681313|1815804681313|CNY|0|34188
20200509|02000134|1813683131563|1813683131563|CNY|0|906
20200509|02000134|1815860112718|1815860112718|CNY|0|232331
20200509|02000134|1818945765909|1818945765909|CNY|0|64017
20200509|02000134|1815929113628|1815929113628|CNY|0|628407
20200509|02000134|1813735922508|1813735922508|CNY|0|18545
20200509|02000134|1815250980626|1815250980626|CNY|0|26528
20200509|02000134|1815990818307|1815990818307|CNY|0|18545
20200509|02000134|1813587148777|1813587148777|CNY|0|18545
20200509|02000134|1815029688272|1815029688272|CNY|0|56681
20200509|02000134|1813333799393|1813333799393|CNY|0|277999
20200509|02000134|1815094645884|1815094645884|CNY|0|25021
20200509|02000134|1815070519040|1815070519040|CNY|0|0
20200509|02000134|1818170832599|1818170832599|CNY|0|406928
20200509|02000134|1813946743169|1813946743169|CNY|0|212559
20200509|02000134|1813832228797|1813832228797|CNY|0|10175
20200509|02000134|1813933221293|1813933221293|CNY|0|0
20200509|02000134|1813026218446|1813026218446|CNY|0|0
20200509|02000134|1818909118615|1818909118615|CNY|0|0
20200509|02000134|1815697705772|1815697705772|CNY|0|187472
20200509|02000134|1818970863279|1818970863279|CNY|0|26629
20200509|02000134|1813803503385|1813803503385|CNY|0|36880
20200509|02000134|1815079001967|1815079001967|CNY|0|192886
20200509|02000134|1813994121368|1813994121368|CNY|0|1000
20200509|02000134|1815931476286|1815931476286|CNY|0|0
20200509|02000134|1815057899784|1815057899784|CNY|0|37985
20200509|02000134|1813867051385|1813867051385|CNY|0|223502
20200509|02000134|1815079189423|1815079189423|CNY|0|0
20200509|02000134|1817757815859|1817757815859|CNY|0|0
20200509|02000134|1813636870153|1813636870153|CNY|0|67944
20200509|02000134|1813870547014|1813870547014|CNY|0|185967
20200509|02000134|1816631801260|1816631801260|CNY|0|0
20200509|02000134|1813400166984|1813400166984|CNY|0|4
20200509|02000134|1817757881718|1817757881718|CNY|0|0
20200509|02000134|1818969738286|1818969738286|CNY|0|214124
20200509|02000134|1818070023038|1818070023038|CNY|0|185750
20200509|02000134|1813159888612|1813159888612|CNY|0|26082
20200509|02000134|1813315439137|1813315439137|CNY|0|10249
20200509|02000134|1819904685889|1819904685889|CNY|0|211082
20200509|02000134|1815879175735|1815879175735|CNY|0|420369
20200509|02000134|1817732411319|1817732411319|CNY|0|34187
20200509|02000134|1813870602362|1813870602362|CNY|0|383282
20200509|02000134|1813324536769|1813324536769|CNY|0|84213
20200509|02000134|1813133804808|1813133804808|CNY|0|275178
20200509|02000134|1813330112756|1813330112756|CNY|0|383064
20200509|02000134|1815933229952|1815933229952|CNY|0|205611
20200509|02000134|1815279158519|1815279158519|CNY|0|0
20200509|02000134|1818891101268|1818891101268|CNY|0|64612
20200509|02000134|1813875259576|1813875259576|CNY|0|222469
20200509|02000134|1813576268031|1813576268031|CNY|0|42033100
20200509|02000134|1818157439332|1818157439332|CNY|0|0
20200509|02000134|1813946815417|1813946815417|CNY|0|0
20200509|02000134|1813641226784|1813641226784|CNY|0|30835
20200509|02000134|1813870721018|1813870721018|CNY|0|0
20200509|02000134|1815352338039|1815352338039|CNY|0|84303
20200509|02000134|1813572708794|1813572708794|CNY|0|0
20200509|02000134|1813946783966|1813946783966|CNY|0|18534
20200509|02000134|1813324561701|1813324561701|CNY|0|53003
20200509|02000134|1815829115522|1815829115522|CNY|0|0
20200509|02000134|1813571101976|1813571101976|CNY|0|0
20200509|02000134|1813572529826|1813572529826|CNY|0|73
20200509|02000134|1813870999620|1813870999620|CNY|0|482069
20200509|02000134|1817703687887|1817703687887|CNY|0|226667
20200509|02000134|1813669212329|1813669212329|CNY|0|216036
20200509|02000134|1818879533117|1818879533117|CNY|0|0
20200509|02000134|1813663315968|1813663315968|CNY|0|236347
20200509|02000134|1815291119145|1815291119145|CNY|501|37199
20200509|02000134|1813082360764|1813082360764|CNY|0|1516
20200509|02000134|1815070897250|1815070897250|CNY|0|190794
20200509|02000134|1818103143885|1818103143885|CNY|0|87242
20200509|02000134|1818392350866|1818392350866|CNY|0|0
20200509|02000134|1813180214668|1813180214668|CNY|0|47084
20200509|02000134|1813975069661|1813975069661|CNY|0|0
20200509|02000134|1815157898394|1815157898394|CNY|0|223482
20200509|02000134|1815810905288|1815810905288|CNY|0|0
20200509|02000134|1818335259239|1818335259239|CNY|0|6872
20200509|02000134|1813513328664|1813513328664|CNY|0|241021
20200509|02000134|1813484909866|1813484909866|CNY|0|0
20200509|02000134|1815990428194|1815990428194|CNY|0|18795
20200509|02000134|1813870608160|1813870608160|CNY|0|377346
20200509|02000134|1818767811827|1818767811827|CNY|0|224479
20200509|02000134|1813992295013|1813992295013|CNY|0|0
20200509|02000134|1815268107347|1815268107347|CNY|0|445881
20200509|02000134|1813601213177|1813601213177|CNY|0|612
20200509|02000134|1817303121352|1817303121352|CNY|0|94682
20200509|02000134|1813968390153|1813968390153|CNY|0|55
20200509|02000134|1815770990492|1815770990492|CNY|0|18536
20200509|02000134|1813339574707|1813339574707|CNY|0|45340
20200509|02000134|1813065128288|1813065128288|CNY|0|279108
20200509|02000134|1813278244178|1813278244178|CNY|0|413502
20200509|02000134|1813645788835|1813645788835|CNY|0|204859
20200509|02000134|1818161948895|1818161948895|CNY|0|0
20200509|02000134|1817697226810|1817697226810|CNY|0|37302
20200509|02000134|1815967919905|1815967919905|CNY|0|18796
20200509|02000134|1813868930707|1813868930707|CNY|0|0
20200509|02000134|1818651989081|1818651989081|CNY|0|99
20200509|02000134|1815070964165|1815070964165|CNY|0|560360
20200509|02000134|1815255898922|1815255898922|CNY|0|0
20200509|02000134|1813006233652|1813006233652|CNY|0|70129
20200509|02000134|1818740639446|1818740639446|CNY|0|0
20200509|02000134|1815032236912|1815032236912|CNY|0|47302
20200509|02000134|1813870075201|1813870075201|CNY|0|80
20200509|02000134|1818629264385|1818629264385|CNY|0|247915
20200509|02000134|1818633622232|1818633622232|CNY|0|0
20200509|02000134|1815332256088|1815332256088|CNY|10000|14068
20200509|02000134|1813709230552|1813709230552|CNY|15000|10118
20200509|02000134|1815603693188|1815603693188|CNY|0|0
20200509|02000134|1813582233927|1813582233927|CNY|0|426410
20200509|02000134|1813393125978|1813393125978|CNY|0|0
20200509|02000134|1818732705052|1818732705052|CNY|0|0
20200509|02000134|1813831723408|1813831723408|CNY|0|543317
20200509|02000134|1815869500909|1815869500909|CNY|0|11
20200509|02000134|1813946779996|1813946779996|CNY|0|225162
20200509|02000134|1815146155010|1815146155010|CNY|0|79604
20200509|02000134|1813684689700|1813684689700|CNY|0|219337
20200509|02000134|1818691191808|1818691191808|CNY|0|188144
20200509|02000134|1813576284540|1813576284540|CNY|0|62398
20200509|02000134|1815946109858|1815946109858|CNY|10030|34385
20200509|02000134|1813613226586|1813613226586|CNY|0|0
20200509|02000134|1813305788506|1813305788506|CNY|0|203975
20200509|02000134|1818345857865|1818345857865|CNY|0|6242
20200509|02000134|1815097746135|1815097746135|CNY|0|59518
20200509|02000134|1813607095019|1813607095019|CNY|0|193549
20200509|02000134|1813785432993|1813785432993|CNY|0|40981
20200509|02000134|1818979143369|1818979143369|CNY|0|136816
20200509|02000134|1813014300009|1813014300009|CNY|0|26668
20200509|02000134|1818779177007|1818779177007|CNY|0|822593
20200509|02000134|1818970607159|1818970607159|CNY|0|185443
20200509|02000134|1813979377626|1813979377626|CNY|0|0
20200509|02000134|1813400350306|1813400350306|CNY|0|30795
20200509|02000134|1817346665892|1817346665892|CNY|0|23863
20200509|02000134|1818857827819|1818857827819|CNY|0|60
20200509|02000134|1815907005758|1815907005758|CNY|0|314267
20200509|02000134|1815803121080|1815803121080|CNY|0|34493
20200509|02000134|1813930801797|1813930801797|CNY|0|74486
20200509|02000134|1815387793885|1815387793885|CNY|0|50
20200509|02000134|1813320119811|1813320119811|CNY|0|370982
20200509|02000134|1815630813944|1815630813944|CNY|0|74482
20200509|02000134|1817732650061|1817732650061|CNY|0|74489
20200509|02000134|1815133217875|1815133217875|CNY|0|57496
20200509|02000134|1815279193370|1815279193370|CNY|0|226211
20200509|02000134|1813970039068|1813970039068|CNY|0|658733
20200509|02000134|1815397563053|1815397563053|CNY|0|0
20200509|02000134|1815350001169|1815350001169|CNY|0|279910
20200509|02000134|1813333029656|1813333029656|CNY|0|0
20200509|02000134|1818045367971|1818045367971|CNY|0|38036
20200509|02000134|1813903128392|1813903128392|CNY|0|10249
20200509|02000134|1813833201819|1813833201819|CNY|0|222486
20200509|02000134|1813385849623|1813385849623|CNY|0|46220
20200509|02000134|1818879085012|1818879085012|CNY|0|0
20200509|02000134|1815803121616|1815803121616|CNY|0|10258
20200509|02000134|1813681926479|1813681926479|CNY|0|16986
20200509|02000134|1813320017199|1813320017199|CNY|0|222238
20200509|02000134|1815227017957|1815227017957|CNY|0|34058
20200509|02000134|1813331223115|1813331223115|CNY|0|0
20200509|02000134|1813323220289|1813323220289|CNY|0|0
20200509|02000134|1815170031559|1815170031559|CNY|0|370929
20200509|02000134|1815732221263|1815732221263|CNY|0|20254
20200509|02000134|1813730476179|1813730476179|CNY|0|17402
20200509|02000134|1813807031317|1813807031317|CNY|0|222384
20200509|02000134|1813767188659|1813767188659|CNY|0|49097
20200509|02000134|1818604689751|1818604689751|CNY|0|20372
20200509|02000134|1813231271852|1813231271852|CNY|0|16992
20200509|02000134|1815830265369|1815830265369|CNY|0|10249
20200509|02000134|1815211571887|1815211571887|CNY|0|144596
20200509|02000134|1813933285734|1813933285734|CNY|0|10257
20200509|02000134|1813707967746|1813707967746|CNY|0|0
20200509|02000134|1813437200702|1813437200702|CNY|0|0
20200509|02000134|1813520802238|1813520802238|CNY|0|253262
20200509|02000134|1815853623056|1815853623056|CNY|0|10254
20200509|02000134|1813230203301|1813230203301|CNY|0|27160
20200509|02000134|1813757090508|1813757090508|CNY|0|23371
20200509|02000134|1815879317904|1815879317904|CNY|0|28698
20200509|02000134|1813930808723|1813930808723|CNY|0|51996
20200509|02000134|1813396888838|1813396888838|CNY|0|264475
20200509|02000134|1818093392935|1818093392935|CNY|0|27665
20200509|02000134|1815073071566|1815073071566|CNY|0|417148
20200509|02000134|1813722423486|1813722423486|CNY|0|47151
20200509|02000134|1818920030157|1818920030157|CNY|0|10254
20200509|02000134|1813796290795|1813796290795|CNY|0|99224
20200509|02000134|1813207917659|1813207917659|CNY|0|185443
20200509|02000134|1813930886632|1813930886632|CNY|0|0
20200509|02000134|1817167993679|1817167993679|CNY|0|206401
20200509|02000134|1817863386188|1817863386188|CNY|0|71975
20200509|02000134|1813906781438|1813906781438|CNY|0|270402
20200509|02000134|1815070008715|1815070008715|CNY|0|372580
20200509|02000134|1813967066813|1813967066813|CNY|0|18628
20200509|02000134|1815333225923|1815333225923|CNY|0|28774
20200509|02000134|1815057868317|1815057868317|CNY|0|223402
20200509|02000134|1813645784978|1813645784978|CNY|0|224402
20200509|02000134|1813931245373|1813931245373|CNY|0|0
20200509|02000134|1813970022873|1813970022873|CNY|0|230464
20200509|02000134|1818072677667|1818072677667|CNY|0|437733
20200509|02000134|1815630279935|1815630279935|CNY|0|222384
20200509|02000134|1818631220891|1818631220891|CNY|0|28664
20200509|02000134|1813516899089|1813516899089|CNY|0|445793
20200509|02000134|1818131215302|1818131215302|CNY|0|0
20200509|02000134|1813936981199|1813936981199|CNY|0|26705
20200509|02000134|1813204687660|1813204687660|CNY|0|26236
20200509|02000134|1813858132621|1813858132621|CNY|0|203919
20200509|02000134|1815933593100|1815933593100|CNY|0|45045
20200509|02000134|1813247860816|1813247860816|CNY|0|0
20200509|02000134|1818909995887|1818909995887|CNY|0|12926
20200509|02000134|1813330093627|1813330093627|CNY|0|223898
20200509|02000134|1813931380155|1813931380155|CNY|0|10772
20200509|02000134|1813059618928|1813059618928|CNY|0|82214
20200509|02000134|1815502925058|1815502925058|CNY|0|144786
20200509|02000134|1815770583910|1815770583910|CNY|0|203463
20200509|02000134|1815070004787|1815070004787|CNY|0|468671
20200509|02000134|1813398637313|1813398637313|CNY|0|0
20200509|02000134|1813487721751|1813487721751|CNY|0|241058
20200509|02000134|1815603255558|1815603255558|CNY|0|195633
20200509|02000134|1813931219857|1813931219857|CNY|0|19401
20200509|02000134|1813091257294|1813091257294|CNY|0|51660
20200509|02000134|1818091149039|1818091149039|CNY|0|53764
20200509|02000134|1815827020996|1815827020996|CNY|0|0
20200509|02000134|1813273202840|1813273202840|CNY|0|0
20200509|02000134|1818731866982|1818731866982|CNY|0|31651
20200509|02000134|1815932240292|1815932240292|CNY|0|26545
20200509|02000134|1817692238970|1817692238970|CNY|0|234001
20200509|02000134|1813870832718|1813870832718|CNY|0|408033
20200509|02000134|1818031231739|1818031231739|CNY|0|0
20200509|02000134|1815870697192|1815870697192|CNY|0|283456
20200509|02000134|1815931808321|1815931808321|CNY|0|242779
20200509|02000134|1818923668819|1818923668819|CNY|0|392098
20200509|02000134|1815070002292|1815070002292|CNY|0|177185
20200509|02000134|1815930239024|1815930239024|CNY|0|16272
20200509|02000134|1815006862644|1815006862644|CNY|0|0
20200509|02000134|1813870662832|1813870662832|CNY|0|408129
20200509|02000134|1818591506868|1818591506868|CNY|0|483865
20200509|02000134|1813691234502|1813691234502|CNY|0|203951
20200509|02000134|1815527737710|1815527737710|CNY|0|250247
20200509|02000134|1815830910576|1815830910576|CNY|0|16353
20200509|02000134|1818812455746|1818812455746|CNY|0|0
20200509|02000134|1815028439916|1815028439916|CNY|0|0
20200509|02000134|1817705788090|1817705788090|CNY|0|110939
20200509|02000134|1818049119039|1818049119039|CNY|0|30268
20200509|02000134|1813606699357|1813606699357|CNY|0|18471
20200509|02000134|1813870088638|1813870088638|CNY|0|75897
20200509|02000134|1815057890168|1815057890168|CNY|0|27530
20200509|02000134|1815833895638|1815833895638|CNY|0|51184
20200509|02000134|1815170023481|1815170023481|CNY|0|968304
20200509|02000134|1813733323586|1813733323586|CNY|0|65
20200509|02000134|1815933126808|1815933126808|CNY|0|329073
20200509|02000134|1813932272753|1813932272753|CNY|0|0
20200509|02000134|1815869235139|1815869235139|CNY|0|37837
20200509|02000134|1813363126017|1813363126017|CNY|0|0
20200509|02000134|1818296127327|1818296127327|CNY|0|53
20200509|02000134|1813395881687|1813395881687|CNY|0|134721
20200509|02000134|1815180454908|1815180454908|CNY|0|0
20200509|02000134|1815544957559|1815544957559|CNY|0|93
20200509|02000134|1813787250599|1813787250599|CNY|0|0
20200509|02000134|1815070707837|1815070707837|CNY|0|0
20200509|02000134|1813730157568|1813730157568|CNY|0|30824
20200509|02000134|1813088421577|1813088421577|CNY|0|16549
20200509|02000134|1813587187117|1813587187117|CNY|0|0
20200509|02000134|1818730289734|1818730289734|CNY|0|0
20200509|02000134|1815910441907|1815910441907|CNY|0|0
20200509|02000134|1813970887172|1813970887172|CNY|0|60080
20200509|02000134|1815227006003|1815227006003|CNY|0|21488
20200509|02000134|1818132758604|1818132758604|CNY|0|13546
20200509|02000134|1815857889599|1815857889599|CNY|0|47260
20200509|02000134|1813803459072|1813803459072|CNY|0|250249
20200509|02000134|1815356155658|1815356155658|CNY|0|18545
20200509|02000134|1818431227506|1818431227506|CNY|0|0
20200509|02000134|1813020808720|1813020808720|CNY|0|0
20200509|02000134|1818331211777|1818331211777|CNY|0|0
20200509|02000134|1815071055371|1815071055371|CNY|0|3
20200509|02000134|1818346898266|1818346898266|CNY|0|150
20200509|02000134|1818132723583|1818132723583|CNY|0|12458
20200509|02000134|1815188963119|1815188963119|CNY|0|0
20200509|02000134|1813234540281|1813234540281|CNY|0|25460
20200509|02000134|1813383620077|1813383620077|CNY|0|0
20200509|02000134|1813315255577|1813315255577|CNY|0|0
20200509|02000134|1813383626357|1813383626357|CNY|0|49408
20200509|02000134|1816603202113|1816603202113|CNY|0|84639
20200509|02000134|1815931204444|1815931204444|CNY|0|17464
20200509|02000134|1813400222805|1813400222805|CNY|0|482102
20200509|02000134|1813315272938|1813315272938|CNY|0|232684
20200509|02000134|1817713243193|1817713243193|CNY|0|31252
20200509|02000134|1818202764962|1818202764962|CNY|0|0
20200509|02000134|1818042285818|1818042285818|CNY|0|77487
20200509|02000134|1815057868078|1815057868078|CNY|0|18545
20200509|02000134|1815389037597|1815389037597|CNY|0|1
20200509|02000134|1817779616265|1817779616265|CNY|0|0
20200509|02000134|1813766708898|1813766708898|CNY|0|26688
20200509|02000134|1815205889775|1815205889775|CNY|0|300352
20200509|02000134|1813819969008|1813819969008|CNY|0|445874
20200509|02000134|1818806881991|1818806881991|CNY|0|68884
20200509|02000134|1813870668960|1813870668960|CNY|0|224001
20200509|02000134|1815932233668|1815932233668|CNY|0|28767
20200509|02000134|1815131220736|1815131220736|CNY|0|214237
20200509|02000134|1815271858967|1815271858967|CNY|0|454188
20200509|02000134|1816646828858|1816646828858|CNY|0|26236
20200509|02000134|1813339582221|1813339582221|CNY|0|19440
20200509|02000134|1815845463032|1815845463032|CNY|0|19434
20200509|02000134|1818162231858|1818162231858|CNY|0|1000
20200509|02000134|1818645566788|1818645566788|CNY|0|43157
20200509|02000134|1818713290860|1818713290860|CNY|0|22493
20200509|02000134|1813970864790|1813970864790|CNY|0|0
20200509|02000134|1813592047773|1813592047773|CNY|0|98
20200509|02000134|1813115642991|1813115642991|CNY|0|21440
20200509|02000134|1813932294787|1813932294787|CNY|0|51
20200509|02000134|1819859710896|1819859710896|CNY|0|250947
20200509|02000134|1815945821718|1815945821718|CNY|0|23337
20200509|02000134|1813967055172|1813967055172|CNY|0|30
20200509|02000134|1813207004007|1813207004007|CNY|0|370886
20200509|02000134|1813633389021|1813633389021|CNY|0|29644
20200509|02000134|1815709151444|1815709151444|CNY|0|28718
20200509|02000134|1813473216198|1813473216198|CNY|0|0
20200509|02000134|1815565070412|1815565070412|CNY|0|55
20200509|02000134|1813973380723|1813973380723|CNY|0|0
20200509|02000134|1818942312120|1818942312120|CNY|0|0
20200509|02000134|1818170910817|1818170910817|CNY|0|185443
20200509|02000134|1817720359595|1817720359595|CNY|0|0
20200509|02000134|1815579173409|1815579173409|CNY|0|0
20200509|02000134|1815201189518|1815201189518|CNY|0|66837
20200509|02000134|1815946620425|1815946620425|CNY|0|0
20200509|02000134|1813807035895|1813807035895|CNY|0|0
20200509|02000134|1813970560003|1813970560003|CNY|0|978
20200509|02000134|1813828106867|1813828106867|CNY|0|260423
20200509|02000134|1815833913170|1815833913170|CNY|0|7
20200509|02000134|1813673221558|1813673221558|CNY|0|232799
20200509|02000134|1813946786563|1813946786563|CNY|0|26840
20200509|02000134|1815632285132|1815632285132|CNY|0|48648
20200509|02000134|1813613685005|1813613685005|CNY|0|0
20200509|02000134|1818510263092|1818510263092|CNY|0|0
20200509|02000134|1815699680001|1815699680001|CNY|0|17474
20200509|02000134|1813846862770|1813846862770|CNY|0|35094
20200509|02000134|1815904689137|1815904689137|CNY|0|0
20200509|02000134|1815904241319|1815904241319|CNY|0|0
20200509|02000134|1815272555723|1815272555723|CNY|0|278110
20200509|02000134|1813731651280|1813731651280|CNY|0|0
20200509|02000134|1817015343424|1817015343424|CNY|0|280186
20200509|02000134|1813967431533|1813967431533|CNY|0|0
20200509|02000134|1813730238225|1813730238225|CNY|0|21690
20200509|02000134|1813904888495|1813904888495|CNY|0|0
20200509|02000134|1815132225088|1815132225088|CNY|0|11495
20200509|02000134|1815180400020|1815180400020|CNY|0|0
20200509|02000134|1818804688440|1818804688440|CNY|0|31601
20200509|02000134|1813930241343|1813930241343|CNY|0|69057
20200509|02000134|1813931289112|1813931289112|CNY|0|500589
20200509|02000134|1813523232008|1813523232008|CNY|0|18215
20200509|02000134|1815158223351|1815158223351|CNY|0|0
20200509|02000134|1813615846665|1813615846665|CNY|0|100
20200509|02000134|1813847612877|1813847612877|CNY|0|44490
20200509|02000134|1818604681909|1818604681909|CNY|0|435392
20200509|02000134|1818000210736|1818000210736|CNY|0|222385
20200509|02000134|1819912156726|1819912156726|CNY|0|17659
20200509|02000134|1813260656136|1813260656136|CNY|0|111266
20200509|02000134|1818456121123|1818456121123|CNY|0|5
20200509|02000134|1819970078850|1819970078850|CNY|0|0
20200509|02000134|1813315273740|1813315273740|CNY|0|36927
20200509|02000134|1813932229251|1813932229251|CNY|0|187461
20200509|02000134|1818757434287|1818757434287|CNY|0|22
20200509|02000134|1814784685555|1814784685555|CNY|0|21875
20200509|02000134|1818007957760|1818007957760|CNY|0|0
20200509|02000134|1815146824446|1815146824446|CNY|0|67935
20200509|02000134|1818714555279|1818714555279|CNY|0|226712
20200509|02000134|1817614685531|1817614685531|CNY|0|22463
20200509|02000134|1818627703225|1818627703225|CNY|0|16
20200509|02000134|1818057812357|1818057812357|CNY|0|261596
20200509|02000134|1815979040139|1815979040139|CNY|0|8
20200509|02000134|1815726688397|1815726688397|CNY|0|0
20200509|02000134|1813757488782|1813757488782|CNY|0|0
20200509|02000134|1815869087947|1815869087947|CNY|0|85232
20200509|02000134|1815633298879|1815633298879|CNY|0|33831
20200509|02000134|1815557871703|1815557871703|CNY|0|0
20200509|02000134|1813967080455|1813967080455|CNY|0|64
20200509|02000134|1818746536689|1818746536689|CNY|0|400976
20200509|02000134|1815256323299|1815256323299|CNY|4006018|8215914
20200509|02000134|1815127495468|1815127495468|CNY|0|10197
20200509|02000134|1818358835032|1818358835032|CNY|0|0
20200509|02000134|1818932685729|1818932685729|CNY|0|10235
20200509|02000134|1813503121483|1813503121483|CNY|0|2431
20200509|02000134|1813567613119|1813567613119|CNY|0|64
20200509|02000134|1813056733456|1813056733456|CNY|0|0
20200509|02000134|1813454351735|1813454351735|CNY|0|25
20200509|02000134|1815258363565|1815258363565|CNY|0|0
20200509|02000134|1815544556688|1815544556688|CNY|0|0
20200509|02000134|1818714445749|1818714445749|CNY|0|0
20200509|02000134|1818624269977|1818624269977|CNY|0|0
20200509|02000134|1815513893899|1815513893899|CNY|0|0
20200509|02000134|1815857801207|1815857801207|CNY|0|6
20200509|02000134|1815846656422|1815846656422|CNY|0|21386
20200509|02000134|1818746794204|1818746794204|CNY|0|57493
20200509|02000134|1818970579786|1818970579786|CNY|0|0
20200509|02000134|1813567095413|1813567095413|CNY|0|9
20200509|02000134|1813513284448|1813513284448|CNY|0|31655
20200509|02000134|1815910477715|1815910477715|CNY|0|0
20200509|02000134|1815227060395|1815227060395|CNY|0|49324
20200509|02000134|1815933321253|1815933321253|CNY|0|74772
20200509|02000134|1813504647372|1813504647372|CNY|0|0
20200509|02000134|1813351044537|1813351044537|CNY|0|0
20200509|02000134|1815733826587|1815733826587|CNY|0|39741
20200509|02000134|1817332403134|1817332403134|CNY|0|10262
20200509|02000134|1815045503182|1815045503182|CNY|0|41702
20200509|02000134|1813234584513|1813234584513|CNY|0|429516
20200509|02000134|1813703283113|1813703283113|CNY|0|362977
20200509|02000134|1813846070056|1813846070056|CNY|0|48758
20200509|02000134|1818679687885|1818679687885|CNY|0|259620
20200509|02000134|1813979529401|1813979529401|CNY|0|18489
20200509|02000134|1818679189700|1818679189700|CNY|0|63
20200509|02000134|1813945750896|1813945750896|CNY|0|0
20200509|02000134|1815945288222|1815945288222|CNY|0|31988
20200509|02000134|1815947464963|1815947464963|CNY|0|16778
20200509|02000134|1817679147786|1817679147786|CNY|0|259473
20200509|02000134|1813624683018|1813624683018|CNY|0|28864
20200509|02000134|1818145389985|1818145389985|CNY|0|0
20200509|02000134|1817779683012|1817779683012|CNY|0|0
20200509|02000134|1816603205239|1816603205239|CNY|0|68021
20200509|02000134|1815946631777|1815946631777|CNY|0|86351
20200509|02000134|1813722255068|1813722255068|CNY|0|8974
20200509|02000134|1813483293208|1813483293208|CNY|0|0
20200509|02000134|1813903322982|1813903322982|CNY|0|22105
20200509|02000134|1817379537000|1817379537000|CNY|0|0
20200509|02000134|1815046592512|1815046592512|CNY|0|244786
20200509|02000134|1817317025629|1817317025629|CNY|5000|1790
20200509|02000134|1815076282998|1815076282998|CNY|0|3986
20200509|02000134|1813738839797|1813738839797|CNY|0|0
20200509|02000134|1813155805320|1813155805320|CNY|0|259475
20200509|02000134|1815998303767|1815998303767|CNY|0|0
20200509|02000134|1818107085601|1818107085601|CNY|0|316188
20200509|02000134|1815903008432|1815903008432|CNY|0|0
20200509|02000134|1813806674708|1813806674708|CNY|0|0
20200509|02000134|1815893849605|1815893849605|CNY|0|0
20200509|02000134|1818107085602|1818107085602|CNY|0|0
20200509|02000134|1818931222380|1818931222380|CNY|0|50900
20200509|02000134|1815070574777|1815070574777|CNY|0|0
20200509|02000134|1815770961599|1815770961599|CNY|0|6
20200509|02000134|1800100000400|1800100000400|CNY|0|0
20200509|02000134|1800100000398|1800100000398|CNY|0|0
20200509|02000134|1800100000397|1800100000397|CNY|0|100
20200509|02000134|1800100000394|1800100000394|CNY|0|0
20200509|02000134|1800100000395|1800100000395|CNY|0|0
20200509|02000134|1800100000390|1800100000390|CNY|3000|9529
20200509|02000134|1800100000378|1800100000378|CNY|0|0
20200509|02000134|1800100000366|1800100000366|CNY|0|28800
20200509|02000134|1800100000369|1800100000369|CNY|0|100
20200509|02000134|1800100000361|1800100000361|CNY|0|16393
20200509|02000134|1800100000362|1800100000362|CNY|0|0
20200509|02000134|1800100000359|1800100000359|CNY|0|315184
20200509|02000134|1800100000358|1800100000358|CNY|0|226059
20200509|02000134|1800100000355|1800100000355|CNY|0|51064
20200509|02000134|1800100000352|1800100000352|CNY|0|61
20200509|02000134|1800100000353|1800100000353|CNY|0|0
20200509|02000134|1800100000347|1800100000347|CNY|0|0
20200509|02000134|1800100000342|1800100000342|CNY|0|0
20200509|02000134|1800100000345|1800100000345|CNY|0|187519
20200509|02000134|1800100000341|1800100000341|CNY|0|0
20200509|02000134|1800100000340|1800100000340|CNY|0|456528
20200509|02000134|1800100000332|1800100000332|CNY|0|278110
20200509|02000134|1800100000328|1800100000328|CNY|0|2282
20200509|02000134|1800100000318|1800100000318|CNY|0|2
20200509|02000134|1800100000316|1800100000316|CNY|0|39
20200509|02000134|1800100000308|1800100000308|CNY|0|0
20200509|02000134|1800100000302|1800100000302|CNY|0|446477
20200509|02000134|1800100000298|1800100000298|CNY|0|251297
20200509|02000134|1800100000295|1800100000295|CNY|0|0
20200509|02000134|1800100000290|1800100000290|CNY|0|0
20200509|02000134|1800100000288|1800100000288|CNY|0|0
20200509|02000134|1800100000286|1800100000286|CNY|0|0
20200509|02000134|1800100000287|1800100000287|CNY|0|18210
20200509|02000134|1800100000281|1800100000281|CNY|0|36
20200509|02000134|1800100000279|1800100000279|CNY|0|0
20200509|02000134|1800100000280|1800100000280|CNY|0|19965
20200509|02000134|1800100000275|1800100000275|CNY|0|239794
20200509|02000134|1800100000272|1800100000272|CNY|0|56048
20200509|02000134|1800100000270|1800100000270|CNY|0|0
20200509|02000134|1800100000267|1800100000267|CNY|0|46626
20200509|02000134|1800100000261|1800100000261|CNY|0|682539
20200509|02000134|1800100000260|1800100000260|CNY|0|398572
20200509|02000134|1800100000257|1800100000257|CNY|0|431776
20200509|02000134|1800100000256|1800100000256|CNY|0|185442
20200509|02000134|1800100000255|1800100000255|CNY|0|29
20200509|02000134|1800100000253|1800100000253|CNY|0|0
20200509|02000134|1800100000245|1800100000245|CNY|0|26973
20200509|02000134|1800100000246|1800100000246|CNY|0|10174
20200509|02000134|1800100000241|1800100000241|CNY|0|249113
20200509|02000134|1800100000242|1800100000242|CNY|0|123
20200509|02000134|1800100000239|1800100000239|CNY|0|0
20200509|02000134|1800100000237|1800100000237|CNY|0|47263
20200509|02000134|1800100000236|1800100000236|CNY|0|381551
20200509|02000134|1800100000234|1800100000234|CNY|0|391805
20200509|02000134|1800100000231|1800100000231|CNY|0|0
20200509|02000134|1800100000230|1800100000230|CNY|0|47599
20200509|02000134|1800100000229|1800100000229|CNY|0|14946
20200509|02000134|1800100000225|1800100000225|CNY|0|187480
20200509|02000134|1800100000221|1800100000221|CNY|0|28774
20200509|02000134|1800100000220|1800100000220|CNY|0|0
20200509|02000134|1800100000218|1800100000218|CNY|0|17541
20200509|02000134|1800100000213|1800100000213|CNY|0|82670
20200509|02000134|1800100000211|1800100000211|CNY|0|187199
20200509|02000134|1800100000209|1800100000209|CNY|0|22255
20200509|02000134|1800100000208|1800100000208|CNY|0|100
20200509|02000134|1800100000207|1800100000207|CNY|0|185458
20200509|02000134|1800100000206|1800100000206|CNY|0|100
20200509|02000134|1800100000198|1800100000198|CNY|0|0
20200509|02000134|1800100000197|1800100000197|CNY|0|177593
20200509|02000134|1800100000196|1800100000196|CNY|0|12006
20200509|02000134|1800100000190|1800100000190|CNY|0|0
20200509|02000134|1800100000189|1800100000189|CNY|0|187510
20200509|02000134|1800100000188|1800100000188|CNY|0|34960
20200509|02000134|1800100000186|1800100000186|CNY|0|2320
20200509|02000134|1800100000182|1800100000182|CNY|0|21062
20200509|02000134|1800100000180|1800100000180|CNY|0|0
20200509|02000134|1800100000177|1800100000177|CNY|0|242002
20200509|02000134|1800100000175|1800100000175|CNY|0|20227
20200509|02000134|1800100000170|1800100000170|CNY|0|74
20200509|02000134|1800100000167|1800100000167|CNY|0|0
20200509|02000134|1800100000165|1800100000165|CNY|0|0
20200509|02000134|1800100000161|1800100000161|CNY|0|23739
20200509|02000134|1800100000158|1800100000158|CNY|0|100
20200509|02000134|1800100000157|1800100000157|CNY|0|0
20200509|02000134|1800100000156|1800100000156|CNY|0|100
20200509|02000134|1800100000154|1800100000154|CNY|0|21174
20200509|02000134|1800100000150|1800100000150|CNY|0|100
20200509|02000134|1800100000145|1800100000145|CNY|0|0
20200509|02000134|1800100000142|1800100000142|CNY|0|260620
20200509|02000134|1800100000140|1800100000140|CNY|0|185948
20200509|02000134|1800100000141|1800100000141|CNY|0|0
20200509|02000134|1800100000138|1800100000138|CNY|0|80251
20200509|02000134|1800100000136|1800100000136|CNY|0|38912
20200509|02000134|1800100000131|1800100000131|CNY|0|240898
20200509|02000134|1800100000128|1800100000128|CNY|0|0
20200509|02000134|1800100000127|1800100000127|CNY|0|315489
20200509|02000134|1800100000124|1800100000124|CNY|0|11
20200509|02000134|1800100000125|1800100000125|CNY|0|201643
20200509|02000134|1800100000122|1800100000122|CNY|0|234682
20200509|02000134|1800100000117|1800100000117|CNY|0|80120
20200509|02000134|1800100000118|1800100000118|CNY|0|28227
20200509|02000134|1800100000116|1800100000116|CNY|0|24033
20200509|02000134|1800100000114|1800100000114|CNY|0|2549
20200509|02000134|1800100000113|1800100000113|CNY|0|59837
20200509|02000134|1800100000109|1800100000109|CNY|0|28774
20200509|02000134|1800100000107|1800100000107|CNY|0|26725
20200509|02000134|1800100000106|1800100000106|CNY|0|66748
20200509|02000134|1800100000104|1800100000104|CNY|0|134170
20200509|02000134|1800100000103|1800100000103|CNY|0|0
20200509|02000134|1800100000101|1800100000101|CNY|0|0
20200509|02000134|1800100000100|1800100000100|CNY|0|25625
20200509|02000134|1800100000099|1800100000099|CNY|0|28837
20200509|02000134|1800100000098|1800100000098|CNY|0|186672
20200509|02000134|1800100000095|1800100000095|CNY|0|0
20200509|02000134|1800100000094|1800100000094|CNY|0|239728
20200509|02000134|1800100000090|1800100000090|CNY|0|0
20200509|02000134|1800100000088|1800100000088|CNY|0|5398
20200509|02000134|1800100000087|1800100000087|CNY|0|158825
20200509|02000134|1800100000085|1800100000085|CNY|0|32409
20200509|02000134|1800100000084|1800100000084|CNY|0|46011
20200509|02000134|1800100000083|1800100000083|CNY|0|0
20200509|02000134|1800100000082|1800100000082|CNY|0|558
20200509|02000134|1800100000081|1800100000081|CNY|0|43052
20200509|02000134|1800100000080|1800100000080|CNY|0|44753
20200509|02000134|1800100000079|1800100000079|CNY|0|0
20200509|02000134|1800100000077|1800100000077|CNY|0|3
20200509|02000134|1800100000074|1800100000074|CNY|0|0
20200509|02000134|1800100000073|1800100000073|CNY|0|52022
20200509|02000134|1800100000072|1800100000072|CNY|0|80473
20200509|02000134|1800100000070|1800100000070|CNY|0|28790
20200509|02000134|1800100000071|1800100000071|CNY|0|242910
20200509|02000134|1800100000069|1800100000069|CNY|0|100
20200509|02000134|1800100000067|1800100000067|CNY|0|30847
20200509|02000134|1800100000068|1800100000068|CNY|0|64
20200509|02000134|1800100000066|1800100000066|CNY|0|10461
20200509|02000134|1800100000064|1800100000064|CNY|0|18489
20200509|02000134|1800100000063|1800100000063|CNY|0|74630
20200509|02000134|1800100000060|1800100000060|CNY|0|214220
20200509|02000134|1800100000057|1800100000057|CNY|0|4771
20200509|02000134|1800100000053|1800100000053|CNY|0|56422
20200509|02000134|1800100000051|1800100000051|CNY|0|204877
20200509|02000134|1800100000050|1800100000050|CNY|0|4671
20200509|02000134|1800100000048|1800100000048|CNY|0|31875
20200509|02000134|1800100000046|1800100000046|CNY|0|71151
20200509|02000134|1800100000045|1800100000045|CNY|0|121501
20200509|02000134|1800100000043|1800100000043|CNY|0|69114
20200509|02000134|1800100000042|1800100000042|CNY|0|31913
20200509|02000134|1800100000041|1800100000041|CNY|0|23071
20200509|02000134|1800100000040|1800100000040|CNY|0|21242
20200509|02000134|1800100000039|1800100000039|CNY|0|67
20200509|02000134|1800100000038|1800100000038|CNY|0|0
20200509|02000134|1800100000036|1800100000036|CNY|0|46432
20200509|02000134|1800100000037|1800100000037|CNY|0|754
20200509|02000134|1800100000035|1800100000035|CNY|0|12
20200509|02000134|1800100000034|1800100000034|CNY|0|371016
20200509|02000134|1800100000033|1800100000033|CNY|0|6596
20200509|02000134|1800100000031|1800100000031|CNY|0|168767
20200509|02000134|1800100000032|1800100000032|CNY|0|172893
20200509|02000134|1800100000029|1800100000029|CNY|0|73
20200509|02000134|1800100000028|1800100000028|CNY|0|1083
20200509|02000134|1800100000027|1800100000027|CNY|0|286635
20200509|02000134|1800100000026|1800100000026|CNY|0|0
20200509|02000134|1800100000025|1800100000025|CNY|0|4758
20200509|02000134|1800100000023|1800100000023|CNY|0|0
20200509|02000134|1800100000022|1800100000022|CNY|0|57647
20200509|02000134|1800100000021|1800100000021|CNY|0|57596
20200509|02000134|1800100000019|1800100000019|CNY|0|1062
20200509|02000134|1818646894896|1818646894896|CNY|0|0
20200509|02000134|1815712555457|1815712555457|CNY|0|6242
20200509|02000134|1813884332947|1813884332947|CNY|0|200
20200509|02000134|1818002191153|1818002191153|CNY|0|0
20200509|02000134|1818535316235|1818535316235|CNY|0|997
20200509|02000134|1817732266277|1817732266277|CNY|0|24968
20200509|02000134|1815326636188|1815326636188|CNY|0|100
20200509|02000134|1813009971181|1813009971181|CNY|0|0
20200509|02000134|1815303322297|1815303322297|CNY|0|0
20200509|02000134|1817784230052|1817784230052|CNY|0|12484
20200509|02000134|1818746535653|1818746535653|CNY|0|204499
20200509|02000134|1813292999216|1813292999216|CNY|0|6242
20200509|02000134|1813555055525|1813555055525|CNY|0|418726
20200509|02000134|1818746954345|1818746954345|CNY|0|6242
20200509|02000134|1818674146599|1818674146599|CNY|0|18726
20200509|02000134|1817642059933|1817642059933|CNY|0|218726
20200509|02000134|1818674148199|1818674148199|CNY|0|312484
20200509|02000134|1818605848566|1818605848566|CNY|0|12883
20200509|02000134|1813091586900|1813091586900|CNY|0|6242
20200509|02000134|1813319157965|1813319157965|CNY|0|1000
20200509|02000134|1815109233126|1815109233126|CNY|0|0
20200509|02000134|1818690049591|1818690049591|CNY|0|0
20200509|02000134|1818606548783|1818606548783|CNY|0|0
20200509|02000134|1813777101958|1813777101958|CNY|0|8696
20200509|02000134|1813502216202|1813502216202|CNY|0|0
20200509|02000134|1813958379288|1813958379288|CNY|0|12883
20200509|02000134|1815636926050|1815636926050|CNY|0|0
20200509|02000134|1813705843059|1813705843059|CNY|0|806242
20200509|02000134|1813736049888|1813736049888|CNY|0|0
20200509|02000134|1818568522234|1818568522234|CNY|0|0
20200509|02000134|1813591148644|1813591148644|CNY|0|0
20200509|02000134|1815988767249|1815988767249|CNY|0|3442
20200509|02000134|1815712568650|1815712568650|CNY|0|6242
20200509|02000134|1815207962519|1815207962519|CNY|0|6042
20200509|02000134|1818568888359|1818568888359|CNY|0|0
20200509|02000134|1813082330653|1813082330653|CNY|0|6242
20200509|02000134|1818567881828|1818567881828|CNY|0|0
20200509|02000134|1813116623829|1813116623829|CNY|0|0
20200509|02000134|1818858829471|1818858829471|CNY|0|0
20200509|02000134|1813989327617|1813989327617|CNY|0|0
20200509|02000134|1813733374049|1813733374049|CNY|0|0
20200509|02000134|1813393327863|1813393327863|CNY|0|224467
20200509|02000134|1813509348168|1813509348168|CNY|0|0
20200509|02000134|1813176717539|1813176717539|CNY|0|0
20200509|02000134|1815586314943|1815586314943|CNY|0|6242
20200509|02000134|1813993467318|1813993467318|CNY|0|6242
20200509|02000134|1817516551290|1817516551290|CNY|0|6242
20200509|02000134|1818631760311|1818631760311|CNY|0|11482
20200509|02000134|1815184597495|1815184597495|CNY|0|0
20200509|02000134|1818802455863|1818802455863|CNY|0|418726
20200509|02000134|1813653226824|1813653226824|CNY|200000|200000
20200509|02000134|1818646771261|1818646771261|CNY|0|19684
20200509|02000134|1817879614955|1817879614955|CNY|0|200
20200509|02000134|1813578329840|1813578329840|CNY|200000|200000
20200509|02000134|1813840562388|1813840562388|CNY|0|206242
20200509|02000134|1818045505586|1818045505586|CNY|0|0
20200509|02000134|1813932254163|1813932254163|CNY|0|0
20200509|02000134|1813722262492|1813722262492|CNY|0|0
20200509|02000134|1813932256061|1813932256061|CNY|0|12484
20200509|02000134|1813582743080|1813582743080|CNY|0|6242
20200509|02000134|1818296617429|1818296617429|CNY|0|0
20200509|02000134|1813858219868|1813858219868|CNY|0|425926
20200509|02000134|1813970682367|1813970682367|CNY|0|0
20200509|02000134|1818631760322|1818631760322|CNY|0|6242
20200509|02000134|1818827967748|1818827967748|CNY|0|6442
20200509|02000134|1815949668714|1815949668714|CNY|0|0
20200509|02000134|1815880931399|1815880931399|CNY|0|6342
20200509|02000134|1813970462698|1813970462698|CNY|0|0
20200509|02000134|1818220096595|1818220096595|CNY|0|0
20200509|02000134|1818348907445|1818348907445|CNY|0|6242
20200509|02000134|1815903176271|1815903176271|CNY|0|6242
20200509|02000134|1813331310643|1813331310643|CNY|0|6242
20200509|02000134|1815324285825|1815324285825|CNY|0|0
20200509|02000134|1815142051751|1815142051751|CNY|0|425926
20200509|02000134|1813503874461|1813503874461|CNY|0|6242
20200509|02000134|1813578198508|1813578198508|CNY|0|0
20200509|02000134|1818279612960|1818279612960|CNY|0|0
20200509|02000134|1818524494313|1818524494313|CNY|0|18726
20200509|02000134|1813700388839|1813700388839|CNY|0|418726
20200509|02000134|1813552368668|1813552368668|CNY|0|206242
20200509|02000134|1813190099140|1813190099140|CNY|200000|418726
20200509|02000134|1813846011141|1813846011141|CNY|0|6242
20200509|02000134|1813066713691|1813066713691|CNY|0|612484
20200509|02000134|1815840520719|1815840520719|CNY|0|418726
20200509|02000134|1815609823197|1815609823197|CNY|0|6242
20200509|02000134|1813545997023|1813545997023|CNY|0|0
20200509|02000134|1818431227075|1818431227075|CNY|0|0
20200509|02000134|1813643325475|1813643325475|CNY|0|6242
20200509|02000134|1818203492787|1818203492787|CNY|0|0
20200509|02000134|1813264095514|1813264095514|CNY|0|0
20200509|02000134|1813970601152|1813970601152|CNY|0|195200
20200509|02000134|1813609828405|1813609828405|CNY|0|6242
20200509|02000134|1813932223643|1813932223643|CNY|0|6242
20200509|02000134|1813603282298|1813603282298|CNY|0|6242
20200509|02000134|1815075218679|1815075218679|CNY|0|6242
20200509|02000134|1815350349372|1815350349372|CNY|0|4612
20200509|02000134|1819970675577|1819970675577|CNY|0|0
20200509|02000134|1813611017783|1813611017783|CNY|0|6242
20200509|02000134|1813291952965|1813291952965|CNY|0|0
20200509|02000134|1815970230203|1815970230203|CNY|0|0
20200509|02000134|1813730837693|1813730837693|CNY|0|6242
20200509|02000134|1815313179127|1815313179127|CNY|0|6242
20200509|02000134|1815184955665|1815184955665|CNY|0|6242
20200509|02000134|1813578186032|1813578186032|CNY|0|0
20200509|02000134|1815030278663|1815030278663|CNY|0|0
20200509|02000134|1815930276335|1815930276335|CNY|0|6242
20200509|02000134|1815837935868|1815837935868|CNY|0|612484
20200509|02000134|1813164990022|1813164990022|CNY|0|10679
20200509|02000134|1815840063631|1815840063631|CNY|0|25926
20200509|02000134|1815887550134|1815887550134|CNY|0|6242
20200509|02000134|1813368815583|1813368815583|CNY|0|18926
20200509|02000134|1813992529265|1813992529265|CNY|0|0
20200509|02000134|1813908813212|1813908813212|CNY|0|212684
20200509|02000134|1818658220961|1818658220961|CNY|0|0
20200509|02000134|1818164646890|1818164646890|CNY|0|17623
20200509|02000134|1813587765311|1813587765311|CNY|0|6241
20200509|02000134|1818875037395|1818875037395|CNY|0|12584
20200509|02000134|1818670119315|1818670119315|CNY|0|0
20200509|02000134|1818988219915|1818988219915|CNY|0|6242
20200509|02000134|1813945766811|1813945766811|CNY|0|6242
20200509|02000134|1813035964466|1813035964466|CNY|0|6242
20200509|02000134|1813987544821|1813987544821|CNY|0|6242
20200509|02000134|1815830845585|1815830845585|CNY|0|13442
20200509|02000134|1818131207749|1818131207749|CNY|0|499
20200509|02000134|1813171692617|1813171692617|CNY|0|0
20200509|02000134|1818357890927|1818357890927|CNY|0|0
20200509|02000134|1818306924682|1818306924682|CNY|0|10679
20200509|02000134|1813628873717|1813628873717|CNY|0|6242
20200509|02000134|1813628852297|1813628852297|CNY|0|0
20200509|02000134|1813378816227|1813378816227|CNY|0|418926
20200509|02000134|1813887805937|1813887805937|CNY|0|0
20200509|02000134|1815032494099|1815032494099|CNY|0|6242
20200509|02000134|1813578228698|1813578228698|CNY|0|18726
20200509|02000134|1815866353002|1815866353002|CNY|0|239368
20200509|02000134|1818908820122|1818908820122|CNY|0|6242
20200509|02000134|1818313815117|1818313815117|CNY|0|0
20200509|02000134|1818288188077|1818288188077|CNY|0|6242
20200509|02000134|1815130268126|1815130268126|CNY|0|6242
20200509|02000134|1819987525520|1819987525520|CNY|0|25926
20200509|02000134|1813466173625|1813466173625|CNY|0|12684
20200509|02000134|1815388839989|1815388839989|CNY|0|612484
20200509|02000134|1813578262569|1813578262569|CNY|0|0
20200509|02000134|1818313082518|1818313082518|CNY|0|12484
20200509|02000134|1813808782960|1813808782960|CNY|0|6242
20200509|02000134|1813566091029|1813566091029|CNY|0|0
20200509|02000134|1813473428282|1813473428282|CNY|0|6242
20200509|02000134|1815102200735|1815102200735|CNY|0|13442
20200509|02000134|1815287133896|1815287133896|CNY|0|18726
20200509|02000134|1815969353427|1815969353427|CNY|0|6242
20200509|02000134|1818746710622|1818746710622|CNY|0|6242
20200509|02000134|1815170827317|1815170827317|CNY|0|6342
20200509|02000134|1813566092855|1813566092855|CNY|0|220684
20200509|02000134|1815128477807|1815128477807|CNY|0|6242
20200509|02000134|1815057859217|1815057859217|CNY|0|0
20200509|02000134|1813722298329|1813722298329|CNY|0|0
20200509|02000134|1815187700939|1815187700939|CNY|0|126
20200509|02000134|1813931362643|1813931362643|CNY|0|6242
20200509|02000134|1818469958663|1818469958663|CNY|0|0
20200509|02000134|1813479229801|1813479229801|CNY|0|442
20200509|02000134|1813858212168|1813858212168|CNY|0|1000
20200509|02000134|1813940459085|1813940459085|CNY|0|6342
20200509|02000134|1818313096871|1818313096871|CNY|0|18726
20200509|02000134|1815887555058|1815887555058|CNY|0|418726
20200509|02000134|1818691110953|1818691110953|CNY|0|0
20200509|02000134|1813777720081|1813777720081|CNY|0|0
20200509|02000134|1818869127192|1818869127192|CNY|0|84
20200509|02000134|1815184855733|1815184855733|CNY|0|6442
20200509|02000134|1815925592540|1815925592540|CNY|0|6242
20200509|02000134|1813603123859|1813603123859|CNY|0|6242
20200509|02000134|1813808781900|1813808781900|CNY|0|12484
20200509|02000134|1815204689694|1815204689694|CNY|0|0
20200509|02000134|1813324023246|1813324023246|CNY|0|6242
20200509|02000134|1813769999509|1813769999509|CNY|0|212484
20200509|02000134|1815933739943|1815933739943|CNY|0|418726
20200509|02000134|1815100258404|1815100258404|CNY|200000|200000
20200509|02000134|1815037092927|1815037092927|CNY|0|0
20200509|02000134|1818827799445|1818827799445|CNY|0|0
20200509|02000134|1813569282610|1813569282610|CNY|0|7242
20200509|02000134|1813628842075|1813628842075|CNY|200000|218726
20200509|02000134|1815968450230|1815968450230|CNY|0|5741
20200509|02000134|1813578222161|1813578222161|CNY|0|212484
20200509|02000134|1815933739942|1815933739942|CNY|0|0
20200509|02000134|1815671191786|1815671191786|CNY|0|612484
20200509|02000134|1815126963815|1815126963815|CNY|0|0
20200509|02000134|1818806080965|1818806080965|CNY|0|2242
20200509|02000134|1814787996680|1814787996680|CNY|0|0
20200509|02000134|1813314687653|1813314687653|CNY|0|6242
20200509|02000134|1813887902815|1813887902815|CNY|0|212684
20200509|02000134|1818060818666|1818060818666|CNY|0|0
20200509|02000134|1817317034515|1817317034515|CNY|0|0
20200509|02000134|1815912982287|1815912982287|CNY|0|0
20200509|02000134|1815840074214|1815840074214|CNY|0|12484
20200509|02000134|1813940555070|1813940555070|CNY|0|6242
20200509|02000134|1815045780767|1815045780767|CNY|0|6242
20200509|02000134|1818468084292|1818468084292|CNY|0|0
20200509|02000134|1819187901601|1819187901601|CNY|0|13642
20200509|02000134|1813231744099|1813231744099|CNY|0|13442
20200509|02000134|1817679024406|1817679024406|CNY|0|242
20200509|02000134|1813608767593|1813608767593|CNY|0|6242
20200509|02000134|1813897985407|1813897985407|CNY|0|612484
20200509|02000134|1815097439866|1815097439866|CNY|0|6242
20200509|02000134|1813903326296|1813903326296|CNY|0|425926
20200509|02000134|1813619402778|1813619402778|CNY|0|6242
20200509|02000134|1813576846550|1813576846550|CNY|0|2242
20200509|02000134|1815931775090|1815931775090|CNY|0|6242
20200509|02000134|1813946850664|1813946850664|CNY|0|6242
20200509|02000134|1817532047595|1817532047595|CNY|0|206242
20200509|02000134| 1800000000001| 1800000000001|CNY|0|34572730
20200509|02000134|1817682459990|1817682459990|CNY|0|12484
20200509|02000134|1817679265331|1817679265331|CNY|0|6242
20200509|02000134|1815184974413|1815184974413|CNY|0|18726
20200509|02000134|1815887534216|1815887534216|CNY|0|0
20200509|02000134|1818710799910|1818710799910|CNY|0|0
20200509|02000134|1813331291413|1813331291413|CNY|0|0
20200509|02000134|1818788237107|1818788237107|CNY|0|0
20200509|02000134|1813578269567|1813578269567|CNY|200000|200000
20200509|02000134|1817736203679|1817736203679|CNY|0|0
20200509|02000134|1815132271576|1815132271576|CNY|0|6242
20200509|02000134|1815188755668|1815188755668|CNY|0|0
20200509|02000134|1815803241520|1815803241520|CNY|0|0
20200509|02000134|1813908823287|1813908823287|CNY|0|6242
20200509|02000134|1818967335077|1818967335077|CNY|0|196242
20200509|02000134|1813988205730|1813988205730|CNY|0|0
20200509|02000134|1813658729094|1813658729094|CNY|0|6242
20200509|02000134|1815912255139|1815912255139|CNY|0|6242
20200509|02000134|1813032006873|1813032006873|CNY|0|0
20200509|02000134|1818500677301|1818500677301|CNY|0|0
20200509|02000134|1813932238474|1813932238474|CNY|0|12484
20200509|02000134|1815230285659|1815230285659|CNY|0|619684
20200509|02000134|1813582219081|1813582219081|CNY|0|0
20200509|02000134|1813988263155|1813988263155|CNY|0|6242
20200509|02000134|1813725250846|1813725250846|CNY|0|0
20200509|02000134|1815931229982|1815931229982|CNY|0|6242
20200509|02000134|1813633388288|1813633388288|CNY|0|0
20200509|02000134|1813930896039|1813930896039|CNY|0|206242
20200509|02000134|1813988239363|1813988239363|CNY|0|6242
20200509|02000134|1813988205606|1813988205606|CNY|0|0
20200509|02000134|1815538816005|1815538816005|CNY|0|0
20200509|02000134|1813833200375|1813833200375|CNY|0|0
20200509|02000134|1815097408526|1815097408526|CNY|0|6242
20200509|02000134|1815969277886|1815969277886|CNY|0|0
20200509|02000134|1813931359385|1813931359385|CNY|0|6242
20200509|02000134|1813908822770|1813908822770|CNY|0|6242
20200509|02000134|1813593926195|1813593926195|CNY|0|6242
20200509|02000134|1815972280790|1815972280790|CNY|0|813442
20200509|02000134|1818669296269|1818669296269|CNY|0|806242
20200509|02000134|1813887873327|1813887873327|CNY|0|0
20200509|02000134|1819937271172|1819937271172|CNY|0|0
20200509|02000134|1813833293648|1813833293648|CNY|200000|200000
20200509|02000134|1813187578911|1813187578911|CNY|0|0
20200509|02000134|1813998824209|1813998824209|CNY|1000000|1000000
20200509|02000134|1818208857326|1818208857326|CNY|0|0
20200509|02000134|1818589321691|1818589321691|CNY|0|0
