清算中心流水号&交易所流水号&业务发生日期&交易所代码&会员编码&资金账号&出入金类型&发生金额&手续费金额&银行产品代码&备注
20071030020100494557&4YFVYR6R28R9NWZF&20200710&02000016&1815207962519&1815207962519&0&10030&30&boshzjjg&
20071030020100494561&B6PPL3MI4CUA2S63&20200710&02000016&1815207962519&1815207962519&0&30090&90&boshzjjg&
20071030020100494563&I8C2MJ6M0780HHMS&20200710&02000016&1815969353427&1815969353427&0&210631&631&boshzjjg&
20071030020100494461&AYNOVY8F9VR01I3I&20200710&02000016&1813940459085&1813940459085&0&10531&31&boshzjjg&
20071030020100494568&VKJTN01TH141HB89&20200710&02000016&1815709151444&1815709151444&0&15045&45&boshzjjg&
20071030020100494570&PZLZJXCEN9RYKGAK&20200710&02000016&1813379416382&1813379416382&0&5015&15&boshzjjg&
20071030020100494573&6VS24Y5S1P1BDOTY&20200710&02000016&1800100000060&1800100000060&0&70210&210&boshzjjg&
20071030020100494574&4KCV1CKR8CNEQVP7&20200710&02000016&1813324639668&1813324639668&0&3009&9&boshzjjg&
20071030020100494470&292ISVXIFB2G5AG9&20200710&02000016&1815667899659&1815667899659&0&5015&15&boshzjjg&
20071030020100494472&89WALFGSNICG75NI&20200710&02000016&1815202419589&1815202419589&0&5015&15&boshzjjg&
20071030020100494671&06CHQDA779MT4D3W&20200710&02000016&1815245431805&1815245431805&0&20060&60&boshzjjg&
20071030020100494477&VY7S25XWY4F62CBW&20200710&02000016&1813370555380&1813370555380&0&20060&60&boshzjjg&
20071030020100494479&G7Y6MW8ZUF3ND0VO&20200710&02000016&1813836688159&1813836688159&0&10030&30&boshzjjg&
20071030020100494701&0G9EHX79T3Z8L62A&20200710&02000016&1813393192793&1813393192793&0&186359&559&boshzjjg&
20071030020100494734&1CJUUYRRJE4WC6N4&20200710&02000016&1818637622966&1818637622966&0&24974&74&boshzjjg&
20071030020100494741&RF2I4BJNQ115KWZL&20200710&02000016&1818210293990&1818210293990&0&20060&60&boshzjjg&
20071030020100494724&H01E64KSGMY80SZG&20200710&02000016&1813979604271&1813979604271&0&200601&601&boshzjjg&
20071030020100494726&9T713VPS276ZYPV1&20200710&02000016&1813483564692&1813483564692&0&10030&30&boshzjjg&
20071030020100494842&36EVBRVXXSM7NOMQ&20200710&02000016&1815579647169&1815579647169&0&20060&60&boshzjjg&
20071030020100494748&9SUKNCOXJLOCHFAZ&20200710&02000016&1818834581128&1818834581128&0&10030&30&boshzjjg&
20071030020100494843&9P91WMFDV8AMKDWF&20200710&02000016&1818304670676&1818304670676&0&40120&120&boshzjjg&
20071030020100494844&9WETSJO62LP67VWN&20200710&02000016&1800100000031&1800100000031&0&100300&300&boshzjjg&
20071030020100494935&BNIQKCEFKCJ50V95&20200710&02000016&1813478653378&1813478653378&0&30090&90&boshzjjg&
20071030020100494850&QNA47TNL6C203WX0&20200710&02000016&1813230823996&1813230823996&0&70210&210&boshzjjg&
20071030020100494937&IL8Y0QEBZLHMQXE6&20200710&02000016&1815222123742&1815222123742&0&20060&60&boshzjjg&
20071030020100494754&2R70MKBSKY41GE2N&20200710&02000016&1818875037395&1818875037395&0&10230&30&boshzjjg&
20071030020100494852&JF1HKH1QO45OJRGK&20200710&02000016&1813578288004&1813578288004&0&50150&150&boshzjjg&
20071030020100494856&G4R3C0B2MB6ER0DG&20200710&02000016&1800100000081&1800100000081&0&30090&90&boshzjjg&
20071030020100494943&QFECEQX2IWHFWNGB&20200710&02000016&1818889422056&1818889422056&0&10030&30&boshzjjg&
20071030020100494857&2IOXE1RIZ16R3R52&20200710&02000016&1813931358252&1813931358252&0&20060&60&boshzjjg&
20071030020100494859&C9W7TYOJBQUAA05J&20200710&02000016&1818131268984&1818131268984&0&220661&661&boshzjjg&
20071030020100494862&DV35SJ13FWKW243L&20200710&02000016&1813463503191&1813463503191&0&10030&30&boshzjjg&
20071030020100494865&G4QYVQITUGAYDHDA&20200710&02000016&1813684675119&1813684675119&0&20060&60&boshzjjg&
20071030020100494947&0ZYW6AWMCO9FTPCK&20200710&02000016&1815818598480&1815818598480&0&30090&90&boshzjjg&
20071030020100494868&MUCGNLM8OEKXDYIV&20200710&02000016&1818335259239&1818335259239&0&10030&30&boshzjjg&
20071030020100494763&7KRA3XL827PJ8EUU&20200710&02000016&1813909852916&1813909852916&0&11434&34&boshzjjg&
20071030020100494948&BE597MQVI6YNS8J0&20200710&02000016&1813932525581&1813932525581&0&10030&30&boshzjjg&
20071030020100494764&86JOW5MYH7BY63B2&20200710&02000016&1818674148199&1818674148199&0&40120&120&boshzjjg&
20071030020100494766&WY67S94WCRR3KWJ0&20200710&02000016&1815368948672&1815368948672&0&300902&902&boshzjjg&
20071030020100494952&VJAZGKOIHCLI7YCR&20200710&02000016&1813577525294&1813577525294&0&20060&60&boshzjjg&
20071030020100494954&SBTCN1ERXN4RFC46&20200710&02000016&1813988205870&1813988205870&0&200601&601&boshzjjg&
20071030020100494958&L4DCX0KEINFBLOB2&20200710&02000016&1815129737661&1815129737661&0&40120&120&boshzjjg&
20071030020100494879&K8QC1CFZG6KTCAU3&20200710&02000016&1815087553123&1815087553123&0&200601&601&boshzjjg&
20071030020100494973&IH3EH5ZTPIC4G8ZG&20200710&02000016&1800100000125&1800100000125&0&10030&30&boshzjjg&
20071030020100494982&40KZE8TA39R4ERL8&20200710&02000016&1813733367682&1813733367682&0&10030&30&boshzjjg&
20071030020100494793&H8CH1858J2EUK3I3&20200710&02000016&1818803126206&1818803126206&0&40120&120&boshzjjg&
20071030020100494989&H8FUEAKKJV6H2366&20200710&02000016&1813194659455&1813194659455&0&10030&30&boshzjjg&
20071030020100494900&7VPQ80KCUWVGYXUB&20200710&02000016&1818976770088&1818976770088&0&20060&60&boshzjjg&
20071030020100494795&GPIPAOXQIY1I4B99&20200710&02000016&1818191539413&1818191539413&0&120361&361&boshzjjg&
20071030020100494905&0RT8I8BVQGLPLGIC&20200710&02000016&1815561743759&1815561743759&0&10030&30&boshzjjg&
20071030020100494799&5L2Y5R1BJCTZ5RIC&20200710&02000016&1815232607038&1815232607038&0&20060&60&boshzjjg&
20071030020100494994&N8F6121OMKZYWW9P&20200710&02000016&1800100000113&1800100000113&0&65195&195&boshzjjg&
20071030020100494995&JCOAJG0LR5K2QC85&20200710&02000016&1815946608077&1815946608077&0&10030&30&boshzjjg&
20071030020100494997&BCQIPAJMANVGHIFQ&20200710&02000016&1813633181332&1813633181332&0&30090&90&boshzjjg&
20071030020100494801&TNWZVJ7J222S83MR&20200710&02000016&1813683131563&1813683131563&0&30090&90&boshzjjg&
20071030020100494907&UCEB3JH24CYJW1LY&20200710&02000016&1813832993559&1813832993559&0&20060&60&boshzjjg&
20071030020100494908&RD4AVKWG0X3FCWEU&20200710&02000016&1815887508589&1815887508589&0&10030&30&boshzjjg&
20071030020100495001&M1AHMK8NG6GS5VGS&20200710&02000016&1813082352837&1813082352837&0&40120&120&boshzjjg&
20071030020100494802&X40LM186TFBGJ8KI&20200710&02000016&1817796969398&1817796969398&0&20060&60&boshzjjg&
20071030020100494803&UTTC0AO6FKH3N9BF&20200710&02000016&1813031511388&1813031511388&0&10030&30&boshzjjg&
20071030020100494915&B5AATC7884TZC3P8&20200710&02000016&1815288116989&1815288116989&0&200601&601&boshzjjg&
20071030020100495005&TNP2BJQYP5X9I2GM&20200710&02000016&1813846055840&1813846055840&0&28886&86&boshzjjg&
20071030020100495006&WN1HW28M326EK36Q&20200710&02000016&1818187582339&1818187582339&0&10030&30&boshzjjg&
20071030020100495007&4PFEJ9ZRP5AW787L&20200710&02000016&1800100000347&1800100000347&0&52457&157&boshzjjg&
20071030020100494808&56TW72G7L4BEQTTN&20200710&02000016&1815175228012&1815175228012&0&20060&60&boshzjjg&
20071030020100495008&BHA9SFROKN6179KF&20200710&02000016&1818532109882&1818532109882&0&200601&601&boshzjjg&
20071030020100494920&REKEWR721OP18NTT&20200710&02000016&1815108605312&1815108605312&0&200601&601&boshzjjg&
20071030020100495012&BG86MUV5XQF6D3PK&20200710&02000016&1813832256871&1813832256871&0&40922&122&boshzjjg&
20071030020100495136&CKKW5HEQ3B0G3B8D&20200710&02000016&1818088155607&1818088155607&0&300902&902&boshzjjg&
20071030020100495041&FZNFH8COILYHCSEA&20200710&02000016&1815042400515&1815042400515&0&6619&19&boshzjjg&
20071030020100495042&UP1OW59AG1VQLCR3&20200710&02000016&1815632237118&1815632237118&0&40120&120&boshzjjg&
20071030020100495139&DGFS3QGKEBAMDO39&20200710&02000016&1817866568244&1817866568244&0&70210&210&boshzjjg&
20071030020100495141&HA8G3OS3WLFH5XRI&20200710&02000016&1815184597495&1815184597495&0&30090&90&boshzjjg&
20071030020100495043&1ETHTDXCI4W34J3F&20200710&02000016&1818669254642&1818669254642&0&110330&330&boshzjjg&
20071030020100495033&DAEIO4U91VFC20V6&20200710&02000016&1815137614144&1815137614144&0&12938&38&boshzjjg&
20071030020100495045&ZVOVJC6HVPWH6DE4&20200710&02000016&1813785550440&1813785550440&0&10030&30&boshzjjg&
20071030020100495143&DMG58AVPZP1LXN4J&20200710&02000016&1813730445441&1813730445441&0&30090&90&boshzjjg&
20071030020100495144&TF6O1TXZSRKQOPSP&20200710&02000016&1816532225555&1816532225555&0&70210&210&boshzjjg&
20071030020100495046&5GT7958ROYHONZI8&20200710&02000016&1817796982621&1817796982621&0&20060&60&boshzjjg&
20071030020100495235&CFKMX98JHROLRKGN&20200710&02000016&1813555344462&1813555344462&0&30090&90&boshzjjg&
20071030020100495047&W0C3X2LLOOXDRP06&20200710&02000016&1815511520473&1815511520473&0&20060&60&boshzjjg&
20071030020100495238&2A8EBIK93LN5RSCZ&20200710&02000016&1818313472920&1818313472920&0&10030&30&boshzjjg&
20071030020100495049&PFOMH0I8EFILNMMN&20200710&02000016&1800100000094&1800100000094&0&40120&120&boshzjjg&
20071030020100495148&M8Y27YJWJGG1UA8H&20200710&02000016&1813163653278&1813163653278&0&10030&30&boshzjjg&
20071030020100495240&8U750KZ3ZWD13YXG&20200710&02000016&1815940818417&1815940818417&0&10230&30&boshzjjg&
20071030020100495050&VLB9L9JUZIC54URG&20200710&02000016&1813930238016&1813930238016&0&20060&60&boshzjjg&
20071030020100495159&15F9RDRWR3SBEQN1&20200710&02000016&1815670742888&1815670742888&0&100300&300&boshzjjg&
20071030020100495244&7AWIETBC9WPGIG54&20200710&02000016&1813832296893&1813832296893&0&10030&30&boshzjjg&
20071030020100495249&1XRQESMVEDFZQ7IN&20200710&02000016&1815227098333&1815227098333&0&10030&30&boshzjjg&
20071030020100495262&9XTG7GKVMPB9KABF&20200710&02000016&1813845158388&1813845158388&0&20060&60&boshzjjg&
20071030020100495178&LWQ7I95TFFD04VW6&20200710&02000016&1815824461587&1815824461587&0&10030&30&boshzjjg&
20071030020100495068&PINLC15GI92IGXN6&20200710&02000016&1816689634186&1816689634186&0&10030&30&boshzjjg&
20071030020100495181&8GDXUHMLPSILXUVR&20200710&02000016&1815245431805&1815245431805&0&20060&60&boshzjjg&
20071030020100495182&VOD4IWHUZHAWV4W9&20200710&02000016&1813263638109&1813263638109&0&10030&30&boshzjjg&
20071030020100495264&PXJQHKA12JCABQ0I&20200710&02000016&1818787532842&1818787532842&0&70210&210&boshzjjg&
20071030020100495265&UKI34TABRWUO7FBS&20200710&02000016&1813064860909&1813064860909&0&10030&30&boshzjjg&
20071030020100495069&MI0OF569STZV2DI8&20200710&02000016&1813932211661&1813932211661&0&10030&30&boshzjjg&
20071030020100495071&24W3QTA8KGPW2W5E&20200710&02000016&1813803283883&1813803283883&0&11434&34&boshzjjg&
20071030020100495268&72FFK76TOMH9270C&20200710&02000016&1813803283883&1813803283883&0&11434&34&boshzjjg&
20071030020100495075&QH8JXQGYMV3H7H7I&20200710&02000016&1818634009284&1818634009284&0&30090&90&boshzjjg&
20071030020100495273&8D4W8EX3E2HI8M1G&20200710&02000016&1813131286769&1813131286769&0&20060&60&boshzjjg&
20071030020100495274&LPO9QCB4TQKNLBIV&20200710&02000016&1817689826169&1817689826169&0&15045&45&boshzjjg&
20071030020100495275&3UHE14I3QO3O02QJ&20200710&02000016&1813483536053&1813483536053&0&10030&30&boshzjjg&
20071030020100495080&7D5D0JJAA81TFIPS&20200710&02000016&1813833235609&1813833235609&0&260782&782&boshzjjg&
20071030020100495081&QMLHPLPSKDDIG8XF&20200710&02000016&1813483500680&1813483500680&0&10030&30&boshzjjg&
20071030020100495277&64ZL58AQ9DJZX8T3&20200710&02000016&1813161831191&1813161831191&0&10030&30&boshzjjg&
20071030020100495279&A491Y09TQIALEXUJ&20200710&02000016&1813759236567&1813759236567&0&180541&541&boshzjjg&
20071030020100495280&DHBSWHHDIIGHU97V&20200710&02000016&1815206929588&1815206929588&0&10030&30&boshzjjg&
20071030020100495281&JS5HZ1IEV7COUGQK&20200710&02000016&1815087509852&1815087509852&0&80240&240&boshzjjg&
20071030020100495083&949XRKN1E2U8NFR2&20200710&02000016&1813310933838&1813310933838&0&67001&201&boshzjjg&
20071030020100495086&POJNDVB7VRWFUCL4&20200710&02000016&1818532109882&1818532109882&0&30090&90&boshzjjg&
20071030020100495198&IQEBFB6LIWMWAU2N&20200710&02000016&1815208999328&1815208999328&0&20060&60&boshzjjg&
20071030020100495201&82Q9DUXH4AK4OOQ9&20200710&02000016&1815931437146&1815931437146&0&10030&30&boshzjjg&
20071030020100495214&HQY0PE9V2RZEDSLH&20200710&02000016&1813159989877&1813159989877&0&50150&150&boshzjjg&
20071030020100495108&XR8GI1CU4PWH1PI0&20200710&02000016&1813486694384&1813486694384&0&80240&240&boshzjjg&
20071030020100495109&SE9BTL2KFPOP4MIQ&20200710&02000016&1813343123027&1813343123027&0&40120&120&boshzjjg&
20071030020100495110&OYBMXDKOH09XZ54G&20200710&02000016&1813388758398&1813388758398&0&70210&210&boshzjjg&
20071030020100495111&BJKPDEL5OTWITEG1&20200710&02000016&1813335335656&1813335335656&0&38314&114&boshzjjg&
20071030020100495229&V90BBDS84L7THKYH&20200710&02000016&1815632218558&1815632218558&0&12036&36&boshzjjg&
20071030020100495115&9CFEQT32TQC683YS&20200710&02000016&1800100000071&1800100000071&0&18054&54&boshzjjg&
20071030020100495334&JGMOS00XKR5TA9Q8&20200710&02000016&1813472972651&1813472972651&0&10030&30&boshzjjg&
20071030020100495335&FIQ87XIAGUA372TM&20200710&02000016&1813715622986&1813715622986&0&12036&36&boshzjjg&
20071030020100495116&YMLTTD3JVD26K3GP&20200710&02000016&1818604681909&1818604681909&0&20060&60&boshzjjg&
20071030020100495117&5SHGBI16Z79JFWL6&20200710&02000016&1813703226933&1813703226933&0&10030&30&boshzjjg&
20071030020100495336&2IN8CKHZ3TG30ZYD&20200710&02000016&1815690228885&1815690228885&0&20060&60&boshzjjg&
20071030020100495308&NTP29L9QI28UHLV6&20200710&02000016&1813429398439&1813429398439&0&90270&270&boshzjjg&
20071030020100495118&FWDQ6O7ZTYGPAAIO&20200710&02000016&1813831522789&1813831522789&0&10030&30&boshzjjg&
20071030020100495119&2INI0RRRI321CBLZ&20200710&02000016&1818714555279&1818714555279&0&20060&60&boshzjjg&
20071030020100495311&4A3O2VUCA226TWJY&20200710&02000016&1813194551998&1813194551998&0&20060&60&boshzjjg&
20071030020100495337&ZCB3GVLNPFOC01FR&20200710&02000016&1818046671766&1818046671766&0&50150&150&boshzjjg&
20071030020100495120&KE3Q0EIL5NSO6UFK&20200710&02000016&1813988222092&1813988222092&0&10030&30&boshzjjg&
20071030020100495338&222XGGJL0FK5EA11&20200710&02000016&1815945537804&1815945537804&0&30090&90&boshzjjg&
20071030020100495124&95DY8MGD465UWEPP&20200710&02000016&1813887838521&1813887838521&0&170511&511&boshzjjg&
20071030020100495339&C142X2TL4EEWFY9G&20200710&02000016&1815931438153&1815931438153&0&10030&30&boshzjjg&
20071030020100495315&GJONR2PHM0HVGS00&20200710&02000016&1813065172689&1813065172689&0&12036&36&boshzjjg&
20071030020100495345&GOLO9C9C92ANS2YJ&20200710&02000016&1818060529819&1818060529819&0&30090&90&boshzjjg&
20071030020100495131&1G726BEW3R7XA88B&20200710&02000016&1815094529305&1815094529305&0&20060&60&boshzjjg&
20071030020100495132&HE17MPQ5EMDI5F2U&20200710&02000016&1818921860818&1818921860818&0&20060&60&boshzjjg&
20071030020100495346&DDV9YF46E2QMR1JU&20200710&02000016&1813545997023&1813545997023&0&50150&150&boshzjjg&
20071030020100495317&884RBLS227UB54FI&20200710&02000016&1815128811803&1815128811803&0&190571&571&boshzjjg&
20071030020100495318&YG1ZDT85MX84E1TJ&20200710&02000016&1815846883336&1815846883336&0&20060&60&boshzjjg&
20071030020100495321&SIUW7V5ZKYPHJT60&20200710&02000016&1813339582020&1813339582020&0&20060&60&boshzjjg&
20071030020100495350&UV3H4TBSXA07I2G9&20200710&02000016&1815165142452&1815165142452&0&20060&60&boshzjjg&
20071030020100495323&P25UJ1FTVT8UOVQY&20200710&02000016&1813089614313&1813089614313&0&17051&51&boshzjjg&
20071030020100495359&JZKLHPJ95R8QK4RP&20200710&02000016&1815846883366&1815846883366&0&190571&571&boshzjjg&
20071030020100495367&9U3VKOT3CXWJKEBF&20200710&02000016&1818940967978&1818940967978&0&10030&30&boshzjjg&
20071030020100495547&64177RFDZE8OBHZT&20200710&02000016&1813472252427&1813472252427&0&70210&210&boshzjjg&
20071030020100495551&YKPQKWU2DX6XZLGI&20200710&02000016&1815894422287&1815894422287&0&40120&120&boshzjjg&
20071030020100495453&UOXU1NFJ49P83137&20200710&02000016&1815592260808&1815592260808&0&53460&160&boshzjjg&
20071030020100495455&IM4946VDAT9XSXWD&20200710&02000016&1800100000085&1800100000085&0&50150&150&boshzjjg&
20071030020100495456&AWMKX4B3ABP2KPAG&20200710&02000016&1815630880329&1815630880329&0&10130&30&boshzjjg&
20071030020100495556&V6XURIE15VJO5C0Q&20200710&02000016&1818288950291&1818288950291&0&100300&300&boshzjjg&
20071030020100495458&N7LJ2Y2V7VDOGCZ7&20200710&02000016&1819987524663&1819987524663&0&100300&300&boshzjjg&
20071030020100495372&7445EXOVUHNCMNJ0&20200710&02000016&1813335339191&1813335339191&0&97693&293&boshzjjg&
20071030020100495461&ZJ44VBT7VFPHMI0P&20200710&02000016&1818214662231&1818214662231&0&200601&601&boshzjjg&
20071030020100495382&HJYSTMTMZW4I91LC&20200710&02000016&1813628891395&1813628891395&0&10030&30&boshzjjg&
20071030020100495570&5R1C24C9JKLYCTU0&20200710&02000016&1813578222161&1813578222161&0&100300&300&boshzjjg&
20071030020100495478&3BABOG8P2P34NN8M&20200710&02000016&1818987500186&1818987500186&0&200601&601&boshzjjg&
20071030020100495388&TAXRFBL72KL11OCU&20200710&02000016&1815033799920&1815033799920&0&200601&601&boshzjjg&
20071030020100495392&9QIXSGPAKB2IDJRN&20200710&02000016&1815887550134&1815887550134&0&140421&421&boshzjjg&
20071030020100495482&069K4BQHVUD3OQJ0&20200710&02000016&1815667931997&1815667931997&0&50150&150&boshzjjg&
20071030020100495396&O6TLX4Q1XR19ZR91&20200710&02000016&1815184974413&1815184974413&0&110330&330&boshzjjg&
20071030020100495581&6PK4EI0BTGQWZ2E5&20200710&02000016&1813191758429&1813191758429&0&20060&60&boshzjjg&
20071030020100495485&R42I9OK6RSGHPLHC&20200710&02000016&1813889877508&1813889877508&0&7021&21&boshzjjg&
20071030020100495487&9VI65C7KJR403CAZ&20200710&02000016&1815530285307&1815530285307&0&10030&30&boshzjjg&
20071030020100495404&6Y7VSFXWDDGKEHNM&20200710&02000016&1815925589060&1815925589060&0&10030&30&boshzjjg&
20071030020100495406&V3PQS73YAITGSHBW&20200710&02000016&1813393327863&1813393327863&0&70210&210&boshzjjg&
20071030020100495597&6CVY2Z9CE7A0GAYR&20200710&02000016&1818161735141&1818161735141&0&19057&57&boshzjjg&
20071030020100495507&G8CP6FY0T5VQBL57&20200710&02000016&1818617854952&1818617854952&0&10030&30&boshzjjg&
20071030020100495511&NRICQVKZWOCPROWJ&20200710&02000016&1813945860022&1813945860022&0&13039&39&boshzjjg&
20071030020100495422&DKIM9IXDYO1HOW60&20200710&02000016&1815389494945&1815389494945&0&20060&60&boshzjjg&
20071030020100495605&24S9T8E206Q9J4QP&20200710&02000016&1818972629432&1818972629432&0&180541&541&boshzjjg&
20071030020100495425&YFPL007I5AOXJS64&20200710&02000016&1813730294744&1813730294744&0&5015&15&boshzjjg&
20071030020100495428&MQFB2J9RB1IUM799&20200710&02000016&1815903327688&1815903327688&0&30090&90&boshzjjg&
20071030020100495433&ELY59KXH0BBAE9Z4&20200710&02000016&1815771836378&1815771836378&0&30090&90&boshzjjg&
20071030020100495614&KE92UR6VPYZNKCUE&20200710&02000016&1813932256061&1813932256061&0&10030&30&boshzjjg&
20071030020100495637&6XWTUYHX4PLTWDCB&20200710&02000016&1813759215316&1813759215316&0&250752&752&boshzjjg&
20071030020100495734&9S6KGAYW61DCUGD2&20200710&02000016&1814784685555&1814784685555&0&50150&150&boshzjjg&
20071030020100495642&06GQQE46FT8JQ8GV&20200710&02000016&1813832293322&1813832293322&0&30090&90&boshzjjg&
20071030020100495643&MFD0UW4CUYOCC1N5&20200710&02000016&1815208802992&1815208802992&0&130391&391&boshzjjg&
20071030020100495619&BQYESGFM68YFCYJ4&20200710&02000016&1813945860022&1813945860022&0&3009&9&boshzjjg&
20071030020100495651&YEK2ATJXBLX6XBZP&20200710&02000016&1815145522029&1815145522029&0&20060&60&boshzjjg&
20071030020100495622&B84UGGLCAKBLRUPB&20200710&02000016&1813477499698&1813477499698&0&180541&541&boshzjjg&
20071030020100495742&41E7F5ZJN8C61XKM&20200710&02000016&1813759221835&1813759221835&0&180541&541&boshzjjg&
20071030020100495624&2XAGB16VYL1GZTMC&20200710&02000016&1818788207781&1818788207781&0&70210&210&boshzjjg&
20071030020100495744&VVEYFFNJDZS5SVGB&20200710&02000016&1815187507752&1815187507752&0&30090&90&boshzjjg&
20071030020100495627&H1ZWLGODYDQ12N3P&20200710&02000016&1815930284881&1815930284881&0&30090&90&boshzjjg&
20071030020100495748&6661ZWYBVKPOIK2Y&20200710&02000016&1813477449008&1813477449008&0&240722&722&boshzjjg&
20071030020100495749&Q1TUR7KHWVFC0X2A&20200710&02000016&1818631228121&1818631228121&0&50150&150&boshzjjg&
20071030020100495834&MVR1K5397X8VWRLH&20200710&02000016&1815397618643&1815397618643&0&300902&902&boshzjjg&
20071030020100495661&JMH1YXYMW5E9CXEZ&20200710&02000016&1815368684150&1815368684150&0&210631&631&boshzjjg&
20071030020100495755&LY7Y1Y1KU4L0XR8I&20200710&02000016&1818945765909&1818945765909&0&50150&150&boshzjjg&
20071030020100495674&OD4X8DC1KW6YJMAY&20200710&02000016&1815368486928&1815368486928&0&20060&60&boshzjjg&
20071030020100495848&6556MEM9P266AXEC&20200710&02000016&1813333029656&1813333029656&0&10030&30&boshzjjg&
20071030020100495761&DME9H3NA76P579R3&20200710&02000016&1818633328800&1818633328800&0&10030&30&boshzjjg&
20071030020100495763&Q9RG5QKSYVFOJSA6&20200710&02000016&1813946783966&1813946783966&0&30090&90&boshzjjg&
20071030020100495680&FQMGMQZA7936WBEQ&20200710&02000016&1818187266755&1818187266755&0&120361&361&boshzjjg&
20071030020100495681&KYPLAAHHIEW5Q4BB&20200710&02000016&1813587765311&1813587765311&0&10030&30&boshzjjg&
20071030020100495771&8KAKTY9RFUW5U81C&20200710&02000016&1813604555811&1813604555811&0&10030&30&boshzjjg&
20071030020100495862&LE7GZR1YQZ952X4R&20200710&02000016&1815636574848&1815636574848&0&10030&30&boshzjjg&
20071030020100495684&QIF87NSK27S0WOTF&20200710&02000016&1813555313989&1813555313989&0&10030&30&boshzjjg&
20071030020100495863&YDY754XIW2VMCQDT&20200710&02000016&1818790595711&1818790595711&0&11534&34&boshzjjg&
20071030020100495774&H0P6NLCNYVHZQIA2&20200710&02000016&1818331230111&1818331230111&0&20060&60&boshzjjg&
20071030020100495777&IU7B77S4GJWPRBQ8&20200710&02000016&1818624043293&1818624043293&0&50150&150&boshzjjg&
20071030020100495872&OV07EC2A0S0YIVSO&20200710&02000016&1815833589669&1815833589669&0&50150&150&boshzjjg&
20071030020100495875&EBFNDSW37E39MXG7&20200710&02000016&1818731299015&1818731299015&0&200601&601&boshzjjg&
20071030020100495882&S9UOFB6O4VOBJLTY&20200710&02000016&1813831588800&1813831588800&0&60180&180&boshzjjg&
20071030020100495696&2MWLKTXZ07M24C8Y&20200710&02000016&1813400336006&1813400336006&0&20060&60&boshzjjg&
20071030020100495884&T44BXBPIX0P3TDAG&20200710&02000016&1818787537265&1818787537265&0&110330&330&boshzjjg&
20071030020100495697&IRY0IXX4GF2R7XFF&20200710&02000016&1817317033540&1817317033540&0&10030&30&boshzjjg&
20071030020100495789&SUMUGX25AGQNZLE8&20200710&02000016&1818909995887&1818909995887&0&5015&15&boshzjjg&
20071030020100495703&8QDJE76M887FR9MQ&20200710&02000016&1815308750506&1815308750506&0&40120&120&boshzjjg&
20071030020100495890&2NQ1E4S3YVIRFMJ0&20200710&02000016&1813987581003&1813987581003&0&90270&270&boshzjjg&
20071030020100495708&GB4D1ZM7EAO31AEM&20200710&02000016&1813831270832&1813831270832&0&30090&90&boshzjjg&
20071030020100495897&S96B0U0K9WWCA9V9&20200710&02000016&1813833011132&1813833011132&0&11434&34&boshzjjg&
20071030020100495804&XHYWV7PX7TLCUVZE&20200710&02000016&1813284599625&1813284599625&0&210130&630&boshzjjg&
20071030020100495724&KX3IPIRIV0TITW9R&20200710&02000016&1813930885981&1813930885981&0&601805&1805&boshzjjg&
20071030020100495907&FU697U0PV7X6R5H4&20200710&02000016&1813988279079&1813988279079&0&100300&300&boshzjjg&
20071030020100495726&7W0W135NVLVOYLPL&20200710&02000016&1815925591567&1815925591567&0&50150&150&boshzjjg&
20071030020100495910&XW7Z6JWJKMHB6XKW&20200710&02000016&1818691191808&1818691191808&0&451354&1354&boshzjjg&
20071030020100495733&LMREC0FTY8GSKYUD&20200710&02000016&1813808781900&1813808781900&0&60180&180&boshzjjg&
20071030020100495916&FUPFUC8X8UEAD9QF&20200710&02000016&1813111448814&1813111448814&0&35105&105&boshzjjg&
20071030020100495829&TAKWS6URO5B3864P&20200710&02000016&1813555046898&1813555046898&0&50150&150&boshzjjg&
20071030020100496039&R6PN5HY5X9RN270L&20200710&02000016&1818131276206&1818131276206&0&10030&30&boshzjjg&
20071030020100495959&KN4KKVIIOJBXA2AR&20200710&02000016&1800100000358&1800100000358&0&20060&60&boshzjjg&
20071030020100496141&YZ5YMSCXYJ7QQIQ9&20200710&02000016&1800100000221&1800100000221&0&30090&90&boshzjjg&
20071030020100496062&2Q407DCOBXQZWORA&20200710&02000016&1815287565721&1815287565721&0&70210&210&boshzjjg&
20071030020100496168&80ARFYOTSOLHTTGN&20200710&02000016&1800100000046&1800100000046&0&200601&601&boshzjjg&
20071030020100495987&ODD9PLK05XFADUDM&20200710&02000016&1815108633866&1815108633866&0&50150&150&boshzjjg&
20071030020100496003&OSF8NOD32HAK7V99&20200710&02000016&1818624077989&1818624077989&0&10030&30&boshzjjg&
20071030020100496011&ZKGTHNVCDFQE34KP&20200710&02000016&1813373121391&1813373121391&0&200601&601&boshzjjg&
20071030020100496199&4M7U4TI3V0GF5UE1&20200710&02000016&1813628842075&1813628842075&0&20060&60&boshzjjg&
20071030020100496028&86ZOTKYOBE4A3YYW&20200710&02000016&1815045790917&1815045790917&0&10030&30&boshzjjg&
20071030020100496225&7QP7IU01PZFRZR5N&20200710&02000016&1818330218859&1818330218859&0&20060&60&boshzjjg&
20071030020100496334&HDBVUBBZ8ZESMGQ7&20200710&02000016&1815025068429&1815025068429&0&5015&15&boshzjjg&
20071030020100496343&JTLBM6NNUQQRG22A&20200710&02000016&1815502925058&1815502925058&0&20060&60&boshzjjg&
20071030020100496450&95QIU1DY4H0LONYK&20200710&02000016&1813887873327&1813887873327&0&50150&150&boshzjjg&
20071030020100496266&74N3WJS9RRG3ZTOU&20200710&02000016&1818689707602&1818689707602&0&10030&30&boshzjjg&
20071030020100496452&O33MI5XEFC64NIA7&20200710&02000016&1813961959185&1813961959185&0&20060&60&boshzjjg&
20071030020100496455&3E0SHBSR78VKP7QS&20200710&02000016&1813961959185&1813961959185&0&20060&60&boshzjjg&
20071030020100496270&XO4E6VK1ZJV9RQRL&20200710&02000016&1815334465219&1815334465219&0&100300&300&boshzjjg&
20071030020100496356&51JJKVULKW794CTL&20200710&02000016&1813628894679&1813628894679&0&30090&90&boshzjjg&
20071030020100496291&MZUEA13IKRGMO0ON&20200710&02000016&1813785266844&1813785266844&0&11434&34&boshzjjg&
20071030020100496293&BMOGNZ26RXLPOLR3&20200710&02000016&1813785266844&1813785266844&0&11434&34&boshzjjg&
20071030020100496484&JTKYFAWG8SPBRIQK&20200710&02000016&1813785266844&1813785266844&0&6018&18&boshzjjg&
20071030020100496379&ZO69DIVS72Q2HHZS&20200710&02000016&1815127220896&1815127220896&0&8926&26&boshzjjg&
20071030020100496298&RRN4KJ1D0TBMPE28&20200710&02000016&1818159800103&1818159800103&0&10030&30&boshzjjg&
20071030020100496324&VGFKPGJOF0HVXT3K&20200710&02000016&1815933126808&1815933126808&0&10030&30&boshzjjg&
20071030020100496325&A5NX5AC9TFY4MK92&20200710&02000016&1813191775000&1813191775000&0&10030&30&boshzjjg&
20071030020100496333&QZ2AUR57F0H4IRBB&20200710&02000016&1815130580430&1815130580430&0&20060&60&boshzjjg&
20071030020100496414&8S767471G3KFB0Y7&20200710&02000016&1800100000138&1800100000138&0&60180&180&boshzjjg&
20071030020100496417&JGNDZXUM23U6OO7E&20200710&02000016&1818468150535&1818468150535&0&20060&60&boshzjjg&
20071030020100496531&B9PJARINLO9GVBY4&20200710&02000016&1815832279039&1815832279039&0&20060&60&boshzjjg&
20071030020100496536&ZB07OZJOEY1M6K9G&20200710&02000016&1813931380155&1813931380155&0&50150&150&boshzjjg&
20071030020100496538&41F8U949TF3AZP78&20200710&02000016&1818103143885&1818103143885&0&90270&270&boshzjjg&
20071030020100496654&CNLI1N8NVIBN6OX9&20200710&02000016&1813988238986&1813988238986&0&20060&60&boshzjjg&
20071030020100496595&SZP5JSIH4A6MMLVK&20200710&02000016&1800100000027&1800100000027&0&220661&661&boshzjjg&
20071030020100496693&SN3AR40W37EKH47E&20200710&02000016&1800100000027&1800100000027&0&30090&90&boshzjjg&
20071030020100496806&TPX2OVCK9TW0XYR2&20200710&02000016&1813992186412&1813992186412&0&50150&150&boshzjjg&
20071030020100496947&YLB4MZ1JU0XWCIM8&20200710&02000016&1818313082518&1818313082518&0&220661&661&boshzjjg&
20071030020100497041&8M6X0UUHBX4HHZEP&20200710&02000016&1815512532000&1815512532000&0&80240&240&boshzjjg&
20071030020100497044&A858CTPU4SXZ7BZ4&20200710&02000016&1815232640847&1815232640847&0&25075&75&boshzjjg&
20071030020100497059&TDH8H67LZYQH1MXG&20200710&02000016&1815630158606&1815630158606&0&40120&120&boshzjjg&
20071030020100496865&JRPDTWC3VK2BN63W&20200710&02000016&1815127498151&1815127498151&0&20060&60&boshzjjg&
20071030020100496869&8DGH8SF6C6JXBZ24&20200710&02000016&1813987513948&1813987513948&0&10030&30&boshzjjg&
20071030020100496870&1PVKJW87CCN7VT96&20200710&02000016&1817732266277&1817732266277&0&200601&601&boshzjjg&
20071030020100496874&LGY4U822HL4XUEI6&20200710&02000016&1813931219857&1813931219857&0&20060&60&boshzjjg&
20071030020100497072&VA5PMILFO6KXSZ2W&20200710&02000016&1815833895638&1815833895638&0&40120&120&boshzjjg&
20071030020100496881&FONIX4QDTGTFWSG2&20200710&02000016&1813831220938&1813831220938&0&20060&60&boshzjjg&
20071030020100496892&P3MV1RXZM9KR7HYS&20200710&02000016&1813887868883&1813887868883&0&250752&752&boshzjjg&
20071030020100497100&Z9C3EJH99VQD0MSM&20200710&02000016&1815712597112&1815712597112&0&220661&661&boshzjjg&
20071030020100496913&6FPOG83Y4OZRL8QO&20200710&02000016&1815353070080&1815353070080&0&22567&67&boshzjjg&
20071030020100497004&RYU1GWFDHPWRRR06&20200710&02000016&1818220358251&1818220358251&0&38114&114&boshzjjg&
20071030020100497110&WNLWTLDDWO2QVACN&20200710&02000016&1813892560221&1813892560221&0&30090&90&boshzjjg&
20071030020100497113&B0XRFHM2CCEVXESN&20200710&02000016&1818132700677&1818132700677&0&240722&722&boshzjjg&
20071030020100497243&6ZBTIJ6VA3EYSQUK&20200710&02000016&1818962060606&1818962060606&0&6820&20&boshzjjg&
20071030020100497244&0P7UGZIFPLSRJTZG&20200710&02000016&1815161960908&1815161960908&0&10030&30&boshzjjg&
20071030020100497352&HX0BDSQTLPYYA6K9&20200710&02000016&1818179609669&1818179609669&0&40120&120&boshzjjg&
20071030020100497173&8ZKT85PP4W2F6SVF&20200710&02000016&1813987515001&1813987515001&0&30090&90&boshzjjg&
20071030020100497175&3HF15RVVEMHEFWW4&20200710&02000016&1815932240292&1815932240292&0&20060&60&boshzjjg&
20071030020100497176&RXRYDRPP1D24QZOD&20200710&02000016&1818729936598&1818729936598&0&43129&129&boshzjjg&
20071030020100497178&JCYYELWTHPJV5SDC&20200710&02000016&1800100000084&1800100000084&0&20060&60&boshzjjg&
20071030020100497279&CGDQ9K7Q8BVKLIMJ&20200710&02000016&1815837935909&1815837935909&0&200601&601&boshzjjg&
20071030020100497287&7XJ62K2YLJLO4SZ9&20200710&02000016&1817325423850&1817325423850&0&10030&30&boshzjjg&
20071030020100497296&O3O78B0INEYTOFCQ&20200710&02000016&1813759215123&1813759215123&0&50150&150&boshzjjg&
20071030020100497297&XAT7M7SGT4SPOLQK&20200710&02000016&1813587765311&1813587765311&0&4814&14&boshzjjg&
20071030020100497394&TKMMAF7W1NT2B5X3&20200710&02000016&1818987916256&1818987916256&0&100300&300&boshzjjg&
20071030020100497318&FL6GKEQ7HZXCK4VR&20200710&02000016&1815586314943&1815586314943&0&180541&541&boshzjjg&
20071030020100497326&G6QHI0BWAN948Y0G&20200710&02000016&1813597431025&1813597431025&0&170511&511&boshzjjg&
20071030020100497329&2G49BWP1RLYCIMOG&20200710&02000016&1813661262290&1813661262290&0&180541&541&boshzjjg&
20071030020100497440&YFJUK6WUS1J39ZRP&20200710&02000016&1813808788999&1813808788999&0&27081&81&boshzjjg&
20071030020100497549&YR0QZDHA0FDO2T4G&20200710&02000016&1813669212329&1813669212329&0&50150&150&boshzjjg&
20071030020100497465&JJ7MNTONKVEG0NCC&20200710&02000016&1818674147179&1818674147179&0&50150&150&boshzjjg&
20071030020100497468&E53GSY3YE4RK2H74&20200710&02000016&1815671162600&1815671162600&0&100300&300&boshzjjg&
20071030020100497563&7WM8G9OO3HAZIQ0Y&20200710&02000016&1813730190518&1813730190518&0&50150&150&boshzjjg&
20071030020100497674&2ZCZ6F9R73RQNNG5&20200710&02000016&1815100500891&1815100500891&0&10030&30&boshzjjg&
20071030020100497572&WOLE14B9O7Z95HTT&20200710&02000016&1818730588858&1818730588858&0&10030&30&boshzjjg&
20071030020100497679&FL7MJM4LFZEDHWUV&20200710&02000016&1818931441806&1818931441806&0&10030&30&boshzjjg&
20071030020100497680&VWVSRZ5BZ0T7JC1I&20200710&02000016&1818855897042&1818855897042&0&40120&120&boshzjjg&
20071030020100497578&WU1Y0X6EHETFXLX9&20200710&02000016&1818934819900&1818934819900&0&20060&60&boshzjjg&
20071030020100497609&VPBH06CQXL61E004&20200710&02000016&1800100000046&1800100000046&0&1003&3&boshzjjg&
20071030020100497856&7O8XVI01Q975QQZX&20200710&02000016&1813889877508&1813889877508&0&30090&90&boshzjjg&
20071030020100497764&0YTLBZW8F6KCCAP4&20200710&02000016&1813895018416&1813895018416&0&40120&120&boshzjjg&
20071030020100497863&QNORFO35ILUCA5Y2&20200710&02000016&1813633226787&1813633226787&0&1504&4&boshzjjg&
20071030020100497978&0RB7U9BQ8IIGDT1E&20200710&02000016&1813082360764&1813082360764&0&40120&120&boshzjjg&
20071030020100498000&B7ZFUJSRAT2V0J5E&20200710&02000016&1818967335077&1818967335077&0&50150&150&boshzjjg&
20071030020100497820&ZFMRRBSETC6ZJOIU&20200710&02000016&1815614976824&1815614976824&0&50150&150&boshzjjg&
20071030020100497919&YS8WCOKOGAS0YU2M&20200710&02000016&1818731521085&1818731521085&0&50150&150&boshzjjg&
20071030020100497826&DKTYYFJIBDB6KHJE&20200710&02000016&1815368684150&1815368684150&0&3009&9&boshzjjg&
20071030020100497828&E34118A3NV5QLCKU&20200710&02000016&1813603225419&1813603225419&0&80240&240&boshzjjg&
20071030020100498013&8WW4YYG2TCP4VGVY&20200710&02000016&1815246290569&1815246290569&0&70210&210&boshzjjg&
20071030020100497925&6D3FU720GBYMYXXC&20200710&02000016&1815803121080&1815803121080&0&60180&180&boshzjjg&
20071030020100497927&UCT9NNLJP0BGH3LV&20200710&02000016&1818846735652&1818846735652&0&100300&300&boshzjjg&
20071030020100497928&O9GRYAY0DLG2W06G&20200710&02000016&1813903128392&1813903128392&0&70210&210&boshzjjg&
20071030020100498018&0A56JKIDU2EPI5ZB&20200710&02000016&1815803121616&1815803121616&0&70210&210&boshzjjg&
20071030020100497830&4YNAGXE7CAVXHQFW&20200710&02000016&1813349569303&1813349569303&0&10030&30&boshzjjg&
20071030020100498041&SDYJF1KN5QRY2YCS&20200710&02000016&1813091257294&1813091257294&0&50150&150&boshzjjg&
20071030020100498047&8ZCDXTKOEXZFOHDX&20200710&02000016&1813315272938&1813315272938&0&60180&180&boshzjjg&
20071030020100498051&2X6ZBEBI3IVI5VW0&20200710&02000016&1815830265369&1815830265369&0&70210&210&boshzjjg&
20071030020100498067&JCMIMIN4QXBLGW6K&20200710&02000016&1813576268031&1813576268031&0&4513540&13540&boshzjjg&
20071030020100498162&UC9T0OVOVE1XLN97&20200710&02000016&1813576268031&1813576268031&0&4513540&13540&boshzjjg&
20071030020100498261&CCTWGNNKD4RVHHKQ&20200710&02000016&1813576268031&1813576268031&0&4513540&13540&boshzjjg&
20071030020100498262&XJ7EPFE4TMGV4QNC&20200710&02000016&1818049119039&1818049119039&0&4513540&13540&boshzjjg&
20071030020100498263&LDBDBKQRXOGHW9X2&20200710&02000016&1813576268031&1813576268031&0&4513540&13540&boshzjjg&
20071030020100498068&J1NZXA3J8HWX8Q4H&20200710&02000016&1813576268031&1813576268031&0&4513540&13540&boshzjjg&
20071030020100498264&1L7RUMB4TOH6DVKK&20200710&02000016&1818049119039&1818049119039&0&4513540&13540&boshzjjg&
20071030020100498163&G6D60YZCJFC11BVM&20200710&02000016&1813576268031&1813576268031&0&4513540&13540&boshzjjg&
20071030020100498265&CSCVHGQ236REZH00&20200710&02000016&1818049119039&1818049119039&0&4513540&13540&boshzjjg&
20071030020100498266&ZY7XYHCSTHVAVKVM&20200710&02000016&1813576268031&1813576268031&0&4513540&13540&boshzjjg&
20071030020100498267&3B30A2F7U6FJD3LY&20200710&02000016&1818049119039&1818049119039&0&4513540&13540&boshzjjg&
20071030020100498069&37SLKE7ARKAPSSJB&20200710&02000016&1813576268031&1813576268031&0&4513540&13540&boshzjjg&
20071030020100498164&MPHOG95L4HU5TJZP&20200710&02000016&1818049119039&1818049119039&0&4513540&13540&boshzjjg&
20071030020100498165&5HR4NXFTYWSZO4PI&20200710&02000016&1813576268031&1813576268031&0&4012036&12036&boshzjjg&
20071030020100498166&74L6XHLW4TGZ3T6H&20200710&02000016&1818049119039&1818049119039&0&4513540&13540&boshzjjg&
20071030020100498070&U2LIH7EWK0EOJCR5&20200710&02000016&1818049119039&1818049119039&0&4513540&13540&boshzjjg&
20071030020100498071&F61HU6L3LQ3K96SG&20200710&02000016&1818049119039&1818049119039&0&4513540&13540&boshzjjg&
20071030020100498269&LL0I4XD1EDXX1XJO&20200710&02000016&1818049119039&1818049119039&0&3009027&9027&boshzjjg&
20071030020100498072&3NBG630UY07YEFGF&20200710&02000016&1813576268031&1813576268031&0&4513540&13540&boshzjjg&
20071030020100498073&1UY9VDPPN4RD6X34&20200710&02000016&1813992529265&1813992529265&0&30090&90&boshzjjg&
20071030020100498167&XHU6XXDFGY3NBIYD&20200710&02000016&1813576268031&1813576268031&0&4513540&13540&boshzjjg&
20071030020100498169&E9LO1QJTVSJ4Y3Z2&20200710&02000016&1813576268031&1813576268031&0&2006018&6018&boshzjjg&
20071030020100498277&NHFI1D8QC4A7JWZB&20200710&02000016&1817642059933&1817642059933&0&100300&300&boshzjjg&
20071030020100498081&03RY0M25ZX8GICEV&20200710&02000016&1813220168777&1813220168777&0&10030&30&boshzjjg&
20071030020100498180&ZCKTK229BO8RAG6J&20200710&02000016&1813161708337&1813161708337&0&20060&60&boshzjjg&
