20200601|02000016|91216415|1818834581128|1818834581128|20200511000080|B3UHWVR2|1|0|18600|18600|10|0|0|558|0|0|0|0|0|0|1|0|0|20200601151415
20200601|02000016|91216413|1815238108000|1815238108000|20200511000080|B3UHWVR2|1|0|18600|18600|10|0|0|558|0|0|0|0|0|0|1|0|0|20200601150519
20200601|02000016|91216322|1813603225419|1813603225419|20200511000080|B3UHWVR2|1|0|18600|18600|10|0|0|558|0|0|0|0|0|0|1|0|0|20200601145908
20200601|02000016|91216259|1813687258341|1813687258341|20200511000080|B3UHWVR2|1|0|18600|18600|10|0|0|558|0|0|0|0|0|0|1|0|0|20200601145510
20200601|02000016|91216205|1815232267540|1815232267540|20200511000080|B3UHWVR2|1|0|18600|18600|10|0|0|558|0|0|0|0|0|0|1|0|0|20200601145307
20200601|02000016|91216182|1815869087947|1815869087947|20200511000080|B3UHWVR2|1|0|18600|18600|10|0|0|558|0|0|0|0|0|0|1|0|0|20200601145226
20200601|02000016|91216167|1813949280669|1813949280669|20200511000080|B3UHWVR2|1|0|18600|18600|10|0|0|558|0|0|0|0|0|0|1|0|0|20200601144446
20200601|02000016|91216166|1813933229549|1813933229549|20200511000080|B3UHWVR2|1|0|18600|18600|10|0|0|558|0|0|0|0|0|0|1|0|0|20200601144349
20200601|02000016|91216165|1813840385547|1813840385547|20200511000080|B3UHWVR2|1|0|18600|18600|10|0|0|558|0|0|0|0|0|0|1|0|0|20200601144335
20200601|02000016|91216161|1813831231957|1813831231957|20200511000080|B3UHWVR2|1|0|18600|18600|10|0|0|558|0|0|0|0|0|0|1|0|0|20200601144303
20200601|02000016|91216154|1819931286513|1819931286513|20200511000080|B3UHWVR2|1|0|18600|18600|10|0|0|558|0|0|0|0|0|0|1|0|0|20200601144038
20200601|02000016|91216153|1818787552261|1818787552261|20200511000080|B3UHWVR2|1|0|18600|18600|10|0|0|558|0|0|0|0|0|0|1|0|0|20200601143708
20200601|02000016|91216140|1813998824209|1813998824209|20200511000080|B3UHWVR2|1|0|18600|18600|10|0|0|558|0|0|0|0|0|0|1|0|0|20200601143628
20200601|02000016|91216128|1818687924557|1818687924557|20200511000080|B3UHWVR2|1|0|18600|18600|5|0|0|279|0|0|0|0|0|0|1|0|0|20200601143548
20200601|02000016|91216127|1813578173185|1813578173185|20200511000080|B3UHWVR2|1|0|18600|18600|10|0|0|558|0|0|0|0|0|0|1|0|0|20200601143531
20200601|02000016|91216107|1815038169553|1815038169553|20200511000080|B3UHWVR2|1|0|18600|18600|10|0|0|558|0|0|0|0|0|0|1|0|0|20200601142357
20200601|02000016|91216102|1818103221322|1818103221322|20200511000080|B3UHWVR2|1|0|18600|18600|10|0|0|558|0|0|0|0|0|0|1|0|0|20200601142321
20200601|02000016|91216101|1818714555279|1818714555279|20200511000080|B3UHWVR2|1|0|18600|18600|10|0|0|558|0|0|0|0|0|0|1|0|0|20200601142259
20200601|02000016|91216100|1815288130560|1815288130560|20200511000080|B3UHWVR2|1|0|18600|18600|10|0|0|558|0|0|0|0|0|0|1|0|0|20200601142144
20200601|02000016|91216099|1813080797290|1813080797290|20200511000080|B3UHWVR2|1|0|18600|18600|10|0|0|558|0|0|0|0|0|0|1|0|0|20200601142120
20200601|02000016|91216098|1813578286883|1813578286883|20200511000080|B3UHWVR2|1|0|18600|18600|10|0|0|558|0|0|0|0|0|0|1|0|0|20200601141931
20200601|02000016|91216093|1813909852916|1813909852916|20200511000080|B3UHWVR2|1|0|18600|18600|10|0|0|558|0|0|0|0|0|0|1|0|0|20200601141749
20200601|02000016|91216092|1815925589060|1815925589060|20200511000080|B3UHWVR2|1|0|18600|18600|10|0|0|558|0|0|0|0|0|0|1|0|0|20200601141605
20200601|02000016|91216091|1817503250596|1817503250596|20200511000080|B3UHWVR2|1|0|18600|18600|10|0|0|558|0|0|0|0|0|0|1|0|0|20200601141550
20200601|02000016|91216090|1818206761891|1818206761891|20200511000080|B3UHWVR2|1|0|18600|18600|10|0|0|558|0|0|0|0|0|0|1|0|0|20200601141541
20200601|02000016|91216089|1813578273333|1813578273333|20200511000080|B3UHWVR2|1|0|18600|18600|10|0|0|558|0|0|0|0|0|0|1|0|0|20200601141527
20200601|02000016|91216085|1813870832718|1813870832718|20200511000080|B3UHWVR2|1|0|18600|18600|10|0|0|558|0|0|0|0|0|0|1|0|0|20200601141459
20200601|02000016|91216082|1818164319032|1818164319032|20200511000080|B3UHWVR2|1|0|18600|18600|10|0|0|558|0|0|0|0|0|0|1|0|0|20200601140523
20200601|02000016|91216074|1818855897042|1818855897042|20200511000080|B3UHWVR2|1|0|18600|18600|10|0|0|558|0|0|0|0|0|0|1|0|0|20200601140352
20200601|02000016|91216073|1815671162600|1815671162600|20200511000080|B3UHWVR2|1|0|18600|18600|10|0|0|558|0|0|0|0|0|0|1|0|0|20200601140343
20200601|02000016|91216069|1813190040355|1813190040355|20200511000080|B3UHWVR2|1|0|18600|18600|10|0|0|558|0|0|0|0|0|0|1|0|0|20200601140236
20200601|02000016|91216067|1818987517957|1818987517957|20200511000080|B3UHWVR2|1|0|18600|18600|10|0|0|558|0|0|0|0|0|0|1|0|0|20200601135917
20200601|02000016|91216059|1815130317528|1815130317528|20200511000080|B3UHWVR2|1|0|18600|18600|10|0|0|558|0|0|0|0|0|0|1|0|0|20200601135132
20200601|02000016|91216058|1813555887026|1813555887026|20200511000080|B3UHWVR2|1|0|18600|18600|10|0|0|558|0|0|0|0|0|0|1|0|0|20200601135036
20200601|02000016|91216046|1818696301799|1818696301799|20200511000080|B3UHWVR2|1|0|18600|18600|10|0|0|558|0|0|0|0|0|0|1|0|0|20200601134826
20200601|02000016|91216042|1815029688272|1815029688272|20200511000080|B3UHWVR2|1|0|18600|18600|10|0|0|558|0|0|0|0|0|0|1|0|0|20200601134710
20200601|02000016|91216041|1813472258980|1813472258980|20200511000080|B3UHWVR2|1|0|18600|18600|10|0|0|558|0|0|0|0|0|0|1|0|0|20200601134417
20200601|02000016|91216040|1815331520336|1815331520336|20200511000080|B3UHWVR2|1|0|18600|18600|10|0|0|558|0|0|0|0|0|0|1|0|0|20200601134328
20200601|02000016|91216039|1818132222901|1818132222901|20200511000080|B3UHWVR2|1|0|18600|18600|10|0|0|558|0|0|0|0|0|0|1|0|0|20200601134258
20200601|02000016|91216038|1813661262290|1813661262290|20200511000080|B3UHWVR2|1|0|18600|18600|10|0|0|558|0|0|0|0|0|0|1|0|0|20200601134257
20200601|02000016|91216036|1815592260808|1815592260808|20200511000080|B3UHWVR2|1|0|18600|18600|10|0|0|558|0|0|0|0|0|0|1|0|0|20200601134037
20200601|02000016|91216029|1813597431025|1813597431025|20200511000080|B3UHWVR2|1|0|18600|18600|10|0|0|558|0|0|0|0|0|0|1|0|0|20200601133816
20200601|02000016|91216025|1818164754119|1818164754119|20200511000080|B3UHWVR2|1|0|18600|18600|10|0|0|558|0|0|0|0|0|0|1|0|0|20200601133751
20200601|02000016|91216024|1813385213554|1813385213554|20200511000080|B3UHWVR2|1|0|18600|18600|10|0|0|558|0|0|0|0|0|0|1|0|0|20200601133705
20200601|02000016|91216023|1815586314943|1815586314943|20200511000080|B3UHWVR2|1|0|18600|18600|10|0|0|558|0|0|0|0|0|0|1|0|0|20200601133704
20200601|02000016|91216022|1815170031559|1815170031559|20200511000080|B3UHWVR2|1|0|18600|18600|10|0|0|558|0|0|0|0|0|0|1|0|0|20200601133640
20200601|02000016|91216021|1813767188659|1813767188659|20200511000080|B3UHWVR2|1|0|18600|18600|10|0|0|558|0|0|0|0|0|0|1|0|0|20200601133618
20200601|02000016|91216019|1813320119811|1813320119811|20200511000080|B3UHWVR2|1|0|18600|18600|10|0|0|558|0|0|0|0|0|0|1|0|0|20200601133544
20200601|02000016|91216012|1817167993679|1817167993679|20200511000080|B3UHWVR2|1|0|18600|18600|10|0|0|558|0|0|0|0|0|0|1|0|0|20200601133401
20200601|02000016|91216008|1813703227331|1813703227331|20200511000080|B3UHWVR2|1|0|18600|18600|10|0|0|558|0|0|0|0|0|0|1|0|0|20200601133224
20200601|02000016|91216003|1817845057266|1817845057266|20200511000080|B3UHWVR2|1|0|18600|18600|10|0|0|558|0|0|0|0|0|0|1|0|0|20200601133017
20200601|02000016|91216002|1813584278719|1813584278719|20200511000080|B3UHWVR2|1|0|18600|18600|10|0|0|558|0|0|0|0|0|0|1|0|0|20200601132935
20200601|02000016|91215995|1815634310189|1815634310189|20200511000080|B3UHWVR2|1|0|18600|18600|10|0|0|558|0|0|0|0|0|0|1|0|0|20200601132715
20200601|02000016|91215994|1813470525576|1813470525576|20200511000080|B3UHWVR2|1|0|18600|18600|10|0|0|558|0|0|0|0|0|0|1|0|0|20200601132617
20200601|02000016|91215993|1818962060606|1818962060606|20200511000080|B3UHWVR2|1|0|18600|18600|9|0|0|502|0|0|0|0|0|0|1|0|0|20200601132511
20200601|02000016|91215992|1813555718863|1813555718863|20200511000080|B3UHWVR2|1|0|18600|18600|10|0|0|558|0|0|0|0|0|0|1|0|0|20200601132441
20200601|02000016|91215991|1815042400515|1815042400515|20200511000080|B3UHWVR2|1|0|18600|18600|10|0|0|558|0|0|0|0|0|0|1|0|0|20200601132357
20200601|02000016|91215990|1818962060606|1818962060606|20200511000080|B3UHWVR2|1|0|18600|18600|1|0|0|55|0|0|0|0|0|0|1|0|0|20200601132337
20200601|02000016|91215989|1800100000114|1800100000114|20200511000080|B3UHWVR2|1|0|18600|18600|10|0|0|558|0|0|0|0|0|0|1|0|0|20200601132041
20200601|02000016|91215988|1815245431805|1815245431805|20200511000080|B3UHWVR2|1|0|18600|18600|10|0|0|558|0|0|0|0|0|0|1|0|0|20200601132034
20200601|02000016|91215984|1815140671196|1815140671196|20200511000080|B3UHWVR2|1|0|18600|18600|10|0|0|558|0|0|0|0|0|0|1|0|0|20200601131821
20200601|02000016|91215983|1813638362781|1813638362781|20200511000080|B3UHWVR2|1|0|18600|18600|10|0|0|558|0|0|0|0|0|0|1|0|0|20200601131729
20200601|02000016|91215982|1815830799079|1815830799079|20200511000080|B3UHWVR2|1|0|18600|18600|10|0|0|558|0|0|0|0|0|0|1|0|0|20200601131259
20200601|02000016|91215976|1813312795959|1813312795959|20200511000080|B3UHWVR2|1|0|18600|18600|10|0|0|558|0|0|0|0|0|0|1|0|0|20200601130658
20200601|02000016|91215975|1818889422056|1818889422056|20200511000080|B3UHWVR2|1|0|18600|18600|10|0|0|558|0|0|0|0|0|0|1|0|0|20200601130637
20200601|02000016|91215974|1813378816227|1813378816227|20200511000080|B3UHWVR2|1|0|18600|18600|10|0|0|558|0|0|0|0|0|0|1|0|0|20200601130605
20200601|02000016|91215973|1813313124191|1813313124191|20200511000080|B3UHWVR2|1|0|18600|18600|10|0|0|558|0|0|0|0|0|0|1|0|0|20200601130505
20200601|02000016|91215972|1813545997023|1813545997023|20200511000080|B3UHWVR2|1|0|18600|18600|10|0|0|558|0|0|0|0|0|0|1|0|0|20200601130500
20200601|02000016|91215971|1818976770088|1818976770088|20200511000080|B3UHWVR2|1|0|18600|18600|10|0|0|558|0|0|0|0|0|0|1|0|0|20200601130449
20200601|02000016|91215970|1818669281955|1818669281955|20200511000080|B3UHWVR2|1|0|18600|18600|10|0|0|558|0|0|0|0|0|0|1|0|0|20200601130423
20200601|02000016|91215969|1813330594491|1813330594491|20200511000080|B3UHWVR2|1|0|18600|18600|10|0|0|558|0|0|0|0|0|0|1|0|0|20200601130302
20200601|02000016|91215926|1813330093627|1813330093627|20200511000080|B3UHWVR2|1|0|18600|18600|10|0|0|558|0|0|0|0|0|0|1|0|0|20200601112921
20200601|02000016|91215911|1813131233580|1813131233580|20200511000080|B3UHWVR2|1|0|18600|18600|10|0|0|558|0|0|0|0|0|0|1|0|0|20200601112800
20200601|02000016|91215907|1818313096871|1818313096871|20200511000080|B3UHWVR2|1|0|18600|18600|10|0|0|558|0|0|0|0|0|0|1|0|0|20200601112618
20200601|02000016|91215906|1813515799998|1813515799998|20200511000080|B3UHWVR2|1|0|18600|18600|10|0|0|558|0|0|0|0|0|0|1|0|0|20200601112522
20200601|02000016|91215904|1818945765909|1818945765909|20200511000080|B3UHWVR2|1|0|18600|18600|10|0|0|558|0|0|0|0|0|0|1|0|0|20200601111626
20200601|02000016|91215903|1818606548783|1818606548783|20200511000080|B3UHWVR2|1|0|18600|18600|10|0|0|558|0|0|0|0|0|0|1|0|0|20200601111556
20200601|02000016|91215898|1815631163200|1815631163200|20200511000080|B3UHWVR2|1|0|18600|18600|10|0|0|558|0|0|0|0|0|0|1|0|0|20200601111457
20200601|02000016|91215897|1813733371391|1813733371391|20200511000080|B3UHWVR2|1|0|18600|18600|10|0|0|558|0|0|0|0|0|0|1|0|0|20200601111446
20200601|02000016|91215893|1818630239398|1818630239398|20200511000080|B3UHWVR2|1|0|18600|18600|10|0|0|558|0|0|0|0|0|0|1|0|0|20200601111216
20200601|02000016|91215892|1818631228121|1818631228121|20200511000080|B3UHWVR2|1|0|18600|18600|10|0|0|558|0|0|0|0|0|0|1|0|0|20200601111131
20200601|02000016|91215891|1815087942456|1815087942456|20200511000080|B3UHWVR2|1|0|18600|18600|10|0|0|558|0|0|0|0|0|0|1|0|0|20200601111025
20200601|02000016|91215887|1818757332390|1818757332390|20200511000080|B3UHWVR2|1|0|18600|18600|10|0|0|558|0|0|0|0|0|0|1|0|0|20200601110955
20200601|02000016|91215886|1813909114265|1813909114265|20200511000080|B3UHWVR2|1|0|18600|18600|10|0|0|558|0|0|0|0|0|0|1|0|0|20200601110819
20200601|02000016|91215885|1813904881393|1813904881393|20200511000080|B3UHWVR2|1|0|18600|18600|10|0|0|558|0|0|0|0|0|0|1|0|0|20200601110706
20200601|02000016|91215884|1813946779996|1813946779996|20200511000080|B3UHWVR2|1|0|18600|18600|2|0|0|111|0|0|0|0|0|0|1|0|0|20200601110614
20200601|02000016|91215883|1818645566467|1818645566467|20200511000080|B3UHWVR2|1|0|18600|18600|10|0|0|558|0|0|0|0|0|0|1|0|0|20200601110510
20200601|02000016|91215882|1813593926195|1813593926195|20200511000080|B3UHWVR2|1|0|18600|18600|10|0|0|558|0|0|0|0|0|0|1|0|0|20200601110432
20200601|02000016|91215880|1818849824156|1818849824156|20200511000080|B3UHWVR2|1|0|18600|18600|10|0|0|558|0|0|0|0|0|0|1|0|0|20200601110231
20200601|02000016|91215879|1818131276206|1818131276206|20200511000080|B3UHWVR2|1|0|18600|18600|10|0|0|558|0|0|0|0|0|0|1|0|0|20200601110219
20200601|02000016|91215878|1813035944756|1813035944756|20200511000080|B3UHWVR2|1|0|18600|18600|10|0|0|558|0|0|0|0|0|0|1|0|0|20200601110108
20200601|02000016|91215877|1815334465219|1815334465219|20200511000080|B3UHWVR2|1|0|18600|18600|10|0|0|558|0|0|0|0|0|0|1|0|0|20200601110011
20200601|02000016|91215866|1815907052137|1815907052137|20200511000080|B3UHWVR2|1|0|18600|18600|10|0|0|558|0|0|0|0|0|0|1|0|0|20200601105813
20200601|02000016|91215864|1818788201666|1818788201666|20200511000080|B3UHWVR2|1|0|18600|18600|10|0|0|558|0|0|0|0|0|0|1|0|0|20200601105739
20200601|02000016|91215863|1815879317904|1815879317904|20200511000080|B3UHWVR2|1|0|18600|18600|10|0|0|558|0|0|0|0|0|0|1|0|0|20200601105718
20200601|02000016|91215859|1818220730920|1818220730920|20200511000080|B3UHWVR2|1|0|18600|18600|10|0|0|558|0|0|0|0|0|0|1|0|0|20200601105644
20200601|02000016|91215858|1818923668819|1818923668819|20200511000080|B3UHWVR2|1|0|18600|18600|10|0|0|558|0|0|0|0|0|0|1|0|0|20200601105623
20200601|02000016|91215854|1815070002292|1815070002292|20200511000080|B3UHWVR2|1|0|18600|18600|10|0|0|558|0|0|0|0|0|0|1|0|0|20200601105508
20200601|02000016|91215847|1818045505586|1818045505586|20200511000080|B3UHWVR2|1|0|18600|18600|10|0|0|558|0|0|0|0|0|0|1|0|0|20200601105055
20200601|02000016|91215846|1818979143369|1818979143369|20200511000080|B3UHWVR2|1|0|18600|18600|10|0|0|558|0|0|0|0|0|0|1|0|0|20200601104944
20200601|02000016|91215842|1813576284540|1813576284540|20200511000080|B3UHWVR2|1|0|18600|18600|10|0|0|558|0|0|0|0|0|0|1|0|0|20200601104921
20200601|02000016|91215841|1815907005758|1815907005758|20200511000080|B3UHWVR2|1|0|18600|18600|10|0|0|558|0|0|0|0|0|0|1|0|0|20200601104830
20200601|02000016|91215840|1813628842075|1813628842075|20200511000080|B3UHWVR2|1|0|18600|18600|10|0|0|558|0|0|0|0|0|0|1|0|0|20200601104600
20200601|02000016|91215839|1800100000040|1800100000040|20200511000080|B3UHWVR2|1|0|18600|18600|10|0|0|558|0|0|0|0|0|0|1|0|0|20200601104538
20200601|02000016|91215832|1815204689694|1815204689694|20200511000080|B3UHWVR2|1|0|18600|18600|10|0|0|558|0|0|0|0|0|0|1|0|0|20200601104353
20200601|02000016|91215827|1815188947714|1815188947714|20200511000080|B3UHWVR2|1|0|18600|18600|10|0|0|558|0|0|0|0|0|0|1|0|0|20200601104014
20200601|02000016|91215826|1818663100939|1818663100939|20200511000080|B3UHWVR2|1|0|18600|18600|10|0|0|558|0|0|0|0|0|0|1|0|0|20200601103804
20200601|02000016|91215825|1818987916981|1818987916981|20200511000080|B3UHWVR2|1|0|18600|18600|10|0|0|558|0|0|0|0|0|0|1|0|0|20200601103711
20200601|02000016|91215824|1815303121880|1815303121880|20200511000080|B3UHWVR2|1|0|18600|18600|10|0|0|558|0|0|0|0|0|0|1|0|0|20200601103630
20200601|02000016|91215820|1813903228890|1813903228890|20200511000080|B3UHWVR2|1|0|18600|18600|10|0|0|558|0|0|0|0|0|0|1|0|0|20200601103015
20200601|02000016|91215819|1818908826659|1818908826659|20200511000080|B3UHWVR2|1|0|18600|18600|10|0|0|558|0|0|0|0|0|0|1|0|0|20200601103009
20200601|02000016|91215818|1815972280790|1815972280790|20200511000080|B3UHWVR2|1|0|18600|18600|10|0|0|558|0|0|0|0|0|0|1|0|0|20200601102947
20200601|02000016|91215817|1813908813212|1813908813212|20200511000080|B3UHWVR2|1|0|18600|18600|10|0|0|558|0|0|0|0|0|0|1|0|0|20200601102753
20200601|02000016|91215815|1815840520719|1815840520719|20200511000080|B3UHWVR2|1|0|18600|18600|10|0|0|558|0|0|0|0|0|0|1|0|0|20200601102638
20200601|02000016|91215811|1815512532000|1815512532000|20200511000080|B3UHWVR2|1|0|18600|18600|10|0|0|558|0|0|0|0|0|0|1|0|0|20200601102620
20200601|02000016|91215810|1813368815583|1813368815583|20200511000080|B3UHWVR2|1|0|18600|18600|10|0|0|558|0|0|0|0|0|0|1|0|0|20200601102552
20200601|02000016|91215809|1800100000081|1800100000081|20200511000080|B3UHWVR2|1|0|18600|18600|10|0|0|558|0|0|0|0|0|0|1|0|0|20200601102505
20200601|02000016|91215808|1818674148199|1818674148199|20200511000080|B3UHWVR2|1|0|18600|18600|10|0|0|558|0|0|0|0|0|0|1|0|0|20200601102456
20200601|02000016|91215801|1818674146599|1818674146599|20200511000080|B3UHWVR2|1|0|18600|18600|10|0|0|558|0|0|0|0|0|0|1|0|0|20200601102332
20200601|02000016|91215799|1815837935868|1815837935868|20200511000080|B3UHWVR2|1|0|18600|18600|10|0|0|558|0|0|0|0|0|0|1|0|0|20200601102307
20200601|02000016|91215798|1818002496102|1818002496102|20200511000080|B3UHWVR2|1|0|18600|18600|10|0|0|558|0|0|0|0|0|0|1|0|0|20200601102304
20200601|02000016|91215797|1813559965824|1813559965824|20200511000080|B3UHWVR2|1|0|18600|18600|10|0|0|558|0|0|0|0|0|0|1|0|0|20200601102301
20200601|02000016|91215793|1819187901601|1819187901601|20200511000080|B3UHWVR2|1|0|18600|18600|10|0|0|558|0|0|0|0|0|0|1|0|0|20200601102217
20200601|02000016|91215786|1813578198508|1813578198508|20200511000080|B3UHWVR2|1|0|18600|18600|10|0|0|558|0|0|0|0|0|0|1|0|0|20200601102004
20200601|02000016|91215779|1817346665892|1817346665892|20200511000080|B3UHWVR2|1|0|18600|18600|10|0|0|558|0|0|0|0|0|0|1|0|0|20200601101844
20200601|02000016|91215775|1813988266069|1813988266069|20200511000080|B3UHWVR2|1|0|18600|18600|10|0|0|558|0|0|0|0|0|0|1|0|0|20200601101830
20200601|02000016|91215768|1800100000032|1800100000032|20200511000080|B3UHWVR2|1|0|18600|18600|10|0|0|558|0|0|0|0|0|0|1|0|0|20200601101735
20200601|02000016|91215763|1813808788999|1813808788999|20200511000080|B3UHWVR2|1|0|18600|18600|10|0|0|558|0|0|0|0|0|0|1|0|0|20200601101710
20200601|02000016|91215755|1813770855951|1813770855951|20200511000080|B3UHWVR2|1|0|18600|18600|10|0|0|558|0|0|0|0|0|0|1|0|0|20200601101542
20200601|02000016|91215751|1800100000280|1800100000280|20200511000080|B3UHWVR2|1|0|18600|18600|10|0|0|558|0|0|0|0|0|0|1|0|0|20200601101427
20200601|02000016|91215750|1815368798533|1815368798533|20200511000080|B3UHWVR2|1|0|18600|18600|10|0|0|558|0|0|0|0|0|0|1|0|0|20200601101417
20200601|02000016|91215749|1813970022873|1813970022873|20200511000080|B3UHWVR2|1|0|18600|18600|10|0|0|558|0|0|0|0|0|0|1|0|0|20200601101400
20200601|02000016|91215741|1815033779933|1815033779933|20200511000080|B3UHWVR2|1|0|18600|18600|10|0|0|558|0|0|0|0|0|0|1|0|0|20200601101258
20200601|02000016|91215740|1800100000036|1800100000036|20200511000080|B3UHWVR2|1|0|18600|18600|10|0|0|558|0|0|0|0|0|0|1|0|0|20200601101257
20200601|02000016|91215739|1800100000328|1800100000328|20200511000080|B3UHWVR2|1|0|18600|18600|10|0|0|558|0|0|0|0|0|0|1|0|0|20200601101242
20200601|02000016|91215735|1818803125896|1818803125896|20200511000080|B3UHWVR2|1|0|18600|18600|10|0|0|558|0|0|0|0|0|0|1|0|0|20200601101223
20200601|02000016|91215731|1813887870390|1813887870390|20200511000080|B3UHWVR2|1|0|18600|18600|10|0|0|558|0|0|0|0|0|0|1|0|0|20200601101117
20200601|02000016|91215730|1813832256871|1813832256871|20200511000080|B3UHWVR2|1|0|18600|18600|10|0|0|558|0|0|0|0|0|0|1|0|0|20200601101103
20200601|02000016|91215729|1815870697192|1815870697192|20200511000080|B3UHWVR2|1|0|18600|18600|10|0|0|558|0|0|0|0|0|0|1|0|0|20200601101054
20200601|02000016|91215725|1813513061187|1813513061187|20200511000080|B3UHWVR2|1|0|18600|18600|10|0|0|558|0|0|0|0|0|0|1|0|0|20200601100957
20200601|02000016|91215724|1800100000347|1800100000347|20200511000080|B3UHWVR2|1|0|18600|18600|10|0|0|558|0|0|0|0|0|0|1|0|0|20200601100954
20200601|02000016|91215720|1800100000211|1800100000211|20200511000080|B3UHWVR2|1|0|18600|18600|10|0|0|558|0|0|0|0|0|0|1|0|0|20200601100916
20200601|02000016|91215716|1818103143885|1818103143885|20200511000080|B3UHWVR2|1|0|18600|18600|10|0|0|558|0|0|0|0|0|0|1|0|0|20200601100839
20200601|02000016|91215715|1815129878708|1815129878708|20200511000080|B3UHWVR2|1|0|18600|18600|10|0|0|558|0|0|0|0|0|0|1|0|0|20200601100838
20200601|02000016|91215711|1813224207506|1813224207506|20200511000080|B3UHWVR2|1|0|18600|18600|10|0|0|558|0|0|0|0|0|0|1|0|0|20200601100810
20200601|02000016|91215710|1813991898100|1813991898100|20200511000080|B3UHWVR2|1|0|18600|18600|10|0|0|558|0|0|0|0|0|0|1|0|0|20200601100727
20200601|02000016|91215706|1813324536769|1813324536769|20200511000080|B3UHWVR2|1|0|18600|18600|10|0|0|558|0|0|0|0|0|0|1|0|0|20200601100659
20200601|02000016|91215704|1818165273182|1818165273182|20200511000080|B3UHWVR2|1|0|18600|18600|10|0|0|558|0|0|0|0|0|0|1|0|0|20200601100611
20200601|02000016|91215700|1813870088638|1813870088638|20200511000080|B3UHWVR2|1|0|18600|18600|10|0|0|558|0|0|0|0|0|0|1|0|0|20200601100511
20200601|02000016|91215696|1815929113628|1815929113628|20200511000080|B3UHWVR2|1|0|18600|18600|10|0|0|558|0|0|0|0|0|0|1|0|0|20200601100443
20200601|02000016|91215695|1818088174982|1818088174982|20200511000080|B3UHWVR2|1|0|18600|18600|10|0|0|558|0|0|0|0|0|0|1|0|0|20200601100438
20200601|02000016|91215694|1815697705772|1815697705772|20200511000080|B3UHWVR2|1|0|18600|18600|10|0|0|558|0|0|0|0|0|0|1|0|0|20200601100430
20200601|02000016|91215693|1813807005654|1813807005654|20200511000080|B3UHWVR2|1|0|18600|18600|10|0|0|558|0|0|0|0|0|0|1|0|0|20200601100403
20200601|02000016|91215692|1813988267556|1813988267556|20200511000080|B3UHWVR2|1|0|18600|18600|10|0|0|558|0|0|0|0|0|0|1|0|0|20200601100358
20200601|02000016|91215690|1813669212329|1813669212329|20200511000080|B3UHWVR2|1|0|18600|18600|10|0|0|558|0|0|0|0|0|0|1|0|0|20200601100317
20200601|02000016|91215689|1813607918208|1813607918208|20200511000080|B3UHWVR2|1|0|18600|18600|10|0|0|558|0|0|0|0|0|0|1|0|0|20200601100309
20200601|02000016|91215682|1800100000345|1800100000345|20200511000080|B3UHWVR2|1|0|18600|18600|10|0|0|558|0|0|0|0|0|0|1|0|0|20200601100243
20200601|02000016|91215675|1818524494313|1818524494313|20200511000080|B3UHWVR2|1|0|18600|18600|10|0|0|558|0|0|0|0|0|0|1|0|0|20200601100143
20200601|02000016|91215674|1817784230052|1817784230052|20200511000080|B3UHWVR2|1|0|18600|18600|10|0|0|558|0|0|0|0|0|0|1|0|0|20200601100121
20200601|02000016|91215673|1818306969995|1818306969995|20200511000080|B3UHWVR2|1|0|18600|18600|10|0|0|558|0|0|0|0|0|0|1|0|0|20200601100110
20200601|02000016|91215669|1815806303064|1815806303064|20200511000080|B3UHWVR2|1|0|18600|18600|10|0|0|558|0|0|0|0|0|0|1|0|0|20200601100023
20200601|02000016|91215668|1813842006737|1813842006737|20200511000080|B3UHWVR2|1|0|18600|18600|10|0|0|558|0|0|0|0|0|0|1|0|0|20200601100014
20200601|02000016|91215663|1813887865192|1813887865192|20200511000080|B3UHWVR2|1|0|18600|18600|10|0|0|558|0|0|0|0|0|0|1|0|0|20200601095904
20200601|02000016|91215661|1813633226787|1813633226787|20200511000080|B3UHWVR2|1|0|18600|18600|10|0|0|558|0|0|0|0|0|0|1|0|0|20200601095830
20200601|02000016|91215660|1818760038371|1818760038371|20200511000080|B3UHWVR2|1|0|18600|18600|10|0|0|558|0|0|0|0|0|0|1|0|0|20200601095759
20200601|02000016|91215658|1818908820016|1818908820016|20200511000080|B3UHWVR2|1|0|18600|18600|10|0|0|558|0|0|0|0|0|0|1|0|0|20200601095743
20200601|02000016|91215657|1819187939328|1819187939328|20200511000080|B3UHWVR2|1|0|18600|18600|10|0|0|558|0|0|0|0|0|0|1|0|0|20200601095722
20200601|02000016|91215655|1818379168116|1818379168116|20200511000080|B3UHWVR2|1|0|18600|18600|10|0|0|558|0|0|0|0|0|0|1|0|0|20200601095659
20200601|02000016|91215651|1815903327688|1815903327688|20200511000080|B3UHWVR2|1|0|18600|18600|10|0|0|558|0|0|0|0|0|0|1|0|0|20200601095648
20200601|02000016|91215650|1813607095019|1813607095019|20200511000080|B3UHWVR2|1|0|18600|18600|10|0|0|558|0|0|0|0|0|0|1|0|0|20200601095644
20200601|02000016|91215649|1815771836378|1815771836378|20200511000080|B3UHWVR2|1|0|18600|18600|10|0|0|558|0|0|0|0|0|0|1|0|0|20200601095625
20200601|02000016|91215645|1813759236567|1813759236567|20200511000080|B3UHWVR2|1|0|18600|18600|10|0|0|558|0|0|0|0|0|0|1|0|0|20200601095613
20200601|02000016|91215644|1815117001128|1815117001128|20200511000080|B3UHWVR2|1|0|18600|18600|10|0|0|558|0|0|0|0|0|0|1|0|0|20200601095556
20200601|02000016|91215643|1815333221709|1815333221709|20200511000080|B3UHWVR2|1|0|18600|18600|10|0|0|558|0|0|0|0|0|0|1|0|0|20200601095554
20200601|02000016|91215639|1813335339191|1813335339191|20200511000080|B3UHWVR2|1|0|18600|18600|10|0|0|558|0|0|0|0|0|0|1|0|0|20200601095520
20200601|02000016|91215638|1813388823626|1813388823626|20200511000080|B3UHWVR2|1|0|18600|18600|10|0|0|558|0|0|0|0|0|0|1|0|0|20200601095511
20200601|02000016|91215634|1813992186412|1813992186412|20200511000080|B3UHWVR2|1|0|18600|18600|10|0|0|558|0|0|0|0|0|0|1|0|0|20200601095454
20200601|02000016|91215632|1800100000140|1800100000140|20200511000080|B3UHWVR2|1|0|18600|18600|10|0|0|558|0|0|0|0|0|0|1|0|0|20200601095445
20200601|02000016|91215631|1818987916256|1818987916256|20200511000080|B3UHWVR2|1|0|18600|18600|10|0|0|558|0|0|0|0|0|0|1|0|0|20200601095436
20200601|02000016|91215627|1813946835654|1813946835654|20200511000080|B3UHWVR2|1|0|18600|18600|10|0|0|558|0|0|0|0|0|0|1|0|0|20200601095353
20200601|02000016|91215626|1813767977037|1813767977037|20200511000080|B3UHWVR2|1|0|18600|18600|10|0|0|558|0|0|0|0|0|0|1|0|0|20200601095347
20200601|02000016|91215625|1800100000189|1800100000189|20200511000080|B3UHWVR2|1|0|18600|18600|10|0|0|558|0|0|0|0|0|0|1|0|0|20200601095331
20200601|02000016|91215618|1818846735652|1818846735652|20200511000080|B3UHWVR2|1|0|18600|18600|10|0|0|558|0|0|0|0|0|0|1|0|0|20200601095307
20200601|02000016|91215617|1818788207781|1818788207781|20200511000080|B3UHWVR2|1|0|18600|18600|10|0|0|558|0|0|0|0|0|0|1|0|0|20200601095304
20200601|02000016|91215616|1815187700939|1815187700939|20200511000080|B3UHWVR2|1|0|18600|18600|10|0|0|558|0|0|0|0|0|0|1|0|0|20200601095239
20200601|02000016|91215615|1813163743109|1813163743109|20200511000080|B3UHWVR2|1|0|18600|18600|10|0|0|558|0|0|0|0|0|0|1|0|0|20200601095236
20200601|02000016|91215614|1800100000050|1800100000050|20200511000080|B3UHWVR2|1|0|18600|18600|10|0|0|558|0|0|0|0|0|0|1|0|0|20200601095233
20200601|02000016|91215612|1800100000107|1800100000107|20200511000080|B3UHWVR2|1|0|18600|18600|10|0|0|558|0|0|0|0|0|0|1|0|0|20200601095224
20200601|02000016|91215602|1813237785798|1813237785798|20200511000080|B3UHWVR2|1|0|18600|18600|10|0|0|558|0|0|0|0|0|0|1|0|0|20200601095117
20200601|02000016|91215601|1800100000034|1800100000034|20200511000080|B3UHWVR2|1|0|18600|18600|10|0|0|558|0|0|0|0|0|0|1|0|0|20200601095116
20200601|02000016|91215600|1818306924682|1818306924682|20200511000080|B3UHWVR2|1|0|18600|18600|10|0|0|558|0|0|0|0|0|0|1|0|0|20200601095055
20200601|02000016|91215599|1813555055525|1813555055525|20200511000080|B3UHWVR2|1|0|18600|18600|10|0|0|558|0|0|0|0|0|0|1|0|0|20200601095017
20200601|02000016|91215595|1815974969450|1815974969450|20200511000080|B3UHWVR2|1|0|18600|18600|10|0|0|558|0|0|0|0|0|0|1|0|0|20200601095004
20200601|02000016|91215588|1813897985407|1813897985407|20200511000080|B3UHWVR2|1|0|18600|18600|10|0|0|558|0|0|0|0|0|0|1|0|0|20200601094936
20200601|02000016|91215582|1815087509852|1815087509852|20200511000080|B3UHWVR2|1|0|18600|18600|10|0|0|558|0|0|0|0|0|0|1|0|0|20200601094820
20200601|02000016|91215580|1813766708898|1813766708898|20200511000080|B3UHWVR2|1|0|18600|18600|10|0|0|558|0|0|0|0|0|0|1|0|0|20200601094753
20200601|02000016|91215579|1813486694384|1813486694384|20200511000080|B3UHWVR2|1|0|18600|18600|10|0|0|558|0|0|0|0|0|0|1|0|0|20200601094750
20200601|02000016|91215578|1818645566788|1818645566788|20200511000080|B3UHWVR2|1|0|18600|18600|10|0|0|558|0|0|0|0|0|0|1|0|0|20200601094747
20200601|02000016|91215571|1813388758398|1813388758398|20200511000080|B3UHWVR2|1|0|18600|18600|10|0|0|558|0|0|0|0|0|0|1|0|0|20200601094711
20200601|02000016|91215567|1815031298030|1815031298030|20200511000080|B3UHWVR2|1|0|18600|18600|10|0|0|558|0|0|0|0|0|0|1|0|0|20200601094642
20200601|02000016|91215562|1813796445877|1813796445877|20200511000080|B3UHWVR2|1|0|18600|18600|10|0|0|558|0|0|0|0|0|0|1|0|0|20200601094636
20200601|02000016|91215555|1815287565721|1815287565721|20200511000080|B3UHWVR2|1|0|18600|18600|10|0|0|558|0|0|0|0|0|0|1|0|0|20200601094620
20200601|02000016|91215554|1815690228885|1815690228885|20200511000080|B3UHWVR2|1|0|18600|18600|10|0|0|558|0|0|0|0|0|0|1|0|0|20200601094611
20200601|02000016|91215550|1813636870153|1813636870153|20200511000080|B3UHWVR2|1|0|18600|18600|10|0|0|558|0|0|0|0|0|0|1|0|0|20200601094540
20200601|02000016|91215549|1818891101268|1818891101268|20200511000080|B3UHWVR2|1|0|18600|18600|10|0|0|558|0|0|0|0|0|0|1|0|0|20200601094535
20200601|02000016|91215548|1815184848605|1815184848605|20200511000080|B3UHWVR2|1|0|18600|18600|10|0|0|558|0|0|0|0|0|0|1|0|0|20200601094528
20200601|02000016|91215547|1813992529265|1813992529265|20200511000080|B3UHWVR2|1|0|18600|18600|10|0|0|558|0|0|0|0|0|0|1|0|0|20200601094521
20200601|02000016|91215544|1800100000125|1800100000125|20200511000080|B3UHWVR2|1|0|18600|18600|10|0|0|558|0|0|0|0|0|0|1|0|0|20200601094512
20200601|02000016|91215535|1813845158388|1813845158388|20200511000080|B3UHWVR2|1|0|18600|18600|10|0|0|558|0|0|0|0|0|0|1|0|0|20200601094455
20200601|02000016|91215528|1800100000340|1800100000340|20200511000080|B3UHWVR2|1|0|18600|18600|10|0|0|558|0|0|0|0|0|0|1|0|0|20200601094444
20200601|02000016|91215527|1815925591567|1815925591567|20200511000080|B3UHWVR2|1|0|18600|18600|10|0|0|558|0|0|0|0|0|0|1|0|0|20200601094441
20200601|02000016|91215519|1815389494945|1815389494945|20200511000080|B3UHWVR2|1|0|18600|18600|10|0|0|558|0|0|0|0|0|0|1|0|0|20200601094421
20200601|02000016|91215518|1813578222161|1813578222161|20200511000080|B3UHWVR2|1|0|18600|18600|10|0|0|558|0|0|0|0|0|0|1|0|0|20200601094418
20200601|02000016|91215508|1818053143677|1818053143677|20200511000080|B3UHWVR2|1|0|18600|18600|10|0|0|558|0|0|0|0|0|0|1|0|0|20200601094352
20200601|02000016|91215504|1815146155010|1815146155010|20200511000080|B3UHWVR2|1|0|18600|18600|10|0|0|558|0|0|0|0|0|0|1|0|0|20200601094337
20200601|02000016|91215500|1800100000260|1800100000260|20200511000080|B3UHWVR2|1|0|18600|18600|10|0|0|558|0|0|0|0|0|0|1|0|0|20200601094332
20200601|02000016|91215498|1815030230206|1815030230206|20200511000080|B3UHWVR2|1|0|18600|18600|10|0|0|558|0|0|0|0|0|0|1|0|0|20200601094329
20200601|02000016|91215496|1813429398439|1813429398439|20200511000080|B3UHWVR2|1|0|18600|18600|10|0|0|558|0|0|0|0|0|0|1|0|0|20200601094318
20200601|02000016|91215483|1813591148644|1813591148644|20200511000080|B3UHWVR2|1|0|18600|18600|10|0|0|558|0|0|0|0|0|0|1|0|0|20200601094252
20200601|02000016|91215482|1818903125539|1818903125539|20200511000080|B3UHWVR2|1|0|18600|18600|10|0|0|558|0|0|0|0|0|0|1|0|0|20200601094245
20200601|02000016|91215481|1818304670676|1818304670676|20200511000080|B3UHWVR2|1|0|18600|18600|10|0|0|558|0|0|0|0|0|0|1|0|0|20200601094243
20200601|02000016|91215468|1815368948672|1815368948672|20200511000080|B3UHWVR2|1|0|18600|18600|10|0|0|558|0|0|0|0|0|0|1|0|0|20200601094211
20200601|02000016|91215467|1813516512882|1813516512882|20200511000080|B3UHWVR2|1|0|18600|18600|10|0|0|558|0|0|0|0|0|0|1|0|0|20200601094155
20200601|02000016|91215465|1800100000257|1800100000257|20200511000080|B3UHWVR2|1|0|18600|18600|10|0|0|558|0|0|0|0|0|0|1|0|0|20200601094149
20200601|02000016|91215464|1800100000073|1800100000073|20200511000080|B3UHWVR2|1|0|18600|18600|10|0|0|558|0|0|0|0|0|0|1|0|0|20200601094148
20200601|02000016|91215453|1813808781900|1813808781900|20200511000080|B3UHWVR2|1|0|18600|18600|10|0|0|558|0|0|0|0|0|0|1|0|0|20200601094123
20200601|02000016|91215451|1813846055840|1813846055840|20200511000080|B3UHWVR2|1|0|18600|18600|10|0|0|558|0|0|0|0|0|0|1|0|0|20200601094109
20200601|02000016|91215446|1813700388839|1813700388839|20200511000080|B3UHWVR2|1|0|18600|18600|10|0|0|558|0|0|0|0|0|0|1|0|0|20200601094107
20200601|02000016|91215447|1815350622072|1815350622072|20200511000080|B3UHWVR2|1|0|18600|18600|10|0|0|558|0|0|0|0|0|0|1|0|0|20200601094107
20200601|02000016|91215440|1815846656422|1815846656422|20200511000080|B3UHWVR2|1|0|18600|18600|10|0|0|558|0|0|0|0|0|0|1|0|0|20200601094022
20200601|02000016|91215439|1818669296269|1818669296269|20200511000080|B3UHWVR2|1|0|18600|18600|10|0|0|558|0|0|0|0|0|0|1|0|0|20200601094006
20200601|02000016|91215438|1813578288004|1813578288004|20200511000080|B3UHWVR2|1|0|18600|18600|10|0|0|558|0|0|0|0|0|0|1|0|0|20200601093958
20200601|02000016|91215434|1818987538596|1818987538596|20200511000080|B3UHWVR2|1|0|18600|18600|10|0|0|558|0|0|0|0|0|0|1|0|0|20200601093942
20200601|02000016|91215433|1800100000236|1800100000236|20200511000080|B3UHWVR2|1|0|18600|18600|10|0|0|558|0|0|0|0|0|0|1|0|0|20200601093940
20200601|02000016|91215429|1813730190518|1813730190518|20200511000080|B3UHWVR2|1|0|18600|18600|10|0|0|558|0|0|0|0|0|0|1|0|0|20200601093936
20200601|02000016|91215428|1818729936598|1818729936598|20200511000080|B3UHWVR2|1|0|18600|18600|10|0|0|558|0|0|0|0|0|0|1|0|0|20200601093927
20200601|02000016|91215427|1815946109858|1815946109858|20200511000080|B3UHWVR2|1|0|18600|18600|10|0|0|558|0|0|0|0|0|0|1|0|0|20200601093919
20200601|02000016|91215426|1813393327863|1813393327863|20200511000080|B3UHWVR2|1|0|18600|18600|10|0|0|558|0|0|0|0|0|0|1|0|0|20200601093907
20200601|02000016|91215418|1813703283113|1813703283113|20200511000080|B3UHWVR2|1|0|18600|18600|10|0|0|558|0|0|0|0|0|0|1|0|0|20200601093845
20200601|02000016|91215417|1818165477289|1818165477289|20200511000080|B3UHWVR2|1|0|18600|18600|10|0|0|558|0|0|0|0|0|0|1|0|0|20200601093841
20200601|02000016|91215416|1813473122412|1813473122412|20200511000080|B3UHWVR2|1|0|18600|18600|10|0|0|558|0|0|0|0|0|0|1|0|0|20200601093838
20200601|02000016|91215413|1818187582339|1818187582339|20200511000080|B3UHWVR2|1|0|18600|18600|10|0|0|558|0|0|0|0|0|0|1|0|0|20200601093829
20200601|02000016|91215409|1800100000043|1800100000043|20200511000080|B3UHWVR2|1|0|18600|18600|10|0|0|558|0|0|0|0|0|0|1|0|0|20200601093821
20200601|02000016|91215408|1818309859106|1818309859106|20200511000080|B3UHWVR2|1|0|18600|18600|10|0|0|558|0|0|0|0|0|0|1|0|0|20200601093814
20200601|02000016|91215401|1818088155607|1818088155607|20200511000080|B3UHWVR2|1|0|18600|18600|10|0|0|558|0|0|0|0|0|0|1|0|0|20200601093758
20200601|02000016|91215395|1813769055559|1813769055559|20200511000080|B3UHWVR2|1|0|18600|18600|10|0|0|558|0|0|0|0|0|0|1|0|0|20200601093722
20200601|02000016|91215394|1817863386188|1817863386188|20200511000080|B3UHWVR2|1|0|18600|18600|10|0|0|558|0|0|0|0|0|0|1|0|0|20200601093716
20200601|02000016|91215392|1800100000355|1800100000355|20200511000080|B3UHWVR2|1|0|18600|18600|10|0|0|558|0|0|0|0|0|0|1|0|0|20200601093713
20200601|02000016|91215393|1815388839989|1815388839989|20200511000080|B3UHWVR2|1|0|18600|18600|10|0|0|558|0|0|0|0|0|0|1|0|0|20200601093713
20200601|02000016|91215390|1813098067177|1813098067177|20200511000080|B3UHWVR2|1|0|18600|18600|10|0|0|558|0|0|0|0|0|0|1|0|0|20200601093709
20200601|02000016|91215391|1800100000080|1800100000080|20200511000080|B3UHWVR2|1|0|18600|18600|10|0|0|558|0|0|0|0|0|0|1|0|0|20200601093709
20200601|02000016|91215381|1815921012597|1815921012597|20200511000080|B3UHWVR2|1|0|18600|18600|10|0|0|558|0|0|0|0|0|0|1|0|0|20200601093655
20200601|02000016|91215377|1815142051751|1815142051751|20200511000080|B3UHWVR2|1|0|18600|18600|10|0|0|558|0|0|0|0|0|0|1|0|0|20200601093653
20200601|02000016|91215369|1813674575508|1813674575508|20200511000080|B3UHWVR2|1|0|18600|18600|10|0|0|558|0|0|0|0|0|0|1|0|0|20200601093648
20200601|02000016|91215362|1815818598480|1815818598480|20200511000080|B3UHWVR2|1|0|18600|18600|10|0|0|558|0|0|0|0|0|0|1|0|0|20200601093627
20200601|02000016|91215361|1818468025462|1818468025462|20200511000080|B3UHWVR2|1|0|18600|18600|10|0|0|558|0|0|0|0|0|0|1|0|0|20200601093626
20200601|02000016|91215360|1818233358282|1818233358282|20200511000080|B3UHWVR2|1|0|18600|18600|10|0|0|558|0|0|0|0|0|0|1|0|0|20200601093621
20200601|02000016|91215359|1815887508589|1815887508589|20200511000080|B3UHWVR2|1|0|18600|18600|10|0|0|558|0|0|0|0|0|0|1|0|0|20200601093620
20200601|02000016|91215354|1800100000053|1800100000053|20200511000080|B3UHWVR2|1|0|18600|18600|10|0|0|558|0|0|0|0|0|0|1|0|0|20200601093608
20200601|02000016|91215355|1815933739943|1815933739943|20200511000080|B3UHWVR2|1|0|18600|18600|10|0|0|558|0|0|0|0|0|0|1|0|0|20200601093608
20200601|02000016|91215346|1815716865625|1815716865625|20200511000080|B3UHWVR2|1|0|18600|18600|10|0|0|558|0|0|0|0|0|0|1|0|0|20200601093602
20200601|02000016|91215345|1800100000057|1800100000057|20200511000080|B3UHWVR2|1|0|18600|18600|10|0|0|558|0|0|0|0|0|0|1|0|0|20200601093601
20200601|02000016|91215340|1813035964466|1813035964466|20200511000080|B3UHWVR2|1|0|18600|18600|10|0|0|558|0|0|0|0|0|0|1|0|0|20200601093551
20200601|02000016|91215339|1817304211987|1817304211987|20200511000080|B3UHWVR2|1|0|18600|18600|10|0|0|558|0|0|0|0|0|0|1|0|0|20200601093549
20200601|02000016|91215332|1800100000234|1800100000234|20200511000080|B3UHWVR2|1|0|18600|18600|10|0|0|558|0|0|0|0|0|0|1|0|0|20200601093547
20200601|02000016|91215328|1815630880329|1815630880329|20200511000080|B3UHWVR2|1|0|18600|18600|10|0|0|558|0|0|0|0|0|0|1|0|0|20200601093544
20200601|02000016|91215327|1813988238986|1813988238986|20200511000080|B3UHWVR2|1|0|18600|18600|10|0|0|558|0|0|0|0|0|0|1|0|0|20200601093537
20200601|02000016|91215322|1813478653378|1813478653378|20200511000080|B3UHWVR2|1|0|18600|18600|10|0|0|558|0|0|0|0|0|0|1|0|0|20200601093528
20200601|02000016|91215321|1815887555058|1815887555058|20200511000080|B3UHWVR2|1|0|18600|18600|10|0|0|558|0|0|0|0|0|0|1|0|0|20200601093523
20200601|02000016|91215313|1813021088510|1813021088510|20200511000080|B3UHWVR2|1|0|18600|18600|10|0|0|558|0|0|0|0|0|0|1|0|0|20200601093517
20200601|02000016|91215302|1813987510903|1813987510903|20200511000080|B3UHWVR2|1|0|18600|18600|10|0|0|558|0|0|0|0|0|0|1|0|0|20200601093500
20200601|02000016|91215303|1815108647893|1815108647893|20200511000080|B3UHWVR2|1|0|18600|18600|10|0|0|558|0|0|0|0|0|0|1|0|0|20200601093500
20200601|02000016|91215301|1813870662832|1813870662832|20200511000080|B3UHWVR2|1|0|18600|18600|10|0|0|558|0|0|0|0|0|0|1|0|0|20200601093454
20200601|02000016|91215297|1800100000046|1800100000046|20200511000080|B3UHWVR2|1|0|18600|18600|10|0|0|558|0|0|0|0|0|0|1|0|0|20200601093444
20200601|02000016|91215295|1800100000213|1800100000213|20200511000080|B3UHWVR2|1|0|18600|18600|10|0|0|558|0|0|0|0|0|0|1|0|0|20200601093443
20200601|02000016|91215296|1813987956640|1813987956640|20200511000080|B3UHWVR2|1|0|18600|18600|10|0|0|558|0|0|0|0|0|0|1|0|0|20200601093443
20200601|02000016|91215292|1813577500356|1813577500356|20200511000080|B3UHWVR2|1|0|18600|18600|10|0|0|558|0|0|0|0|0|0|1|0|0|20200601093434
20200601|02000016|91215293|1815222123742|1815222123742|20200511000080|B3UHWVR2|1|0|18600|18600|4|6|0|558|0|0|0|0|0|0|1|0|0|20200601093434
20200601|02000016|91215282|1800100000117|1800100000117|20200511000080|B3UHWVR2|1|0|18600|18600|10|0|0|558|0|0|0|0|0|0|1|0|0|20200601093421
20200601|02000016|91215279|1813082360764|1813082360764|20200511000080|B3UHWVR2|1|0|18600|18600|10|0|0|558|0|0|0|0|0|0|1|0|0|20200601093419
20200601|02000016|91215269|1815987504832|1815987504832|20200511000080|B3UHWVR2|1|0|18600|18600|10|0|0|558|0|0|0|0|0|0|1|0|0|20200601093409
20200601|02000016|91215267|1800100000197|1800100000197|20200511000080|B3UHWVR2|1|0|18600|18600|10|0|0|558|0|0|0|0|0|0|1|0|0|20200601093404
20200601|02000016|91215265|1800100000042|1800100000042|20200511000080|B3UHWVR2|1|0|18600|18600|10|0|0|558|0|0|0|0|0|0|1|0|0|20200601093348
20200601|02000016|91215257|1813577525294|1813577525294|20200511000080|B3UHWVR2|1|0|18600|18600|10|0|0|558|0|0|0|0|0|0|1|0|0|20200601093332
20200601|02000016|91215248|1813887868883|1813887868883|20200511000080|B3UHWVR2|1|0|18600|18600|10|0|0|558|0|0|0|0|0|0|1|0|0|20200601093328
20200601|02000016|91215249|1813988205870|1813988205870|20200511000080|B3UHWVR2|1|0|18600|18600|10|0|0|558|0|0|0|0|0|0|1|0|0|20200601093328
20200601|02000016|91215243|1813796290795|1813796290795|20200511000080|B3UHWVR2|1|0|18600|18600|10|0|0|558|0|0|0|0|0|0|1|0|0|20200601093319
20200601|02000016|91215244|1813657964642|1813657964642|20200511000080|B3UHWVR2|1|0|18600|18600|10|0|0|558|0|0|0|0|0|0|1|0|0|20200601093319
20200601|02000016|91215242|1818288560316|1818288560316|20200511000080|B3UHWVR2|1|0|18600|18600|10|0|0|558|0|0|0|0|0|0|1|0|0|20200601093318
20200601|02000016|91215241|1813309116156|1813309116156|20200511000080|B3UHWVR2|1|0|18600|18600|10|0|0|558|0|0|0|0|0|0|1|0|0|20200601093316
20200601|02000016|91215239|1813555046898|1813555046898|20200511000080|B3UHWVR2|1|0|18600|18600|10|0|0|558|0|0|0|0|0|0|1|0|0|20200601093313
20200601|02000016|91215230|1818993303292|1818993303292|20200511000080|B3UHWVR2|1|0|18600|18600|10|0|0|558|0|0|0|0|0|0|1|0|0|20200601093304
20200601|02000016|91215214|1813608767593|1813608767593|20200511000080|B3UHWVR2|1|0|18600|18600|10|0|0|558|0|0|0|0|0|0|1|0|0|20200601093244
20200601|02000016|91215213|1817303121352|1817303121352|20200511000080|B3UHWVR2|1|0|18600|18600|10|0|0|558|0|0|0|0|0|0|1|0|0|20200601093240
20200601|02000016|91215212|1813988271457|1813988271457|20200511000080|B3UHWVR2|1|0|18600|18600|10|0|0|558|0|0|0|0|0|0|1|0|0|20200601093237
20200601|02000016|91215211|1813400336006|1813400336006|20200511000080|B3UHWVR2|1|0|18600|18600|10|0|0|558|0|0|0|0|0|0|1|0|0|20200601093236
20200601|02000016|91215210|1815334341131|1815334341131|20200511000080|B3UHWVR2|1|0|18600|18600|10|0|0|558|0|0|0|0|0|0|1|0|0|20200601093233
20200601|02000016|91215209|1815256323299|1815256323299|20200511000080|B3UHWVR2|1|0|18600|18600|10|0|0|558|0|0|0|0|0|0|1|0|0|20200601093232
20200601|02000016|91215195|1815097408526|1815097408526|20200511000080|B3UHWVR2|1|0|18600|18600|10|0|0|558|0|0|0|0|0|0|1|0|0|20200601093219
20200601|02000016|91215196|1813400267349|1813400267349|20200511000080|B3UHWVR2|1|0|18600|18600|10|0|0|558|0|0|0|0|0|0|1|0|0|20200601093219
20200601|02000016|91215190|1818210293990|1818210293990|20200511000080|B3UHWVR2|1|0|18600|18600|10|0|0|558|0|0|0|0|0|0|1|0|0|20200601093216
20200601|02000016|91215191|1815256323299|1815256323299|20200511000080|B3UHWVR2|1|0|18600|18600|10|0|0|558|0|0|0|0|0|0|1|0|0|20200601093216
20200601|02000016|91215188|1815256323299|1815256323299|20200511000080|B3UHWVR2|1|0|18600|18600|10|0|0|558|0|0|0|0|0|0|1|0|0|20200601093206
20200601|02000016|91215187|1818962075812|1818962075812|20200511000080|B3UHWVR2|1|0|18600|18600|10|0|0|558|0|0|0|0|0|0|1|0|0|20200601093205
20200601|02000016|91215184|1813730157568|1813730157568|20200511000080|B3UHWVR2|1|0|18600|18600|10|0|0|558|0|0|0|0|0|0|1|0|0|20200601093202
20200601|02000016|91215183|1815256323299|1815256323299|20200511000080|B3UHWVR2|1|0|18600|18600|10|0|0|558|0|0|0|0|0|0|1|0|0|20200601093158
20200601|02000016|91215179|1815256323299|1815256323299|20200511000080|B3UHWVR2|1|0|18600|18600|10|0|0|558|0|0|0|0|0|0|1|0|0|20200601093150
20200601|02000016|91215178|1815170023481|1815170023481|20200511000080|B3UHWVR2|1|0|18600|18600|10|0|0|558|0|0|0|0|0|0|1|0|0|20200601093143
20200601|02000016|91215175|1813987544821|1813987544821|20200511000080|B3UHWVR2|1|0|18600|18600|10|0|0|558|0|0|0|0|0|0|1|0|0|20200601093139
20200601|02000016|91215173|1818093392935|1818093392935|20200511000080|B3UHWVR2|1|0|18600|18600|10|0|0|558|0|0|0|0|0|0|1|0|0|20200601093132
20200601|02000016|91215171|1815287133896|1815287133896|20200511000080|B3UHWVR2|1|0|18600|18600|10|0|0|558|0|0|0|0|0|0|1|0|0|20200601093124
20200601|02000016|91215151|1813383626357|1813383626357|20200511000080|B3UHWVR2|1|0|18600|18600|10|0|0|558|0|0|0|0|0|0|1|0|0|20200601091945
20200601|02000016|91215147|1815256323299|1815256323299|20200511000080|B3UHWVR2|1|0|18600|18600|10|0|0|558|0|0|0|0|0|0|1|0|0|20200601091932
20200601|02000016|91215146|1815256323299|1815256323299|20200511000080|B3UHWVR2|1|0|18600|18600|10|0|0|558|0|0|0|0|0|0|1|0|0|20200601091924
20200601|02000016|91215145|1815256323299|1815256323299|20200511000080|B3UHWVR2|1|0|18600|18600|10|0|0|558|0|0|0|0|0|0|1|0|0|20200601091917
20200601|02000016|91215144|1815256323299|1815256323299|20200511000080|B3UHWVR2|1|0|18600|18600|10|0|0|558|0|0|0|0|0|0|1|0|0|20200601091904
20200601|02000016|91215143|1815256323299|1815256323299|20200511000080|B3UHWVR2|1|0|18600|18600|10|0|0|558|0|0|0|0|0|0|1|0|0|20200601091857
20200601|02000016|91215142|1815256323299|1815256323299|20200511000080|B3UHWVR2|1|0|18600|18600|10|0|0|558|0|0|0|0|0|0|1|0|0|20200601091835
20200601|02000016|91215141|1815256323299|1815256323299|20200511000080|B3UHWVR2|1|0|18600|18600|10|0|0|558|0|0|0|0|0|0|1|0|0|20200601091826
20200601|02000016|91215140|1815830939311|1815830939311|20200511000080|B3UHWVR2|1|0|18600|18600|10|0|0|558|0|0|0|0|0|0|1|0|0|20200601091817
20200601|02000016|91215139|1815256323299|1815256323299|20200511000080|B3UHWVR2|1|0|18600|18600|10|0|0|558|0|0|0|0|0|0|1|0|0|20200601091800
20200601|02000016|91215138|1815256323299|1815256323299|20200511000080|B3UHWVR2|1|0|18600|18600|10|0|0|558|0|0|0|0|0|0|1|0|0|20200601091743
20200601|02000016|91215137|1815256323299|1815256323299|20200511000080|B3UHWVR2|1|0|18600|18600|10|0|0|558|0|0|0|0|0|0|1|0|0|20200601091733
20200601|02000016|91215136|1815256323299|1815256323299|20200511000080|B3UHWVR2|1|0|18600|18600|10|0|0|558|0|0|0|0|0|0|1|0|0|20200601091723
20200601|02000016|91215135|1815256323299|1815256323299|20200511000080|B3UHWVR2|1|0|18600|18600|10|0|0|558|0|0|0|0|0|0|1|0|0|20200601091713
20200601|02000016|91215134|1815256323299|1815256323299|20200511000080|B3UHWVR2|1|0|18600|18600|10|0|0|558|0|0|0|0|0|0|1|0|0|20200601091705
