清算中心流水号&交易所流水号&业务发生日期&交易所代码&会员编码&资金账号&出入金类型&发生金额&手续费金额&银行产品代码&备注
20060530020100429566&MPVL7OP17O196PG2&20200605&02000016&1818869202035&1818869202035&0&100300&300&boshzjjg&
20060530020100429533&IS9MWBRJKIW7SHMF&20200605&02000016&1818869202035&1818869202035&0&100300&300&boshzjjg&
20060530020100429669&64BLYL5DQDRS3H82&20200605&02000016&1813582743080&1813582743080&0&186559&559&boshzjjg&
20060530020100429673&P0UK0JGSOI6IVAI4&20200605&02000016&1818631760322&1818631760322&0&186559&559&boshzjjg&
20060530020100429676&YUGS3UQTAEX43DIW&20200605&02000016&1813700388839&1813700388839&0&180541&541&boshzjjg&
20060530020100429618&W00LUZ2SL3EXMVCG&20200605&02000016&1800100000071&1800100000071&0&20060&60&boshzjjg&
20060530020100429704&WMZ01TZD8QISS0HE&20200605&02000016&1813082311311&1813082311311&0&9027&27&boshzjjg&
20060530020100429782&BNL8SUHD0DYDWL9F&20200605&02000016&1813683131563&1813683131563&0&20060&60&boshzjjg&
20060530020100429713&86ZAG6UVR8O0YSQU&20200605&02000016&1818631760311&1818631760311&0&10030&30&boshzjjg&
20060530020100429800&NA1CEEKFPCD3FVB4&20200605&02000016&1817304211987&1817304211987&0&10030&30&boshzjjg&
20060530020100429853&PK0VZELHLV2HZIKN&20200605&02000016&1800100000347&1800100000347&0&20545&61&boshzjjg&
20060530020100429729&CTUFS9C0PV6Y2PIH&20200605&02000016&1818210293990&1818210293990&0&20060&60&boshzjjg&
20060530020100429813&6AL95YK00IBI54DG&20200605&02000016&1813385849623&1813385849623&0&100300&300&boshzjjg&
20060530020100429941&1A159ZN53F1PSW26&20200605&02000016&1815032232283&1815032232283&0&10030&30&boshzjjg&
20060530020100429943&LX8K06CCWX5HJ5V9&20200605&02000016&1815206929588&1815206929588&0&10030&30&boshzjjg&
20060530020100429869&1PDB92UNU9PJJIGS&20200605&02000016&1815931437146&1815931437146&0&10030&30&boshzjjg&
20060530020100429885&QIOGH48U6AROCXUL&20200605&02000016&1815903327688&1815903327688&0&10130&30&boshzjjg&
20060530020100430037&GXLU0AXSCWA3NXDO&20200605&02000016&1815630880329&1815630880329&0&20260&60&boshzjjg&
20060530020100429963&DGEPOMM1YEWE4RSC&20200605&02000016&1813385849623&1813385849623&0&80240&240&boshzjjg&
20060530020100430039&A2II8E32M59THUSF&20200605&02000016&1815818598480&1815818598480&0&10030&30&boshzjjg&
20060530020100429965&ODWVZ0841RXORIFX&20200605&02000016&1818233358282&1818233358282&0&20260&60&boshzjjg&
20060530020100430047&5BQXPLWJIQ90EYQB&20200605&02000016&1818931232281&1818931232281&0&20060&60&boshzjjg&
20060530020100429896&H8ZND1YI7CC2L8QI&20200605&02000016&1815211571887&1815211571887&0&190571&571&boshzjjg&
20060530020100429898&LUIS1MTTEH2YJ9JF&20200605&02000016&1818604681909&1818604681909&0&10030&30&boshzjjg&
20060530020100429984&L9W1CNOG6VIW933T&20200605&02000016&1813400267349&1813400267349&0&10130&30&boshzjjg&
20060530020100429915&K0R02EETMNIGLY4V&20200605&02000016&1817679265331&1817679265331&0&23069&69&boshzjjg&
20060530020100430007&T3AZVE6C12ZMS90K&20200605&02000016&1815127269046&1815127269046&0&10030&30&boshzjjg&
20060530020100429926&WMBY8OMCHWAMLOUW&20200605&02000016&1815127269046&1815127269046&0&10030&30&boshzjjg&
20060530020100430142&TR3NLL09I5Y1HW6P&20200605&02000016&1817732266277&1817732266277&0&30090&90&boshzjjg&
20060530020100430147&EYC3ZU0WQCJOA8NX&20200605&02000016&1813931359385&1813931359385&0&10030&30&boshzjjg&
20060530020100430033&XNEWYCZUW31P22EQ&20200605&02000016&1813931359385&1813931359385&0&10030&30&boshzjjg&
20060530020100430241&8KGWC9X8RCGO4JMV&20200605&02000016&1818875037395&1818875037395&0&9528&28&boshzjjg&
20060530020100430246&RWJV2X8MII567V90&20200605&02000016&1815097408526&1815097408526&0&26278&78&boshzjjg&
20060530020100430159&Z1YV7NNNHRCSYQ44&20200605&02000016&1813400267349&1813400267349&0&16148&48&boshzjjg&
20060530020100430250&MTYVUK4NBKRBNUH0&20200605&02000016&1818869202035&1818869202035&0&17051&51&boshzjjg&
20060530020100430353&6KOID9C91VVB40ML&20200605&02000016&1813577503685&1813577503685&0&300902&902&boshzjjg&
20060530020100430377&SX1JK5Q4DWR6AS0R&20200605&02000016&1815087553123&1815087553123&0&401203&1203&boshzjjg&
20060530020100430392&JMU77IEYMHGUFDTS&20200605&02000016&1818787552261&1818787552261&0&351053&1053&boshzjjg&
20060530020100430540&4R5CBM5EB73XK30D&20200605&02000016&1815108605312&1815108605312&0&401203&1203&boshzjjg&
20060530020100430551&TRGPFHEPT5JFEKSA&20200605&02000016&1813429398439&1813429398439&0&240722&722&boshzjjg&
20060530020100430410&9KPJ2KKQ4JSUT35U&20200605&02000016&1800100000045&1800100000045&0&40120&120&boshzjjg&
20060530020100430460&THF8QZECQNA2GOWG&20200605&02000016&1813628759556&1813628759556&0&351053&1053&boshzjjg&
20060530020100430555&V9KWILT20DWV9JSM&20200605&02000016&1813486694384&1813486694384&0&200601&601&boshzjjg&
20060530020100430415&5NFBEAJAX1EPYF6U&20200605&02000016&1813703227331&1813703227331&0&20060&60&boshzjjg&
20060530020100430575&GMIS7DSIELWN8CCS&20200605&02000016&1813429398439&1813429398439&0&100300&300&boshzjjg&
20060530020100430492&JQ7A3CMIHYT8ILUB&20200605&02000016&1813576268031&1813576268031&0&4012036&12036&boshzjjg&
20060530020100430493&C8GZNEQB9BDOUDZT&20200605&02000016&1813576268031&1813576268031&0&4012036&12036&boshzjjg&
20060530020100430595&3O6OLOP9BAYMB6CF&20200605&02000016&1813576268031&1813576268031&0&4012036&12036&boshzjjg&
20060530020100430658&V1M9SXP69WTKDDV3&20200605&02000016&1813576268031&1813576268031&0&4012036&12036&boshzjjg&
20060530020100430596&SS90ZH6EHJBG17Z8&20200605&02000016&1813576268031&1813576268031&0&4012036&12036&boshzjjg&
20060530020100430660&8R0J1JVN9AWEV79C&20200605&02000016&1813576268031&1813576268031&0&4012036&12036&boshzjjg&
20060530020100430661&8U3BSMYWCNZJODDR&20200605&02000016&1813576268031&1813576268031&0&4012036&12036&boshzjjg&
20060530020100430495&4MOJ4O2GSJ5LBI3X&20200605&02000016&1813576268031&1813576268031&0&2006018&6018&boshzjjg&
20060530020100430499&6A653LXBOURO61ZM&20200605&02000016&1813940459085&1813940459085&0&2006&6&boshzjjg&
20060530020100430614&QHTX0563XWSYIHLL&20200605&02000016&1815334465219&1815334465219&0&10030&30&boshzjjg&
20060530020100430616&RVJTAUDJNQ3VS0DP&20200605&02000016&1818733254139&1818733254139&0&9027&27&boshzjjg&
20060530020100430517&E7TEATMZ5CJM8588&20200605&02000016&1815245431805&1815245431805&0&20060&60&boshzjjg&
20060530020100430684&85VU20YVD5SYJHQQ&20200605&02000016&1815288116989&1815288116989&0&200601&601&boshzjjg&
20060530020100430755&VKYL8KCXXH42P09O&20200605&02000016&1813988238986&1813988238986&0&7221&21&boshzjjg&
