20200430|250|02000134|1|1|2|558|1813613128663|1813613128663|02000134|02000134|||20200430083050
20200430|252|02000134|1|1|2|558|1815933553201|1815933553201|02000134|02000134|||20200430085005
20200430|253|02000134|1|1|2|558|1813393327863|1813393327863|02000134|02000134|||20200430085111
20200430|256|02000134|1|1|2|558|1813331236246|1813331236246|02000134|02000134|||20200430090038
20200430|261|02000134|1|1|2|55|1813523232008|1813523232008|02000134|02000134|||20200430091152
20200430|262|02000134|1|1|2|55|1813523232008|1813523232008|02000134|02000134|||20200430091322
20200430|265|02000134|1|1|2|558|1813238826869|1813238826869|02000134|02000134|||20200430092403
20200430|266|02000134|1|1|2|558|1813840542929|1813840542929|02000134|02000134|||20200430093050
20200430|267|02000134|1|1|2|55|1817732266277|1817732266277|02000134|02000134|||20200430093231
20200430|296|02000134|1|1|2|558|1813619405650|1813619405650|02000134|02000134|||20200430094727
20200430|299|02000134|1|1|2|558|1813566373447|1813566373447|02000134|02000134|||20200430094844
20200430|302|02000134|1|1|2|558|1815969053582|1815969053582|02000134|02000134|||20200430095217
20200430|303|02000134|1|1|2|558|1813767977037|1813767977037|02000134|02000134|||20200430095238
20200430|304|02000134|1|1|2|558|1814787853587|1814787853587|02000134|02000134|||20200430095308
20200430|305|02000134|1|1|2|558|1800100000034|1800100000034|02000134|02000134|||20200430095347
20200430|306|02000134|1|1|2|558|1813988271457|1813988271457|02000134|02000134|||20200430095409
20200430|307|02000134|1|1|2|558|1815208756608|1815208756608|02000134|02000134|||20200430095446
20200430|308|02000134|1|1|2|558|1813398828698|1813398828698|02000134|02000134|||20200430095458
20200430|309|02000134|1|1|2|558|1818088174982|1818088174982|02000134|02000134|||20200430095459
20200430|311|02000134|1|1|2|558|1813987544821|1813987544821|02000134|02000134|||20200430095544
20200430|316|02000134|1|1|2|558|1813769055559|1813769055559|02000134|02000134|||20200430095654
20200430|320|02000134|1|1|2|558|1815025007693|1815025007693|02000134|02000134|||20200430095709
20200430|323|02000134|1|1|2|558|1815368948672|1815368948672|02000134|02000134|||20200430095828
20200430|325|02000134|1|1|2|558|1818631760311|1818631760311|02000134|02000134|||20200430095928
20200430|327|02000134|1|1|2|558|1815925591567|1815925591567|02000134|02000134|||20200430095932
20200430|340|02000134|1|1|2|558|1818987511266|1818987511266|02000134|02000134|||20200430100237
20200430|348|02000134|1|1|2|558|1815246290569|1815246290569|02000134|02000134|||20200430100421
20200430|361|02000134|1|1|2|558|1813555046898|1813555046898|02000134|02000134|||20200430100632
20200430|369|02000134|1|1|2|558|1815045780980|1815045780980|02000134|02000134|||20200430100813
20200430|375|02000134|1|1|2|558|1815146194700|1815146194700|02000134|02000134|||20200430100911
20200430|380|02000134|1|1|2|558|1813674575508|1813674575508|02000134|02000134|||20200430100954
20200430|385|02000134|1|1|2|558|1813684675119|1813684675119|02000134|02000134|||20200430101101
20200430|388|02000134|1|1|2|558|1818674146599|1818674146599|02000134|02000134|||20200430101131
20200430|391|02000134|1|1|2|558|1813846055840|1813846055840|02000134|02000134|||20200430101205
20200430|401|02000134|1|1|2|558|1813945860022|1813945860022|02000134|02000134|||20200430101358
20200430|418|02000134|1|1|2|558|1815288130560|1815288130560|02000134|02000134|||20200430101800
20200430|428|02000134|1|1|2|558|1815368486928|1815368486928|02000134|02000134|||20200430102138
20200430|442|02000134|1|1|2|558|1818987916981|1818987916981|02000134|02000134|||20200430102817
20200430|444|02000134|1|1|2|558|1815334465219|1815334465219|02000134|02000134|||20200430102910
20200430|456|02000134|1|1|2|558|1815184848605|1815184848605|02000134|02000134|||20200430103434
20200430|467|02000134|1|1|2|558|1815368798533|1815368798533|02000134|02000134|||20200430104139
20200430|469|02000134|1|1|2|558|1815308750767|1815308750767|02000134|02000134|||20200430104246
20200430|472|02000134|1|1|2|55|1815933126808|1815933126808|02000134|02000134|||20200430104307
20200430|483|02000134|1|1|2|558|1818802455863|1818802455863|02000134|02000134|||20200430104722
20200430|486|02000134|1|1|2|558|1815094234737|1815094234737|02000134|02000134|||20200430104907
20200430|487|02000134|1|1|2|558|1818392967498|1818392967498|02000134|02000134|||20200430104919
20200430|488|02000134|1|1|2|558|1813578286883|1813578286883|02000134|02000134|||20200430104956
20200430|491|02000134|1|1|2|558|1813628853769|1813628853769|02000134|02000134|||20200430105234
20200430|493|02000134|1|1|2|558|1813988267556|1813988267556|02000134|02000134|||20200430105654
20200430|496|02000134|1|1|2|558|1813987581003|1813987581003|02000134|02000134|||20200430110034
20200430|497|02000134|1|1|2|558|1818288188077|1818288188077|02000134|02000134|||20200430110114
20200430|498|02000134|1|1|2|558|1814708750317|1814708750317|02000134|02000134|||20200430110137
20200430|499|02000134|1|1|2|558|1815331519738|1815331519738|02000134|02000134|||20200430110140
20200430|500|02000134|1|1|2|558|1815921012597|1815921012597|02000134|02000134|||20200430110140
20200430|504|02000134|1|1|2|558|1813887838521|1813887838521|02000134|02000134|||20200430110456
20200430|505|02000134|1|1|2|558|1813988266069|1813988266069|02000134|02000134|||20200430110722
20200430|508|02000134|1|1|2|558|1813887868883|1813887868883|02000134|02000134|||20200430111109
20200430|509|02000134|1|1|2|558|1813988238986|1813988238986|02000134|02000134|||20200430111216
20200430|510|02000134|1|1|2|558|1813987956640|1813987956640|02000134|02000134|||20200430111249
20200430|511|02000134|1|1|2|558|1815334341131|1815334341131|02000134|02000134|||20200430111306
20200430|512|02000134|1|1|2|558|1813840562388|1813840562388|02000134|02000134|||20200430111447
20200430|513|02000134|1|1|2|558|1815894436377|1815894436377|02000134|02000134|||20200430111554
20200430|551|02000134|1|1|2|558|1818330218859|1818330218859|02000134|02000134|||20200430112421
20200430|560|02000134|1|1|2|558|1815075218679|1815075218679|02000134|02000134|||20200430112932
20200430|561|02000134|1|1|2|558|1818313082518|1818313082518|02000134|02000134|||20200430132101
20200430|562|02000134|1|1|2|558|1818687838558|1818687838558|02000134|02000134|||20200430132219
20200430|564|02000134|1|1|2|558|1817732266277|1817732266277|02000134|02000134|||20200430132321
20200430|565|02000134|1|1|2|558|1818159800103|1818159800103|02000134|02000134|||20200430132541
20200430|569|02000134|1|1|2|558|1813730451279|1813730451279|02000134|02000134|||20200430132718
20200430|570|02000134|1|1|2|558|1815187507752|1815187507752|02000134|02000134|||20200430132731
20200430|571|02000134|1|1|2|558|1818288549796|1818288549796|02000134|02000134|||20200430132738
20200430|600|02000134|1|1|2|111|1813320017199|1813320017199|02000134|02000134|||20200430133548
20200430|604|02000134|1|1|2|558|1818646771261|1818646771261|02000134|02000134|||20200430133727
20200430|607|02000134|1|1|2|558|1815130268126|1815130268126|02000134|02000134|||20200430133833
20200430|610|02000134|1|1|2|558|1818746954345|1818746954345|02000134|02000134|||20200430133941
20200430|615|02000134|1|1|2|558|1818345857865|1818345857865|02000134|02000134|||20200430134142
20200430|618|02000134|1|1|2|558|1815287565721|1815287565721|02000134|02000134|||20200430134255
20200430|619|02000134|1|1|2|558|1818987916256|1818987916256|02000134|02000134|||20200430134318
20200430|647|02000134|1|1|2|55|1800100000036|1800100000036|02000134|02000134|||20200430140801
20200430|649|02000134|1|1|2|55|1800100000280|1800100000280|02000134|02000134|||20200430140859
20200430|651|02000134|1|1|2|558|1813759204028|1813759204028|02000134|02000134|||20200430141051
20200430|652|02000134|1|1|2|558|1815840063631|1815840063631|02000134|02000134|||20200430141258
20200430|653|02000134|1|1|2|558|1813609828405|1813609828405|02000134|02000134|||20200430141930
20200430|655|02000134|1|1|2|558|1813777101958|1813777101958|02000134|02000134|||20200430142210
20200430|659|02000134|1|1|2|558|1818191539413|1818191539413|02000134|02000134|||20200430142417
20200430|661|02000134|1|1|2|55|1815869235139|1815869235139|02000134|02000134|||20200430142852
20200430|663|02000134|1|1|2|558|1815129737661|1815129737661|02000134|02000134|||20200430143011
20200430|671|02000134|1|1|2|558|1815030230206|1815030230206|02000134|02000134|||20200430143815
20200430|687|02000134|1|1|2|558|1815303121880|1815303121880|02000134|02000134|||20200430144305
20200430|689|02000134|1|1|2|558|1818524494313|1818524494313|02000134|02000134|||20200430144420
20200430|697|02000134|1|1|2|558|1815033779933|1815033779933|02000134|02000134|||20200430144556
20200430|704|02000134|1|1|2|558|1813473122412|1813473122412|02000134|02000134|||20200430144854
20200430|786|02000134|1|1|2|558|1815032494099|1815032494099|02000134|02000134|||20200430145446
20200430|848|02000134|1|1|2|558|1800100000197|1800100000197|02000134|02000134|||20200430145838
20200430|251|02000134|1|1|2|55|1800100000031|1800100000031|02000134|02000134|||20200430083052
20200430|254|02000134|1|1|2|55|1813082360764|1813082360764|02000134|02000134|||20200430085326
20200430|255|02000134|1|1|2|55|1813082360764|1813082360764|02000134|02000134|||20200430085756
20200430|257|02000134|1|1|2|55|1813523232008|1813523232008|02000134|02000134|||20200430090103
20200430|258|02000134|1|1|2|55|1813523232008|1813523232008|02000134|02000134|||20200430090131
20200430|259|02000134|1|1|2|55|1813523232008|1813523232008|02000134|02000134|||20200430090148
20200430|260|02000134|1|1|2|55|1813523232008|1813523232008|02000134|02000134|||20200430090203
20200430|263|02000134|1|1|2|55|1815609151431|1815609151431|02000134|02000134|||20200430092054
20200430|264|02000134|1|1|2|55|1800100000207|1800100000207|02000134|02000134|||20200430092055
20200430|268|02000134|1|1|2|55|1818149061051|1818149061051|02000134|02000134|||20200430093249
20200430|271|02000134|1|1|2|55|1800100000177|1800100000177|02000134|02000134|||20200430093329
20200430|272|02000134|1|1|2|55|1800100000127|1800100000127|02000134|02000134|||20200430093335
20200430|273|02000134|1|1|2|55|1819909235532|1819909235532|02000134|02000134|||20200430093426
20200430|274|02000134|1|1|2|55|1817697226810|1817697226810|02000134|02000134|||20200430093519
20200430|276|02000134|1|1|2|55|1815502925058|1815502925058|02000134|02000134|||20200430093552
20200430|277|02000134|1|1|2|55|1813059618928|1813059618928|02000134|02000134|||20200430093555
20200430|278|02000134|1|1|2|55|1818829756688|1818829756688|02000134|02000134|||20200430093657
20200430|279|02000134|1|1|2|55|1815168014087|1815168014087|02000134|02000134|||20200430093734
20200430|280|02000134|1|1|2|55|1800100000031|1800100000031|02000134|02000134|||20200430093751
20200430|281|02000134|1|1|2|55|1818591506868|1818591506868|02000134|02000134|||20200430093754
20200430|284|02000134|1|1|2|55|1815709151444|1815709151444|02000134|02000134|||20200430094021
20200430|285|02000134|1|1|2|55|1813098067177|1813098067177|02000134|02000134|||20200430094033
20200430|286|02000134|1|1|2|55|1818767845169|1818767845169|02000134|02000134|||20200430094146
20200430|287|02000134|1|1|2|55|1815109156089|1815109156089|02000134|02000134|||20200430094219
20200430|288|02000134|1|1|2|55|1813305788506|1813305788506|02000134|02000134|||20200430094252
20200430|289|02000134|1|1|2|55|1813858132621|1813858132621|02000134|02000134|||20200430094337
20200430|290|02000134|1|1|2|55|1813645788835|1813645788835|02000134|02000134|||20200430094424
20200430|291|02000134|1|1|2|55|1818731866982|1818731866982|02000134|02000134|||20200430094448
20200430|292|02000134|1|1|2|55|1815029688272|1815029688272|02000134|02000134|||20200430094617
20200430|293|02000134|1|1|2|55|1813867051385|1813867051385|02000134|02000134|||20200430094645
20200430|297|02000134|1|1|2|55|1818057897187|1818057897187|02000134|02000134|||20200430094730
20200430|298|02000134|1|1|2|55|1800100000106|1800100000106|02000134|02000134|||20200430094828
20200430|300|02000134|1|1|2|55|1818629264385|1818629264385|02000134|02000134|||20200430095057
20200430|301|02000134|1|1|2|55|1813684689700|1813684689700|02000134|02000134|||20200430095209
20200430|310|02000134|1|1|2|55|1818975225517|1818975225517|02000134|02000134|||20200430095511
20200430|312|02000134|1|1|2|55|1815201189518|1815201189518|02000134|02000134|||20200430095551
20200430|313|02000134|1|1|2|55|1813603225419|1813603225419|02000134|02000134|||20200430095607
20200430|314|02000134|1|1|2|55|1800100000136|1800100000136|02000134|02000134|||20200430095622
20200430|315|02000134|1|1|2|55|1813875259576|1813875259576|02000134|02000134|||20200430095652
20200430|317|02000134|1|1|2|55|1800100000131|1800100000131|02000134|02000134|||20200430095703
20200430|321|02000134|1|1|2|55|1800100000094|1800100000094|02000134|02000134|||20200430095739
20200430|322|02000134|1|1|2|55|1815869235139|1815869235139|02000134|02000134|||20200430095741
20200430|324|02000134|1|1|2|55|1800100000182|1800100000182|02000134|02000134|||20200430095907
20200430|326|02000134|1|1|2|55|1813385849623|1813385849623|02000134|02000134|||20200430095930
20200430|328|02000134|1|1|2|55|1800100000241|1800100000241|02000134|02000134|||20200430095939
20200430|329|02000134|1|1|2|55|1818969738286|1818969738286|02000134|02000134|||20200430095941
20200430|330|02000134|1|1|2|55|1813098812743|1813098812743|02000134|02000134|||20200430100034
20200430|331|02000134|1|1|2|55|1800100000272|1800100000272|02000134|02000134|||20200430100040
20200430|332|02000134|1|1|2|55|1815667899659|1815667899659|02000134|02000134|||20200430100051
20200430|333|02000134|1|1|2|55|1800100000267|1800100000267|02000134|02000134|||20200430100107
20200430|334|02000134|1|1|2|55|1800100000275|1800100000275|02000134|02000134|||20200430100134
20200430|335|02000134|1|1|2|55|1815857889599|1815857889599|02000134|02000134|||20200430100204
20200430|338|02000134|1|1|2|55|1800100000142|1800100000142|02000134|02000134|||20200430100212
20200430|339|02000134|1|1|2|55|1815057890168|1815057890168|02000134|02000134|||20200430100233
20200430|341|02000134|1|1|2|55|1815038169553|1815038169553|02000134|02000134|||20200430100248
20200430|342|02000134|1|1|2|55|1815057899784|1815057899784|02000134|02000134|||20200430100258
20200430|343|02000134|1|1|2|55|1800100000332|1800100000332|02000134|02000134|||20200430100300
20200430|344|02000134|1|1|2|55|1813260656136|1813260656136|02000134|02000134|||20200430100321
20200430|345|02000134|1|1|2|55|1800100000302|1800100000302|02000134|02000134|||20200430100357
20200430|346|02000134|1|1|2|55|1800100000230|1800100000230|02000134|02000134|||20200430100359
20200430|347|02000134|1|1|2|55|1813932201758|1813932201758|02000134|02000134|||20200430100401
20200430|349|02000134|1|1|2|55|1818057812357|1818057812357|02000134|02000134|||20200430100425
20200430|352|02000134|1|1|2|55|1815933126808|1815933126808|02000134|02000134|||20200430100440
20200430|353|02000134|1|1|2|55|1815272555723|1815272555723|02000134|02000134|||20200430100452
20200430|354|02000134|1|1|2|55|1815057868078|1815057868078|02000134|02000134|||20200430100459
20200430|355|02000134|1|1|2|55|1817015343424|1817015343424|02000134|02000134|||20200430100505
20200430|356|02000134|1|1|2|55|1818891101268|1818891101268|02000134|02000134|||20200430100512
20200430|357|02000134|1|1|2|55|1815205889775|1815205889775|02000134|02000134|||20200430100530
20200430|358|02000134|1|1|2|55|1815356155658|1815356155658|02000134|02000134|||20200430100601
20200430|359|02000134|1|1|2|55|1817705788090|1817705788090|02000134|02000134|||20200430100626
20200430|360|02000134|1|1|2|55|1815211571887|1815211571887|02000134|02000134|||20200430100629
20200430|362|02000134|1|1|2|55|1813554575360|1813554575360|02000134|02000134|||20200430100659
20200430|363|02000134|1|1|2|55|1813082360764|1813082360764|02000134|02000134|||20200430100700
20200430|366|02000134|1|1|2|55|1813487721751|1813487721751|02000134|02000134|||20200430100727
20200430|367|02000134|1|1|2|55|1818072677667|1818072677667|02000134|02000134|||20200430100735
20200430|368|02000134|1|1|2|55|1818086369975|1818086369975|02000134|02000134|||20200430100805
20200430|370|02000134|1|1|2|55|1815073071566|1815073071566|02000134|02000134|||20200430100820
20200430|371|02000134|1|1|2|55|1815333225923|1815333225923|02000134|02000134|||20200430100823
20200430|372|02000134|1|1|2|55|1817386323731|1817386323731|02000134|02000134|||20200430100826
20200430|373|02000134|1|1|2|55|1813946783966|1813946783966|02000134|02000134|||20200430100847
20200430|374|02000134|1|1|2|55|1815146824446|1815146824446|02000134|02000134|||20200430100850
20200430|376|02000134|1|1|2|55|1815127269046|1815127269046|02000134|02000134|||20200430100918
20200430|377|02000134|1|1|2|55|1818714555279|1818714555279|02000134|02000134|||20200430100950
20200430|381|02000134|1|1|2|55|1800100000099|1800100000099|02000134|02000134|||20200430101021
20200430|382|02000134|1|1|2|55|1818604681909|1818604681909|02000134|02000134|||20200430101038
20200430|383|02000134|1|1|2|55|1800100000122|1800100000122|02000134|02000134|||20200430101056
20200430|384|02000134|1|1|2|55|1814784685555|1814784685555|02000134|02000134|||20200430101100
20200430|386|02000134|1|1|2|55|1815946631777|1815946631777|02000134|02000134|||20200430101114
20200430|387|02000134|1|1|2|55|1813383626357|1813383626357|02000134|02000134|||20200430101116
20200430|389|02000134|1|1|2|55|1818604689751|1818604689751|02000134|02000134|||20200430101136
20200430|390|02000134|1|1|2|55|1815596230859|1815596230859|02000134|02000134|||20200430101148
20200430|393|02000134|1|1|2|55|1817614685531|1817614685531|02000134|02000134|||20200430101225
20200430|394|02000134|1|1|2|55|1813946779996|1813946779996|02000134|02000134|||20200430101227
20200430|397|02000134|1|1|2|55|1813582233927|1813582233927|02000134|02000134|||20200430101325
20200430|398|02000134|1|1|2|55|1813803459072|1813803459072|02000134|02000134|||20200430101331
20200430|399|02000134|1|1|2|55|1818746794204|1818746794204|02000134|02000134|||20200430101332
20200430|400|02000134|1|1|2|55|1800100000071|1800100000071|02000134|02000134|||20200430101351
20200430|402|02000134|1|1|2|55|1813766708898|1813766708898|02000134|02000134|||20200430101402
20200430|403|02000134|1|1|2|55|1818804688440|1818804688440|02000134|02000134|||20200430101444
20200430|404|02000134|1|1|2|55|1800100000237|1800100000237|02000134|02000134|||20200430101517
20200430|405|02000134|1|1|2|55|1813846862770|1813846862770|02000134|02000134|||20200430101528
20200430|406|02000134|1|1|2|55|1813645784978|1813645784978|02000134|02000134|||20200430101542
20200430|407|02000134|1|1|2|55|1813946786563|1813946786563|02000134|02000134|||20200430101614
20200430|410|02000134|1|1|2|55|1800100000221|1800100000221|02000134|02000134|||20200430101623
20200430|411|02000134|1|1|2|55|1815057868317|1815057868317|02000134|02000134|||20200430101640
20200430|412|02000134|1|1|2|55|1813931360238|1813931360238|02000134|02000134|||20200430101644
20200430|413|02000134|1|1|2|55|1818945765909|1818945765909|02000134|02000134|||20200430101658
20200430|414|02000134|1|1|2|55|1815945821718|1815945821718|02000134|02000134|||20200430101700
20200430|415|02000134|1|1|2|55|1813967066813|1813967066813|02000134|02000134|||20200430101737
20200430|416|02000134|1|1|2|55|1815891187077|1815891187077|02000134|02000134|||20200430101749
20200430|417|02000134|1|1|2|55|1813115642991|1813115642991|02000134|02000134|||20200430101752
20200430|419|02000134|1|1|2|55|1815990428194|1815990428194|02000134|02000134|||20200430101813
20200430|420|02000134|1|1|2|55|1813339582221|1813339582221|02000134|02000134|||20200430101837
20200430|423|02000134|1|1|2|55|1815967919905|1815967919905|02000134|02000134|||20200430101918
20200430|424|02000134|1|1|2|55|1815804681313|1815804681313|02000134|02000134|||20200430101925
20200430|425|02000134|1|1|2|55|1818767811827|1818767811827|02000134|02000134|||20200430101952
20200430|426|02000134|1|1|2|55|1815094526270|1815094526270|02000134|02000134|||20200430102010
20200430|427|02000134|1|1|2|55|1815845463032|1815845463032|02000134|02000134|||20200430102059
20200430|429|02000134|1|1|2|55|1813204687660|1813204687660|02000134|02000134|||20200430102145
20200430|430|02000134|1|1|2|55|1816646828858|1816646828858|02000134|02000134|||20200430102318
20200430|431|02000134|1|1|2|55|1813159888612|1813159888612|02000134|02000134|||20200430102407
20200430|432|02000134|1|1|2|55|1818604031950|1818604031950|02000134|02000134|||20200430102448
20200430|433|02000134|1|1|2|55|1815527737710|1815527737710|02000134|02000134|||20200430102515
20200430|436|02000134|1|1|2|55|1813324536769|1813324536769|02000134|02000134|||20200430102521
20200430|437|02000134|1|1|2|55|1815860112718|1815860112718|02000134|02000134|||20200430102538
20200430|438|02000134|1|1|2|55|1813018636355|1813018636355|02000134|02000134|||20200430102622
20200430|439|02000134|1|1|2|55|1813636870153|1813636870153|02000134|02000134|||20200430102635
20200430|440|02000134|1|1|2|55|1813559987851|1813559987851|02000134|02000134|||20200430102651
20200430|441|02000134|1|1|2|55|1817303121352|1817303121352|02000134|02000134|||20200430102757
20200430|443|02000134|1|1|2|55|1813992186412|1813992186412|02000134|02000134|||20200430102910
20200430|445|02000134|1|1|2|55|1817713243193|1817713243193|02000134|02000134|||20200430103042
20200430|446|02000134|1|1|2|55|1815829415554|1815829415554|02000134|02000134|||20200430103044
20200430|447|02000134|1|1|2|55|1813930241343|1813930241343|02000134|02000134|||20200430103129
20200430|451|02000134|1|1|2|55|1815157898394|1815157898394|02000134|02000134|||20200430103225
20200430|452|02000134|1|1|2|55|1818746536689|1818746536689|02000134|02000134|||20200430103247
20200430|453|02000134|1|1|2|55|1813735922508|1813735922508|02000134|02000134|||20200430103256
20200430|454|02000134|1|1|2|55|1813587148777|1813587148777|02000134|02000134|||20200430103333
20200430|455|02000134|1|1|2|55|1813278244178|1813278244178|02000134|02000134|||20200430103347
20200430|457|02000134|1|1|2|55|1813606699357|1813606699357|02000134|02000134|||20200430103533
20200430|458|02000134|1|1|2|55|1813754273333|1813754273333|02000134|02000134|||20200430103610
20200430|459|02000134|1|1|2|55|1818758949435|1818758949435|02000134|02000134|||20200430103643
20200430|460|02000134|1|1|2|55|1815990818307|1815990818307|02000134|02000134|||20200430103647
20200430|461|02000134|1|1|2|55|1818257097983|1818257097983|02000134|02000134|||20200430103734
20200430|465|02000134|1|1|2|55|1818958463402|1818958463402|02000134|02000134|||20200430104051
20200430|466|02000134|1|1|2|55|1815046592512|1815046592512|02000134|02000134|||20200430104126
20200430|468|02000134|1|1|2|55|1813234584513|1813234584513|02000134|02000134|||20200430104205
20200430|470|02000134|1|1|2|55|1813624683018|1813624683018|02000134|02000134|||20200430104301
20200430|471|02000134|1|1|2|55|1813828106867|1813828106867|02000134|02000134|||20200430104306
20200430|473|02000134|1|1|2|55|1815257996892|1815257996892|02000134|02000134|||20200430104317
20200430|475|02000134|1|1|2|55|1815305796690|1815305796690|02000134|02000134|||20200430104429
20200430|476|02000134|1|1|2|55|1815945288222|1815945288222|02000134|02000134|||20200430104447
20200430|477|02000134|1|1|2|55|1800100000298|1800100000298|02000134|02000134|||20200430104525
20200430|478|02000134|1|1|2|55|1813566943256|1813566943256|02000134|02000134|||20200430104559
20200430|481|02000134|1|1|2|55|1817703687887|1817703687887|02000134|02000134|||20200430104613
20200430|482|02000134|1|1|2|55|1815204682299|1815204682299|02000134|02000134|||20200430104704
20200430|484|02000134|1|1|2|55|1815094564333|1815094564333|02000134|02000134|||20200430104752
20200430|485|02000134|1|1|2|55|1815845468057|1815845468057|02000134|02000134|||20200430104844
20200430|489|02000134|1|1|2|55|1800100000358|1800100000358|02000134|02000134|||20200430104958
20200430|490|02000134|1|1|2|55|1815146868665|1815146868665|02000134|02000134|||20200430105038
20200430|492|02000134|1|1|2|55|1815215865578|1815215865578|02000134|02000134|||20200430105501
20200430|494|02000134|1|1|2|55|1818857909742|1818857909742|02000134|02000134|||20200430105724
20200430|495|02000134|1|1|2|55|1815271858967|1815271858967|02000134|02000134|||20200430110011
20200430|501|02000134|1|1|2|55|1813643126078|1813643126078|02000134|02000134|||20200430110430
20200430|506|02000134|1|1|2|55|1813730157568|1813730157568|02000134|02000134|||20200430110849
20200430|507|02000134|1|1|2|55|1818993303292|1818993303292|02000134|02000134|||20200430111050
20200430|514|02000134|1|1|2|55|1813931289112|1813931289112|02000134|02000134|||20200430111556
20200430|515|02000134|1|1|2|558|1818070023038|1818070023038|02000134|02000134|||20200430111727
20200430|518|02000134|1|1|2|558|1800100000359|1800100000359|02000134|02000134|||20200430111837
20200430|521|02000134|1|1|2|334|1800100000031|1800100000031|02000134|02000134|||20200430111840
20200430|522|02000134|1|1|2|167|1815933126808|1815933126808|02000134|02000134|||20200430111913
20200430|525|02000134|1|1|2|334|1815933126808|1815933126808|02000134|02000134|||20200430111931
20200430|526|02000134|1|1|2|558|1818679687885|1818679687885|02000134|02000134|||20200430111942
20200430|529|02000134|1|1|2|558|1815079001967|1815079001967|02000134|02000134|||20200430111956
20200430|532|02000134|1|1|2|55|1815211571887|1815211571887|02000134|02000134|||20200430112043
20200430|533|02000134|1|1|2|111|1813155805320|1813155805320|02000134|02000134|||20200430112054
20200430|536|02000134|1|1|2|334|1815211571887|1815211571887|02000134|02000134|||20200430112101
20200430|537|02000134|1|1|2|55|1813828106867|1813828106867|02000134|02000134|||20200430112124
20200430|538|02000134|1|1|2|55|1815127269046|1815127269046|02000134|02000134|||20200430112205
20200430|539|02000134|1|1|2|558|1813207004007|1813207004007|02000134|02000134|||20200430112214
20200430|542|02000134|1|1|2|558|1813870547014|1813870547014|02000134|02000134|||20200430112215
20200430|545|02000134|1|1|2|279|1813082360764|1813082360764|02000134|02000134|||20200430112224
20200430|548|02000134|1|1|2|55|1813828106867|1813828106867|02000134|02000134|||20200430112230
20200430|549|02000134|1|1|2|55|1815333225923|1815333225923|02000134|02000134|||20200430112238
20200430|550|02000134|1|1|2|55|1813828106867|1813828106867|02000134|02000134|||20200430112246
20200430|555|02000134|1|1|2|55|1813335311791|1813335311791|02000134|02000134|||20200430112724
20200430|556|02000134|1|1|2|55|1815227060395|1815227060395|02000134|02000134|||20200430112820
20200430|557|02000134|1|1|2|55|1815933321253|1815933321253|02000134|02000134|||20200430112915
20200430|563|02000134|1|1|2|55|1818806881991|1818806881991|02000134|02000134|||20200430132240
20200430|566|02000134|1|1|2|55|1815632285132|1815632285132|02000134|02000134|||20200430132615
20200430|567|02000134|1|1|2|55|1818042285818|1818042285818|02000134|02000134|||20200430132637
20200430|568|02000134|1|1|2|55|1813673221558|1813673221558|02000134|02000134|||20200430132656
20200430|572|02000134|1|1|2|55|1815131220736|1815131220736|02000134|02000134|||20200430132755
20200430|573|02000134|1|1|2|55|1815932233668|1815932233668|02000134|02000134|||20200430132833
20200430|574|02000134|1|1|2|55|1813819969008|1813819969008|02000134|02000134|||20200430132837
20200430|575|02000134|1|1|2|55|1813400222805|1813400222805|02000134|02000134|||20200430132910
20200430|576|02000134|1|1|2|558|1800100000261|1800100000261|02000134|02000134|||20200430132910
20200430|579|02000134|1|1|2|558|1818779177007|1818779177007|02000134|02000134|||20200430132911
20200430|582|02000134|1|1|2|558|1813617009398|1813617009398|02000134|02000134|||20200430132935
20200430|585|02000134|1|1|2|111|1813320017199|1813320017199|02000134|02000134|||20200430132948
20200430|588|02000134|1|1|2|111|1813807031317|1813807031317|02000134|02000134|||20200430132953
20200430|589|02000134|1|1|2|111|1813320017199|1813320017199|02000134|02000134|||20200430133012
20200430|590|02000134|1|1|2|55|1813516899089|1813516899089|02000134|02000134|||20200430133022
20200430|591|02000134|1|1|2|55|1813906781438|1813906781438|02000134|02000134|||20200430133033
20200430|592|02000134|1|1|2|55|1813396888838|1813396888838|02000134|02000134|||20200430133211
20200430|593|02000134|1|1|2|55|1815924117387|1815924117387|02000134|02000134|||20200430133246
20200430|594|02000134|1|1|2|55|1818667101556|1818667101556|02000134|02000134|||20200430133323
20200430|595|02000134|1|1|2|55|1813306881828|1813306881828|02000134|02000134|||20200430133355
20200430|598|02000134|1|1|2|55|1815268612201|1815268612201|02000134|02000134|||20200430133356
20200430|599|02000134|1|1|2|55|1800100000104|1800100000104|02000134|02000134|||20200430133545
20200430|601|02000134|1|1|2|55|1813757090508|1813757090508|02000134|02000134|||20200430133558
20200430|602|02000134|1|1|2|55|1800100000087|1800100000087|02000134|02000134|||20200430133639
20200430|603|02000134|1|1|2|55|1813633389021|1813633389021|02000134|02000134|||20200430133715
20200430|605|02000134|1|1|2|55|1813785432993|1813785432993|02000134|02000134|||20200430133747
20200430|606|02000134|1|1|2|55|1815133217875|1815133217875|02000134|02000134|||20200430133817
20200430|608|02000134|1|1|2|55|1815097746135|1815097746135|02000134|02000134|||20200430133847
20200430|609|02000134|1|1|2|55|1818713290860|1818713290860|02000134|02000134|||20200430133937
20200430|611|02000134|1|1|2|55|1815032236912|1815032236912|02000134|02000134|||20200430134022
20200430|614|02000134|1|1|2|55|1813730238225|1813730238225|02000134|02000134|||20200430134122
20200430|616|02000134|1|1|2|55|1815170023481|1815170023481|02000134|02000134|||20200430134147
20200430|617|02000134|1|1|2|55|1813513284448|1813513284448|02000134|02000134|||20200430134219
20200430|620|02000134|1|1|2|55|1813641226784|1813641226784|02000134|02000134|||20200430134419
20200430|621|02000134|1|1|2|55|1800100000048|1800100000048|02000134|02000134|||20200430134434
20200430|622|02000134|1|1|2|55|1813180214668|1813180214668|02000134|02000134|||20200430134447
20200430|623|02000134|1|1|2|55|1813520802238|1813520802238|02000134|02000134|||20200430134532
20200430|624|02000134|1|1|2|55|1815733826587|1815733826587|02000134|02000134|||20200430134625
20200430|625|02000134|1|1|2|55|1800100000245|1800100000245|02000134|02000134|||20200430134702
20200430|626|02000134|1|1|2|55|1800100000138|1800100000138|02000134|02000134|||20200430134730
20200430|629|02000134|1|1|2|55|1813400350306|1813400350306|02000134|02000134|||20200430134755
20200430|630|02000134|1|1|2|55|1815833895638|1815833895638|02000134|02000134|||20200430135019
20200430|631|02000134|1|1|2|55|1816603205239|1816603205239|02000134|02000134|||20200430135045
20200430|632|02000134|1|1|2|55|1815227006003|1815227006003|02000134|02000134|||20200430135136
20200430|633|02000134|1|1|2|55|1813931219857|1813931219857|02000134|02000134|||20200430135207
20200430|634|02000134|1|1|2|55|1800100000125|1800100000125|02000134|02000134|||20200430135352
20200430|635|02000134|1|1|2|55|1818103143885|1818103143885|02000134|02000134|||20200430135648
20200430|636|02000134|1|1|2|55|1813870999620|1813870999620|02000134|02000134|||20200430135656
20200430|637|02000134|1|1|2|55|1813513061187|1813513061187|02000134|02000134|||20200430135725
20200430|638|02000134|1|1|2|55|1813263090451|1813263090451|02000134|02000134|||20200430135902
20200430|641|02000134|1|1|2|55|1817607082603|1817607082603|02000134|02000134|||20200430135953
20200430|642|02000134|1|1|2|55|1818079110216|1818079110216|02000134|02000134|||20200430140114
20200430|643|02000134|1|1|2|55|1800100000213|1800100000213|02000134|02000134|||20200430140618
20200430|644|02000134|1|1|2|55|1813796290795|1813796290795|02000134|02000134|||20200430140718
20200430|645|02000134|1|1|2|55|1800100000036|1800100000036|02000134|02000134|||20200430140724
20200430|646|02000134|1|1|2|55|1815279193370|1815279193370|02000134|02000134|||20200430140736
20200430|648|02000134|1|1|2|55|1800100000280|1800100000280|02000134|02000134|||20200430140845
20200430|650|02000134|1|1|2|55|1813770855951|1813770855951|02000134|02000134|||20200430140926
20200430|654|02000134|1|1|2|55|1815353294588|1815353294588|02000134|02000134|||20200430142115
20200430|656|02000134|1|1|2|55|1815930239024|1815930239024|02000134|02000134|||20200430142247
20200430|660|02000134|1|1|2|55|1813463287557|1813463287557|02000134|02000134|||20200430142501
20200430|664|02000134|1|1|2|55|1813571459983|1813571459983|02000134|02000134|||20200430143137
20200430|665|02000134|1|1|2|558|1815030230206|1815030230206|02000134|02000134|||20200430143512
20200430|668|02000134|1|1|2|558|1815630279935|1815630279935|02000134|02000134|||20200430143740
20200430|673|02000134|1|1|2|55|1813663315968|1813663315968|02000134|02000134|||20200430144011
20200430|674|02000134|1|1|2|55|1818079110216|1818079110216|02000134|02000134|||20200430144012
20200430|675|02000134|1|1|2|55|1818591506868|1818591506868|02000134|02000134|||20200430144106
20200430|676|02000134|1|1|2|558|1800100000256|1800100000256|02000134|02000134|||20200430144116
20200430|679|02000134|1|1|2|223|1818591506868|1818591506868|02000134|02000134|||20200430144119
20200430|680|02000134|1|1|2|55|1813463442485|1813463442485|02000134|02000134|||20200430144153
20200430|683|02000134|1|1|2|558|1815303121880|1815303121880|02000134|02000134|||20200430144243
20200430|684|02000134|1|1|2|167|1815609151431|1815609151431|02000134|02000134|||20200430144257
20200430|688|02000134|1|1|2|167|1818829756688|1818829756688|02000134|02000134|||20200430144349
20200430|690|02000134|1|1|2|558|1818691191808|1818691191808|02000134|02000134|||20200430144444
20200430|693|02000134|1|1|2|669|1815033779933|1815033779933|02000134|02000134|||20200430144527
20200430|696|02000134|1|1|2|111|1815630279935|1815630279935|02000134|02000134|||20200430144538
20200430|698|02000134|1|1|2|558|1813330112756|1813330112756|02000134|02000134|||20200430144757
20200430|701|02000134|1|1|2|558|1813473122412|1813473122412|02000134|02000134|||20200430144835
20200430|705|02000134|1|1|2|558|1800100000340|1800100000340|02000134|02000134|||20200430144856
20200430|708|02000134|1|1|2|558|1815070004787|1815070004787|02000134|02000134|||20200430144858
20200430|711|02000134|1|1|2|558|1800100000257|1800100000257|02000134|02000134|||20200430144936
20200430|714|02000134|1|1|2|558|1800100000236|1800100000236|02000134|02000134|||20200430145011
20200430|720|02000134|1|1|2|558|1800100000234|1800100000234|02000134|02000134|||20200430145046
20200430|723|02000134|1|1|2|558|1813870662832|1813870662832|02000134|02000134|||20200430145104
20200430|726|02000134|1|1|2|558|1815070964165|1815070964165|02000134|02000134|||20200430145109
20200430|729|02000134|1|1|2|55|1813155805320|1813155805320|02000134|02000134|||20200430145118
20200430|732|02000134|1|1|2|558|1800100000260|1800100000260|02000134|02000134|||20200430145122
20200430|735|02000134|1|1|2|55|1813155805320|1813155805320|02000134|02000134|||20200430145133
20200430|736|02000134|1|1|2|558|1815907052137|1815907052137|02000134|02000134|||20200430145143
20200430|739|02000134|1|1|2|558|1800100000197|1800100000197|02000134|02000134|||20200430145153
20200430|742|02000134|1|1|2|55|1815502925058|1815502925058|02000134|02000134|||20200430145155
20200430|743|02000134|1|1|2|558|1815070008715|1815070008715|02000134|02000134|||20200430145206
20200430|746|02000134|1|1|2|558|1818923668819|1818923668819|02000134|02000134|||20200430145214
20200430|749|02000134|1|1|2|558|1813870602362|1813870602362|02000134|02000134|||20200430145230
20200430|752|02000134|1|1|2|111|1817679147786|1817679147786|02000134|02000134|||20200430145230
20200430|753|02000134|1|1|2|55|1818149061051|1818149061051|02000134|02000134|||20200430145236
20200430|754|02000134|1|1|2|558|1813607095019|1813607095019|02000134|02000134|||20200430145245
20200430|757|02000134|1|1|2|558|1815879317904|1815879317904|02000134|02000134|||20200430145247
20200430|760|02000134|1|1|2|558|1815879175735|1815879175735|02000134|02000134|||20200430145304
20200430|763|02000134|1|1|2|55|1819909235532|1819909235532|02000134|02000134|||20200430145305
20200430|764|02000134|1|1|2|558|1815870697192|1815870697192|02000134|02000134|||20200430145318
20200430|767|02000134|1|1|2|111|1817679147786|1817679147786|02000134|02000134|||20200430145319
20200430|768|02000134|1|1|2|558|1815070002292|1815070002292|02000134|02000134|||20200430145322
20200430|771|02000134|1|1|2|558|1818170832599|1818170832599|02000134|02000134|||20200430145340
20200430|774|02000134|1|1|2|55|1817697226810|1817697226810|02000134|02000134|||20200430145349
20200430|775|02000134|1|1|2|558|1813330093627|1813330093627|02000134|02000134|||20200430145349
20200430|778|02000134|1|1|2|558|1813970022873|1813970022873|02000134|02000134|||20200430145424
20200430|784|02000134|1|1|2|55|1800100000359|1800100000359|02000134|02000134|||20200430145431
20200430|785|02000134|1|1|2|55|1800100000359|1800100000359|02000134|02000134|||20200430145446
20200430|790|02000134|1|1|2|55|1800100000359|1800100000359|02000134|02000134|||20200430145501
20200430|796|02000134|1|1|2|55|1800100000359|1800100000359|02000134|02000134|||20200430145511
20200430|797|02000134|1|1|2|558|1815350001169|1815350001169|02000134|02000134|||20200430145511
20200430|803|02000134|1|1|2|55|1800100000359|1800100000359|02000134|02000134|||20200430145522
20200430|804|02000134|1|1|2|55|1800100000359|1800100000359|02000134|02000134|||20200430145532
20200430|808|02000134|1|1|2|55|1800100000359|1800100000359|02000134|02000134|||20200430145545
20200430|809|02000134|1|1|2|55|1813870999620|1813870999620|02000134|02000134|||20200430145546
20200430|810|02000134|1|1|2|558|1815070897250|1815070897250|02000134|02000134|||20200430145547
20200430|813|02000134|1|1|2|55|1813263090451|1813263090451|02000134|02000134|||20200430145616
20200430|814|02000134|1|1|2|558|1813065128288|1813065128288|02000134|02000134|||20200430145620
20200430|817|02000134|1|1|2|55|1813263090451|1813263090451|02000134|02000134|||20200430145628
20200430|818|02000134|1|1|2|55|1813263090451|1813263090451|02000134|02000134|||20200430145641
20200430|819|02000134|1|1|2|111|1813263090451|1813263090451|02000134|02000134|||20200430145659
20200430|820|02000134|1|1|2|558|1813970039068|1813970039068|02000134|02000134|||20200430145727
20200430|823|02000134|1|1|2|55|1818119672820|1818119672820|02000134|02000134|||20200430145743
20200430|824|02000134|1|1|2|55|1818119672820|1818119672820|02000134|02000134|||20200430145754
20200430|840|02000134|1|1|2|558|1813807031317|1813807031317|02000134|02000134|||20200430145756
20200430|845|02000134|1|1|2|558|1813607095019|1813607095019|02000134|02000134|||20200430145759
20200430|846|02000134|1|1|2|55|1817607082603|1817607082603|02000134|02000134|||20200430145800
20200430|847|02000134|1|1|2|111|1817607082603|1817607082603|02000134|02000134|||20200430145818
20200430|851|02000134|1|1|2|55|1813207917659|1813207917659|02000134|02000134|||20200430145851
20200430|852|02000134|1|1|2|55|1813207917659|1813207917659|02000134|02000134|||20200430145901
20200430|853|02000134|1|1|2|111|1813870999620|1813870999620|02000134|02000134|||20200430145903
20200430|855|02000134|1|1|2|55|1813870999620|1813870999620|02000134|02000134|||20200430145930
20200430|856|02000134|1|1|2|55|1818000210736|1818000210736|02000134|02000134|||20200430145933
20200430|857|02000134|1|1|2|55|1818000210736|1818000210736|02000134|02000134|||20200430145943
20200430|858|02000134|1|1|2|55|1813870999620|1813870999620|02000134|02000134|||20200430145952
