清算中心流水号&交易所流水号&业务发生日期&交易所代码&会员编码&资金账号&出入金类型&发生金额&手续费金额&银行产品代码&备注
20062930020100456523&Z33B9TBS75A0O5Q6&20200629&02000016&1800100000057&1800100000057&0&200601&601&boshzjjg&
20062930020100456644&2UL24JSJQ62UZOWS&20200629&02000016&1815733226550&1815733226550&0&200601&601&boshzjjg&
20062930020100456524&8LDXGYV3ZSFJDKEN&20200629&02000016&1813264095514&1813264095514&0&25075&75&boshzjjg&
20062930020100456645&IHX67TW0CFIQ9NEM&20200629&02000016&1800100000057&1800100000057&0&5015&15&boshzjjg&
20062930020100456527&VKQM9LXAT9SKA0AG&20200629&02000016&1815871938967&1815871938967&0&391173&1173&boshzjjg&
20062930020100456528&E6C8RLKJ1HGX5WQW&20200629&02000016&1813643126078&1813643126078&0&90270&270&boshzjjg&
20062930020100456647&5KLIS2TYNW4R137K&20200629&02000016&1818803250101&1818803250101&0&10030&30&boshzjjg&
20062930020100456529&7JGIQ1MQJFHHCSG9&20200629&02000016&1800100000060&1800100000060&0&150451&451&boshzjjg&
20062930020100456619&MA0ZU0AVRVEFO3KI&20200629&02000016&1818468025462&1818468025462&0&20060&60&boshzjjg&
20062930020100456620&LDGONK303Q25E5M7&20200629&02000016&1813363243535&1813363243535&0&30090&90&boshzjjg&
20062930020100456621&DH09CU2V6RZGE8SE&20200629&02000016&1813577500356&1813577500356&0&40120&120&boshzjjg&
20062930020100456533&4K9R0K0IFE9TD1XI&20200629&02000016&1815245436282&1815245436282&0&20060&60&boshzjjg&
20062930020100456738&HN8RNFM577JPI414&20200629&02000016&1813603225419&1813603225419&0&100300&300&boshzjjg&
20062930020100456654&LH9FGOUDBRIBY1F5&20200629&02000016&1818091149039&1818091149039&0&2006&6&boshzjjg&
20062930020100456742&Q2YY3FILUTUPZALP&20200629&02000016&1815175219511&1815175219511&0&50150&150&boshzjjg&
20062930020100456626&UVCSD4F0N01MLC8W&20200629&02000016&1818833239911&1818833239911&0&20060&60&boshzjjg&
20062930020100456747&PQ6GE2EB4P6PO7S2&20200629&02000016&1813393192793&1813393192793&0&186058&558&boshzjjg&
20062930020100456749&B44XFG2D8VS9SWK6&20200629&02000016&1815097439866&1815097439866&0&20060&60&boshzjjg&
20062930020100456662&5A2POGGUZ8XXO6H6&20200629&02000016&1818633279312&1818633279312&0&20060&60&boshzjjg&
20062930020100456752&YMW10GFUJJJITR7G&20200629&02000016&1817516551290&1817516551290&0&20060&60&boshzjjg&
20062930020100456756&TMJ7K082H0OOOPPX&20200629&02000016&1813611017783&1813611017783&0&20060&60&boshzjjg&
20062930020100456764&XWUV6ATFA0O87QTZ&20200629&02000016&1819931286513&1819931286513&0&24874&74&boshzjjg&
20062930020100456675&VU2P57KSB5EFP0M2&20200629&02000016&1813619405650&1813619405650&0&200601&601&boshzjjg&
20062930020100456791&NYC20RHG19BQXG00&20200629&02000016&1813840542929&1813840542929&0&280842&842&boshzjjg&
20062930020100456884&GA00UG4Z1MR33IMY&20200629&02000016&1818159800103&1818159800103&0&47141&141&boshzjjg&
20062930020100456711&O6MZKR24JN1RNWIK&20200629&02000016&1818976770088&1818976770088&0&30090&90&boshzjjg&
20062930020100456713&7WVEFONNRTKGDKAS&20200629&02000016&1815346666882&1815346666882&0&200601&601&boshzjjg&
20062930020100456717&Z84EGVX2QQIRWE39&20200629&02000016&1813997996613&1813997996613&0&300902&902&boshzjjg&
20062930020100456889&8OODP6DG1YE0YBKC&20200629&02000016&1815132225088&1815132225088&0&187562&562&boshzjjg&
20062930020100456720&ORBY894SN80YQYVZ&20200629&02000016&1813363243535&1813363243535&0&10030&30&boshzjjg&
20062930020100456892&WNQHXAX8U1N7ZCVJ&20200629&02000016&1813220168777&1813220168777&0&10030&30&boshzjjg&
20062930020100456822&5CXGLI3LP1LHN6A1&20200629&02000016&1815127220896&1815127220896&0&15045&45&boshzjjg&
20062930020100456824&8PUETQ7E41KIEGIG&20200629&02000016&1800100000022&1800100000022&0&200601&601&boshzjjg&
20062930020100456727&9LLOZDLVFXIO9FSN&20200629&02000016&1815636926050&1815636926050&0&20060&60&boshzjjg&
20062930020100456730&K8D1TCPBMCKKOBXB&20200629&02000016&1813478653378&1813478653378&0&40120&120&boshzjjg&
20062930020100456943&80GC4Q98UES5EE7F&20200629&02000016&1813796574791&1813796574791&0&10030&30&boshzjjg&
20062930020100457042&I7S6UQMN0YEQJ2KH&20200629&02000016&1813932256061&1813932256061&0&20060&60&boshzjjg&
20062930020100456928&DHG7R9LJM04V1FGM&20200629&02000016&1813730451279&1813730451279&0&40120&120&boshzjjg&
20062930020100456957&1GLKJYE4YE37ZTE0&20200629&02000016&1813779597882&1813779597882&0&80240&240&boshzjjg&
20062930020100457056&CSQVGS2MQ0K1UPPD&20200629&02000016&1818889422056&1818889422056&0&10030&30&boshzjjg&
20062930020100457059&5CGQSOUE1FXEBZI0&20200629&02000016&1813111603824&1813111603824&0&187562&562&boshzjjg&
20062930020100456973&SEUS5LQ8EKF10Y6A&20200629&02000016&1815862058578&1815862058578&0&10030&30&boshzjjg&
20062930020100456974&P5IYXLTWULX56MFP&20200629&02000016&1818803125896&1818803125896&0&20060&60&boshzjjg&
20062930020100457064&KCSYJCAPQU0L98W8&20200629&02000016&1815818598480&1815818598480&0&30090&90&boshzjjg&
20062930020100456977&M3H1KTVXB6262XJS&20200629&02000016&1815232508176&1815232508176&0&40120&120&boshzjjg&
20062930020100457154&32V0I277IXN8EQHB&20200629&02000016&1819970675577&1819970675577&0&200601&601&boshzjjg&
20062930020100456991&ELIGKQGALYZN53T6&20200629&02000016&1817508751568&1817508751568&0&10220&30&boshzjjg&
20062930020100457172&WN7S4QXH4DY77PO3&20200629&02000016&1817679024406&1817679024406&0&20060&60&boshzjjg&
20062930020100457103&QF90F3NYAGV4Q29J&20200629&02000016&1800100000031&1800100000031&0&180541&541&boshzjjg&
20062930020100457115&UXCCZ4D8TZD9Q809&20200629&02000016&1817689826169&1817689826169&0&10030&30&boshzjjg&
20062930020100457126&MDS0R75W62PQ0P7A&20200629&02000016&1813308821971&1813308821971&0&10030&30&boshzjjg&
20062930020100457235&XVP9FFMZWRO7B4FL&20200629&02000016&1813159989877&1813159989877&0&30090&90&boshzjjg&
20062930020100457202&GK3V37X4ET0EDKFH&20200629&02000016&1813069609860&1813069609860&0&10030&30&boshzjjg&
20062930020100457132&AEDU6ULDGWF93MOR&20200629&02000016&1819931216183&1819931216183&0&10030&30&boshzjjg&
20062930020100457243&DDCIU8R9RPTHZODO&20200629&02000016&1800100000109&1800100000109&0&10030&30&boshzjjg&
20062930020100457342&9K14YGB1DX8VZYEF&20200629&02000016&1815208756608&1815208756608&0&140421&421&boshzjjg&
20062930020100457215&GHQAFXRUJN1GMZKM&20200629&02000016&1818674148199&1818674148199&0&200601&601&boshzjjg&
20062930020100457347&IYPG5WZ7B8MQ5D4Z&20200629&02000016&1813930238016&1813930238016&0&10030&30&boshzjjg&
20062930020100457353&ONVUUNY80UTRSO3H&20200629&02000016&1800100000345&1800100000345&0&20060&60&boshzjjg&
20062930020100457276&854RBBW73G378D44&20200629&02000016&1813400336006&1813400336006&0&20060&60&boshzjjg&
20062930020100457371&0WOWZJ7BCOX12JAG&20200629&02000016&1815029688272&1815029688272&0&501504&1504&boshzjjg&
20062930020100457456&76V6H7GRRZL2UEYT&20200629&02000016&1815042400515&1815042400515&0&35105&105&boshzjjg&
20062930020100457380&3BO3EQTSNH59JVHA&20200629&02000016&1818132758604&1818132758604&0&30090&90&boshzjjg&
20062930020100457383&GHGIKI8JWHL2OMTM&20200629&02000016&1815025068429&1815025068429&0&30090&90&boshzjjg&
20062930020100457384&2G94VCS5TP77J0ZC&20200629&02000016&1813513061187&1813513061187&0&50150&150&boshzjjg&
20062930020100457461&7SJYNHR7GHJM2H4Y&20200629&02000016&1818451316569&1818451316569&0&10030&30&boshzjjg&
20062930020100457466&BTEEXHTMRNODKVZ9&20200629&02000016&1815245431805&1815245431805&0&70210&210&boshzjjg&
20062930020100457396&HQZT4SRAYNWLIGGI&20200629&02000016&1813769055559&1813769055559&0&90270&270&boshzjjg&
20062930020100457479&Y0LPR81PIQAU9QHK&20200629&02000016&1813520629383&1813520629383&0&40120&120&boshzjjg&
20062930020100457480&ZU36WMCDU0POYFGO&20200629&02000016&1813930833053&1813930833053&0&40120&120&boshzjjg&
20062930020100457304&EO3QCOF0RA5G7WAI&20200629&02000016&1815184848605&1815184848605&0&65195&195&boshzjjg&
20062930020100457481&PG864EG0QGHJ1ZQ0&20200629&02000016&1818165273182&1818165273182&0&100300&300&boshzjjg&
20062930020100457314&OINYM004Z6R4Y517&20200629&02000016&1813463503191&1813463503191&0&10030&30&boshzjjg&
20062930020100457315&H7ECL8AI4UZ0DL13&20200629&02000016&1815208999328&1815208999328&0&10030&30&boshzjjg&
20062930020100457316&LX2OYHRU4MB1ZKJX&20200629&02000016&1813545932491&1813545932491&0&100300&300&boshzjjg&
20062930020100457411&N4S882ZKOQM85DSM&20200629&02000016&1818203492787&1818203492787&0&10030&30&boshzjjg&
20062930020100457414&TUPE0CL5AG2CFPVM&20200629&02000016&1813400399909&1813400399909&0&10030&30&boshzjjg&
20062930020100457417&GZV0O8BAZV7MTJSJ&20200629&02000016&1813730445441&1813730445441&0&20060&60&boshzjjg&
20062930020100457420&4HN8J31K6LM2MWOY&20200629&02000016&1813633226787&1813633226787&0&190571&571&boshzjjg&
20062930020100457507&6Q1I5LTW4WBI2DS6&20200629&02000016&1813131286769&1813131286769&0&20060&60&boshzjjg&
20062930020100457634&NST5Z2LC61QA99JN&20200629&02000016&1815697705772&1815697705772&0&10030&30&boshzjjg&
20062930020100457643&DGTWLL4YXLUVKX92&20200629&02000016&1800100000347&1800100000347&0&62286&186&boshzjjg&
20062930020100457549&AVDT6ZIKBNFCRTG7&20200629&02000016&1815940818417&1815940818417&0&21063&63&boshzjjg&
20062930020100457526&DRNIF4EWB4LQ0DL1&20200629&02000016&1818032526472&1818032526472&0&30090&90&boshzjjg&
20062930020100457734&8G3GNB8OIJT3MW4H&20200629&02000016&1813703227331&1813703227331&0&240722&722&boshzjjg&
20062930020100457561&7KV1EOBJPM5T9U5W&20200629&02000016&1813833007650&1813833007650&0&10030&30&boshzjjg&
20062930020100457670&C4LIJJZ8WDVZ1F7M&20200629&02000016&1813988266618&1813988266618&0&30090&90&boshzjjg&
20062930020100457740&FNN2ZGIT4N3ABCAU&20200629&02000016&1813832256871&1813832256871&0&51554&154&boshzjjg&
20062930020100457564&68NIN1YTQH1ES800&20200629&02000016&1818629264385&1818629264385&0&50150&150&boshzjjg&
20062930020100457566&0GX444O4W2696X6Y&20200629&02000016&1815094223804&1815094223804&0&209628&628&boshzjjg&
20062930020100457677&4ZKBH0GUVAMOOJ1L&20200629&02000016&1815094690607&1815094690607&0&20060&60&boshzjjg&
20062930020100457749&E53HBQ5AC3VFKUFJ&20200629&02000016&1818966843973&1818966843973&0&70210&210&boshzjjg&
20062930020100457686&768O5G9VS9DE4VXU&20200629&02000016&1815925582092&1815925582092&0&209628&628&boshzjjg&
20062930020100457589&QTZQPLVFBYUYHQTF&20200629&02000016&1813349569303&1813349569303&0&10030&30&boshzjjg&
20062930020100457592&3YCT8YRGAH9J7SMR&20200629&02000016&1818387542603&1818387542603&0&198595&595&boshzjjg&
20062930020100457700&NBPE4OU1WLK69NKS&20200629&02000016&1818788001556&1818788001556&0&209628&628&boshzjjg&
20062930020100457711&TH1QQZCEOEERQMIO&20200629&02000016&1815129878708&1815129878708&0&60180&180&boshzjjg&
20062930020100457731&LIC4AVOBJCYLQOS8&20200629&02000016&1813152026763&1813152026763&0&601805&1805&boshzjjg&
20062930020100457792&2C71RYR7RGZ2F4M1&20200629&02000016&1815184972700&1815184972700&0&198896&596&boshzjjg&
20062930020100457834&SKZVWPZDQGJD9VCH&20200629&02000016&1818803126206&1818803126206&0&10030&30&boshzjjg&
20062930020100457937&BIX9ZDBC9IEVUF9F&20200629&02000016&1813292999216&1813292999216&0&10030&30&boshzjjg&
20062930020100457811&109VLYPE5S1A7LX2&20200629&02000016&1813618827226&1813618827226&0&198896&596&boshzjjg&
20062930020100457817&HBBGBTOJ2NB7ED8V&20200629&02000016&1813171908620&1813171908620&0&10030&30&boshzjjg&
20062930020100457821&YEHHC5SZFWTLDUE5&20200629&02000016&1813909852916&1813909852916&0&11434&34&boshzjjg&
20062930020100457862&TEKW26EWULCP03ZF&20200629&02000016&1818387541395&1818387541395&0&198896&596&boshzjjg&
20062930020100457827&ARC9FWQVQ635UBOW&20200629&02000016&1813191684413&1813191684413&0&30090&90&boshzjjg&
20062930020100457950&9N41KBH3NDY36NUC&20200629&02000016&1818729936598&1818729936598&0&200601&601&boshzjjg&
20062930020100457951&TGHPRSR91XYYVE79&20200629&02000016&1813636725549&1813636725549&0&401203&1203&boshzjjg&
20062930020100458036&0ZAJ7MV9R1481OSN&20200629&02000016&1818131201300&1818131201300&0&200601&601&boshzjjg&
20062930020100457961&BPX56VT9X4M8ITXD&20200629&02000016&1815038169553&1815038169553&0&30090&90&boshzjjg&
20062930020100457882&M10P2YLWFV92PBNW&20200629&02000016&1818032580086&1818032580086&0&35105&105&boshzjjg&
20062930020100458057&4YSK3XYON0B78TXD&20200629&02000016&1818788224059&1818788224059&0&10030&30&boshzjjg&
20062930020100458063&3RTJMNOAVGZWXYP5&20200629&02000016&1813842006737&1813842006737&0&230692&692&boshzjjg&
20062930020100457897&AMAZ5MSVNK2U6G7V&20200629&02000016&1818279612960&1818279612960&0&10030&30&boshzjjg&
20062930020100458070&EZS63YBO30GY9HN8&20200629&02000016&1818088167118&1818088167118&0&10030&30&boshzjjg&
20062930020100457985&AUT5SME7HYK461L7&20200629&02000016&1818855897042&1818855897042&0&70210&210&boshzjjg&
20062930020100457914&EULVZUOMYO24MXRI&20200629&02000016&1818903125539&1818903125539&0&60180&180&boshzjjg&
20062930020100458090&6EW8E699AC47CIB6&20200629&02000016&1818187582339&1818187582339&0&50150&150&boshzjjg&
20062930020100457994&CZ5UMBWY97U858K8&20200629&02000016&1815230984209&1815230984209&0&10030&30&boshzjjg&
20062930020100457999&GTEQLC1HV12LBIP9&20200629&02000016&1815887508589&1815887508589&0&30090&90&boshzjjg&
20062930020100458139&ZJYNYACXEFYE020K&20200629&02000016&1815630880329&1815630880329&0&10130&30&boshzjjg&
20062930020100458141&ODJ4J65LB3BG16LM&20200629&02000016&1813577525294&1813577525294&0&30090&90&boshzjjg&
20062930020100458100&RW1WITC60D861VXL&20200629&02000016&1818132727138&1818132727138&0&35105&105&boshzjjg&
20062930020100458011&Q6Y03Q1F0JZ0SYBJ&20200629&02000016&1813031511388&1813031511388&0&10030&30&boshzjjg&
20062930020100458146&OETSWHNJMHBLP67I&20200629&02000016&1813780323381&1813780323381&0&130391&391&boshzjjg&
20062930020100458017&M83X31ZG2OJ4JM0E&20200629&02000016&1818002496102&1818002496102&0&270812&812&boshzjjg&
20062930020100458107&C9B54YROCTO3UQVF&20200629&02000016&1815969250481&1815969250481&0&30090&90&boshzjjg&
20062930020100458240&H6T3LGPTWNJETB4N&20200629&02000016&1813921828201&1813921828201&0&30090&90&boshzjjg&
20062930020100458242&CTZFYNA5KCWBXIBT&20200629&02000016&1818233358282&1818233358282&0&20260&60&boshzjjg&
20062930020100458181&SLG2I9HWH1URZZZF&20200629&02000016&1815987886307&1815987886307&0&10030&30&boshzjjg&
20062930020100458335&SHHFOMSNR7AXESID&20200629&02000016&1813230331640&1813230331640&0&10030&30&boshzjjg&
20062930020100458189&ZMXATEFW8YAKHOC9&20200629&02000016&1813224207506&1813224207506&0&40120&120&boshzjjg&
20062930020100458190&WAQ473RLE5BV4F96&20200629&02000016&1813035343475&1813035343475&0&2006&6&boshzjjg&
20062930020100458197&UBDV17UEKXVAZY2O&20200629&02000016&1815830799079&1815830799079&0&90270&270&boshzjjg&
20062930020100458199&YJPEFO0VAN7PQIEG&20200629&02000016&1815222123742&1815222123742&0&100300&300&boshzjjg&
20062930020100458200&O60CGX9D9Q7AWSYC&20200629&02000016&1813578237662&1813578237662&0&10030&30&boshzjjg&
20062930020100458270&W8RL42CJUXO7WZ14&20200629&02000016&1813733371391&1813733371391&0&90270&270&boshzjjg&
20062930020100458205&6G7LBVMH6GU4G05K&20200629&02000016&1815633362628&1815633362628&0&10030&30&boshzjjg&
20062930020100458271&XNNI6C92XWOO88P7&20200629&02000016&1814787304811&1814787304811&0&10030&30&boshzjjg&
20062930020100458220&VX0KP2WWG96OHHIE&20200629&02000016&1813582628539&1813582628539&0&90270&270&boshzjjg&
20062930020100458362&W7XVDVAWICF12GNL&20200629&02000016&1800100000138&1800100000138&0&90270&270&boshzjjg&
20062930020100458315&NJTP8L7ZHHU6087E&20200629&02000016&1813940061166&1813940061166&0&200601&601&boshzjjg&
20062930020100458450&9ENTSL2GFZQVVAL1&20200629&02000016&1818725268897&1818725268897&0&200601&601&boshzjjg&
20062930020100458395&O0E1YDW1ID6UNNXL&20200629&02000016&1818725268897&1818725268897&0&8024&24&boshzjjg&
20062930020100458396&0HVTMXSDD50TRA8K&20200629&02000016&1813703283113&1813703283113&0&20060&60&boshzjjg&
20062930020100458548&KEJYHK8NZ3JD3MHD&20200629&02000016&1817503250596&1817503250596&0&30090&90&boshzjjg&
20062930020100458482&GQVAG7N3TEEQBJ2T&20200629&02000016&1813578288004&1813578288004&0&50150&150&boshzjjg&
20062930020100458509&IRMJ3WUNRH6DZK5Q&20200629&02000016&1813998105808&1813998105808&0&40120&120&boshzjjg&
20062930020100458609&01BDXNF35VO2DRYQ&20200629&02000016&1818931504408&1818931504408&0&20060&60&boshzjjg&
20062930020100458700&K0JE01A37OTT6X9G&20200629&02000016&1813082311311&1813082311311&0&10030&30&boshzjjg&
20062930020100458704&EVH58S4G3WHC609S&20200629&02000016&1815097408526&1815097408526&0&10130&30&boshzjjg&
20062930020100458718&YWG0C49KDFLXPMBI&20200629&02000016&1813833011132&1813833011132&0&11434&34&boshzjjg&
20062930020100458733&95Z5K87S0TWYCUBQ&20200629&02000016&1813400267349&1813400267349&0&20260&60&boshzjjg&
20062930020100458941&T8F9H6NMLMSGNO88&20200629&02000016&1818085888288&1818085888288&0&10030&30&boshzjjg&
20062930020100458892&Y80MDD2LN0MZ0JLU&20200629&02000016&1800100000087&1800100000087&0&90270&270&boshzjjg&
20062930020100458970&PX3YNF1C8RNYQQFR&20200629&02000016&1815903327688&1815903327688&0&60180&180&boshzjjg&
20062930020100458989&JNRRK422GN2CJMP2&20200629&02000016&1818725268897&1818725268897&0&1404&4&boshzjjg&
20062930020100458992&0XUSUL7JHIWP7Z1R&20200629&02000016&1815187541886&1815187541886&0&30090&90&boshzjjg&
20062930020100459021&GVQ5RDNG8XP7NAS3&20200629&02000016&1813870088638&1813870088638&0&190571&571&boshzjjg&
20062930020100459024&UE29UA1ISPYUR4K0&20200629&02000016&1818908752966&1818908752966&0&100300&300&boshzjjg&
20062930020100459095&OJNLAZMBKDF2XBSA&20200629&02000016&1800100000063&1800100000063&0&200601&601&boshzjjg&
20062930020100459099&UIVD1V10CUAY0NB9&20200629&02000016&1800100000106&1800100000106&0&290872&872&boshzjjg&
20062930020100459108&O2UQKB1QZTMUYH7V&20200629&02000016&1818746954345&1818746954345&0&10030&30&boshzjjg&
20062930020100459247&T448FYKYBI7TNM5C&20200629&02000016&1818746954345&1818746954345&0&10030&30&boshzjjg&
20062930020100459186&B2Q82V0WAOZ59X02&20200629&02000016&1813587758991&1813587758991&0&12036&36&boshzjjg&
20062930020100459257&Y2S3746GT3ODFFCB&20200629&02000016&1813945860022&1813945860022&0&20060&60&boshzjjg&
20062930020100459217&R8GH9NH0147ER13P&20200629&02000016&1800100000040&1800100000040&0&501504&1504&boshzjjg&
20062930020100459306&Q0X68JSN987GNL5Y&20200629&02000016&1815770327841&1815770327841&0&20060&60&boshzjjg&
20062930020100459444&IJTCP2DILH7S5R05&20200629&02000016&1815126093871&1815126093871&0&23069&69&boshzjjg&
20062930020100459379&DF44XK9YL1JVXHDG&20200629&02000016&1815771836378&1815771836378&0&20060&60&boshzjjg&
20062930020100459314&NT71RRJWV8UA2HIB&20200629&02000016&1815126093871&1815126093871&0&501&1&boshzjjg&
20062930020100459457&SD7DEDXOEN7GSGZP&20200629&02000016&1818132723583&1818132723583&0&50150&150&boshzjjg&
20062930020100459318&XIQ3R15EO1NE7E39&20200629&02000016&1818161735141&1818161735141&0&10030&30&boshzjjg&
20062930020100459320&FVSF5VH78BDP54Q4&20200629&02000016&1815921012597&1815921012597&0&200601&601&boshzjjg&
20062930020100459324&0UYA101UCENAA8OG&20200629&02000016&1815389494945&1815389494945&0&20060&60&boshzjjg&
20062930020100459431&RJ78IWZRYHBGJVFO&20200629&02000016&1815094234737&1815094234737&0&50150&150&boshzjjg&
20062930020100459505&OA60CJBTP3298K2A&20200629&02000016&1815969256322&1815969256322&0&20060&60&boshzjjg&
20062930020100459647&QVH45D5539BY7CR8&20200629&02000016&1813638362781&1813638362781&0&40120&120&boshzjjg&
20062930020100459525&W9X9ZMXV0PHU6LZB&20200629&02000016&1818970607159&1818970607159&0&184553&553&boshzjjg&
20062930020100459577&HZBX1F5S27N6B7SY&20200629&02000016&1815246290569&1815246290569&0&50150&150&boshzjjg&
20062930020100459760&P0NX4XVQ32N5X5RM&20200629&02000016&1818165477289&1818165477289&0&20060&60&boshzjjg&
20062930020100459780&IUXG24KIZ6FAWLX4&20200629&02000016&1813066542463&1813066542463&0&100300&300&boshzjjg&
20062930020100459787&TD0CUJ58XSZUDEOL&20200629&02000016&1818921860818&1818921860818&0&18054&54&boshzjjg&
20062930020100459867&X1BM3OSOKELS1DVN&20200629&02000016&1813578273333&1813578273333&0&300902&902&boshzjjg&
20062930020100459948&R0POW9RKCNL85D4U&20200629&02000016&1818288950291&1818288950291&0&100300&300&boshzjjg&
20062930020100459826&ISIOKVVXNMC79XVD&20200629&02000016&1815383223594&1815383223594&0&200601&601&boshzjjg&
20062930020100459955&44W6S926IEB413AZ&20200629&02000016&1813739822199&1813739822199&0&20060&60&boshzjjg&
20062930020100460044&LRW7YZ0G877HN7W1&20200629&02000016&1815383223594&1815383223594&0&9027&27&boshzjjg&
20062930020100459924&F564DL06Z50Y28J2&20200629&02000016&1813832526017&1813832526017&0&50150&150&boshzjjg&
20062930020100459928&NJT7LAAT07IUOKHZ&20200629&02000016&1815207962519&1815207962519&0&50150&150&boshzjjg&
20062930020100460068&TQZ5E62Z9H0PSJID&20200629&02000016&1815383223594&1815383223594&0&501&1&boshzjjg&
20062930020100460154&FS0Q0VBT1D45FBM1&20200629&02000016&1815045780980&1815045780980&0&10030&30&boshzjjg&
20062930020100460120&TS1AV5HWT8PV84CG&20200629&02000016&1815146194700&1815146194700&0&10030&30&boshzjjg&
20062930020100460346&6W72IM9Y8M60SLM8&20200629&02000016&1813832565805&1813832565805&0&34102&102&boshzjjg&
20062930020100460466&K55X99ELWX2NVOMI&20200629&02000016&1818875037395&1818875037395&0&6018&18&boshzjjg&
20062930020100460429&2WCV4VXTBUVG6ZEF&20200629&02000016&1815512532000&1815512532000&0&100300&300&boshzjjg&
20062930020100460514&HGEQDXTBGV13OAL8&20200629&02000016&1815232640847&1815232640847&0&50150&150&boshzjjg&
20062930020100460899&QTFUQ9GN7KO7ZXNO&20200629&02000016&1813066542463&1813066542463&0&19177&57&boshzjjg&
20062930020100460955&DGQVVIDF3K75189F&20200629&02000016&1818085888288&1818085888288&0&10030&30&boshzjjg&
20062930020100461073&HP1V5HNDMIANOZD8&20200629&02000016&1813903128198&1813903128198&0&60180&180&boshzjjg&
20062930020100460987&OWXON4U4W004AB2U&20200629&02000016&1813582233927&1813582233927&0&50150&150&boshzjjg&
20062930020100461080&HC1PGCBPWX4O72V8&20200629&02000016&1800100000122&1800100000122&0&60180&180&boshzjjg&
20062930020100461081&PN7H1KW1URFHV8GQ&20200629&02000016&1813803277987&1813803277987&0&40120&120&boshzjjg&
20062930020100461100&CUBBB8VHNDLQ3NSU&20200629&02000016&1815930897190&1815930897190&0&2908&8&boshzjjg&
20062930020100461112&UFIHPWOAEFYSLKO5&20200629&02000016&1813578286883&1813578286883&0&100300&300&boshzjjg&
20062930020100461120&V7L06RM26RIBD5FW&20200629&02000016&1815288130560&1815288130560&0&100300&300&boshzjjg&
20062930020100461029&CO3D7NTH6E0QNKKU&20200629&02000016&1813407259698&1813407259698&0&220661&661&boshzjjg&
20062930020100461219&VZKW1SUUZPY1HSQI&20200629&02000016&1813887829820&1813887829820&0&210130&630&boshzjjg&
20062930020100461364&EFB338P0P75W6E7B&20200629&02000016&1813066542463&1813066542463&0&50150&150&boshzjjg&
20062930020100461273&Z8R31GXQOIOCMW98&20200629&02000016&1813946835654&1813946835654&0&10030&30&boshzjjg&
20062930020100461555&VGPCTWPXJ6IQ02D3&20200629&02000016&1818088174982&1818088174982&0&50150&150&boshzjjg&
20062930020100461689&E4UNPKZGQ2S3MYE0&20200629&02000016&1818903380276&1818903380276&0&20060&60&boshzjjg&
20062930020100461714&1OG747UNA84UDVW1&20200629&02000016&1815609823197&1815609823197&0&30090&90&boshzjjg&
20062930020100461792&9LRCRDVHQT3WIB24&20200629&02000016&1816603205239&1816603205239&0&1003&3&boshzjjg&
20062930020100461606&B590KDJTFC9O6NQN&20200629&02000016&1813687258341&1813687258341&0&150451&451&boshzjjg&
20062930020100461804&OARX8I78SXEPI1BD&20200629&02000016&1815586314943&1815586314943&0&100300&300&boshzjjg&
20062930020100461615&WBAYXPPK5NMTXPB1&20200629&02000016&1813597431025&1813597431025&0&100300&300&boshzjjg&
20062930020100461838&2YFAUDRP9X93SX4B&20200629&02000016&1813661262290&1813661262290&0&100300&300&boshzjjg&
20062930020100462042&0GNJEVSUS77FKOTA&20200629&02000016&1817611419351&1817611419351&0&5015&15&boshzjjg&
20062930020100461975&HBRJD6QNN34Q5D3A&20200629&02000016&1816603205239&1816603205239&0&5015&15&boshzjjg&
20062930020100461990&1Z6DP1EEX5HEKN5B&20200629&02000016&1813064860909&1813064860909&0&10030&30&boshzjjg&
20062930020100461921&ODB1Y1R9BEA5RMEN&20200629&02000016&1818633328800&1818633328800&0&17051&51&boshzjjg&
20062930020100462092&7OBI60P7MV35WXDY&20200629&02000016&1815951703440&1815951703440&0&6018&18&boshzjjg&
20062930020100462009&ECYKLZI7WPI4LRAH&20200629&02000016&1816603205239&1816603205239&0&10030&30&boshzjjg&
20062930020100462255&SF0DN3OOFZLZTCEC&20200629&02000016&1813555501430&1813555501430&0&1003&3&boshzjjg&
20062930020100462358&L6EFS11ANW2VUEPE&20200629&02000016&1813846055840&1813846055840&0&10030&30&boshzjjg&
20062930020100462205&ST4YE0AIMGQDREXD&20200629&02000016&1813623333299&1813623333299&0&44132&132&boshzjjg&
20062930020100462206&HL8B0I94GTDWAZS0&20200629&02000016&1815561743759&1815561743759&0&10030&30&boshzjjg&
20062930020100462364&SZMS8EREHV1HHTSZ&20200629&02000016&1817796982621&1817796982621&0&44132&132&boshzjjg&
20062930020100462372&7LVS5Q69I8ROZI5A&20200629&02000016&1800100000043&1800100000043&0&1203610&3610&boshzjjg&
20062930020100462407&SWUS4PMUYI6USUOT&20200629&02000016&1815832295137&1815832295137&0&200601&601&boshzjjg&
20062930020100462560&OTQ0NJ89MQ6RG4L0&20200629&02000016&1813473122412&1813473122412&0&20060&60&boshzjjg&
20062930020100462567&CTLEQ84RWKB8I9OY&20200629&02000016&1815187507752&1815187507752&0&30090&90&boshzjjg&
20062930020100462675&AIBV6ZW96DSF69CK&20200629&02000016&1800100000117&1800100000117&0&50150&150&boshzjjg&
20062930020100462683&II4WNIV191O3G81G&20200629&02000016&1813932592260&1813932592260&0&10030&30&boshzjjg&
20062930020100462524&0KMS4SVQ4SS1Q9NI&20200629&02000016&1818908820122&1818908820122&0&20060&60&boshzjjg&
20062930020100462688&JIZP2V2IWZJDBB1A&20200629&02000016&1800100000073&1800100000073&0&210631&631&boshzjjg&
20062930020100462741&5YKMMUF4T3JS5NZC&20200629&02000016&1818908752966&1818908752966&0&100300&300&boshzjjg&
20062930020100462704&INDJ2VJL49SXKANK&20200629&02000016&1815731210779&1815731210779&0&20060&60&boshzjjg&
20062930020100462753&UV9GTBOU1V976D3Z&20200629&02000016&1818633358188&1818633358188&0&39117&117&boshzjjg&
