清算中心流水号&交易所流水号&业务发生日期&交易所代码&会员编码&资金账号&出入金方式&出入金类型&出入金发起方&发生金额&币种&银行代码&银行产品代码&银行帐号&状态&备注
20043090040021378898&20043090040021378898&20200430&02000016&1818335259239&1818335259239&&1&2&15000&CNY&0040&boshzjjg&6212260504007260822&0&
20043090040021378992&20043090040021378992&20200430&02000016&1813840542929&1813840542929&&1&2&200000&CNY&0040&boshzjjg&6217001040008514977&0&
20043090040021378897&20043090040021378897&20200430&02000016&1817732266277&1817732266277&&1&2&200000&CNY&0040&boshzjjg&6228481262349094115&0&
20043090040021378993&20043090040021378993&20200430&02000016&1813945860022&1813945860022&&1&2&200000&CNY&0040&boshzjjg&6217000010123344932&0&
20043090040021379083&20043090040021379083&20200430&02000016&1815288130560&1815288130560&&1&2&100&CNY&0040&boshzjjg&6212262502013060523&0&
20043090040021378994&20043090040021378994&20200430&02000016&1815288130560&1815288130560&&1&2&200000&CNY&0040&boshzjjg&6212262502013060523&0&
20043090040021379080&20043090040021379080&20200430&02000016&1813674575508&1813674575508&&1&2&800052&CNY&0040&boshzjjg&6217001040005621239&0&
20043090040021378995&20043090040021378995&20200430&02000016&1815921012597&1815921012597&&1&2&10000&CNY&0040&boshzjjg&6228480038164699977&0&
20043090040021379082&20043090040021379082&20200430&02000016&1815211571887&1815211571887&&1&2&5000&CNY&0040&boshzjjg&6228481691102790115&0&
20043090040021378899&20043090040021378899&20200430&02000016&1819904685889&1819904685889&&1&2&7150&CNY&0040&boshzjjg&6228232225015343167&0&
20043090040021378894&20043090040021378894&20200430&02000016&1813578286883&1813578286883&&1&2&600000&CNY&0040&boshzjjg&6222032511000082562&0&
20043090040021379078&20043090040021379078&20200430&02000016&1818909995887&1818909995887&&1&2&2000&CNY&0040&boshzjjg&6222033006001389313&0&
20043090040021378890&20043090040021378890&20200430&02000016&1800100000071&1800100000071&&1&2&8000&CNY&0040&boshzjjg&6228272226027369472&0&
20043090040021379081&20043090040021379081&20200430&02000016&1813785432993&1813785432993&&1&2&2000&CNY&0040&boshzjjg&6228411264505679478&0&
20043090040021378891&20043090040021378891&20200430&02000016&1813946779996&1813946779996&&1&2&16874&CNY&0040&boshzjjg&6212260906002203667&0&
20043090040021378988&20043090040021378988&20200430&02000016&1813234540281&1813234540281&&1&2&10000&CNY&0040&boshzjjg&6217992610205731276&0&
20043090040021378892&20043090040021378892&20200430&02000016&1818511141687&1818511141687&&1&2&2000&CNY&0040&boshzjjg&6217232607000418257&0&
20043090040021379076&20043090040021379076&20200430&02000016&1813730157568&1813730157568&&1&2&2000&CNY&0040&boshzjjg&6228481269132560871&0&
20043090040021378893&20043090040021378893&20200430&02000016&1813383626357&1813383626357&&1&2&2000&CNY&0040&boshzjjg&6228481266482264062&0&
20043030020100379699&BIURINZSLM8HQKGS&20200430&02000016&1800100000071&1800100000071&&0&1&1003&CNY&0040&boshzjjg&6228272226027369472&0&
20043030020100379700&JZHCSI59EWW696VN&20200430&02000016&1800100000094&1800100000094&&0&1&1003&CNY&0040&boshzjjg&6217000140036719878&0&
20043030020100379617&RDWYT07ENPNNTYU1&20200430&02000016&1815502925058&1815502925058&&0&1&10030&CNY&0040&boshzjjg&6212263700001397795&0&
20043030020100379728&02PCEBGDJJPNTO75&20200430&02000016&1813385849623&1813385849623&&0&1&1003&CNY&0040&boshzjjg&6217251400025395932&0&
20043030020100379957&SMWC6QMDRYP6GU7P&20200430&02000016&1818604689751&1818604689751&&0&1&5015&CNY&0040&boshzjjg&6236681050000025002&0&
20043030020100379807&2X50ASTYTM90EN6S&20200430&02000016&1814784685555&1814784685555&&0&1&15045&CNY&0040&boshzjjg&6217855300005049576&0&
20043030020100379808&YIZKQMRQ57VGTGCA&20200430&02000016&1813946779996&1813946779996&&0&1&15045&CNY&0040&boshzjjg&6212260906002203667&0&
20043030020100379819&Y7Q6DPC8Q14DBPTL&20200430&02000016&1813946783966&1813946783966&&0&1&6619&CNY&0040&boshzjjg&6212260906003338306&0&
20043030020100380015&A4OX8GQF6CFA38LZ&20200430&02000016&1815933126808&1815933126808&&0&1&2006&CNY&0040&boshzjjg&6228481261924832113&0&
20043030020100380060&JHZJ99UEOA9DDFWF&20200430&02000016&1818746536689&1818746536689&&0&1&10030&CNY&0040&boshzjjg&6217992610004803524&0&
20043030020100380069&JBBQ80YZ6X0OWAEI&20200430&02000016&1813278244178&1813278244178&&0&1&10030&CNY&0040&boshzjjg&6222020912003219595&0&
20043030020100380144&1327Y7GRAWRDBW9R&20200430&02000016&1818869202035&1818869202035&&0&1&100&CNY&0040&boshzjjg&6228483358609435374&0&
20043030020100380242&LKSVWRT8X490FI75&20200430&02000016&1800100000390&1800100000390&&0&1&10030&CNY&0040&boshzjjg&6221882600122646686&0&
20043030020100380108&3UPH8FFW8BKICZ42&20200430&02000016&1817703687887&1817703687887&&0&1&10030&CNY&0040&boshzjjg&6217855300030641983&0&
20043030020100380113&5YBDI5SMU7XOE87P&20200430&02000016&1815094564333&1815094564333&&0&1&8024&CNY&0040&boshzjjg&6217001070014045773&0&
20043030020100380154&28YDIG32LYTFY922&20200430&02000016&1815845468057&1815845468057&&0&1&6018&CNY&0040&boshzjjg&6215590906000121311&0&
20043030020100380375&4K8W2RCS41834J8C&20200430&02000016&1815912705961&1815912705961&&0&1&501&CNY&0040&boshzjjg&6217003960000845475&0&
20043030020100380227&1ZFGBZ4413S5CGRG&20200430&02000016&1800100000025&1800100000025&&0&1&110330&CNY&0040&boshzjjg&6217002020076534916&0&
20043030020100380476&4E5POYAWGEXVYJ7U&20200430&02000016&1800100000106&1800100000106&&0&1&20060&CNY&0040&boshzjjg&6228481749121580972&0&
20043030020100380573&VQYP252BYLWTCK7Q&20200430&02000016&1815279193370&1815279193370&&0&1&10030&CNY&0040&boshzjjg&6217735701939032&0&
20043030020100380829&SHYCN0EXQEY1YD2O&20200430&02000016&1813263090451&1813263090451&&0&1&702&CNY&0040&boshzjjg&6225887904239338&0&
20043030020100381462&YYX1JB5Z3HPIPN3Y&20200430&02000016&1813566373447&1813566373447&&0&1&1003&CNY&0040&boshzjjg&6228480318239609072&0&
20043030020100381292&LJNUTR2NZAYOC0DZ&20200430&02000016&1813566373447&1813566373447&&0&1&2006&CNY&0040&boshzjjg&6228480318239609072&0&
20043030020100381509&SIPR6BNKEM7E8PP0&20200430&02000016&1800100000071&1800100000071&&0&1&6018&CNY&0040&boshzjjg&6228272226027369472&0&
20043030020100381575&MRJIT2VTZNGORG2L&20200430&02000016&1815207962519&1815207962519&&0&1&100&CNY&0040&boshzjjg&6226822200018047404&0&
20043030020100381576&NFPE09R0K8W85WFD&20200430&02000016&1815207962519&1815207962519&&0&1&100&CNY&0040&boshzjjg&6226822200018047404&0&
20043030020100381769&5M90OP54CF9RV058&20200430&02000016&1815207962519&1815207962519&&0&1&100&CNY&0040&boshzjjg&6226822200018047404&0&
20043030020100381826&UJ84CVYUR77E4YX3&20200430&02000016&1813911318605&1813911318605&&0&1&10030&CNY&0040&boshzjjg&6013820100012313840&0&
20043090040021378989&20043090040021378989&20200430&02000016&1815699680001&1815699680001&&1&2&7300&CNY&0040&boshzjjg&6217992610177941150&0&
20043090040021378895&20043090040021378895&20200430&02000016&1813946783966&1813946783966&&1&2&6682&CNY&0040&boshzjjg&6212260906003338306&0&
20043090040021379077&20043090040021379077&20200430&02000016&1815946631777&1815946631777&&1&2&2000&CNY&0040&boshzjjg&6217992610114376478&0&
20043090040021378896&20043090040021378896&20200430&02000016&1815146824446&1815146824446&&1&2&2000&CNY&0040&boshzjjg&6217992610127217149&0&
20043090040021379086&20043090040021379086&20200430&02000016&1818993303292&1818993303292&&1&2&500&CNY&0040&boshzjjg&6217004280009870112&0&
20043090040021378911&20043090040021378911&20200430&02000016&1818591506868&1818591506868&&1&2&2000&CNY&0040&boshzjjg&6236684170000408508&0&
20043090040021378914&20043090040021378914&20200430&02000016&1800100000125&1800100000125&&1&2&2000&CNY&0040&boshzjjg&4340610140347896&0&
20043090040021379097&20043090040021379097&20200430&02000016&1813523232008&1813523232008&&1&2&1000&CNY&0040&boshzjjg&6214833804847625&0&
20043090040021379101&20043090040021379101&20200430&02000016&1813238826869&1813238826869&&1&2&11000&CNY&0040&boshzjjg&6217000730027018668&0&
20043090040021379022&20043090040021379022&20200430&02000016&1818103143885&1818103143885&&1&2&2000&CNY&0040&boshzjjg&6212260411002686409&0&
20043090040021379021&20043090040021379021&20200430&02000016&1815921012597&1815921012597&&1&2&190000&CNY&0040&boshzjjg&6228480038164699977&0&
20043090040021379256&20043090040021379256&20200430&02000016&1815733826587&1815733826587&&1&2&2000&CNY&0040&boshzjjg&6228481269155360373&0&
20043090040021379350&20043090040021379350&20200430&02000016&1813319157965&1813319157965&&1&2&1000&CNY&0040&boshzjjg&6228482968698127475&0&
20043090040021379283&20043090040021379283&20200430&02000016&1818731866982&1818731866982&&1&2&2000&CNY&0040&boshzjjg&6214831001419701&0&
20043090040021379388&20043090040021379388&20200430&02000016&1800100000099&1800100000099&&1&2&2000&CNY&0040&boshzjjg&6236680140002035082&0&
20043090040021379400&20043090040021379400&20200430&02000016&1813513284448&1813513284448&&1&2&2000&CNY&0040&boshzjjg&6217730726751264&0&
20043090040021379301&20043090040021379301&20200430&02000016&1817713243193&1817713243193&&1&2&2000&CNY&0040&boshzjjg&6217933575810252&0&
20043090040021379426&20043090040021379426&20200430&02000016&1817614685531&1817614685531&&1&2&2000&CNY&0040&boshzjjg&6217992610207873787&0&
20043090040021379482&20043090040021379482&20200430&02000016&1815291917684&1815291917684&&1&2&7800&CNY&0040&boshzjjg&6214832937216641&0&
20043090040021379591&20043090040021379591&20200430&02000016&1818288188077&1818288188077&&1&2&200000&CNY&0040&boshzjjg&6217003970002399769&0&
20043090040021379748&20043090040021379748&20200430&02000016&1817015343424&1817015343424&&1&2&1800&CNY&0040&boshzjjg&6230521600005966878&0&
20043090040021379731&20043090040021379731&20200430&02000016&1813378816227&1813378816227&&1&2&200&CNY&0040&boshzjjg&6228483318352011871&0&
20043090040021379934&20043090040021379934&20200430&02000016&1818674146599&1818674146599&&1&2&200000&CNY&0040&boshzjjg&6228483828878286773&0&
20043090040021379939&20043090040021379939&20200430&02000016&1813520802238&1813520802238&&1&2&2000&CNY&0040&boshzjjg&6217000010154759305&0&
20043090040021379993&20043090040021379993&20200430&02000016&1813368815583&1813368815583&&1&2&200&CNY&0040&boshzjjg&6217003930001736106&0&
20043090040021380053&20043090040021380053&20200430&02000016&1815227060395&1815227060395&&1&2&2000&CNY&0040&boshzjjg&6222020409033086565&0&
20043090040021380061&20043090040021380061&20200430&02000016&1818392967498&1818392967498&&1&2&500&CNY&0040&boshzjjg&6222034000012715201&0&
20043090040021380092&20043090040021380092&20200430&02000016&1818869202035&1818869202035&&1&2&100&CNY&0040&boshzjjg&6228483358609435374&0&
20043090040021380091&20043090040021380091&20200430&02000016&1818392967498&1818392967498&&1&2&199500&CNY&0040&boshzjjg&6222034000012715201&0&
20043090040021380106&20043090040021380106&20200430&02000016&1813368815583&1813368815583&&1&2&200000&CNY&0040&boshzjjg&6217003930001736106&0&
20043090040021380107&20043090040021380107&20200430&02000016&1813840562388&1813840562388&&1&2&200&CNY&0040&boshzjjg&6231561901219617&0&
20043090040021380112&20043090040021380112&20200430&02000016&1813628853769&1813628853769&&1&2&200000&CNY&0040&boshzjjg&6228483351167871015&0&
20043090040021380163&20043090040021380163&20200430&02000016&1813513061187&1813513061187&&1&2&2000&CNY&0040&boshzjjg&6228450658030449178&0&
20043090040021380132&20043090040021380132&20200430&02000016&1813987581003&1813987581003&&1&2&200000&CNY&0040&boshzjjg&6212262510001194170&0&
20043090040021380179&20043090040021380179&20200430&02000016&1814708750317&1814708750317&&1&2&200000&CNY&0040&boshzjjg&6228483968092580377&0&
20043090040021380348&20043090040021380348&20200430&02000016&1813887838521&1813887838521&&1&2&200000&CNY&0040&boshzjjg&6217902700005627599&0&
20043090040021380183&20043090040021380183&20200430&02000016&1813840562388&1813840562388&&1&2&199800&CNY&0040&boshzjjg&6231561901219617&0&
20043090040021380221&20043090040021380221&20200430&02000016&1815912705961&1815912705961&&1&2&1000&CNY&0040&boshzjjg&6217003960000845475&0&
20043090040021380373&20043090040021380373&20200430&02000016&1818330218859&1818330218859&&1&2&200000&CNY&0040&boshzjjg&6228481269217496777&0&
2020043001535654&20043090040021380378&20200430&02000016&1818687838558&1818687838558&&1&2&200000&CNY&0040&boshzjjg&6217003850010996501&0&
20043090040021380322&20043090040021380322&20200430&02000016&1815075218679&1815075218679&&1&2&200000&CNY&0040&boshzjjg&6228481269111559175&0&
20043090040021380436&20043090040021380436&20200430&02000016&1815097746135&1815097746135&&1&2&2000&CNY&0040&boshzjjg&6228481269200656973&0&
20043090040021380471&20043090040021380471&20200430&02000016&1818987916256&1818987916256&&1&2&200000&CNY&0040&boshzjjg&6236684020000323225&0&
20043090040021380583&20043090040021380583&20200430&02000016&1818713290860&1818713290860&&1&2&2000&CNY&0040&boshzjjg&6228480010458467718&0&
20043090040021380506&20043090040021380506&20200430&02000016&1815207962519&1815207962519&&1&2&100&CNY&0040&boshzjjg&6226822200018047404&0&
20043090040021380519&20043090040021380519&20200430&02000016&1813115642991&1813115642991&&1&2&2000&CNY&0040&boshzjjg&6212260906003871389&0&
20043090040021380520&20043090040021380520&20200430&02000016&1815207962519&1815207962519&&1&2&200000&CNY&0040&boshzjjg&6226822200018047404&0&
20043090040021380597&20043090040021380597&20200430&02000016&1818159800103&1818159800103&&1&2&200000&CNY&0040&boshzjjg&6217566400004211720&0&
20043090040021380609&20043090040021380609&20200430&02000016&1818164646890&1818164646890&&1&2&100&CNY&0040&boshzjjg&6228483318336892578&0&
20043090040021380649&20043090040021380649&20200430&02000016&1815187507752&1815187507752&&1&2&200000&CNY&0040&boshzjjg&6212262511001960941&0&
20043090040021380738&20043090040021380738&20200430&02000016&1815880931399&1815880931399&&1&2&100&CNY&0040&boshzjjg&6217906500035689627&0&
20043090040021380620&20043090040021380620&20200430&02000016&1818164646890&1818164646890&&1&2&200000&CNY&0040&boshzjjg&6228483318336892578&0&
20043090040021380658&20043090040021380658&20200430&02000016&1815227006003&1815227006003&&1&2&2000&CNY&0040&boshzjjg&6228481269269539375&0&
20043090040021380694&20043090040021380694&20200430&02000016&1818288549796&1818288549796&&1&2&200000&CNY&0040&boshzjjg&6228483968416607476&0&
20043090040021380791&20043090040021380791&20200430&02000016&1818746954345&1818746954345&&1&2&200000&CNY&0040&boshzjjg&6228482688434033973&0&
20043090040021380896&20043090040021380896&20200430&02000016&1813730451279&1813730451279&&1&2&200000&CNY&0040&boshzjjg&6217991340005333815&0&
20043090040021380937&20043090040021380937&20200430&02000016&1818313082518&1818313082518&&1&2&400000&CNY&0040&boshzjjg&6230523350004423277&0&
20043090040021380950&20043090040021380950&20200430&02000016&1818646771261&1818646771261&&1&2&400000&CNY&0040&boshzjjg&6217001040008631375&0&
20043090040021381140&20043090040021381140&20200430&02000016&1818345857865&1818345857865&&1&2&200000&CNY&0040&boshzjjg&6228412670034997919&0&
20043090040021381097&20043090040021381097&20200430&02000016&1815287565721&1815287565721&&1&2&200000&CNY&0040&boshzjjg&6222032510000142699&0&
20043090040021381194&20043090040021381194&20200430&02000016&1815130268126&1815130268126&&1&2&200000&CNY&0040&boshzjjg&6217000140039550528&0&
20043090040021381110&20043090040021381110&20200430&02000016&1813609828405&1813609828405&&1&2&200&CNY&0040&boshzjjg&6228480040436611913&0&
20043090040021381226&20043090040021381226&20200430&02000016&1815840063631&1815840063631&&1&2&200&CNY&0040&boshzjjg&6228480048751119370&0&
20043090040021381354&20043090040021381354&20200430&02000016&1815840063631&1815840063631&&1&2&199800&CNY&0040&boshzjjg&6228480048751119370&0&
20043090040021381457&20043090040021381457&20200430&02000016&1813777101958&1813777101958&&1&2&1000&CNY&0040&boshzjjg&6215583901009364557&0&
20043090040021381374&20043090040021381374&20200430&02000016&1813759204028&1813759204028&&1&2&200000&CNY&0040&boshzjjg&6217003970000539457&0&
20043090040021381479&20043090040021381479&20200430&02000016&1818524494313&1818524494313&&1&2&200&CNY&0040&boshzjjg&6222620310011472823&0&
20043090040021381478&20043090040021381478&20200430&02000016&1813609828405&1813609828405&&1&2&199800&CNY&0040&boshzjjg&6228480040436611913&0&
20043090040021381294&20043090040021381294&20200430&02000016&1813777101958&1813777101958&&1&2&199000&CNY&0040&boshzjjg&6215583901009364557&0&
20043090040021381520&20043090040021381520&20200430&02000016&1818524494313&1818524494313&&1&2&199800&CNY&0040&boshzjjg&6222620310011472823&0&
20043090040021381556&20043090040021381556&20200430&02000016&1813808782960&1813808782960&&1&2&200000&CNY&0040&boshzjjg&6217003970003533721&0&
20043090040021381581&20043090040021381581&20200430&02000016&1815032494099&1815032494099&&1&2&200000&CNY&0040&boshzjjg&6222030409005757910&0&
20043090040021381673&20043090040021381673&20200430&02000016&1800100000085&1800100000085&&1&2&7200&CNY&0040&boshzjjg&6228481269136633674&0&
20043090040021381602&20043090040021381602&20200430&02000016&1813082311311&1813082311311&&1&2&2000&CNY&0040&boshzjjg&6228481269123313074&0&
20043090040021381615&20043090040021381615&20200430&02000016&1815830845585&1815830845585&&1&2&200000&CNY&0040&boshzjjg&6230521260023203778&0&
20043090040021381621&20043090040021381621&20200430&02000016&1813330597481&1813330597481&&1&2&200000&CNY&0040&boshzjjg&6217562700002307089&0&
20043090040021381624&20043090040021381624&20200430&02000016&1813933229549&1813933229549&&1&2&5000&CNY&0040&boshzjjg&6222020409025274021&0&
20043090040021381940&20043090040021381940&20200430&02000016&1813587765311&1813587765311&&1&2&500&CNY&0040&boshzjjg&6236681420015050297&0&
20043090040021381942&20043090040021381942&20200430&02000016&1813578228698&1813578228698&&1&2&600000&CNY&0040&boshzjjg&6236683970000307621&0&
20043090040021382042&20043090040021382042&20200430&02000016&1813587765311&1813587765311&&1&2&200000&CNY&0040&boshzjjg&6236681420015050297&0&
20043090040021381858&20043090040021381858&20200430&02000016&1815609823197&1815609823197&&1&2&200000&CNY&0040&boshzjjg&6210810730015643423&0&
