清算中心流水号&交易所流水号&业务发生日期&交易所代码&会员编码&资金账号&出入金类型&发生金额&手续费金额&银行产品代码&备注
20052730020100417283&913XAQJ56QBWSWHG&20200527&02000016&1818631222983&1818631222983&0&10030&30&boshzjjg&
20052730020100417289&BUT7WKN1YF36A1Z2&20200527&02000016&1815840074214&1815840074214&0&10030&30&boshzjjg&
20052730020100417312&R56L9WS30ALFTNC2&20200527&02000016&1813808788999&1813808788999&0&22266&66&boshzjjg&
20052730020100417410&11T7Z3DTG2NURDEZ&20200527&02000016&1818903125539&1818903125539&0&6018&18&boshzjjg&
20052730020100417449&SY3ZTFH7QQCWNALG&20200527&02000016&1818967335077&1818967335077&0&190571&571&boshzjjg&
20052730020100417450&JOV2ZNAGAHG1CWPD&20200527&02000016&1813619405650&1813619405650&0&2006&6&boshzjjg&
20052730020100417637&G49ZA058U2X8H18K&20200527&02000016&1815368948672&1815368948672&0&56569&169&boshzjjg&
20052730020100417524&XHWEPHSPQW80UZHC&20200527&02000016&1800100000175&1800100000175&0&20060&60&boshzjjg&
20052730020100417605&JELDTHEHIERSSBNB&20200527&02000016&1818313096871&1818313096871&0&50150&150&boshzjjg&
20052730020100417607&IXHG56G3SMCMJGEO&20200527&02000016&1818788201666&1818788201666&0&20060&60&boshzjjg&
20052730020100417835&B6O9RE24Y92BM52X&20200527&02000016&1818875037395&1818875037395&0&10030&30&boshzjjg&
20052730020100417840&4K63PGVYUXGTC4P0&20200527&02000016&1800100000197&1800100000197&0&1003&3&boshzjjg&
20052730020100417941&5LEO7VZ12KA94CTZ&20200527&02000016&1800100000073&1800100000073&0&30090&90&boshzjjg&
20052730020100417979&8U28AU9IGVNOA8Y4&20200527&02000016&1813369291965&1813369291965&0&18555&55&boshzjjg&
20052730020100417809&9J3I0NVWMJKEBD5C&20200527&02000016&1813369291965&1813369291965&0&166499&499&boshzjjg&
20052730020100417813&LYUAYD1VLWOX6C4Z&20200527&02000016&1817304211987&1817304211987&0&20060&60&boshzjjg&
20052730020100417890&OQV5UVACZO1INMLO&20200527&02000016&1813932211661&1813932211661&0&10030&30&boshzjjg&
20052730020100417982&1TXCPM4QNE4NL728&20200527&02000016&1813643325475&1813643325475&0&10030&30&boshzjjg&
20052730020100417816&R3U7GEI1SYHZO1PR&20200527&02000016&1815132271576&1815132271576&0&10030&30&boshzjjg&
20052730020100417830&FP89ECQQUSF7WLSJ&20200527&02000016&1813552368668&1813552368668&0&10030&30&boshzjjg&
20052730020100417993&1YZRS9RMVQUDVQEM&20200527&02000016&1818833239911&1818833239911&0&10030&30&boshzjjg&
20052730020100417831&Q62D5QKT7NK3A4U1&20200527&02000016&1817516551290&1817516551290&0&10030&30&boshzjjg&
20052730020100417833&9472FJPPFVVXJCJD&20200527&02000016&1818032308691&1818032308691&0&10030&30&boshzjjg&
20052730020100417908&YY5MZQ35UQ6M24FI&20200527&02000016&1800100000087&1800100000087&0&501&1&boshzjjg&
20052730020100418154&LUSYLPTWSPZPL13G&20200527&02000016&1813578222161&1813578222161&0&40120&120&boshzjjg&
20052730020100418160&RBL6UYDQETE8HO91&20200527&02000016&1818631760311&1818631760311&0&10030&30&boshzjjg&
20052730020100418165&JKMHXE3B9LTAQPW2&20200527&02000016&1813582743080&1813582743080&0&5015&15&boshzjjg&
20052730020100418252&TSJRB1MQL02UCYEC&20200527&02000016&1818631760322&1818631760322&0&5015&15&boshzjjg&
20052730020100418113&HXJWWQDIJC79T5SD&20200527&02000016&1813700388839&1813700388839&0&30090&90&boshzjjg&
20052730020100418403&62LWRJGEG46QXAJP&20200527&02000016&1815032232283&1815032232283&0&30090&90&boshzjjg&
20052730020100418552&MMVSJF3KXXSBQO2G&20200527&02000016&1818086369975&1818086369975&0&381&1&boshzjjg&
20052730020100418458&KTVGQE9ZRTC4OWEW&20200527&02000016&1815184848605&1815184848605&0&200601&601&boshzjjg&
20052730020100418460&966CFOAT8EVBFS1F&20200527&02000016&1815894436377&1815894436377&0&10030&30&boshzjjg&
20052730020100418496&6MWQNDY8CDUSS4H8&20200527&02000016&1815512532000&1815512532000&0&10030&30&boshzjjg&
