20200422|02000134|1813558749848|1813558749848|CNY|15015|1078138
20200422|02000134|1817538719135|1817538719135|CNY|6012|2999607566
20200422|02000134|1817538719131|1817538719131|CNY|10030|129683
20200422|02000134|1818568888359|1818568888359|CNY|0|0
20200422|02000134|1818567881828|1818567881828|CNY|0|0
