清算中心流水号&交易所流水号&业务发生日期&交易所代码&会员编码&资金账号&出入金方式&出入金类型&出入金发起方&发生金额&币种&银行代码&银行产品代码&银行帐号&状态&备注
20060390040021426511&20060390040021426511&20200603&02000016&1818891101268&1818891101268&&1&2&7000&CNY&0040&boshzjjg&6215592609002245231&0&
20060330020100426513&EVQVV1QQX0ZXSDWU&20200603&02000016&1815933058921&1815933058921&&0&1&501&CNY&0040&boshzjjg&6228270651222594172&0&
20060330020100426517&KNM3JX8BK2O4CL4R&20200603&02000016&1818257932275&1818257932275&&0&1&203610&CNY&0040&boshzjjg&6222081208002408941&0&
20060330020100426571&YI6OLQU9W2ZOOVX3&20200603&02000016&1813506593224&1813506593224&&0&1&204112&CNY&0040&boshzjjg&6222081208004347196&0&
20060330020100426657&74ZFUWU4NQYDBKF8&20200603&02000016&1815038169553&1815038169553&&0&1&190571&CNY&0040&boshzjjg&6222620620028301066&0&
20060330020100426585&HZ5KGPFNUO5E39HR&20200603&02000016&1813703283113&1813703283113&&0&1&2006&CNY&0040&boshzjjg&6228481268439092075&0&
20060330020100426594&DE1PFZJG7J9SOYDO&20200603&02000016&1815969053582&1815969053582&&0&1&20060&CNY&0040&boshzjjg&6228483358197817371&0&
20060330020100426739&MBWIBCWPLWPCH4JS&20200603&02000016&1800100000142&1800100000142&&0&1&200000&CNY&0040&boshzjjg&6222081210003769776&0&
20060330020100426743&OA129QHRBF4Z9LGU&20200603&02000016&1800100000177&1800100000177&&0&1&203961&CNY&0040&boshzjjg&6217001490003900459&0&
20060330020100426671&KR42I4YV36M2R0HG&20200603&02000016&1800100000050&1800100000050&&0&1&40120&CNY&0040&boshzjjg&6228481269237824776&0&
20060330020100426672&LMOPBTXYQJ56Q4CU&20200603&02000016&1800100000332&1800100000332&&0&1&185356&CNY&0040&boshzjjg&6236681490002533969&0&
20060330020100426676&97URA2CI012G8L5J&20200603&02000016&1815205889775&1815205889775&&0&1&185416&CNY&0040&boshzjjg&6212261210001847536&0&
20060330020100426750&2Q8G4D0SC2NBZHS5&20200603&02000016&1815057868078&1815057868078&&0&1&199899&CNY&0040&boshzjjg&6217856200027232672&0&
20060330020100426678&CI99TBF2413V06W2&20200603&02000016&1800100000189&1800100000189&&0&1&170511&CNY&0040&boshzjjg&6228481269260355474&0&
20060330020100426752&5QXX5A8O9ZX9UNLA&20200603&02000016&1818057812357&1818057812357&&0&1&185406&CNY&0040&boshzjjg&6222031210001020678&0&
20060330020100426608&K43I8W7NG25AYECW&20200603&02000016&1818674146599&1818674146599&&0&1&39117&CNY&0040&boshzjjg&6228483828878286773&0&
20060330020100426609&R33K968RXLVJ2J5E&20200603&02000016&1815146155010&1815146155010&&0&1&170511&CNY&0040&boshzjjg&6228482688416580975&0&
20060330020100426758&8V1FNYIV4UVJM1O1&20200603&02000016&1818674148199&1818674148199&&0&1&50150&CNY&0040&boshzjjg&6228483829038873773&0&
20060330020100426687&RB6OKGPLTX0LVPVX&20200603&02000016&1800100000138&1800100000138&&0&1&20060&CNY&0040&boshzjjg&6228480650903411512&0&
20060330020100426619&HDIH0E8DCI8S4DKH&20200603&02000016&1818103143885&1818103143885&&0&1&20060&CNY&0040&boshzjjg&6212260411002686409&0&
20060330020100426699&W8BQGVQ847TK6LVS&20200603&02000016&1800100000136&1800100000136&&0&1&185957&CNY&0040&boshzjjg&6222031210000626699&0&
20060330020100426702&OU1HSHG303S13AET&20200603&02000016&1800100000230&1800100000230&&0&1&195386&CNY&0040&boshzjjg&6217001490002265367&0&
20060330020100426788&1TBGWVZ1CTZNR48E&20200603&02000016&1813006233652&1813006233652&&0&1&200601&CNY&0040&boshzjjg&6222081506000105207&0&
20060330020100426792&O89QD7MYOLEPEFJP&20200603&02000016&1800100000182&1800100000182&&0&1&200601&CNY&0040&boshzjjg&6212261210002792467&0&
20060330020100426716&HLTLOI092QNI2QPM&20200603&02000016&1815268612201&1815268612201&&0&1&200601&CNY&0040&boshzjjg&6217856200041679064&0&
20060330020100426717&UTSANN8CDMRB8EXI&20200603&02000016&1818667101556&1818667101556&&0&1&210631&CNY&0040&boshzjjg&6222031202006003064&0&
20060330020100426858&4U9KZWHZ7AISFHRC&20200603&02000016&1818645566788&1818645566788&&0&1&200601&CNY&0040&boshzjjg&6216695300006103063&0&
20060330020100426806&APQ2PW3SPAQM5BUB&20200603&02000016&1818958463402&1818958463402&&0&1&225677&CNY&0040&boshzjjg&6222021208006241416&0&
20060330020100426937&IV346E7ZJUD3AQ83&20200603&02000016&1815257996892&1815257996892&&0&1&206619&CNY&0040&boshzjjg&6217231208011800970&0&
20060330020100426872&HSANVZGAP2Y753AH&20200603&02000016&1815305796690&1815305796690&&0&1&195586&CNY&0040&boshzjjg&6217231208010528580&0&
20060330020100426949&TQ7FHU1DNHL7B424&20200603&02000016&1815389494945&1815389494945&&0&1&190571&CNY&0040&boshzjjg&6215592605003645908&0&
20060330020100426816&YJETCGC3QR24SJVM&20200603&02000016&1813566943256&1813566943256&&0&1&200601&CNY&0040&boshzjjg&6217231208011311044&0&
20060330020100426952&4YYKQ4M05ELCDYL5&20200603&02000016&1815771836378&1815771836378&&0&1&185556&CNY&0040&boshzjjg&6215592605004136980&0&
20060330020100426826&QJ35CGZB0UZ27P1R&20200603&02000016&1815933739943&1815933739943&&0&1&50150&CNY&0040&boshzjjg&6227000140230002146&0&
20060330020100426975&PQLALCZCVWF6DJ1N&20200603&02000016&1813478653378&1813478653378&&0&1&200601&CNY&0040&boshzjjg&6228480568011405673&0&
20060330020100427042&26MMEKYSWLUUNCXG&20200603&02000016&1815100269110&1815100269110&&0&1&10030&CNY&0040&boshzjjg&6228481268511222673&0&
20060330020100426903&8ODFB9CFCAGG5IYZ&20200603&02000016&1813832228797&1813832228797&&0&1&20060&CNY&0040&boshzjjg&6228481266296734367&0&
20060330020100427056&00DD9ZYFNKMSIU5W&20200603&02000016&1815727394536&1815727394536&&0&1&6218&CNY&0040&boshzjjg&9559982200454824818&0&
20060330020100427059&GSRQWCQ9T5GNJSW8&20200603&02000016&1818962060606&1818962060606&&0&1&2006&CNY&0040&boshzjjg&6228481980808931010&0&
20060330020100426998&JLH1L7BXBFQLOEHL&20200603&02000016&1813385849623&1813385849623&&0&1&10030&CNY&0040&boshzjjg&6217251400025395932&0&
20060330020100427136&C8YEQMHBBOTWZZ5S&20200603&02000016&1800100000272&1800100000272&&0&1&179338&CNY&0040&boshzjjg&6230521080000713874&0&
20060330020100427084&PR3VRW5SQREC0112&20200603&02000016&1813369291965&1813369291965&&0&1&18555&CNY&0040&boshzjjg&6228482926016384160&0&
20060330020100427143&5P5FNY1WNQ2QBPVN&20200603&02000016&1815057899784&1815057899784&&0&1&601805&CNY&0040&boshzjjg&4367421499017065479&0&
20060330020100427092&7P021BAGYAJQ44CS&20200603&02000016&1815857889599&1815857889599&&0&1&190571&CNY&0040&boshzjjg&6228481088364243273&0&
20060330020100427093&G831EY3BBTDMLDNC&20200603&02000016&1813767977037&1813767977037&&0&1&200601&CNY&0040&boshzjjg&6228480928752691271&0&
20060330020100427096&TWGZ13ZW9FLAUSIB&20200603&02000016&1800100000275&1800100000275&&0&1&181544&CNY&0040&boshzjjg&6222081210004223021&0&
20060330020100427250&4E953W2NKTHRPZXG&20200603&02000016&1800100000267&1800100000267&&0&1&601805&CNY&0040&boshzjjg&6228481082174217619&0&
20060330020100427264&D63F0LX4RRSUXG0C&20200603&02000016&1815512532000&1815512532000&&0&1&10030&CNY&0040&boshzjjg&6222080403002647884&0&
20060330020100427436&EW5ODVYFFYWCPTN9&20200603&02000016&1818164646890&1818164646890&&0&1&200601&CNY&0040&boshzjjg&6228483318336892578&0&
20060330020100427489&L6H7FLZNXLAM1L4W&20200603&02000016&1813315439137&1813315439137&&0&1&409227&CNY&0040&boshzjjg&6217855000075106104&0&
20060330020100427502&ZZD83B8QKUWCGOK1&20200603&02000016&1815079696414&1815079696414&&0&1&10030&CNY&0040&boshzjjg&6228480086827063479&0&
20060330020100427695&7Y0GNX5YL1UEGZZW&20200603&02000016&1815079696414&1815079696414&&0&1&100&CNY&0040&boshzjjg&6228480086827063479&0&
20060330020100427700&5JXH2GXYW6IHRI5Z&20200603&02000016&1800100000080&1800100000080&&0&1&240722&CNY&0040&boshzjjg&6217855300030279677&0&
20060330020100427806&P0OEXU38EJRRYMHZ&20200603&02000016&1815308750767&1815308750767&&0&1&10030&CNY&0040&boshzjjg&6228483966070831069&0&
20060330020100428042&Y5YDZZAV43BC9LUH&20200603&02000016&1813315255577&1813315255577&&0&1&36108&CNY&0040&boshzjjg&6222621360002684158&0&
20060330020100428043&GVXHROKTVFHXQVUB&20200603&02000016&1800100000242&1800100000242&&0&1&36710&CNY&0040&boshzjjg&6217000140010401857&0&
20060330020100428151&8P6HQ3EWPLTJ7MR2&20200603&02000016&1813133804808&1813133804808&&0&1&10030&CNY&0040&boshzjjg&6222620290002037092&0&
20060330020100428058&MG3H6U1N3E6YAUB7&20200603&02000016&1813133804808&1813133804808&&0&1&401203&CNY&0040&boshzjjg&6222620290002037092&0&
20060330020100428059&AZ6R2UQCYZ747PRT&20200603&02000016&1813133804808&1813133804808&&0&1&19458&CNY&0040&boshzjjg&6222620290002037092&0&
20060330020100428060&LU5OH0VVWKPXB370&20200603&02000016&1813628759556&1813628759556&&0&1&200601&CNY&0040&boshzjjg&6217852700001605003&0&
20060330020100428003&G81JENQH6VOT3G3M&20200603&02000016&1813628759556&1813628759556&&0&1&200601&CNY&0040&boshzjjg&6217852700001605003&0&
20060330020100428062&5RTZF2WMYFI9S2KI&20200603&02000016&1813577503685&1813577503685&&0&1&300902&CNY&0040&boshzjjg&6222082510000034051&0&
20060390040021426566&20060390040021426566&20200603&02000016&1813463503191&1813463503191&&1&2&200000&CNY&0040&boshzjjg&6222030403007685450&0&
20060390040021426572&20060390040021426572&20200603&02000016&1813663328201&1813663328201&&1&2&200000&CNY&0040&boshzjjg&6227000140520070621&0&
20060390040021426576&20060390040021426576&20200603&02000016&1813108558609&1813108558609&&1&2&10000&CNY&0040&boshzjjg&6228483358593515678&0&
20060390040021426579&20060390040021426579&20200603&02000016&1815232607038&1815232607038&&1&2&940000&CNY&0040&boshzjjg&6228480652067343614&0&
20060390040021426580&20060390040021426580&20200603&02000016&1815838593992&1815838593992&&1&2&200000&CNY&0040&boshzjjg&6222021705005346344&0&
20060390040021426652&20060390040021426652&20200603&02000016&1818731901468&1818731901468&&1&2&200000&CNY&0040&boshzjjg&6236680120000793155&0&
20060390040021426583&20060390040021426583&20200603&02000016&1815871938967&1815871938967&&1&2&193200&CNY&0040&boshzjjg&6217857600036957400&0&
20060390040021426531&20060390040021426531&20200603&02000016&1815502925058&1815502925058&&1&2&3500&CNY&0040&boshzjjg&6212263700001397795&0&
20060390040021426592&20060390040021426592&20200603&02000016&1818993303292&1818993303292&&1&2&100000&CNY&0040&boshzjjg&6217004280009870112&0&
20060390040021426670&20060390040021426670&20200603&02000016&1815837935868&1815837935868&&1&2&200000&CNY&0040&boshzjjg&6210812450000594485&0&
20060390040021426669&20060390040021426669&20200603&02000016&1815038169553&1815038169553&&1&2&10000&CNY&0040&boshzjjg&6222620620028301066&0&
20060390040021426749&20060390040021426749&20200603&02000016&1813796290795&1813796290795&&1&2&10000&CNY&0040&boshzjjg&6217000990004835092&0&
20060390040021426610&20060390040021426610&20200603&02000016&1815771836378&1815771836378&&1&2&1500&CNY&0040&boshzjjg&6215592605004136980&0&
20060390040021426754&20060390040021426754&20200603&02000016&1818468025462&1818468025462&&1&2&8000&CNY&0040&boshzjjg&6228483968612650775&0&
20060390040021426611&20060390040021426611&20200603&02000016&1815978647111&1815978647111&&1&2&10000&CNY&0040&boshzjjg&6217004400013694437&0&
20060390040021426686&20060390040021426686&20200603&02000016&1813478653378&1813478653378&&1&2&200000&CNY&0040&boshzjjg&6228480568011405673&0&
20060390040021426621&20060390040021426621&20200603&02000016&1815813676802&1815813676802&&1&2&10000&CNY&0040&boshzjjg&6228480096647356177&0&
20060390040021426628&20060390040021426628&20200603&02000016&1813796445877&1813796445877&&1&2&20000&CNY&0040&boshzjjg&6210952600001682669&0&
20060390040021426768&20060390040021426768&20200603&02000016&1813111603824&1813111603824&&1&2&7200&CNY&0040&boshzjjg&6217000140013187099&0&
20060390040021426630&20060390040021426630&20200603&02000016&1818288950291&1818288950291&&1&2&400000&CNY&0040&boshzjjg&6228450860019060519&0&
20060390040021426695&20060390040021426695&20200603&02000016&1815246230377&1815246230377&&1&2&10000&CNY&0040&boshzjjg&6217992610021789581&0&
20060390040021426629&20060390040021426629&20200603&02000016&1815670742888&1815670742888&&1&2&200000&CNY&0040&boshzjjg&6230520730030540678&0&
20060390040021426771&20060390040021426771&20200603&02000016&1800100000213&1800100000213&&1&2&10000&CNY&0040&boshzjjg&6217855300027671225&0&
20060390040021426777&20060390040021426777&20200603&02000016&1815232607038&1815232607038&&1&2&30000&CNY&0040&boshzjjg&6228480652067343614&0&
20060390040021426836&20060390040021426836&20200603&02000016&1818889422056&1818889422056&&1&2&400000&CNY&0040&boshzjjg&6228410150025333913&0&
20060390040021426703&20060390040021426703&20200603&02000016&1818826447446&1818826447446&&1&2&200000&CNY&0040&boshzjjg&6222003602103247668&0&
20060390040021426779&20060390040021426779&20200603&02000016&1819937271172&1819937271172&&1&2&200000&CNY&0040&boshzjjg&6214833792203286&0&
20060390040021426782&20060390040021426782&20200603&02000016&1815946740910&1815946740910&&1&2&10000&CNY&0040&boshzjjg&6228482688418493078&0&
20060390040021426843&20060390040021426843&20200603&02000016&1813946850664&1813946850664&&1&2&10000&CNY&0040&boshzjjg&6228482688418176376&0&
20060390040021426710&20060390040021426710&20200603&02000016&1815803241520&1815803241520&&1&2&3000&CNY&0040&boshzjjg&6228482121972921714&0&
20060390040021426784&20060390040021426784&20200603&02000016&1815538816005&1815538816005&&1&2&200000&CNY&0040&boshzjjg&6226622215867728&0&
20060390040021426715&20060390040021426715&20200603&02000016&1815803241520&1815803241520&&1&2&8000&CNY&0040&boshzjjg&6228482121972921714&0&
20060390040021426790&20060390040021426790&20200603&02000016&1815117001128&1815117001128&&1&2&5000&CNY&0040&boshzjjg&6214859310138969&0&
20060390040021426851&20060390040021426851&20200603&02000016&1813486694384&1813486694384&&1&2&402000&CNY&0040&boshzjjg&6215583901002700468&0&
20060390040021426791&20060390040021426791&20200603&02000016&1815727285279&1815727285279&&1&2&195500&CNY&0040&boshzjjg&6217995200035377685&0&
20060390040021426722&20060390040021426722&20200603&02000016&1813932525581&1813932525581&&1&2&970000&CNY&0040&boshzjjg&6222030403007280369&0&
20060390040021426727&20060390040021426727&20200603&02000016&1818331534443&1818331534443&&1&2&1000&CNY&0040&boshzjjg&6217000180046539940&0&
20060390040021426802&20060390040021426802&20200603&02000016&1813429398439&1813429398439&&1&2&600000&CNY&0040&boshzjjg&6217920375437634&0&
20060390040021426729&20060390040021426729&20200603&02000016&1818032526472&1818032526472&&1&2&200000&CNY&0040&boshzjjg&6222030403005785591&0&
20060390040021426803&20060390040021426803&20200603&02000016&1815830845585&1815830845585&&1&2&100&CNY&0040&boshzjjg&6230521260023203778&0&
20060390040021426936&20060390040021426936&20200603&02000016&1813673797843&1813673797843&&1&2&400000&CNY&0040&boshzjjg&6210812450008141339&0&
20060390040021426943&20060390040021426943&20200603&02000016&1815830845585&1815830845585&&1&2&10900&CNY&0040&boshzjjg&6230521260023203778&0&
20060390040021426942&20060390040021426942&20200603&02000016&1815231225276&1815231225276&&1&2&6000&CNY&0040&boshzjjg&6228481269225380872&0&
20060390040021426953&20060390040021426953&20200603&02000016&1813578222161&1813578222161&&1&2&7200&CNY&0040&boshzjjg&6217997300002074667&0&
20060390040021426954&20060390040021426954&20200603&02000016&1818746710622&1818746710622&&1&2&10000&CNY&0040&boshzjjg&6228482680624947310&0&
20060390040021426828&20060390040021426828&20200603&02000016&1813636870153&1813636870153&&1&2&10000&CNY&0040&boshzjjg&6215592609002415479&0&
20060390040021426887&20060390040021426887&20200603&02000016&1818891101268&1818891101268&&1&2&10000&CNY&0040&boshzjjg&6215592609002245231&0&
20060390040021426886&20060390040021426886&20200603&02000016&1815871938967&1815871938967&&1&2&1000&CNY&0040&boshzjjg&6217857600036957400&0&
20060390040021426966&20060390040021426966&20200603&02000016&1813992186412&1813992186412&&1&2&10000&CNY&0040&boshzjjg&6215592609005796412&0&
20060390040021427035&20060390040021427035&20200603&02000016&1815837935909&1815837935909&&1&2&180000&CNY&0040&boshzjjg&6217994930003845310&0&
20060390040021426971&20060390040021426971&20200603&02000016&1815128477807&1815128477807&&1&2&3000&CNY&0040&boshzjjg&6236680140004022195&0&
20060390040021427039&20060390040021427039&20200603&02000016&1813603282298&1813603282298&&1&2&10000&CNY&0040&boshzjjg&6228481268831240173&0&
20060390040021427038&20060390040021427038&20200603&02000016&1813466135914&1813466135914&&1&2&200000&CNY&0040&boshzjjg&6212262510000449419&0&
20060390040021426979&20060390040021426979&20200603&02000016&1815233758901&1815233758901&&1&2&3000&CNY&0040&boshzjjg&6217991340030374214&0&
20060390040021427045&20060390040021427045&20200603&02000016&1818788224059&1818788224059&&1&2&200000&CNY&0040&boshzjjg&6228483358070515670&0&
20060390040021426904&20060390040021426904&20200603&02000016&1818788224059&1818788224059&&1&2&10000&CNY&0040&boshzjjg&6228483358070515670&0&
20060390040021426908&20060390040021426908&20200603&02000016&1813466135914&1813466135914&&1&2&800000&CNY&0040&boshzjjg&6212262510000449419&0&
20060390040021427054&20060390040021427054&20200603&02000016&1818945765909&1818945765909&&1&2&7200&CNY&0040&boshzjjg&6221802610007105754&0&
20060390040021426907&20060390040021426907&20200603&02000016&1813082330653&1813082330653&&1&2&2000&CNY&0040&boshzjjg&6228481262085014210&0&
20060390040021426924&20060390040021426924&20200603&02000016&1818348907445&1818348907445&&1&2&2000&CNY&0040&boshzjjg&6222030409006084272&0&
20060390040021426927&20060390040021426927&20200603&02000016&1813832526017&1813832526017&&1&2&1000&CNY&0040&boshzjjg&6217000180003186602&0&
20060390040021426933&20060390040021426933&20200603&02000016&1815187541886&1815187541886&&1&2&200000&CNY&0040&boshzjjg&6212262510002416168&0&
20060390040021427005&20060390040021427005&20200603&02000016&1818945765909&1818945765909&&1&2&7200&CNY&0040&boshzjjg&6221802610007105754&0&
20060390040021427004&20060390040021427004&20200603&02000016&1813933207826&1813933207826&&1&2&1000000&CNY&0040&boshzjjg&6228481269190663773&0&
20060390040021427079&20060390040021427079&20200603&02000016&1813324536769&1813324536769&&1&2&10000&CNY&0040&boshzjjg&6215593700004614042&0&
20060390040021427007&20060390040021427007&20200603&02000016&1813832526017&1813832526017&&1&2&194000&CNY&0040&boshzjjg&6217000180003186602&0&
20060390040021427081&20060390040021427081&20200603&02000016&1818827967748&1818827967748&&1&2&1000&CNY&0040&boshzjjg&6215581509002825284&0&
20060390040021427010&20060390040021427010&20200603&02000016&1800100000064&1800100000064&&1&2&5000&CNY&0040&boshzjjg&6228481269164514978&0&
20060390040021427083&20060390040021427083&20200603&02000016&1813636870153&1813636870153&&1&2&4000&CNY&0040&boshzjjg&6215592609002415479&0&
20060390040021427085&20060390040021427085&20200603&02000016&1818331534443&1818331534443&&1&2&969000&CNY&0040&boshzjjg&6217000180046539940&0&
20060390040021427089&20060390040021427089&20200603&02000016&1813992186412&1813992186412&&1&2&4000&CNY&0040&boshzjjg&6215592609005796412&0&
20060390040021427090&20060390040021427090&20200603&02000016&1819871238258&1819871238258&&1&2&195500&CNY&0040&boshzjjg&6230523820008541571&0&
20060390040021427147&20060390040021427147&20200603&02000016&1800100000064&1800100000064&&1&2&5000&CNY&0040&boshzjjg&6228481269164514978&0&
20060390040021427018&20060390040021427018&20200603&02000016&1813513121930&1813513121930&&1&2&5000&CNY&0040&boshzjjg&6013825002007063429&0&
20060390040021427152&20060390040021427152&20200603&02000016&1815033223779&1815033223779&&1&2&5000&CNY&0040&boshzjjg&6228481262000815915&0&
20060390040021427099&20060390040021427099&20200603&02000016&1813145491363&1813145491363&&1&2&200000&CNY&0040&boshzjjg&6217002290013168496&0&
20060390040021427157&20060390040021427157&20200603&02000016&1815288116989&1815288116989&&1&2&380000&CNY&0040&boshzjjg&6217003960000726766&0&
20060390040021427032&20060390040021427032&20200603&02000016&1813908821930&1813908821930&&1&2&200000&CNY&0040&boshzjjg&6217852700004425607&0&
20060390040021427255&20060390040021427255&20200603&02000016&1815932548856&1815932548856&&1&2&195000&CNY&0040&boshzjjg&6217000180001177959&0&
20060390040021427335&20060390040021427335&20200603&02000016&1813739822199&1813739822199&&1&2&1000&CNY&0040&boshzjjg&6230520650041673575&0&
20060390040021427265&20060390040021427265&20200603&02000016&1813739822199&1813739822199&&1&2&194000&CNY&0040&boshzjjg&6230520650041673575&0&
20060390040021427196&20060390040021427196&20200603&02000016&1800100000073&1800100000073&&1&2&10000&CNY&0040&boshzjjg&6228482688416581072&0&
20060390040021427197&20060390040021427197&20200603&02000016&1815100500891&1815100500891&&1&2&195000&CNY&0040&boshzjjg&6222080403002514662&0&
20060390040021427271&20060390040021427271&20200603&02000016&1813463503191&1813463503191&&1&2&770000&CNY&0040&boshzjjg&6222030403007685450&0&
20060390040021427348&20060390040021427348&20200603&02000016&1813779597882&1813779597882&&1&2&192700&CNY&0040&boshzjjg&6227004630301848480&0&
20060390040021427274&20060390040021427274&20200603&02000016&1818725344782&1818725344782&&1&2&3000&CNY&0040&boshzjjg&6228483968611794772&0&
20060390040021427277&20060390040021427277&20200603&02000016&1813653226824&1813653226824&&1&2&5000&CNY&0040&boshzjjg&6228480018589273475&0&
20060390040021427284&20060390040021427284&20200603&02000016&1815925561179&1815925561179&&1&2&3000&CNY&0040&boshzjjg&6230523960012571675&0&
20060390040021427212&20060390040021427212&20200603&02000016&1815025068429&1815025068429&&1&2&3000&CNY&0040&boshzjjg&6228483968366798879&0&
20060390040021427285&20060390040021427285&20200603&02000016&1815613502427&1815613502427&&1&2&1000&CNY&0040&boshzjjg&6231562800348242&0&
20060390040021427213&20060390040021427213&20200603&02000016&1815613502427&1815613502427&&1&2&193000&CNY&0040&boshzjjg&6231562800348242&0&
20060390040021427217&20060390040021427217&20200603&02000016&1813064860909&1813064860909&&1&2&200000&CNY&0040&boshzjjg&6228481985804145978&0&
20060390040021427292&20060390040021427292&20200603&02000016&1815045780767&1815045780767&&1&2&10000&CNY&0040&boshzjjg&6212260907001933650&0&
20060390040021427380&20060390040021427380&20200603&02000016&1800100000118&1800100000118&&1&2&10000&CNY&0040&boshzjjg&6213362686057724560&0&
20060390040021427410&20060390040021427410&20200603&02000016&1817682459990&1817682459990&&1&2&3000&CNY&0040&boshzjjg&6217920302482802&0&
20060390040021427325&20060390040021427325&20200603&02000016&1813190040355&1813190040355&&1&2&200000&CNY&0040&boshzjjg&6217850400006393067&0&
20060390040021427326&20060390040021427326&20200603&02000016&1813946783966&1813946783966&&1&2&6000&CNY&0040&boshzjjg&6212260906003338306&0&
20060390040021427457&20060390040021427457&20200603&02000016&1815687588895&1815687588895&&1&2&200000&CNY&0040&boshzjjg&6228483358274317477&0&
20060390040021427482&20060390040021427482&20200603&02000016&1813636870153&1813636870153&&1&2&8000&CNY&0040&boshzjjg&6215592609002415479&0&
20060390040021427663&20060390040021427663&20200603&02000016&1815682951846&1815682951846&&1&2&208000&CNY&0040&boshzjjg&6222032709000584138&0&
20060390040021427666&20060390040021427666&20200603&02000016&1815210697195&1815210697195&&1&2&200000&CNY&0040&boshzjjg&6217000140034884559&0&
20060390040021427665&20060390040021427665&20200603&02000016&1813578258275&1813578258275&&1&2&200000&CNY&0040&boshzjjg&6217852700022946303&0&
20060390040021427581&20060390040021427581&20200603&02000016&1813623333299&1813623333299&&1&2&100&CNY&0040&boshzjjg&6228480658461337573&0&
20060390040021427582&20060390040021427582&20200603&02000016&1813623333299&1813623333299&&1&2&969900&CNY&0040&boshzjjg&6228480658461337573&0&
20060390040021427585&20060390040021427585&20200603&02000016&1815070004787&1815070004787&&1&2&600000&CNY&0040&boshzjjg&6228480920967549311&0&
20060390040021427513&20060390040021427513&20200603&02000016&1813363243535&1813363243535&&1&2&194000&CNY&0040&boshzjjg&6222020403009602828&0&
20060390040021427594&20060390040021427594&20200603&02000016&1813324536769&1813324536769&&1&2&5000&CNY&0040&boshzjjg&6215593700004614042&0&
20060390040021427522&20060390040021427522&20200603&02000016&1815949672286&1815949672286&&1&2&202500&CNY&0040&boshzjjg&6230522310004130273&0&
20060390040021427615&20060390040021427615&20200603&02000016&1818921860818&1818921860818&&1&2&195000&CNY&0040&boshzjjg&6228431989604774772&0&
20060390040021427738&20060390040021427738&20200603&02000016&1813832935461&1813832935461&&1&2&194000&CNY&0040&boshzjjg&6230520650008266272&0&
20060390040021427739&20060390040021427739&20200603&02000016&1818730588858&1818730588858&&1&2&194000&CNY&0040&boshzjjg&6217000180014526994&0&
20060390040021427628&20060390040021427628&20200603&02000016&1813638362781&1813638362781&&1&2&160000&CNY&0040&boshzjjg&6228480478572558573&0&
20060390040021427744&20060390040021427744&20200603&02000016&1818730588858&1818730588858&&1&2&770000&CNY&0040&boshzjjg&6217000180014526994&0&
20060390040021427756&20060390040021427756&20200603&02000016&1815245436282&1815245436282&&1&2&200000&CNY&0040&boshzjjg&6217992610164485211&0&
20060390040021427775&20060390040021427775&20200603&02000016&1813472972651&1813472972651&&1&2&1000&CNY&0040&boshzjjg&9558820403001406380&0&
20060390040021427857&20060390040021427857&20200603&02000016&1800100000345&1800100000345&&1&2&3000&CNY&0040&boshzjjg&6236680140002089998&0&
20060390040021427728&20060390040021427728&20200603&02000016&1818730588858&1818730588858&&1&2&6000&CNY&0040&boshzjjg&6217000180014526994&0&
20060390040021427727&20060390040021427727&20200603&02000016&1813472972651&1813472972651&&1&2&970000&CNY&0040&boshzjjg&9558820403001406380&0&
20060390040021427868&20060390040021427868&20200603&02000016&1813731798775&1813731798775&&1&2&100&CNY&0040&boshzjjg&6228480649169179276&0&
20060390040021427875&20060390040021427875&20200603&02000016&1813731798775&1813731798775&&1&2&970000&CNY&0040&boshzjjg&6228480649169179276&0&
20060390040021427816&20060390040021427816&20200603&02000016&1818690049591&1818690049591&&1&2&20000&CNY&0040&boshzjjg&6228480231197014211&0&
20060390040021427979&20060390040021427979&20200603&02000016&1818908752966&1818908752966&&1&2&200000&CNY&0040&boshzjjg&6215582510000004574&0&
20060390040021428041&20060390040021428041&20200603&02000016&1815383327001&1815383327001&&1&2&200000&CNY&0040&boshzjjg&6222621360001006791&0&
20060390040021428048&20060390040021428048&20200603&02000016&1818779740474&1818779740474&&1&2&200000&CNY&0040&boshzjjg&6214837972324085&0&
20060390040021428049&20060390040021428049&20200603&02000016&1813339574707&1813339574707&&1&2&7000&CNY&0040&boshzjjg&6217001040003252060&0&
20060390040021428051&20060390040021428051&20200603&02000016&1818352027259&1818352027259&&1&2&10000&CNY&0040&boshzjjg&6217001320006564236&0&
20060390040021428052&20060390040021428052&20200603&02000016&1815184848605&1815184848605&&1&2&100&CNY&0040&boshzjjg&6228483966003082665&0&
20060390040021428056&20060390040021428056&20200603&02000016&1815170510050&1815170510050&&1&2&200000&CNY&0040&boshzjjg&6217002020063188189&0&
20060390040021428000&20060390040021428000&20200603&02000016&1815184848605&1815184848605&&1&2&7000&CNY&0040&boshzjjg&6228483966003082665&0&
20060390040021428156&20060390040021428156&20200603&02000016&1815931775090&1815931775090&&1&2&7500&CNY&0040&boshzjjg&6216615002001917052&0&
20060390040021428155&20060390040021428155&20200603&02000016&1815925440402&1815925440402&&1&2&200000&CNY&0040&boshzjjg&6228483350665504912&0&
