20200612|02000016|91238591|1818348907445|1818348907445|20200511000080|B3UHWVR2|1|0|18600|18600|10|0|0|550|0|0|0|0|0|0|1|0|0|20200612143622
20200612|02000016|91238587|1815128477807|1815128477807|20200511000080|B3UHWVR2|1|0|18600|18600|10|0|0|550|0|0|0|0|0|0|1|0|0|20200612143530
20200612|02000016|91238586|1813633226787|1813633226787|20200511000080|B3UHWVR2|1|0|18600|18600|10|0|0|550|0|0|0|0|0|0|1|0|0|20200612143529
20200612|02000016|91238577|1815233758901|1815233758901|20200511000080|B3UHWVR2|1|0|18600|18600|10|0|0|550|0|0|0|0|0|0|1|0|0|20200612143439
20200612|02000016|91238573|1800100000064|1800100000064|20200511000080|B3UHWVR2|1|0|18600|18600|10|0|0|550|0|0|0|0|0|0|1|0|0|20200612143214
20200612|02000016|91238572|1818103121030|1818103121030|20200511000080|B3UHWVR2|1|0|18600|18600|10|0|0|550|0|0|0|0|0|0|1|0|0|20200612143141
20200612|02000016|91238571|1818132717939|1818132717939|20200511000080|B3UHWVR2|1|0|18600|18600|10|0|0|550|0|0|0|0|0|0|1|0|0|20200612143119
20200612|02000016|91238570|1818870559010|1818870559010|20200511000080|B3UHWVR2|1|0|18600|18600|10|0|0|550|0|0|0|0|0|0|1|0|0|20200612143100
20200612|02000016|91238554|1815557122888|1815557122888|20200511000080|B3UHWVR2|1|0|18600|18600|10|0|0|550|0|0|0|0|0|0|1|0|0|20200612142933
20200612|02000016|91238553|1813191684413|1813191684413|20200511000080|B3UHWVR2|1|0|18600|18600|10|0|0|550|0|0|0|0|0|0|1|0|0|20200612142922
20200612|02000016|91238552|1818687924557|1818687924557|20200511000080|B3UHWVR2|1|0|18600|18600|10|0|0|550|0|0|0|0|0|0|1|0|0|20200612142918
20200612|02000016|91238546|1813879606088|1813879606088|20200511000080|B3UHWVR2|1|0|18600|18600|10|0|0|550|0|0|0|0|0|0|1|0|0|20200612142845
20200612|02000016|91238538|1813986945608|1813986945608|20200511000080|B3UHWVR2|1|0|18600|18600|10|0|0|550|0|0|0|0|0|0|1|0|0|20200612142734
20200612|02000016|91238532|1815042400515|1815042400515|20200511000080|B3UHWVR2|1|0|18600|18600|10|0|0|550|0|0|0|0|0|0|1|0|0|20200612142707
20200612|02000016|91238531|1815333221545|1815333221545|20200511000080|B3UHWVR2|1|0|18600|18600|10|0|0|550|0|0|0|0|0|0|1|0|0|20200612142705
20200612|02000016|91238521|1813470588375|1813470588375|20200511000080|B3UHWVR2|1|0|18600|18600|10|0|0|550|0|0|0|0|0|0|1|0|0|20200612142410
20200612|02000016|91238520|1817784230052|1817784230052|20200511000080|B3UHWVR2|1|0|18600|18600|10|0|0|550|0|0|0|0|0|0|1|0|0|20200612142246
20200612|02000016|91238507|1813064860909|1813064860909|20200511000080|B3UHWVR2|1|0|18600|18600|10|0|0|550|0|0|0|0|0|0|1|0|0|20200612141800
20200612|02000016|91238503|1813582217784|1813582217784|20200511000080|B3UHWVR2|1|0|18600|18600|10|0|0|550|0|0|0|0|0|0|1|0|0|20200612141708
20200612|02000016|91238501|1813987540345|1813987540345|20200511000080|B3UHWVR2|1|0|18600|18600|10|0|0|550|0|0|0|0|0|0|1|0|0|20200612141628
20200612|02000016|91238491|1815045790917|1815045790917|20200511000080|B3UHWVR2|1|0|18600|18600|10|0|0|550|0|0|0|0|0|0|1|0|0|20200612141556
20200612|02000016|91238488|1813378816227|1813378816227|20200511000080|B3UHWVR2|1|0|18600|18600|10|0|0|550|0|0|0|0|0|0|1|0|0|20200612141549
20200612|02000016|91238482|1813231508123|1813231508123|20200511000080|B3UHWVR2|1|0|18600|18600|10|0|0|550|0|0|0|0|0|0|1|0|0|20200612141529
20200612|02000016|91238473|1813323228902|1813323228902|20200511000080|B3UHWVR2|1|0|18600|18600|10|0|0|550|0|0|0|0|0|0|1|0|0|20200612141423
20200612|02000016|91238465|1813988219076|1813988219076|20200511000080|B3UHWVR2|1|0|18600|18600|10|0|0|550|0|0|0|0|0|0|1|0|0|20200612141326
20200612|02000016|91238464|1818164646890|1818164646890|20200511000080|B3UHWVR2|1|0|18600|18600|10|0|0|550|0|0|0|0|0|0|1|0|0|20200612141315
20200612|02000016|91238457|1818249480111|1818249480111|20200511000080|B3UHWVR2|1|0|18600|18600|10|0|0|550|0|0|0|0|0|0|1|0|0|20200612141241
20200612|02000016|91238453|1815846883366|1815846883366|20200511000080|B3UHWVR2|1|0|18600|18600|10|0|0|550|0|0|0|0|0|0|1|0|0|20200612141110
20200612|02000016|91238452|1813310933838|1813310933838|20200511000080|B3UHWVR2|1|0|18600|18600|10|0|0|550|0|0|0|0|0|0|1|0|0|20200612141106
20200612|02000016|91238451|1813572960606|1813572960606|20200511000080|B3UHWVR2|1|0|18600|18600|10|0|0|550|0|0|0|0|0|0|1|0|0|20200612141048
20200612|02000016|91238450|1813694033282|1813694033282|20200511000080|B3UHWVR2|1|0|18600|18600|10|0|0|550|0|0|0|0|0|0|1|0|0|20200612141025
20200612|02000016|91238449|1818787586472|1818787586472|20200511000080|B3UHWVR2|1|0|18600|18600|10|0|0|550|0|0|0|0|0|0|1|0|0|20200612141008
20200612|02000016|91238442|1818855897042|1818855897042|20200511000080|B3UHWVR2|1|0|18600|18600|10|0|0|550|0|0|0|0|0|0|1|0|0|20200612140615
20200612|02000016|91238433|1818846735652|1818846735652|20200511000080|B3UHWVR2|1|0|18600|18600|10|0|0|550|0|0|0|0|0|0|1|0|0|20200612140535
20200612|02000016|91238422|1818869127192|1818869127192|20200511000080|B3UHWVR2|1|0|18600|18600|10|0|0|550|0|0|0|0|0|0|1|0|0|20200612140318
20200612|02000016|91238415|1815130317528|1815130317528|20200511000080|B3UHWVR2|1|0|18600|18600|10|0|0|550|0|0|0|0|0|0|1|0|0|20200612140252
20200612|02000016|91238414|1818631253272|1818631253272|20200511000080|B3UHWVR2|1|0|18600|18600|10|0|0|550|0|0|0|0|0|0|1|0|0|20200612140248
20200612|02000016|91238412|1815530206927|1815530206927|20200511000080|B3UHWVR2|1|0|18600|18600|10|0|0|550|0|0|0|0|0|0|1|0|0|20200612140231
20200612|02000016|91238413|1815187700939|1815187700939|20200511000080|B3UHWVR2|1|0|18600|18600|10|0|0|550|0|0|0|0|0|0|1|0|0|20200612140231
20200612|02000016|91238399|1813481184097|1813481184097|20200511000080|B3UHWVR2|1|0|18600|18600|10|0|0|550|0|0|0|0|0|0|1|0|0|20200612140120
20200612|02000016|91238395|1815043594322|1815043594322|20200511000080|B3UHWVR2|1|0|18600|18600|10|0|0|550|0|0|0|0|0|0|1|0|0|20200612135927
20200612|02000016|91238394|1815184974413|1815184974413|20200511000080|B3UHWVR2|1|0|18600|18600|10|0|0|550|0|0|0|0|0|0|1|0|0|20200612135833
20200612|02000016|91238385|1818921860818|1818921860818|20200511000080|B3UHWVR2|1|0|18600|18600|10|0|0|550|0|0|0|0|0|0|1|0|0|20200612135742
20200612|02000016|91238381|1816603205239|1816603205239|20200511000080|B3UHWVR2|1|0|18600|18600|10|0|0|550|0|0|0|0|0|0|1|0|0|20200612135718
20200612|02000016|91238374|1815246290569|1815246290569|20200511000080|B3UHWVR2|1|0|18600|18600|10|0|0|550|0|0|0|0|0|0|1|0|0|20200612135704
20200612|02000016|91238373|1815839829131|1815839829131|20200511000080|B3UHWVR2|1|0|18600|18600|10|0|0|550|0|0|0|0|0|0|1|0|0|20200612135653
20200612|02000016|91238372|1813224207506|1813224207506|20200511000080|B3UHWVR2|1|0|18600|18600|10|0|0|550|0|0|0|0|0|0|1|0|0|20200612135647
20200612|02000016|91238365|1818987916256|1818987916256|20200511000080|B3UHWVR2|1|0|18600|18600|10|0|0|550|0|0|0|0|0|0|1|0|0|20200612135627
20200612|02000016|91238363|1815592260808|1815592260808|20200511000080|B3UHWVR2|1|0|18600|18600|10|0|0|550|0|0|0|0|0|0|1|0|0|20200612135620
20200612|02000016|91238340|1813102973382|1813102973382|20200511000080|B3UHWVR2|1|0|18600|18600|10|0|0|550|0|0|0|0|0|0|1|0|0|20200612135539
20200612|02000016|91238335|1813931219857|1813931219857|20200511000080|B3UHWVR2|1|0|18600|18600|10|0|0|550|0|0|0|0|0|0|1|0|0|20200612135513
20200612|02000016|91238329|1815287222929|1815287222929|20200511000080|B3UHWVR2|1|0|18600|18600|10|0|0|550|0|0|0|0|0|0|1|0|0|20200612135459
20200612|02000016|91238323|1813569282610|1813569282610|20200511000080|B3UHWVR2|1|0|18600|18600|10|0|0|550|0|0|0|0|0|0|1|0|0|20200612135423
20200612|02000016|91238320|1818304670676|1818304670676|20200511000080|B3UHWVR2|1|0|18600|18600|10|0|0|550|0|0|0|0|0|0|1|0|0|20200612135338
20200612|02000016|91238312|1813887902815|1813887902815|20200511000080|B3UHWVR2|1|0|18600|18600|10|0|0|550|0|0|0|0|0|0|1|0|0|20200612135202
20200612|02000016|91238311|1818191539413|1818191539413|20200511000080|B3UHWVR2|1|0|18600|18600|10|0|0|550|0|0|0|0|0|0|1|0|0|20200612135158
20200612|02000016|91238296|1813987578771|1813987578771|20200511000080|B3UHWVR2|1|0|18600|18600|10|0|0|550|0|0|0|0|0|0|1|0|0|20200612135121
20200612|02000016|91238294|1818060529819|1818060529819|20200511000080|B3UHWVR2|1|0|18600|18600|10|0|0|550|0|0|0|0|0|0|1|0|0|20200612135111
20200612|02000016|91238292|1813555055525|1813555055525|20200511000080|B3UHWVR2|1|0|18600|18600|10|0|0|550|0|0|0|0|0|0|1|0|0|20200612134936
20200612|02000016|91238291|1818088155607|1818088155607|20200511000080|B3UHWVR2|1|0|18600|18600|10|0|0|550|0|0|0|0|0|0|1|0|0|20200612134927
20200612|02000016|91238288|1813368815583|1813368815583|20200511000080|B3UHWVR2|1|0|18600|18600|10|0|0|550|0|0|0|0|0|0|1|0|0|20200612134924
20200612|02000016|91238272|1818987517957|1818987517957|20200511000080|B3UHWVR2|1|0|18600|18600|8|0|0|440|0|0|0|0|0|0|1|0|0|20200612134818
20200612|02000016|91238270|1813988222092|1813988222092|20200511000080|B3UHWVR2|1|0|18600|18600|10|0|0|550|0|0|0|0|0|0|1|0|0|20200612134744
20200612|02000016|91238258|1818306924682|1818306924682|20200511000080|B3UHWVR2|1|0|18600|18600|10|0|0|550|0|0|0|0|0|0|1|0|0|20200612134630
20200612|02000016|91238255|1817612456397|1817612456397|20200511000080|B3UHWVR2|1|0|18600|18600|10|0|0|550|0|0|0|0|0|0|1|0|0|20200612134629
20200612|02000016|91238249|1819187901601|1819187901601|20200511000080|B3UHWVR2|1|0|18600|18600|10|0|0|550|0|0|0|0|0|0|1|0|0|20200612134542
20200612|02000016|91238248|1815932240292|1815932240292|20200511000080|B3UHWVR2|1|0|18600|18600|10|0|0|550|0|0|0|0|0|0|1|0|0|20200612134537
20200612|02000016|91238244|1815133232674|1815133232674|20200511000080|B3UHWVR2|1|0|18600|18600|10|0|0|550|0|0|0|0|0|0|1|0|0|20200612134519
20200612|02000016|91238241|1813466173625|1813466173625|20200511000080|B3UHWVR2|1|0|18600|18600|10|0|0|550|0|0|0|0|0|0|1|0|0|20200612134450
20200612|02000016|91238239|1813578198508|1813578198508|20200511000080|B3UHWVR2|1|0|18600|18600|10|0|0|550|0|0|0|0|0|0|1|0|0|20200612134338
20200612|02000016|91238226|1818908820016|1818908820016|20200511000080|B3UHWVR2|1|0|18600|18600|10|0|0|550|0|0|0|0|0|0|1|0|0|20200612134133
20200612|02000016|91238221|1815368798533|1815368798533|20200511000080|B3UHWVR2|1|0|18600|18600|10|0|0|550|0|0|0|0|0|0|1|0|0|20200612134108
20200612|02000016|91238217|1818392967498|1818392967498|20200511000080|B3UHWVR2|1|0|18600|18600|10|0|0|550|0|0|0|0|0|0|1|0|0|20200612133942
20200612|02000016|91238216|1815894439256|1815894439256|20200511000080|B3UHWVR2|1|0|18600|18600|10|0|0|550|0|0|0|0|0|0|1|0|0|20200612133854
20200612|02000016|91238215|1815025033359|1815025033359|20200511000080|B3UHWVR2|1|0|18600|18600|10|0|0|550|0|0|0|0|0|0|1|0|0|20200612133833
20200612|02000016|91238203|1813759236567|1813759236567|20200511000080|B3UHWVR2|1|0|18600|18600|10|0|0|550|0|0|0|0|0|0|1|0|0|20200612133740
20200612|02000016|91238202|1813780538684|1813780538684|20200511000080|B3UHWVR2|1|0|18600|18600|10|0|0|550|0|0|0|0|0|0|1|0|0|20200612133738
20200612|02000016|91238196|1815712597112|1815712597112|20200511000080|B3UHWVR2|1|0|18600|18600|10|0|0|550|0|0|0|0|0|0|1|0|0|20200612133648
20200612|02000016|91238177|1815032494099|1815032494099|20200511000080|B3UHWVR2|1|0|18600|18600|10|0|0|550|0|0|0|0|0|0|1|0|0|20200612133418
20200612|02000016|91238176|1815931775090|1815931775090|20200511000080|B3UHWVR2|1|0|18600|18600|10|0|0|550|0|0|0|0|0|0|1|0|0|20200612133357
20200612|02000016|91238172|1818507776297|1818507776297|20200511000080|B3UHWVR2|1|0|18600|18600|10|0|0|550|0|0|0|0|0|0|1|0|0|20200612133213
20200612|02000016|91238171|1815094665586|1815094665586|20200511000080|B3UHWVR2|1|0|18600|18600|10|0|0|550|0|0|0|0|0|0|1|0|0|20200612133210
20200612|02000016|91238163|1815933158898|1815933158898|20200511000080|B3UHWVR2|1|0|18600|18600|10|0|0|550|0|0|0|0|0|0|1|0|0|20200612133002
20200612|02000016|91238157|1815933739943|1815933739943|20200511000080|B3UHWVR2|1|0|18600|18600|10|0|0|550|0|0|0|0|0|0|1|0|0|20200612132929
20200612|02000016|91238156|1813731660124|1813731660124|20200511000080|B3UHWVR2|1|0|18600|18600|10|0|0|550|0|0|0|0|0|0|1|0|0|20200612132924
20200612|02000016|91238150|1813931267078|1813931267078|20200511000080|B3UHWVR2|1|0|18600|18600|10|0|0|550|0|0|0|0|0|0|1|0|0|20200612132907
20200612|02000016|91238146|1818514573135|1818514573135|20200511000080|B3UHWVR2|1|0|18600|18600|10|0|0|550|0|0|0|0|0|0|1|0|0|20200612132822
20200612|02000016|91238141|1800100000085|1800100000085|20200511000080|B3UHWVR2|1|0|18600|18600|10|0|0|550|0|0|0|0|0|0|1|0|0|20200612132627
20200612|02000016|91238140|1813930833053|1813930833053|20200511000080|B3UHWVR2|1|0|18600|18600|10|0|0|550|0|0|0|0|0|0|1|0|0|20200612132626
20200612|02000016|91238132|1800100000287|1800100000287|20200511000080|B3UHWVR2|1|0|18600|18600|10|0|0|550|0|0|0|0|0|0|1|0|0|20200612132407
20200612|02000016|91238126|1815331526697|1815331526697|20200511000080|B3UHWVR2|1|0|18600|18600|10|0|0|550|0|0|0|0|0|0|1|0|0|20200612132343
20200612|02000016|91238119|1817692236913|1817692236913|20200511000080|B3UHWVR2|1|0|18600|18600|10|0|0|550|0|0|0|0|0|0|1|0|0|20200612132304
20200612|02000016|91238113|1813578286883|1813578286883|20200511000080|B3UHWVR2|1|0|18600|18600|10|0|0|550|0|0|0|0|0|0|1|0|0|20200612132247
20200612|02000016|91238112|1818331088485|1818331088485|20200511000080|B3UHWVR2|1|0|18600|18600|10|0|0|550|0|0|0|0|0|0|1|0|0|20200612132208
20200612|02000016|91238099|1818233291091|1818233291091|20200511000080|B3UHWVR2|1|0|18600|18600|10|0|0|550|0|0|0|0|0|0|1|0|0|20200612132117
20200612|02000016|91238090|1813730476179|1813730476179|20200511000080|B3UHWVR2|1|0|18600|18600|10|0|0|550|0|0|0|0|0|0|1|0|0|20200612132027
20200612|02000016|91238089|1815257296726|1815257296726|20200511000080|B3UHWVR2|1|0|18600|18600|10|0|0|550|0|0|0|0|0|0|1|0|0|20200612132026
20200612|02000016|91238084|1800100000361|1800100000361|20200511000080|B3UHWVR2|1|0|18600|18600|10|0|0|550|0|0|0|0|0|0|1|0|0|20200612131928
20200612|02000016|91238083|1800100000196|1800100000196|20200511000080|B3UHWVR2|1|0|18600|18600|10|0|0|550|0|0|0|0|0|0|1|0|0|20200612131925
20200612|02000016|91238074|1813879606751|1813879606751|20200511000080|B3UHWVR2|1|0|18600|18600|10|0|0|550|0|0|0|0|0|0|1|0|0|20200612131914
20200612|02000016|91238072|1813722255068|1813722255068|20200511000080|B3UHWVR2|1|0|18600|18600|10|0|0|550|0|0|0|0|0|0|1|0|0|20200612131831
20200612|02000016|91238065|1815969236033|1815969236033|20200511000080|B3UHWVR2|1|0|18600|18600|10|0|0|550|0|0|0|0|0|0|1|0|0|20200612131818
20200612|02000016|91238063|1815832285526|1815832285526|20200511000080|B3UHWVR2|1|0|18600|18600|10|0|0|550|0|0|0|0|0|0|1|0|0|20200612131740
20200612|02000016|91238062|1813385849623|1813385849623|20200511000080|B3UHWVR2|1|0|18600|18600|10|0|0|550|0|0|0|0|0|0|1|0|0|20200612131739
20200612|02000016|91238053|1813327034451|1813327034451|20200511000080|B3UHWVR2|1|0|18600|18600|10|0|0|550|0|0|0|0|0|0|1|0|0|20200612131704
20200612|02000016|91238049|1819912156726|1819912156726|20200511000080|B3UHWVR2|1|0|18600|18600|10|0|0|550|0|0|0|0|0|0|1|0|0|20200612131648
20200612|02000016|91238038|1813970039068|1813970039068|20200511000080|B3UHWVR2|1|0|18600|18600|10|0|0|550|0|0|0|0|0|0|1|0|0|20200612131548
20200612|02000016|91238028|1815931271087|1815931271087|20200511000080|B3UHWVR2|1|0|18600|18600|10|0|0|550|0|0|0|0|0|0|1|0|0|20200612131452
20200612|02000016|91238024|1815758449560|1815758449560|20200511000080|B3UHWVR2|1|0|18600|18600|10|0|0|550|0|0|0|0|0|0|1|0|0|20200612131440
20200612|02000016|91238019|1813930896039|1813930896039|20200511000080|B3UHWVR2|1|0|18600|18600|10|0|0|550|0|0|0|0|0|0|1|0|0|20200612131346
20200612|02000016|91238014|1814784685555|1814784685555|20200511000080|B3UHWVR2|1|0|18600|18600|10|0|0|550|0|0|0|0|0|0|1|0|0|20200612131208
20200612|02000016|91238013|1815538816005|1815538816005|20200511000080|B3UHWVR2|1|0|18600|18600|10|0|0|550|0|0|0|0|0|0|1|0|0|20200612131204
20200612|02000016|91238009|1818833231624|1818833231624|20200511000080|B3UHWVR2|1|0|18600|18600|10|0|0|550|0|0|0|0|0|0|1|0|0|20200612131145
20200612|02000016|91238005|1813331281727|1813331281727|20200511000080|B3UHWVR2|1|0|18600|18600|10|0|0|550|0|0|0|0|0|0|1|0|0|20200612131100
20200612|02000016|91238004|1813463688778|1813463688778|20200511000080|B3UHWVR2|1|0|18600|18600|10|0|0|550|0|0|0|0|0|0|1|0|0|20200612131058
20200612|02000016|91237996|1815350622072|1815350622072|20200511000080|B3UHWVR2|1|0|18600|18600|10|0|0|550|0|0|0|0|0|0|1|0|0|20200612131028
20200612|02000016|91237985|1818908752966|1818908752966|20200511000080|B3UHWVR2|1|0|18600|18600|10|0|0|550|0|0|0|0|0|0|1|0|0|20200612130949
20200612|02000016|91237972|1813315273740|1813315273740|20200511000080|B3UHWVR2|1|0|18600|18600|10|0|0|550|0|0|0|0|0|0|1|0|0|20200612130905
20200612|02000016|91237970|1819187939328|1819187939328|20200511000080|B3UHWVR2|1|0|18600|18600|10|0|0|550|0|0|0|0|0|0|1|0|0|20200612130900
20200612|02000016|91237965|1818330297314|1818330297314|20200511000080|B3UHWVR2|1|0|18600|18600|10|0|0|550|0|0|0|0|0|0|1|0|0|20200612130849
20200612|02000016|91237964|1818604681909|1818604681909|20200511000080|B3UHWVR2|1|0|18600|18600|10|0|0|550|0|0|0|0|0|0|1|0|0|20200612130848
20200612|02000016|91237961|1818507792116|1818507792116|20200511000080|B3UHWVR2|1|0|18600|18600|10|0|0|550|0|0|0|0|0|0|1|0|0|20200612130844
20200612|02000016|91237952|1815271903817|1815271903817|20200511000080|B3UHWVR2|1|0|18600|18600|10|0|0|550|0|0|0|0|0|0|1|0|0|20200612130821
20200612|02000016|91237943|1813958157143|1813958157143|20200511000080|B3UHWVR2|1|0|18600|18600|10|0|0|550|0|0|0|0|0|0|1|0|0|20200612130803
20200612|02000016|91237937|1815287565721|1815287565721|20200511000080|B3UHWVR2|1|0|18600|18600|10|0|0|550|0|0|0|0|0|0|1|0|0|20200612130749
20200612|02000016|91237936|1800100000246|1800100000246|20200511000080|B3UHWVR2|1|0|18600|18600|10|0|0|550|0|0|0|0|0|0|1|0|0|20200612130734
20200612|02000016|91237927|1815100273368|1815100273368|20200511000080|B3UHWVR2|1|0|18600|18600|10|0|0|550|0|0|0|0|0|0|1|0|0|20200612130639
20200612|02000016|91237917|1800100000218|1800100000218|20200511000080|B3UHWVR2|1|0|18600|18600|10|0|0|550|0|0|0|0|0|0|1|0|0|20200612130615
20200612|02000016|91237899|1815871938967|1815871938967|20200511000080|B3UHWVR2|1|0|18600|18600|10|0|0|550|0|0|0|0|0|0|1|0|0|20200612130542
20200612|02000016|91237895|1813808781900|1813808781900|20200511000080|B3UHWVR2|1|0|18600|18600|10|0|0|550|0|0|0|0|0|0|1|0|0|20200612130529
20200612|02000016|91237890|1800100000237|1800100000237|20200511000080|B3UHWVR2|1|0|18600|18600|10|0|0|550|0|0|0|0|0|0|1|0|0|20200612130518
20200612|02000016|91237888|1813889877508|1813889877508|20200511000080|B3UHWVR2|1|0|18600|18600|10|0|0|550|0|0|0|0|0|0|1|0|0|20200612130509
20200612|02000016|91237887|1815383327001|1815383327001|20200511000080|B3UHWVR2|1|0|18600|18600|10|0|0|550|0|0|0|0|0|0|1|0|0|20200612130504
20200612|02000016|91237881|1815208756608|1815208756608|20200511000080|B3UHWVR2|1|0|18600|18600|10|0|0|550|0|0|0|0|0|0|1|0|0|20200612130428
20200612|02000016|91237868|1800100000022|1800100000022|20200511000080|B3UHWVR2|1|0|18600|18600|10|0|0|550|0|0|0|0|0|0|1|0|0|20200612130357
20200612|02000016|91237855|1800100000116|1800100000116|20200511000080|B3UHWVR2|1|0|18600|18600|10|0|0|550|0|0|0|0|0|0|1|0|0|20200612130330
20200612|02000016|91237853|1813343028920|1813343028920|20200511000080|B3UHWVR2|1|0|18600|18600|10|0|0|550|0|0|0|0|0|0|1|0|0|20200612130325
20200612|02000016|91237851|1815716865625|1815716865625|20200511000080|B3UHWVR2|1|0|18600|18600|10|0|0|550|0|0|0|0|0|0|1|0|0|20200612130241
20200612|02000016|91237846|1818103125352|1818103125352|20200511000080|B3UHWVR2|1|0|18600|18600|10|0|0|550|0|0|0|0|0|0|1|0|0|20200612130225
20200612|02000016|91237843|1815230984209|1815230984209|20200511000080|B3UHWVR2|1|0|18600|18600|10|0|0|550|0|0|0|0|0|0|1|0|0|20200612130136
20200612|02000016|91237833|1813370555380|1813370555380|20200511000080|B3UHWVR2|1|0|18600|18600|10|0|0|550|0|0|0|0|0|0|1|0|0|20200612130054
20200612|02000016|91237831|1815832279039|1815832279039|20200511000080|B3UHWVR2|1|0|18600|18600|10|0|0|550|0|0|0|0|0|0|1|0|0|20200612130022
20200612|02000016|91237830|1800100000154|1800100000154|20200511000080|B3UHWVR2|1|0|18600|18600|10|0|0|550|0|0|0|0|0|0|1|0|0|20200612130020
20200612|02000016|91237815|1817642059933|1817642059933|20200511000080|B3UHWVR2|1|0|18600|18600|10|0|0|550|0|0|0|0|0|0|1|0|0|20200612112635
20200612|02000016|91237814|1815512595393|1815512595393|20200511000080|B3UHWVR2|1|0|18600|18600|10|0|0|550|0|0|0|0|0|0|1|0|0|20200612112615
20200612|02000016|91237798|1813504031399|1813504031399|20200511000080|B3UHWVR2|1|0|18600|18600|10|0|0|550|0|0|0|0|0|0|1|0|0|20200612112434
20200612|02000016|91237797|1813593926195|1813593926195|20200511000080|B3UHWVR2|1|0|18600|18600|10|0|0|550|0|0|0|0|0|0|1|0|0|20200612112401
20200612|02000016|91237795|1818606548783|1818606548783|20200511000080|B3UHWVR2|1|0|18600|18600|10|0|0|550|0|0|0|0|0|0|1|0|0|20200612112320
20200612|02000016|91237774|1815830845585|1815830845585|20200511000080|B3UHWVR2|1|0|18600|18600|10|0|0|550|0|0|0|0|0|0|1|0|0|20200612112030
20200612|02000016|91237775|1818288570773|1818288570773|20200511000080|B3UHWVR2|1|0|18600|18600|10|0|0|550|0|0|0|0|0|0|1|0|0|20200612112030
20200612|02000016|91237756|1813070527319|1813070527319|20200511000080|B3UHWVR2|1|0|18600|18600|10|0|0|550|0|0|0|0|0|0|1|0|0|20200612111921
20200612|02000016|91237755|1817332403134|1817332403134|20200511000080|B3UHWVR2|1|0|18600|18600|10|0|0|550|0|0|0|0|0|0|1|0|0|20200612111920
20200612|02000016|91237749|1815176687912|1815176687912|20200511000080|B3UHWVR2|1|0|18600|18600|10|0|0|550|0|0|0|0|0|0|1|0|0|20200612111845
20200612|02000016|91237748|1813591148644|1813591148644|20200511000080|B3UHWVR2|1|0|18600|18600|10|0|0|550|0|0|0|0|0|0|1|0|0|20200612111843
20200612|02000016|91237744|1813785222268|1813785222268|20200511000080|B3UHWVR2|1|0|18600|18600|10|0|0|550|0|0|0|0|0|0|1|0|0|20200612111759
20200612|02000016|91237738|1815894436377|1815894436377|20200511000080|B3UHWVR2|1|0|18600|18600|10|0|0|550|0|0|0|0|0|0|1|0|0|20200612111735
20200612|02000016|91237733|1813478825729|1813478825729|20200511000080|B3UHWVR2|1|0|18600|18600|10|0|0|550|0|0|0|0|0|0|1|0|0|20200612111727
20200612|02000016|91237731|1815201189518|1815201189518|20200511000080|B3UHWVR2|1|0|18600|18600|10|0|0|550|0|0|0|0|0|0|1|0|0|20200612111723
20200612|02000016|91237720|1815235078815|1815235078815|20200511000080|B3UHWVR2|1|0|18600|18600|10|0|0|550|0|0|0|0|0|0|1|0|0|20200612111623
20200612|02000016|91237711|1818832529652|1818832529652|20200511000080|B3UHWVR2|1|0|18600|18600|10|0|0|550|0|0|0|0|0|0|1|0|0|20200612111559
20200612|02000016|91237705|1800100000161|1800100000161|20200511000080|B3UHWVR2|1|0|18600|18600|10|0|0|550|0|0|0|0|0|0|1|0|0|20200612111525
20200612|02000016|91237704|1813895018416|1813895018416|20200511000080|B3UHWVR2|1|0|18600|18600|10|0|0|550|0|0|0|0|0|0|1|0|0|20200612111509
20200612|02000016|91237698|1813578228288|1813578228288|20200511000080|B3UHWVR2|1|0|18600|18600|10|0|0|550|0|0|0|0|0|0|1|0|0|20200612111503
20200612|02000016|91237694|1813940206553|1813940206553|20200511000080|B3UHWVR2|1|0|18600|18600|10|0|0|550|0|0|0|0|0|0|1|0|0|20200612111401
20200612|02000016|91237692|1815931730560|1815931730560|20200511000080|B3UHWVR2|1|0|18600|18600|10|0|0|550|0|0|0|0|0|0|1|0|0|20200612111344
20200612|02000016|91237691|1815030230206|1815030230206|20200511000080|B3UHWVR2|1|0|18600|18600|10|0|0|550|0|0|0|0|0|0|1|0|0|20200612111343
20200612|02000016|91237690|1800100000209|1800100000209|20200511000080|B3UHWVR2|1|0|18600|18600|10|0|0|550|0|0|0|0|0|0|1|0|0|20200612111338
20200612|02000016|91237665|1813990752155|1813990752155|20200511000080|B3UHWVR2|1|0|18600|18600|10|0|0|550|0|0|0|0|0|0|1|0|0|20200612111210
20200612|02000016|91237664|1815146755908|1815146755908|20200511000080|B3UHWVR2|1|0|18600|18600|10|0|0|550|0|0|0|0|0|0|1|0|0|20200612111149
20200612|02000016|91237659|1815803241520|1815803241520|20200511000080|B3UHWVR2|1|0|18600|18600|10|0|0|550|0|0|0|0|0|0|1|0|0|20200612111114
20200612|02000016|91237658|1813628873717|1813628873717|20200511000080|B3UHWVR2|1|0|18600|18600|10|0|0|550|0|0|0|0|0|0|1|0|0|20200612111109
20200612|02000016|91237655|1813520802238|1813520802238|20200511000080|B3UHWVR2|1|0|18600|18600|10|0|0|550|0|0|0|0|0|0|1|0|0|20200612111034
20200612|02000016|91237642|1813315427245|1813315427245|20200511000080|B3UHWVR2|1|0|18600|18600|10|0|0|550|0|0|0|0|0|0|1|0|0|20200612110949
20200612|02000016|91237640|1800100000114|1800100000114|20200511000080|B3UHWVR2|1|0|18600|18600|10|0|0|550|0|0|0|0|0|0|1|0|0|20200612110912
20200612|02000016|91237639|1813796574791|1813796574791|20200511000080|B3UHWVR2|1|0|18600|18600|10|0|0|550|0|0|0|0|0|0|1|0|0|20200612110907
20200612|02000016|91237625|1815033779933|1815033779933|20200511000080|B3UHWVR2|1|0|18600|18600|10|0|0|550|0|0|0|0|0|0|1|0|0|20200612110847
20200612|02000016|91237623|1813237785798|1813237785798|20200511000080|B3UHWVR2|1|0|18600|18600|10|0|0|550|0|0|0|0|0|0|1|0|0|20200612110827
20200612|02000016|91237620|1800100000088|1800100000088|20200511000080|B3UHWVR2|1|0|18600|18600|10|0|0|550|0|0|0|0|0|0|1|0|0|20200612110821
20200612|02000016|91237617|1815636926050|1815636926050|20200511000080|B3UHWVR2|1|0|18600|18600|10|0|0|550|0|0|0|0|0|0|1|0|0|20200612110805
20200612|02000016|91237616|1815288130560|1815288130560|20200511000080|B3UHWVR2|1|0|18600|18600|10|0|0|550|0|0|0|0|0|0|1|0|0|20200612110758
20200612|02000016|91237602|1813663315968|1813663315968|20200511000080|B3UHWVR2|1|0|18600|18600|10|0|0|550|0|0|0|0|0|0|1|0|0|20200612110718
20200612|02000016|91237594|1815697705772|1815697705772|20200511000080|B3UHWVR2|1|0|18600|18600|10|0|0|550|0|0|0|0|0|0|1|0|0|20200612110708
20200612|02000016|91237592|1813770855951|1813770855951|20200511000080|B3UHWVR2|1|0|18600|18600|10|0|0|550|0|0|0|0|0|0|1|0|0|20200612110703
20200612|02000016|91237589|1815211571887|1815211571887|20200511000080|B3UHWVR2|1|0|18600|18600|10|0|0|550|0|0|0|0|0|0|1|0|0|20200612110637
20200612|02000016|91237586|1800100000280|1800100000280|20200511000080|B3UHWVR2|1|0|18600|18600|10|0|0|550|0|0|0|0|0|0|1|0|0|20200612110614
20200612|02000016|91237576|1813463442485|1813463442485|20200511000080|B3UHWVR2|1|0|18600|18600|10|0|0|550|0|0|0|0|0|0|1|0|0|20200612110604
20200612|02000016|91237564|1813473122412|1813473122412|20200511000080|B3UHWVR2|1|0|18600|18600|10|0|0|550|0|0|0|0|0|0|1|0|0|20200612110522
20200612|02000016|91237565|1800100000036|1800100000036|20200511000080|B3UHWVR2|1|0|18600|18600|10|0|0|550|0|0|0|0|0|0|1|0|0|20200612110522
20200612|02000016|91237548|1818713290860|1818713290860|20200511000080|B3UHWVR2|1|0|18600|18600|10|0|0|550|0|0|0|0|0|0|1|0|0|20200612110422
20200612|02000016|91237541|1813503121483|1813503121483|20200511000080|B3UHWVR2|1|0|18600|18600|10|0|0|550|0|0|0|0|0|0|1|0|0|20200612110348
20200612|02000016|91237536|1813703283113|1813703283113|20200511000080|B3UHWVR2|1|0|18600|18600|10|0|0|550|0|0|0|0|0|0|1|0|0|20200612110313
20200612|02000016|91237533|1813932229251|1813932229251|20200511000080|B3UHWVR2|1|0|18600|18600|10|0|0|550|0|0|0|0|0|0|1|0|0|20200612110301
20200612|02000016|91237521|1800100000021|1800100000021|20200511000080|B3UHWVR2|1|0|18600|18600|10|0|0|550|0|0|0|0|0|0|1|0|0|20200612110235
20200612|02000016|91237520|1818203492787|1818203492787|20200511000080|B3UHWVR2|1|0|18600|18600|10|0|0|550|0|0|0|0|0|0|1|0|0|20200612110230
20200612|02000016|91237518|1800100000211|1800100000211|20200511000080|B3UHWVR2|1|0|18600|18600|10|0|0|550|0|0|0|0|0|0|1|0|0|20200612110222
20200612|02000016|91237510|1813820546821|1813820546821|20200511000080|B3UHWVR2|1|0|18600|18600|10|0|0|550|0|0|0|0|0|0|1|0|0|20200612110146
20200612|02000016|91237508|1813582233927|1813582233927|20200511000080|B3UHWVR2|1|0|18600|18600|10|0|0|550|0|0|0|0|0|0|1|0|0|20200612110142
20200612|02000016|91237507|1800100000355|1800100000355|20200511000080|B3UHWVR2|1|0|18600|18600|10|0|0|550|0|0|0|0|0|0|1|0|0|20200612110128
20200612|02000016|91237506|1818931232281|1818931232281|20200511000080|B3UHWVR2|1|0|18600|18600|10|0|0|550|0|0|0|0|0|0|1|0|0|20200612110126
20200612|02000016|91237485|1800100000345|1800100000345|20200511000080|B3UHWVR2|1|0|18600|18600|10|0|0|550|0|0|0|0|0|0|1|0|0|20200612110025
20200612|02000016|91237484|1813931359385|1813931359385|20200511000080|B3UHWVR2|1|0|18600|18600|10|0|0|550|0|0|0|0|0|0|1|0|0|20200612110024
20200612|02000016|91237473|1813513284448|1813513284448|20200511000080|B3UHWVR2|1|0|18600|18600|10|0|0|550|0|0|0|0|0|0|1|0|0|20200612110007
20200612|02000016|91237472|1800100000053|1800100000053|20200511000080|B3UHWVR2|1|0|18600|18600|10|0|0|550|0|0|0|0|0|0|1|0|0|20200612110006
20200612|02000016|91237469|1813988238986|1813988238986|20200511000080|B3UHWVR2|1|0|18600|18600|10|0|0|550|0|0|0|0|0|0|1|0|0|20200612110005
20200612|02000016|91237463|1815202419589|1815202419589|20200511000080|B3UHWVR2|1|0|18600|18600|10|0|0|550|0|0|0|0|0|0|1|0|0|20200612110000
20200612|02000016|91237445|1800100000225|1800100000225|20200511000080|B3UHWVR2|1|0|18600|18600|10|0|0|550|0|0|0|0|0|0|1|0|0|20200612105931
20200612|02000016|91237446|1813904881393|1813904881393|20200511000080|B3UHWVR2|1|0|18600|18600|10|0|0|550|0|0|0|0|0|0|1|0|0|20200612105931
20200612|02000016|91237443|1818903125539|1818903125539|20200511000080|B3UHWVR2|1|0|18600|18600|10|0|0|550|0|0|0|0|0|0|1|0|0|20200612105917
20200612|02000016|91237437|1815667899659|1815667899659|20200511000080|B3UHWVR2|1|0|18600|18600|10|0|0|550|0|0|0|0|0|0|1|0|0|20200612105902
20200612|02000016|91237426|1818889422056|1818889422056|20200511000080|B3UHWVR2|1|0|18600|18600|10|0|0|550|0|0|0|0|0|0|1|0|0|20200612105831
20200612|02000016|91237425|1813324639668|1813324639668|20200511000080|B3UHWVR2|1|0|18600|18600|10|0|0|550|0|0|0|0|0|0|1|0|0|20200612105818
20200612|02000016|91237415|1800100000140|1800100000140|20200511000080|B3UHWVR2|1|0|18600|18600|10|0|0|550|0|0|0|0|0|0|1|0|0|20200612105746
20200612|02000016|91237414|1813379416382|1813379416382|20200511000080|B3UHWVR2|1|0|18600|18600|10|0|0|550|0|0|0|0|0|0|1|0|0|20200612105730
20200612|02000016|91237401|1813383320308|1813383320308|20200511000080|B3UHWVR2|1|0|18600|18600|10|0|0|550|0|0|0|0|0|0|1|0|0|20200612105707
20200612|02000016|91237393|1800100000081|1800100000081|20200511000080|B3UHWVR2|1|0|18600|18600|10|0|0|550|0|0|0|0|0|0|1|0|0|20200612105656
20200612|02000016|91237389|1815109156089|1815109156089|20200511000080|B3UHWVR2|1|0|18600|18600|10|0|0|550|0|0|0|0|0|0|1|0|0|20200612105643
20200612|02000016|91237383|1815133217875|1815133217875|20200511000080|B3UHWVR2|1|0|18600|18600|10|0|0|550|0|0|0|0|0|0|1|0|0|20200612105618
20200612|02000016|91237382|1818976770088|1818976770088|20200511000080|B3UHWVR2|1|0|18600|18600|10|0|0|550|0|0|0|0|0|0|1|0|0|20200612105617
20200612|02000016|91237369|1800100000189|1800100000189|20200511000080|B3UHWVR2|1|0|18600|18600|10|0|0|550|0|0|0|0|0|0|1|0|0|20200612105532
20200612|02000016|91237361|1815833895638|1815833895638|20200511000080|B3UHWVR2|1|0|18600|18600|10|0|0|550|0|0|0|0|0|0|1|0|0|20200612105515
20200612|02000016|91237357|1818787516848|1818787516848|20200511000080|B3UHWVR2|1|0|18600|18600|10|0|0|550|0|0|0|0|0|0|1|0|0|20200612105446
20200612|02000016|91237353|1800100000050|1800100000050|20200511000080|B3UHWVR2|1|0|18600|18600|10|0|0|550|0|0|0|0|0|0|1|0|0|20200612105431
20200612|02000016|91237344|1815097746135|1815097746135|20200511000080|B3UHWVR2|1|0|18600|18600|10|0|0|550|0|0|0|0|0|0|1|0|0|20200612105355
20200612|02000016|91237333|1815187564467|1815187564467|20200511000080|B3UHWVR2|1|0|18600|18600|10|0|0|550|0|0|0|0|0|0|1|0|0|20200612105325
20200612|02000016|91237332|1817692238970|1817692238970|20200511000080|B3UHWVR2|1|0|18600|18600|10|0|0|550|0|0|0|0|0|0|1|0|0|20200612105317
20200612|02000016|91237316|1818940967978|1818940967978|20200511000080|B3UHWVR2|1|0|18600|18600|10|0|0|550|0|0|0|0|0|0|1|0|0|20200612105245
20200612|02000016|91237313|1813658729094|1813658729094|20200511000080|B3UHWVR2|1|0|18600|18600|10|0|0|550|0|0|0|0|0|0|1|0|0|20200612105232
20200612|02000016|91237309|1813111603824|1813111603824|20200511000080|B3UHWVR2|1|0|18600|18600|10|0|0|550|0|0|0|0|0|0|1|0|0|20200612105145
20200612|02000016|91237308|1813887865192|1813887865192|20200511000080|B3UHWVR2|1|0|18600|18600|10|0|0|550|0|0|0|0|0|0|1|0|0|20200612105144
20200612|02000016|91237307|1818903380276|1818903380276|20200511000080|B3UHWVR2|1|0|18600|18600|10|0|0|550|0|0|0|0|0|0|1|0|0|20200612105139
20200612|02000016|91237296|1815972280790|1815972280790|20200511000080|B3UHWVR2|1|0|18600|18600|10|0|0|550|0|0|0|0|0|0|1|0|0|20200612105122
20200612|02000016|91237293|1813930801797|1813930801797|20200511000080|B3UHWVR2|1|0|18600|18600|10|0|0|550|0|0|0|0|0|0|1|0|0|20200612105059
20200612|02000016|91237287|1815925568823|1815925568823|20200511000080|B3UHWVR2|1|0|18600|18600|10|0|0|550|0|0|0|0|0|0|1|0|0|20200612105048
20200612|02000016|91237279|1815630813944|1815630813944|20200511000080|B3UHWVR2|1|0|18600|18600|10|0|0|550|0|0|0|0|0|0|1|0|0|20200612105014
20200612|02000016|91237278|1813796445877|1813796445877|20200511000080|B3UHWVR2|1|0|18600|18600|10|0|0|550|0|0|0|0|0|0|1|0|0|20200612105011
20200612|02000016|91237262|1818306969995|1818306969995|20200511000080|B3UHWVR2|1|0|18600|18600|10|0|0|550|0|0|0|0|0|0|1|0|0|20200612104940
20200612|02000016|91237261|1817732650061|1817732650061|20200511000080|B3UHWVR2|1|0|18600|18600|10|0|0|550|0|0|0|0|0|0|1|0|0|20200612104927
20200612|02000016|91237254|1813709230552|1813709230552|20200511000080|B3UHWVR2|1|0|18600|18600|10|0|0|550|0|0|0|0|0|0|1|0|0|20200612104909
20200612|02000016|91237255|1813992186412|1813992186412|20200511000080|B3UHWVR2|1|0|18600|18600|10|0|0|550|0|0|0|0|0|0|1|0|0|20200612104909
20200612|02000016|91237250|1813339574707|1813339574707|20200511000080|B3UHWVR2|1|0|18600|18600|10|0|0|550|0|0|0|0|0|0|1|0|0|20200612104902
20200612|02000016|91237232|1815945537804|1815945537804|20200511000080|B3UHWVR2|1|0|18600|18600|10|0|0|550|0|0|0|0|0|0|1|0|0|20200612104823
20200612|02000016|91237231|1813636870153|1813636870153|20200511000080|B3UHWVR2|1|0|18600|18600|10|0|0|550|0|0|0|0|0|0|1|0|0|20200612104800
20200612|02000016|91237230|1813320457071|1813320457071|20200511000080|B3UHWVR2|1|0|18600|18600|10|0|0|550|0|0|0|0|0|0|1|0|0|20200612104751
20200612|02000016|91237229|1818729936598|1818729936598|20200511000080|B3UHWVR2|1|0|18600|18600|10|0|0|550|0|0|0|0|0|0|1|0|0|20200612104743
20200612|02000016|91237224|1815145522029|1815145522029|20200511000080|B3UHWVR2|1|0|18600|18600|10|0|0|550|0|0|0|0|0|0|1|0|0|20200612104728
20200612|02000016|91237218|1800100000084|1800100000084|20200511000080|B3UHWVR2|1|0|18600|18600|10|0|0|550|0|0|0|0|0|0|1|0|0|20200612104705
20200612|02000016|91237215|1813603225419|1813603225419|20200511000080|B3UHWVR2|1|0|18600|18600|10|0|0|550|0|0|0|0|0|0|1|0|0|20200612104645
20200612|02000016|91237206|1818045367971|1818045367971|20200511000080|B3UHWVR2|1|0|18600|18600|10|0|0|550|0|0|0|0|0|0|1|0|0|20200612104604
20200612|02000016|91237200|1815146155010|1815146155010|20200511000080|B3UHWVR2|1|0|18600|18600|10|0|0|550|0|0|0|0|0|0|1|0|0|20200612104522
20200612|02000016|91237192|1813335339191|1813335339191|20200511000080|B3UHWVR2|1|0|18600|18600|10|0|0|550|0|0|0|0|0|0|1|0|0|20200612104440
20200612|02000016|91237191|1800100000073|1800100000073|20200511000080|B3UHWVR2|1|0|18600|18600|10|0|0|550|0|0|0|0|0|0|1|0|0|20200612104422
20200612|02000016|91237184|1813292999216|1813292999216|20200511000080|B3UHWVR2|1|0|18600|18600|10|0|0|550|0|0|0|0|0|0|1|0|0|20200612104406
20200612|02000016|91237185|1813628842075|1813628842075|20200511000080|B3UHWVR2|1|0|18600|18600|10|0|0|550|0|0|0|0|0|0|1|0|0|20200612104406
20200612|02000016|91237182|1813930525191|1813930525191|20200511000080|B3UHWVR2|1|0|18600|18600|10|0|0|550|0|0|0|0|0|0|1|0|0|20200612104358
20200612|02000016|91237181|1813735038903|1813735038903|20200511000080|B3UHWVR2|1|0|18600|18600|10|0|0|550|0|0|0|0|0|0|1|0|0|20200612104347
20200612|02000016|91237165|1813477461038|1813477461038|20200511000080|B3UHWVR2|1|0|18600|18600|10|0|0|550|0|0|0|0|0|0|1|0|0|20200612104305
20200612|02000016|91237164|1813887805937|1813887805937|20200511000080|B3UHWVR2|1|0|18600|18600|10|0|0|550|0|0|0|0|0|0|1|0|0|20200612104254
20200612|02000016|91237163|1815987504832|1815987504832|20200511000080|B3UHWVR2|1|0|18600|18600|10|0|0|550|0|0|0|0|0|0|1|0|0|20200612104249
20200612|02000016|91237158|1813516512882|1813516512882|20200511000080|B3UHWVR2|1|0|18600|18600|10|0|0|550|0|0|0|0|0|0|1|0|0|20200612104238
20200612|02000016|91237144|1813674575508|1813674575508|20200511000080|B3UHWVR2|1|0|18600|18600|10|0|0|550|0|0|0|0|0|0|1|0|0|20200612104215
20200612|02000016|91237133|1813769999509|1813769999509|20200511000080|B3UHWVR2|1|0|18600|18600|10|0|0|550|0|0|0|0|0|0|1|0|0|20200612104207
20200612|02000016|91237127|1818731521085|1818731521085|20200511000080|B3UHWVR2|1|0|18600|18600|10|0|0|550|0|0|0|0|0|0|1|0|0|20200612104201
20200612|02000016|91237126|1815070004787|1815070004787|20200511000080|B3UHWVR2|1|0|18600|18600|10|0|0|550|0|0|0|0|0|0|1|0|0|20200612104157
20200612|02000016|91237120|1813903128392|1813903128392|20200511000080|B3UHWVR2|1|0|18600|18600|10|0|0|550|0|0|0|0|0|0|1|0|0|20200612104144
20200612|02000016|91237115|1813763733303|1813763733303|20200511000080|B3UHWVR2|1|0|18600|18600|10|0|0|550|0|0|0|0|0|0|1|0|0|20200612104139
20200612|02000016|91237107|1800100000107|1800100000107|20200511000080|B3UHWVR2|1|0|18600|18600|10|0|0|550|0|0|0|0|0|0|1|0|0|20200612104117
20200612|02000016|91237102|1818891101268|1818891101268|20200511000080|B3UHWVR2|1|0|18600|18600|10|0|0|550|0|0|0|0|0|0|1|0|0|20200612104102
20200612|02000016|91237099|1815232591002|1815232591002|20200511000080|B3UHWVR2|1|0|18600|18600|10|0|0|550|0|0|0|0|0|0|1|0|0|20200612104058
20200612|02000016|91237098|1800100000118|1800100000118|20200511000080|B3UHWVR2|1|0|18600|18600|10|0|0|550|0|0|0|0|0|0|1|0|0|20200612104056
20200612|02000016|91237084|1818725023168|1818725023168|20200511000080|B3UHWVR2|1|0|18600|18600|10|0|0|550|0|0|0|0|0|0|1|0|0|20200612104015
20200612|02000016|91237083|1800100000117|1800100000117|20200511000080|B3UHWVR2|1|0|18600|18600|10|0|0|550|0|0|0|0|0|0|1|0|0|20200612103955
20200612|02000016|91237069|1813014300009|1813014300009|20200511000080|B3UHWVR2|1|0|18600|18600|10|0|0|550|0|0|0|0|0|0|1|0|0|20200612103904
20200612|02000016|91237068|1815929113628|1815929113628|20200511000080|B3UHWVR2|1|0|18600|18600|10|0|0|550|0|0|0|0|0|0|1|0|0|20200612103902
20200612|02000016|91237067|1818967335077|1818967335077|20200511000080|B3UHWVR2|1|0|18600|18600|10|0|0|550|0|0|0|0|0|0|1|0|0|20200612103852
20200612|02000016|91237059|1813555046898|1813555046898|20200511000080|B3UHWVR2|1|0|18600|18600|10|0|0|550|0|0|0|0|0|0|1|0|0|20200612103840
20200612|02000016|91237047|1813603123859|1813603123859|20200511000080|B3UHWVR2|1|0|18600|18600|10|0|0|550|0|0|0|0|0|0|1|0|0|20200612103719
20200612|02000016|91237046|1818872629912|1818872629912|20200511000080|B3UHWVR2|1|0|18600|18600|10|0|0|550|0|0|0|0|0|0|1|0|0|20200612103703
20200612|02000016|91237045|1800100000063|1800100000063|20200511000080|B3UHWVR2|1|0|18600|18600|10|0|0|550|0|0|0|0|0|0|1|0|0|20200612103657
20200612|02000016|91237033|1815803121616|1815803121616|20200511000080|B3UHWVR2|1|0|18600|18600|10|0|0|550|0|0|0|0|0|0|1|0|0|20200612103605
20200612|02000016|91237032|1813987510903|1813987510903|20200511000080|B3UHWVR2|1|0|18600|18600|10|0|0|550|0|0|0|0|0|0|1|0|0|20200612103600
20200612|02000016|91237023|1813577503685|1813577503685|20200511000080|B3UHWVR2|1|0|18600|18600|10|0|0|550|0|0|0|0|0|0|1|0|0|20200612103532
20200612|02000016|91237021|1813669212329|1813669212329|20200511000080|B3UHWVR2|1|0|18600|18600|10|0|0|550|0|0|0|0|0|0|1|0|0|20200612103531
20200612|02000016|91237022|1813785432993|1813785432993|20200511000080|B3UHWVR2|1|0|18600|18600|10|0|0|550|0|0|0|0|0|0|1|0|0|20200612103531
20200612|02000016|91237017|1815732221263|1815732221263|20200511000080|B3UHWVR2|1|0|18600|18600|10|0|0|550|0|0|0|0|0|0|1|0|0|20200612103515
20200612|02000016|91237016|1815931895927|1815931895927|20200511000080|B3UHWVR2|1|0|18600|18600|10|0|0|550|0|0|0|0|0|0|1|0|0|20200612103511
20200612|02000016|91237015|1818646771261|1818646771261|20200511000080|B3UHWVR2|1|0|18600|18600|10|0|0|550|0|0|0|0|0|0|1|0|0|20200612103510
20200612|02000016|91236999|1818604689751|1818604689751|20200511000080|B3UHWVR2|1|0|18600|18600|10|0|0|550|0|0|0|0|0|0|1|0|0|20200612103446
20200612|02000016|91236977|1815830265369|1815830265369|20200511000080|B3UHWVR2|1|0|18600|18600|10|0|0|550|0|0|0|0|0|0|1|0|0|20200612103429
20200612|02000016|91236974|1813238826869|1813238826869|20200511000080|B3UHWVR2|1|0|18600|18600|10|0|0|550|0|0|0|0|0|0|1|0|0|20200612103412
20200612|02000016|91236969|1818987517957|1818987517957|20200511000080|B3UHWVR2|1|0|18600|18600|2|0|0|110|0|0|0|0|0|0|1|0|0|20200612103402
20200612|02000016|91236965|1813933285734|1813933285734|20200511000080|B3UHWVR2|1|0|18600|18600|10|0|0|550|0|0|0|0|0|0|1|0|0|20200612103346
20200612|02000016|91236953|1818132723583|1818132723583|20200511000080|B3UHWVR2|1|0|18600|18600|10|0|0|550|0|0|0|0|0|0|1|0|0|20200612103301
20200612|02000016|91236952|1818371587990|1818371587990|20200511000080|B3UHWVR2|1|0|18600|18600|10|0|0|550|0|0|0|0|0|0|1|0|0|20200612103259
20200612|02000016|91236951|1813235522109|1813235522109|20200511000080|B3UHWVR2|1|0|18600|18600|10|0|0|550|0|0|0|0|0|0|1|0|0|20200612103258
20200612|02000016|91236950|1815853623056|1815853623056|20200511000080|B3UHWVR2|1|0|18600|18600|10|0|0|550|0|0|0|0|0|0|1|0|0|20200612103255
20200612|02000016|91236938|1813230203301|1813230203301|20200511000080|B3UHWVR2|1|0|18600|18600|10|0|0|550|0|0|0|0|0|0|1|0|0|20200612103213
20200612|02000016|91236937|1818288560316|1818288560316|20200511000080|B3UHWVR2|1|0|18600|18600|10|0|0|550|0|0|0|0|0|0|1|0|0|20200612103211
20200612|02000016|91236921|1800100000106|1800100000106|20200511000080|B3UHWVR2|1|0|18600|18600|10|0|0|550|0|0|0|0|0|0|1|0|0|20200612103047
20200612|02000016|91236920|1813722423486|1813722423486|20200511000080|B3UHWVR2|1|0|18600|18600|10|0|0|550|0|0|0|0|0|0|1|0|0|20200612103040
20200612|02000016|91236913|1818920030157|1818920030157|20200511000080|B3UHWVR2|1|0|18600|18600|10|0|0|550|0|0|0|0|0|0|1|0|0|20200612102945
20200612|02000016|91236907|1817304211987|1817304211987|20200511000080|B3UHWVR2|1|0|18600|18600|10|0|0|550|0|0|0|0|0|0|1|0|0|20200612102901
20200612|02000016|91236905|1813577525294|1813577525294|20200511000080|B3UHWVR2|1|0|18600|18600|10|0|0|550|0|0|0|0|0|0|1|0|0|20200612102818
20200612|02000016|91236892|1813840542929|1813840542929|20200511000080|B3UHWVR2|1|0|18600|18600|10|0|0|550|0|0|0|0|0|0|1|0|0|20200612102737
20200612|02000016|91236891|1818309859106|1818309859106|20200511000080|B3UHWVR2|1|0|18600|18600|10|0|0|550|0|0|0|0|0|0|1|0|0|20200612102723
20200612|02000016|91236888|1818725200930|1818725200930|20200511000080|B3UHWVR2|1|0|18600|18600|10|0|0|550|0|0|0|0|0|0|1|0|0|20200612102644
20200612|02000016|91236879|1813887868883|1813887868883|20200511000080|B3UHWVR2|1|0|18600|18600|10|0|0|550|0|0|0|0|0|0|1|0|0|20200612102633
20200612|02000016|91236874|1815931509770|1815931509770|20200511000080|B3UHWVR2|1|0|18600|18600|10|0|0|550|0|0|0|0|0|0|1|0|0|20200612102613
20200612|02000016|91236873|1813992529265|1813992529265|20200511000080|B3UHWVR2|1|0|18600|18600|10|0|0|550|0|0|0|0|0|0|1|0|0|20200612102609
20200612|02000016|91236868|1815818598480|1815818598480|20200511000080|B3UHWVR2|1|0|18600|18600|10|0|0|550|0|0|0|0|0|0|1|0|0|20200612102603
20200612|02000016|91236866|1813845158388|1813845158388|20200511000080|B3UHWVR2|1|0|18600|18600|10|0|0|550|0|0|0|0|0|0|1|0|0|20200612102549
20200612|02000016|91236852|1813091257294|1813091257294|20200511000080|B3UHWVR2|1|0|18600|18600|10|0|0|550|0|0|0|0|0|0|1|0|0|20200612102507
20200612|02000016|91236850|1813545932491|1813545932491|20200511000080|B3UHWVR2|1|0|18600|18600|10|0|0|550|0|0|0|0|0|0|1|0|0|20200612102506
20200612|02000016|91236849|1818966843973|1818966843973|20200511000080|B3UHWVR2|1|0|18600|18600|10|0|0|550|0|0|0|0|0|0|1|0|0|20200612102459
20200612|02000016|91236830|1813608767593|1813608767593|20200511000080|B3UHWVR2|1|0|18600|18600|10|0|0|550|0|0|0|0|0|0|1|0|0|20200612102443
20200612|02000016|91236828|1813887838521|1813887838521|20200511000080|B3UHWVR2|1|0|18600|18600|10|0|0|550|0|0|0|0|0|0|1|0|0|20200612102435
20200612|02000016|91236827|1815334341131|1815334341131|20200511000080|B3UHWVR2|1|0|18600|18600|10|0|0|550|0|0|0|0|0|0|1|0|0|20200612102432
20200612|02000016|91236820|1815932233668|1815932233668|20200511000080|B3UHWVR2|1|0|18600|18600|10|0|0|550|0|0|0|0|0|0|1|0|0|20200612102403
20200612|02000016|91236813|1818345857865|1818345857865|20200511000080|B3UHWVR2|1|0|18600|18600|10|0|0|550|0|0|0|0|0|0|1|0|0|20200612102354
20200612|02000016|91236812|1818187582339|1818187582339|20200511000080|B3UHWVR2|1|0|18600|18600|10|0|0|550|0|0|0|0|0|0|1|0|0|20200612102353
20200612|02000016|91236796|1815933739942|1815933739942|20200511000080|B3UHWVR2|1|0|18600|18600|10|0|0|550|0|0|0|0|0|0|1|0|0|20200612102207
20200612|02000016|91236791|1818908826659|1818908826659|20200511000080|B3UHWVR2|1|0|18600|18600|10|0|0|550|0|0|0|0|0|0|1|0|0|20200612102157
20200612|02000016|91236789|1815632285132|1815632285132|20200511000080|B3UHWVR2|1|0|18600|18600|10|0|0|550|0|0|0|0|0|0|1|0|0|20200612102153
20200612|02000016|91236788|1818631228121|1818631228121|20200511000080|B3UHWVR2|1|0|18600|18600|10|0|0|550|0|0|0|0|0|0|1|0|0|20200612102144
20200612|02000016|91236787|1815887508589|1815887508589|20200511000080|B3UHWVR2|1|0|18600|18600|10|0|0|550|0|0|0|0|0|0|1|0|0|20200612102143
20200612|02000016|91236767|1813889831810|1813889831810|20200511000080|B3UHWVR2|1|0|18600|18600|10|0|0|550|0|0|0|0|0|0|1|0|0|20200612102020
20200612|02000016|91236766|1813673221558|1813673221558|20200511000080|B3UHWVR2|1|0|18600|18600|10|0|0|550|0|0|0|0|0|0|1|0|0|20200612101935
20200612|02000016|91236764|1813970601152|1813970601152|20200511000080|B3UHWVR2|1|0|18600|18600|10|0|0|550|0|0|0|0|0|0|1|0|0|20200612101913
20200612|02000016|91236748|1800100000358|1800100000358|20200511000080|B3UHWVR2|1|0|18600|18600|10|0|0|550|0|0|0|0|0|0|1|0|0|20200612101830
20200612|02000016|91236741|1813571459983|1813571459983|20200511000080|B3UHWVR2|1|0|18600|18600|10|0|0|550|0|0|0|0|0|0|1|0|0|20200612101802
20200612|02000016|91236742|1815813676802|1815813676802|20200511000080|B3UHWVR2|1|0|18600|18600|10|0|0|550|0|0|0|0|0|0|1|0|0|20200612101802
20200612|02000016|91236740|1818304684246|1818304684246|20200511000080|B3UHWVR2|1|0|18600|18600|10|0|0|550|0|0|0|0|0|0|1|0|0|20200612101754
20200612|02000016|91236739|1815131220736|1815131220736|20200511000080|B3UHWVR2|1|0|18600|18600|10|0|0|550|0|0|0|0|0|0|1|0|0|20200612101753
20200612|02000016|91236738|1813576284540|1813576284540|20200511000080|B3UHWVR2|1|0|18600|18600|10|0|0|550|0|0|0|0|0|0|1|0|0|20200612101752
20200612|02000016|91236730|1815140671196|1815140671196|20200511000080|B3UHWVR2|1|0|18600|18600|10|0|0|550|0|0|0|0|0|0|1|0|0|20200612101740
20200612|02000016|91236712|1813314687653|1813314687653|20200511000080|B3UHWVR2|1|0|18600|18600|10|0|0|550|0|0|0|0|0|0|1|0|0|20200612101715
20200612|02000016|91236703|1815925591567|1815925591567|20200511000080|B3UHWVR2|1|0|18600|18600|10|0|0|550|0|0|0|0|0|0|1|0|0|20200612101655
20200612|02000016|91236699|1813315272938|1813315272938|20200511000080|B3UHWVR2|1|0|18600|18600|10|0|0|550|0|0|0|0|0|0|1|0|0|20200612101641
20200612|02000016|91236694|1813761356728|1813761356728|20200511000080|B3UHWVR2|1|0|18600|18600|10|0|0|550|0|0|0|0|0|0|1|0|0|20200612101637
20200612|02000016|91236691|1818834581128|1818834581128|20200511000080|B3UHWVR2|1|0|18600|18600|10|0|0|550|0|0|0|0|0|0|1|0|0|20200612101636
20200612|02000016|91236686|1815727394536|1815727394536|20200511000080|B3UHWVR2|1|0|18600|18600|10|0|0|550|0|0|0|0|0|0|1|0|0|20200612101629
20200612|02000016|91236683|1813945766811|1813945766811|20200511000080|B3UHWVR2|1|0|18600|18600|10|0|0|550|0|0|0|0|0|0|1|0|0|20200612101626
20200612|02000016|91236672|1815227060395|1815227060395|20200511000080|B3UHWVR2|1|0|18600|18600|10|0|0|550|0|0|0|0|0|0|1|0|0|20200612101617
20200612|02000016|91236666|1815803121080|1815803121080|20200511000080|B3UHWVR2|1|0|18600|18600|10|0|0|550|0|0|0|0|0|0|1|0|0|20200612101604
20200612|02000016|91236656|1818604031950|1818604031950|20200511000080|B3UHWVR2|1|0|18600|18600|10|0|0|550|0|0|0|0|0|0|1|0|0|20200612101540
20200612|02000016|91236655|1815368948672|1815368948672|20200511000080|B3UHWVR2|1|0|18600|18600|10|0|0|550|0|0|0|0|0|0|1|0|0|20200612101538
20200612|02000016|91236647|1817679265331|1817679265331|20200511000080|B3UHWVR2|1|0|18600|18600|10|0|0|550|0|0|0|0|0|0|1|0|0|20200612101520
20200612|02000016|91236633|1813733221116|1813733221116|20200511000080|B3UHWVR2|1|0|18600|18600|10|0|0|550|0|0|0|0|0|0|1|0|0|20200612101424
20200612|02000016|91236631|1813159888612|1813159888612|20200511000080|B3UHWVR2|1|0|18600|18600|10|0|0|550|0|0|0|0|0|0|1|0|0|20200612101415
20200612|02000016|91236632|1813098067177|1813098067177|20200511000080|B3UHWVR2|1|0|18600|18600|10|0|0|550|0|0|0|0|0|0|1|0|0|20200612101415
20200612|02000016|91236625|1818987538596|1818987538596|20200511000080|B3UHWVR2|1|0|18600|18600|10|0|0|550|0|0|0|0|0|0|1|0|0|20200612101401
20200612|02000016|91236621|1813089950930|1813089950930|20200511000080|B3UHWVR2|1|0|18600|18600|10|0|0|550|0|0|0|0|0|0|1|0|0|20200612101357
20200612|02000016|91236615|1813501288089|1813501288089|20200511000080|B3UHWVR2|1|0|18600|18600|10|0|0|550|0|0|0|0|0|0|1|0|0|20200612101329
20200612|02000016|91236603|1816646828858|1816646828858|20200511000080|B3UHWVR2|1|0|18600|18600|10|0|0|550|0|0|0|0|0|0|1|0|0|20200612101311
20200612|02000016|91236593|1813810810905|1813810810905|20200511000080|B3UHWVR2|1|0|18600|18600|10|0|0|550|0|0|0|0|0|0|1|0|0|20200612101252
20200612|02000016|91236592|1818210293990|1818210293990|20200511000080|B3UHWVR2|1|0|18600|18600|10|0|0|550|0|0|0|0|0|0|1|0|0|20200612101243
20200612|02000016|91236590|1815184594602|1815184594602|20200511000080|B3UHWVR2|1|0|18600|18600|10|0|0|550|0|0|0|0|0|0|1|0|0|20200612101237
20200612|02000016|91236589|1818724403294|1818724403294|20200511000080|B3UHWVR2|1|0|18600|18600|10|0|0|550|0|0|0|0|0|0|1|0|0|20200612101235
20200612|02000016|91236582|1815003129116|1815003129116|20200511000080|B3UHWVR2|1|0|18600|18600|10|0|0|550|0|0|0|0|0|0|1|0|0|20200612101220
20200612|02000016|91236577|1813930246312|1813930246312|20200511000080|B3UHWVR2|1|0|18600|18600|10|0|0|550|0|0|0|0|0|0|1|0|0|20200612101216
20200612|02000016|91236573|1815771836378|1815771836378|20200511000080|B3UHWVR2|1|0|18600|18600|10|0|0|550|0|0|0|0|0|0|1|0|0|20200612101201
20200612|02000016|91236572|1813931358252|1813931358252|20200511000080|B3UHWVR2|1|0|18600|18600|10|0|0|550|0|0|0|0|0|0|1|0|0|20200612101200
20200612|02000016|91236567|1813204687660|1813204687660|20200511000080|B3UHWVR2|1|0|18600|18600|10|0|0|550|0|0|0|0|0|0|1|0|0|20200612101146
20200612|02000016|91236565|1815903327688|1815903327688|20200511000080|B3UHWVR2|1|0|18600|18600|10|0|0|550|0|0|0|0|0|0|1|0|0|20200612101143
20200612|02000016|91236562|1815204682299|1815204682299|20200511000080|B3UHWVR2|1|0|18600|18600|10|0|0|550|0|0|0|0|0|0|1|0|0|20200612101138
20200612|02000016|91236545|1813816484689|1813816484689|20200511000080|B3UHWVR2|1|0|18600|18600|10|0|0|550|0|0|0|0|0|0|1|0|0|20200612101115
20200612|02000016|91236542|1815333262646|1815333262646|20200511000080|B3UHWVR2|1|0|18600|18600|10|0|0|550|0|0|0|0|0|0|1|0|0|20200612101113
20200612|02000016|91236541|1815129878708|1815129878708|20200511000080|B3UHWVR2|1|0|18600|18600|10|0|0|550|0|0|0|0|0|0|1|0|0|20200612101111
20200612|02000016|91236539|1815031298030|1815031298030|20200511000080|B3UHWVR2|1|0|18600|18600|10|0|0|550|0|0|0|0|0|0|1|0|0|20200612101058
20200612|02000016|91236537|1813628759556|1813628759556|20200511000080|B3UHWVR2|1|0|18600|18600|10|0|0|550|0|0|0|0|0|0|1|0|0|20200612101056
20200612|02000016|91236530|1815845463032|1815845463032|20200511000080|B3UHWVR2|1|0|18600|18600|10|0|0|550|0|0|0|0|0|0|1|0|0|20200612101050
20200612|02000016|91236513|1815389494945|1815389494945|20200511000080|B3UHWVR2|1|0|18600|18600|10|0|0|550|0|0|0|0|0|0|1|0|0|20200612101022
20200612|02000016|91236512|1815933553201|1815933553201|20200511000080|B3UHWVR2|1|0|18600|18600|10|0|0|550|0|0|0|0|0|0|1|0|0|20200612101015
20200612|02000016|91236511|1815393923479|1815393923479|20200511000080|B3UHWVR2|1|0|18600|18600|10|0|0|550|0|0|0|0|0|0|1|0|0|20200612101008
20200612|02000016|91236510|1815970230203|1815970230203|20200511000080|B3UHWVR2|1|0|18600|18600|10|0|0|550|0|0|0|0|0|0|1|0|0|20200612101000
20200612|02000016|91236509|1813991898100|1813991898100|20200511000080|B3UHWVR2|1|0|18600|18600|10|0|0|550|0|0|0|0|0|0|1|0|0|20200612100957
20200612|02000016|91236507|1817503250596|1817503250596|20200511000080|B3UHWVR2|1|0|18600|18600|10|0|0|550|0|0|0|0|0|0|1|0|0|20200612100949
20200612|02000016|91236497|1815094526270|1815094526270|20200511000080|B3UHWVR2|1|0|18600|18600|10|0|0|550|0|0|0|0|0|0|1|0|0|20200612100937
20200612|02000016|91236496|1813152026763|1813152026763|20200511000080|B3UHWVR2|1|0|18600|18600|10|0|0|550|0|0|0|0|0|0|1|0|0|20200612100936
20200612|02000016|91236487|1813619405650|1813619405650|20200511000080|B3UHWVR2|1|0|18600|18600|10|0|0|550|0|0|0|0|0|0|1|0|0|20200612100926
20200612|02000016|91236484|1815840074214|1815840074214|20200511000080|B3UHWVR2|1|0|18600|18600|10|0|0|550|0|0|0|0|0|0|1|0|0|20200612100924
20200612|02000016|91236475|1815108605312|1815108605312|20200511000080|B3UHWVR2|1|0|18600|18600|10|0|0|550|0|0|0|0|0|0|1|0|0|20200612100916
20200612|02000016|91236464|1813429398439|1813429398439|20200511000080|B3UHWVR2|1|0|18600|18600|10|0|0|550|0|0|0|0|0|0|1|0|0|20200612100905
20200612|02000016|91236455|1818165273182|1818165273182|20200511000080|B3UHWVR2|1|0|18600|18600|10|0|0|550|0|0|0|0|0|0|1|0|0|20200612100848
20200612|02000016|91236454|1815804681313|1815804681313|20200511000080|B3UHWVR2|1|0|18600|18600|10|0|0|550|0|0|0|0|0|0|1|0|0|20200612100845
20200612|02000016|91236453|1818629264385|1818629264385|20200511000080|B3UHWVR2|1|0|18600|18600|10|0|0|550|0|0|0|0|0|0|1|0|0|20200612100843
20200612|02000016|91236434|1815132225088|1815132225088|20200511000080|B3UHWVR2|1|0|18600|18600|10|0|0|550|0|0|0|0|0|0|1|0|0|20200612100823
20200612|02000016|91236427|1818032526472|1818032526472|20200511000080|B3UHWVR2|1|0|18600|18600|10|0|0|550|0|0|0|0|0|0|1|0|0|20200612100808
20200612|02000016|91236424|1815288116989|1815288116989|20200511000080|B3UHWVR2|1|0|18600|18600|10|0|0|550|0|0|0|0|0|0|1|0|0|20200612100752
20200612|02000016|91236420|1813308821769|1813308821769|20200511000080|B3UHWVR2|1|0|18600|18600|10|0|0|550|0|0|0|0|0|0|1|0|0|20200612100749
20200612|02000016|91236423|1800100000125|1800100000125|20200511000080|B3UHWVR2|1|0|18600|18600|10|0|0|550|0|0|0|0|0|0|1|0|0|20200612100749
20200612|02000016|91236417|1813339582221|1813339582221|20200511000080|B3UHWVR2|1|0|18600|18600|10|0|0|550|0|0|0|0|0|0|1|0|0|20200612100744
20200612|02000016|91236412|1813833495031|1813833495031|20200511000080|B3UHWVR2|1|0|18600|18600|10|0|0|550|0|0|0|0|0|0|1|0|0|20200612100741
20200612|02000016|91236404|1818600978736|1818600978736|20200511000080|B3UHWVR2|1|0|18600|18600|10|0|0|550|0|0|0|0|0|0|1|0|0|20200612100735
20200612|02000016|91236387|1813021088510|1813021088510|20200511000080|B3UHWVR2|1|0|18600|18600|10|0|0|550|0|0|0|0|0|0|1|0|0|20200612100715
20200612|02000016|91236381|1813722242094|1813722242094|20200511000080|B3UHWVR2|1|0|18600|18600|10|0|0|550|0|0|0|0|0|0|1|0|0|20200612100652
20200612|02000016|91236376|1818691191808|1818691191808|20200511000080|B3UHWVR2|1|0|18600|18600|10|0|0|550|0|0|0|0|0|0|1|0|0|20200612100649
20200612|02000016|91236371|1813115642991|1813115642991|20200511000080|B3UHWVR2|1|0|18600|18600|10|0|0|550|0|0|0|0|0|0|1|0|0|20200612100641
20200612|02000016|91236366|1815045749881|1815045749881|20200511000080|B3UHWVR2|1|0|18600|18600|10|0|0|550|0|0|0|0|0|0|1|0|0|20200612100622
20200612|02000016|91236359|1815029688272|1815029688272|20200511000080|B3UHWVR2|1|0|18600|18600|10|0|0|550|0|0|0|0|0|0|1|0|0|20200612100604
20200612|02000016|91236360|1813803125311|1813803125311|20200511000080|B3UHWVR2|1|0|18600|18600|10|0|0|550|0|0|0|0|0|0|1|0|0|20200612100604
20200612|02000016|91236348|1813657964642|1813657964642|20200511000080|B3UHWVR2|1|0|18600|18600|10|0|0|550|0|0|0|0|0|0|1|0|0|20200612100554
20200612|02000016|91236333|1818787552261|1818787552261|20200511000080|B3UHWVR2|1|0|18600|18600|10|0|0|550|0|0|0|0|0|0|1|0|0|20200612100528
20200612|02000016|91236325|1813803126152|1813803126152|20200511000080|B3UHWVR2|1|0|18600|18600|10|0|0|550|0|0|0|0|0|0|1|0|0|20200612100515
20200612|02000016|91236309|1813324561701|1813324561701|20200511000080|B3UHWVR2|1|0|18600|18600|10|0|0|550|0|0|0|0|0|0|1|0|0|20200612100502
20200612|02000016|91236306|1815925589060|1815925589060|20200511000080|B3UHWVR2|1|0|18600|18600|10|0|0|550|0|0|0|0|0|0|1|0|0|20200612100447
20200612|02000016|91236297|1819931270007|1819931270007|20200511000080|B3UHWVR2|1|0|18600|18600|10|0|0|550|0|0|0|0|0|0|1|0|0|20200612100416
20200612|02000016|91236291|1813825724130|1813825724130|20200511000080|B3UHWVR2|1|0|18600|18600|10|0|0|550|0|0|0|0|0|0|1|0|0|20200612100353
20200612|02000016|91236290|1815087553123|1815087553123|20200511000080|B3UHWVR2|1|0|18600|18600|10|0|0|550|0|0|0|0|0|0|1|0|0|20200612100347
20200612|02000016|91236289|1817879614955|1817879614955|20200511000080|B3UHWVR2|1|0|18600|18600|10|0|0|550|0|0|0|0|0|0|1|0|0|20200612100346
20200612|02000016|91236288|1818987916981|1818987916981|20200511000080|B3UHWVR2|1|0|18600|18600|10|0|0|550|0|0|0|0|0|0|1|0|0|20200612100336
20200612|02000016|91236286|1813949280669|1813949280669|20200511000080|B3UHWVR2|1|0|18600|18600|10|0|0|550|0|0|0|0|0|0|1|0|0|20200612100312
20200612|02000016|91236281|1813931289112|1813931289112|20200511000080|B3UHWVR2|1|0|18600|18600|10|0|0|550|0|0|0|0|0|0|1|0|0|20200612100306
20200612|02000016|91236280|1817703687887|1817703687887|20200511000080|B3UHWVR2|1|0|18600|18600|10|0|0|550|0|0|0|0|0|0|1|0|0|20200612100305
20200612|02000016|91236278|1815633917679|1815633917679|20200511000080|B3UHWVR2|1|0|18600|18600|10|0|0|550|0|0|0|0|0|0|1|0|0|20200612100258
20200612|02000016|91236258|1818206761891|1818206761891|20200511000080|B3UHWVR2|1|0|18600|18600|10|0|0|550|0|0|0|0|0|0|1|0|0|20200612100238
20200612|02000016|91236256|1815770327841|1815770327841|20200511000080|B3UHWVR2|1|0|18600|18600|10|0|0|550|0|0|0|0|0|0|1|0|0|20200612100223
20200612|02000016|91236255|1815969210109|1815969210109|20200511000080|B3UHWVR2|1|0|18600|18600|10|0|0|550|0|0|0|0|0|0|1|0|0|20200612100221
20200612|02000016|91236254|1815207962519|1815207962519|20200511000080|B3UHWVR2|1|0|18600|18600|10|0|0|550|0|0|0|0|0|0|1|0|0|20200612100210
20200612|02000016|91236252|1813832228797|1813832228797|20200511000080|B3UHWVR2|1|0|18600|18600|10|0|0|550|0|0|0|0|0|0|1|0|0|20200612100154
20200612|02000016|91236251|1815633298879|1815633298879|20200511000080|B3UHWVR2|1|0|18600|18600|10|0|0|550|0|0|0|0|0|0|1|0|0|20200612100153
20200612|02000016|91236236|1800100000390|1800100000390|20200511000080|B3UHWVR2|1|0|18600|18600|10|0|0|550|0|0|0|0|0|0|1|0|0|20200612100115
20200612|02000016|91236230|1813331236246|1813331236246|20200511000080|B3UHWVR2|1|0|18600|18600|10|0|0|550|0|0|0|0|0|0|1|0|0|20200612100051
20200612|02000016|91236229|1815987884158|1815987884158|20200511000080|B3UHWVR2|1|0|18600|18600|10|0|0|550|0|0|0|0|0|0|1|0|0|20200612100050
20200612|02000016|91236220|1815327855187|1815327855187|20200511000080|B3UHWVR2|1|0|18600|18600|10|0|0|550|0|0|0|0|0|0|1|0|0|20200612095931
20200612|02000016|91236219|1818669254642|1818669254642|20200511000080|B3UHWVR2|1|0|18600|18600|10|0|0|550|0|0|0|0|0|0|1|0|0|20200612095928
20200612|02000016|91236218|1813082360764|1813082360764|20200511000080|B3UHWVR2|1|0|18600|18600|10|0|0|550|0|0|0|0|0|0|1|0|0|20200612095925
20200612|02000016|91236214|1813624683018|1813624683018|20200511000080|B3UHWVR2|1|0|18600|18600|10|0|0|550|0|0|0|0|0|0|1|0|0|20200612095902
20200612|02000016|91236210|1815127269046|1815127269046|20200511000080|B3UHWVR2|1|0|18600|18600|10|0|0|550|0|0|0|0|0|0|1|0|0|20200612095854
20200612|02000016|91236198|1813998824209|1813998824209|20200511000080|B3UHWVR2|1|0|18600|18600|10|0|0|550|0|0|0|0|0|0|1|0|0|20200612095831
20200612|02000016|91236193|1817679024406|1817679024406|20200511000080|B3UHWVR2|1|0|18600|18600|10|0|0|550|0|0|0|0|0|0|1|0|0|20200612095821
20200612|02000016|91236192|1815334465219|1815334465219|20200511000080|B3UHWVR2|1|0|18600|18600|10|0|0|550|0|0|0|0|0|0|1|0|0|20200612095820
20200612|02000016|91236191|1817732266277|1817732266277|20200511000080|B3UHWVR2|1|0|18600|18600|10|0|0|550|0|0|0|0|0|0|1|0|0|20200612095819
20200612|02000016|91236189|1813087497888|1813087497888|20200511000080|B3UHWVR2|1|0|18600|18600|10|0|0|550|0|0|0|0|0|0|1|0|0|20200612095815
20200612|02000016|91236181|1818932692236|1818932692236|20200511000080|B3UHWVR2|1|0|18600|18600|10|0|0|550|0|0|0|0|0|0|1|0|0|20200612095800
20200612|02000016|91236179|1813803277987|1813803277987|20200511000080|B3UHWVR2|1|0|18600|18600|10|0|0|550|0|0|0|0|0|0|1|0|0|20200612095758
20200612|02000016|91236178|1813089614313|1813089614313|20200511000080|B3UHWVR2|1|0|18600|18600|10|0|0|550|0|0|0|0|0|0|1|0|0|20200612095757
20200612|02000016|91236177|1818741608136|1818741608136|20200511000080|B3UHWVR2|1|0|18600|18600|10|0|0|550|0|0|0|0|0|0|1|0|0|20200612095755
20200612|02000016|91236161|1813730190518|1813730190518|20200511000080|B3UHWVR2|1|0|18600|18600|10|0|0|550|0|0|0|0|0|0|1|0|0|20200612095735
20200612|02000016|91236160|1813577471825|1813577471825|20200511000080|B3UHWVR2|1|0|18600|18600|10|0|0|550|0|0|0|0|0|0|1|0|0|20200612095728
20200612|02000016|91236159|1815945821718|1815945821718|20200511000080|B3UHWVR2|1|0|18600|18600|10|0|0|550|0|0|0|0|0|0|1|0|0|20200612095726
20200612|02000016|91236158|1813932211661|1813932211661|20200511000080|B3UHWVR2|1|0|18600|18600|10|0|0|550|0|0|0|0|0|0|1|0|0|20200612095725
20200612|02000016|91236157|1818987542690|1818987542690|20200511000080|B3UHWVR2|1|0|18600|18600|10|0|0|550|0|0|0|0|0|0|1|0|0|20200612095720
20200612|02000016|91236146|1815630231725|1815630231725|20200511000080|B3UHWVR2|1|0|18600|18600|10|0|0|550|0|0|0|0|0|0|1|0|0|20200612095704
20200612|02000016|91236145|1813234584513|1813234584513|20200511000080|B3UHWVR2|1|0|18600|18600|10|0|0|550|0|0|0|0|0|0|1|0|0|20200612095655
20200612|02000016|91236141|1813486694384|1813486694384|20200511000080|B3UHWVR2|1|0|18600|18600|10|0|0|550|0|0|0|0|0|0|1|0|0|20200612095649
20200612|02000016|91236140|1817331503933|1817331503933|20200511000080|B3UHWVR2|1|0|18600|18600|10|0|0|550|0|0|0|0|0|0|1|0|0|20200612095645
20200612|02000016|91236125|1813870662832|1813870662832|20200511000080|B3UHWVR2|1|0|18600|18600|10|0|0|550|0|0|0|0|0|0|1|0|0|20200612095603
20200612|02000016|91236123|1815712568650|1815712568650|20200511000080|B3UHWVR2|1|0|18600|18600|10|0|0|550|0|0|0|0|0|0|1|0|0|20200612095601
20200612|02000016|91236121|1818603325278|1818603325278|20200511000080|B3UHWVR2|1|0|18600|18600|10|0|0|550|0|0|0|0|0|0|1|0|0|20200612095558
20200612|02000016|91236120|1813832212723|1813832212723|20200511000080|B3UHWVR2|1|0|18600|18600|10|0|0|550|0|0|0|0|0|0|1|0|0|20200612095550
20200612|02000016|91236119|1815709151444|1815709151444|20200511000080|B3UHWVR2|1|0|18600|18600|10|0|0|550|0|0|0|0|0|0|1|0|0|20200612095549
20200612|02000016|91236118|1818468025462|1818468025462|20200511000080|B3UHWVR2|1|0|18600|18600|10|0|0|550|0|0|0|0|0|0|1|0|0|20200612095543
20200612|02000016|91236117|1815566052711|1815566052711|20200511000080|B3UHWVR2|1|0|18600|18600|10|0|0|550|0|0|0|0|0|0|1|0|0|20200612095535
20200612|02000016|91236116|1815161960908|1815161960908|20200511000080|B3UHWVR2|1|0|18600|18600|10|0|0|550|0|0|0|0|0|0|1|0|0|20200612095532
20200612|02000016|91236114|1815933593100|1815933593100|20200511000080|B3UHWVR2|1|0|18600|18600|10|0|0|550|0|0|0|0|0|0|1|0|0|20200612095528
20200612|02000016|91236112|1815630880329|1815630880329|20200511000080|B3UHWVR2|1|0|18600|18600|10|0|0|550|0|0|0|0|0|0|1|0|0|20200612095515
20200612|02000016|91236110|1813767392591|1813767392591|20200511000080|B3UHWVR2|1|0|18600|18600|10|0|0|550|0|0|0|0|0|0|1|0|0|20200612095512
20200612|02000016|91236111|1816603202113|1816603202113|20200511000080|B3UHWVR2|1|0|18600|18600|10|0|0|550|0|0|0|0|0|0|1|0|0|20200612095512
20200612|02000016|91236105|1818220730920|1818220730920|20200511000080|B3UHWVR2|1|0|18600|18600|10|0|0|550|0|0|0|0|0|0|1|0|0|20200612095510
20200612|02000016|91236096|1813911318605|1813911318605|20200511000080|B3UHWVR2|1|0|18600|18600|10|0|0|550|0|0|0|0|0|0|1|0|0|20200612095506
20200612|02000016|91236073|1813478653378|1813478653378|20200511000080|B3UHWVR2|1|0|18600|18600|10|0|0|550|0|0|0|0|0|0|1|0|0|20200612095448
20200612|02000016|91236061|1813463287557|1813463287557|20200511000080|B3UHWVR2|1|0|18600|18600|10|0|0|550|0|0|0|0|0|0|1|0|0|20200612095417
20200612|02000016|91236059|1813613128663|1813613128663|20200511000080|B3UHWVR2|1|0|18600|18600|10|0|0|550|0|0|0|0|0|0|1|0|0|20200612095415
20200612|02000016|91236058|1813393192793|1813393192793|20200511000080|B3UHWVR2|1|0|18600|18600|10|0|0|550|0|0|0|0|0|0|1|0|0|20200612095412
20200612|02000016|91236053|1813796925201|1813796925201|20200511000080|B3UHWVR2|1|0|18600|18600|10|0|0|550|0|0|0|0|0|0|1|0|0|20200612095407
20200612|02000016|91236047|1815931204444|1815931204444|20200511000080|B3UHWVR2|1|0|18600|18600|10|0|0|550|0|0|0|0|0|0|1|0|0|20200612095354
20200612|02000016|91236044|1818088174982|1818088174982|20200511000080|B3UHWVR2|1|0|18600|18600|10|0|0|550|0|0|0|0|0|0|1|0|0|20200612095342
20200612|02000016|91236043|1800100000041|1800100000041|20200511000080|B3UHWVR2|1|0|18600|18600|10|0|0|550|0|0|0|0|0|0|1|0|0|20200612095341
20200612|02000016|91236038|1818732221628|1818732221628|20200511000080|B3UHWVR2|1|0|18600|18600|10|0|0|550|0|0|0|0|0|0|1|0|0|20200612095319
20200612|02000016|91236021|1813836555299|1813836555299|20200511000080|B3UHWVR2|1|0|18600|18600|10|0|0|550|0|0|0|0|0|0|1|0|0|20200612095258
20200612|02000016|91236011|1813946786563|1813946786563|20200511000080|B3UHWVR2|1|0|18600|18600|10|0|0|550|0|0|0|0|0|0|1|0|0|20200612095238
20200612|02000016|91236010|1818875037395|1818875037395|20200511000080|B3UHWVR2|1|0|18600|18600|10|0|0|550|0|0|0|0|0|0|1|0|0|20200612095234
20200612|02000016|91236006|1815933526748|1815933526748|20200511000080|B3UHWVR2|1|0|18600|18600|10|0|0|550|0|0|0|0|0|0|1|0|0|20200612095230
20200612|02000016|91236005|1815940818417|1815940818417|20200511000080|B3UHWVR2|1|0|18600|18600|10|0|0|550|0|0|0|0|0|0|1|0|0|20200612095228
20200612|02000016|91235993|1815303121880|1815303121880|20200511000080|B3UHWVR2|1|0|18600|18600|10|0|0|550|0|0|0|0|0|0|1|0|0|20200612095205
20200612|02000016|91235992|1815946775111|1815946775111|20200511000080|B3UHWVR2|1|0|18600|18600|10|0|0|550|0|0|0|0|0|0|1|0|0|20200612095156
20200612|02000016|91235991|1815097408526|1815097408526|20200511000080|B3UHWVR2|1|0|18600|18600|10|0|0|550|0|0|0|0|0|0|1|0|0|20200612095154
20200612|02000016|91235976|1813324536769|1813324536769|20200511000080|B3UHWVR2|1|0|18600|18600|10|0|0|550|0|0|0|0|0|0|1|0|0|20200612095118
20200612|02000016|91235975|1815215907729|1815215907729|20200511000080|B3UHWVR2|1|0|18600|18600|10|0|0|550|0|0|0|0|0|0|1|0|0|20200612095114
20200612|02000016|91235969|1813400267349|1813400267349|20200511000080|B3UHWVR2|1|0|18600|18600|10|0|0|550|0|0|0|0|0|0|1|0|0|20200612095104
20200612|02000016|91235967|1818165477289|1818165477289|20200511000080|B3UHWVR2|1|0|18600|18600|10|0|0|550|0|0|0|0|0|0|1|0|0|20200612095039
20200612|02000016|91235966|1813231500951|1813231500951|20200511000080|B3UHWVR2|1|0|18600|18600|10|0|0|550|0|0|0|0|0|0|1|0|0|20200612095022
20200612|02000016|91235956|1813466135914|1813466135914|20200511000080|B3UHWVR2|1|0|18600|18600|10|0|0|550|0|0|0|0|0|0|1|0|0|20200612094946
20200612|02000016|91235955|1815132437141|1815132437141|20200511000080|B3UHWVR2|1|0|18600|18600|10|0|0|550|0|0|0|0|0|0|1|0|0|20200612094944
20200612|02000016|91235954|1815866353002|1815866353002|20200511000080|B3UHWVR2|1|0|18600|18600|10|0|0|550|0|0|0|0|0|0|1|0|0|20200612094943
20200612|02000016|91235953|1818931441806|1818931441806|20200511000080|B3UHWVR2|1|0|18600|18600|10|0|0|550|0|0|0|0|0|0|1|0|0|20200612094941
20200612|02000016|91235941|1800100000042|1800100000042|20200511000080|B3UHWVR2|1|0|18600|18600|10|0|0|550|0|0|0|0|0|0|1|0|0|20200612094926
20200612|02000016|91235928|1813930241343|1813930241343|20200511000080|B3UHWVR2|1|0|18600|18600|10|0|0|550|0|0|0|0|0|0|1|0|0|20200612094913
20200612|02000016|91235905|1813577500356|1813577500356|20200511000080|B3UHWVR2|1|0|18600|18600|10|0|0|550|0|0|0|0|0|0|1|0|0|20200612094831
20200612|02000016|91235906|1815232640847|1815232640847|20200511000080|B3UHWVR2|1|0|18600|18600|10|0|0|550|0|0|0|0|0|0|1|0|0|20200612094831
20200612|02000016|91235904|1813335335656|1813335335656|20200511000080|B3UHWVR2|1|0|18600|18600|10|0|0|550|0|0|0|0|0|0|1|0|0|20200612094829
20200612|02000016|91235903|1813933207826|1813933207826|20200511000080|B3UHWVR2|1|0|18600|18600|10|0|0|550|0|0|0|0|0|0|1|0|0|20200612094828
20200612|02000016|91235900|1818631760311|1818631760311|20200511000080|B3UHWVR2|1|0|18600|18600|10|0|0|550|0|0|0|0|0|0|1|0|0|20200612094816
20200612|02000016|91235897|1813846862770|1813846862770|20200511000080|B3UHWVR2|1|0|18600|18600|10|0|0|550|0|0|0|0|0|0|1|0|0|20200612094813
20200612|02000016|91235895|1818288950291|1818288950291|20200511000080|B3UHWVR2|1|0|18600|18600|10|0|0|550|0|0|0|0|0|0|1|0|0|20200612094812
20200612|02000016|91235896|1813988205870|1813988205870|20200511000080|B3UHWVR2|1|0|18600|18600|10|0|0|550|0|0|0|0|0|0|1|0|0|20200612094812
20200612|02000016|91235879|1813930808723|1813930808723|20200511000080|B3UHWVR2|1|0|18600|18600|10|0|0|550|0|0|0|0|0|0|1|0|0|20200612094753
20200612|02000016|91235877|1813576146503|1813576146503|20200511000080|B3UHWVR2|1|0|18600|18600|10|0|0|550|0|0|0|0|0|0|1|0|0|20200612094749
20200612|02000016|91235876|1813832256871|1813832256871|20200511000080|B3UHWVR2|1|0|18600|18600|10|0|0|550|0|0|0|0|0|0|1|0|0|20200612094740
20200612|02000016|91235873|1818730588858|1818730588858|20200511000080|B3UHWVR2|1|0|18600|18600|10|0|0|550|0|0|0|0|0|0|1|0|0|20200612094728
20200612|02000016|91235872|1818233358282|1818233358282|20200511000080|B3UHWVR2|1|0|18600|18600|10|0|0|550|0|0|0|0|0|0|1|0|0|20200612094725
20200612|02000016|91235871|1815038606853|1815038606853|20200511000080|B3UHWVR2|1|0|18600|18600|10|0|0|550|0|0|0|0|0|0|1|0|0|20200612094722
20200612|02000016|91235865|1813683131563|1813683131563|20200511000080|B3UHWVR2|1|0|18600|18600|10|0|0|550|0|0|0|0|0|0|1|0|0|20200612094711
20200612|02000016|91235863|1815833321555|1815833321555|20200511000080|B3UHWVR2|1|0|18600|18600|10|0|0|550|0|0|0|0|0|0|1|0|0|20200612094707
20200612|02000016|91235856|1815833589669|1815833589669|20200511000080|B3UHWVR2|1|0|18600|18600|10|0|0|550|0|0|0|0|0|0|1|0|0|20200612094702
20200612|02000016|91235846|1813796290795|1813796290795|20200511000080|B3UHWVR2|1|0|18600|18600|10|0|0|550|0|0|0|0|0|0|1|0|0|20200612094647
20200612|02000016|91235844|1815613556396|1815613556396|20200511000080|B3UHWVR2|1|0|18600|18600|10|0|0|550|0|0|0|0|0|0|1|0|0|20200612094644
20200612|02000016|91235838|1815601097966|1815601097966|20200511000080|B3UHWVR2|1|0|18600|18600|10|0|0|550|0|0|0|0|0|0|1|0|0|20200612094636
20200612|02000016|91235831|1800100000046|1800100000046|20200511000080|B3UHWVR2|1|0|18600|18600|10|0|0|550|0|0|0|0|0|0|1|0|0|20200612094625
20200612|02000016|91235832|1800100000347|1800100000347|20200511000080|B3UHWVR2|1|0|18600|18600|10|0|0|550|0|0|0|0|0|0|1|0|0|20200612094625
20200612|02000016|91235828|1813643126078|1813643126078|20200511000080|B3UHWVR2|1|0|18600|18600|10|0|0|550|0|0|0|0|0|0|1|0|0|20200612094613
20200612|02000016|91235823|1813572181691|1813572181691|20200511000080|B3UHWVR2|1|0|18600|18600|10|0|0|550|0|0|0|0|0|0|1|0|0|20200612094608
20200612|02000016|91235810|1813472972651|1813472972651|20200511000080|B3UHWVR2|1|0|18600|18600|10|0|0|550|0|0|0|0|0|0|1|0|0|20200612094557
20200612|02000016|91235806|1800100000040|1800100000040|20200511000080|B3UHWVR2|1|0|18600|18600|10|0|0|550|0|0|0|0|0|0|1|0|0|20200612094554
20200612|02000016|91235800|1815830939311|1815830939311|20200511000080|B3UHWVR2|1|0|18600|18600|10|0|0|550|0|0|0|0|0|0|1|0|0|20200612094550
20200612|02000016|91235798|1813533801619|1813533801619|20200511000080|B3UHWVR2|1|0|18600|18600|10|0|0|550|0|0|0|0|0|0|1|0|0|20200612094543
20200612|02000016|91235785|1800100000298|1800100000298|20200511000080|B3UHWVR2|1|0|18600|18600|10|0|0|550|0|0|0|0|0|0|1|0|0|20200612094513
20200612|02000016|91235784|1813545997023|1813545997023|20200511000080|B3UHWVR2|1|0|18600|18600|10|0|0|550|0|0|0|0|0|0|1|0|0|20200612094511
20200612|02000016|91235782|1813988266069|1813988266069|20200511000080|B3UHWVR2|1|0|18600|18600|10|0|0|550|0|0|0|0|0|0|1|0|0|20200612094506
20200612|02000016|91235783|1813846055840|1813846055840|20200511000080|B3UHWVR2|1|0|18600|18600|10|0|0|550|0|0|0|0|0|0|1|0|0|20200612094506
20200612|02000016|91235768|1815713255858|1815713255858|20200511000080|B3UHWVR2|1|0|18600|18600|10|0|0|550|0|0|0|0|0|0|1|0|0|20200612094447
20200612|02000016|91235765|1813035964466|1813035964466|20200511000080|B3UHWVR2|1|0|18600|18600|10|0|0|550|0|0|0|0|0|0|1|0|0|20200612094440
20200612|02000016|91235766|1815931511642|1815931511642|20200511000080|B3UHWVR2|1|0|18600|18600|10|0|0|550|0|0|0|0|0|0|1|0|0|20200612094440
20200612|02000016|91235764|1813190099140|1813190099140|20200511000080|B3UHWVR2|1|0|18600|18600|10|0|0|550|0|0|0|0|0|0|1|0|0|20200612094438
20200612|02000016|91235763|1818331230111|1818331230111|20200511000080|B3UHWVR2|1|0|18600|18600|10|0|0|550|0|0|0|0|0|0|1|0|0|20200612094435
20200612|02000016|91235754|1813082311311|1813082311311|20200511000080|B3UHWVR2|1|0|18600|18600|10|0|0|550|0|0|0|0|0|0|1|0|0|20200612094424
20200612|02000016|91235748|1813191775000|1813191775000|20200511000080|B3UHWVR2|1|0|18600|18600|10|0|0|550|0|0|0|0|0|0|1|0|0|20200612094413
20200612|02000016|91235740|1815175228012|1815175228012|20200511000080|B3UHWVR2|1|0|18600|18600|10|0|0|550|0|0|0|0|0|0|1|0|0|20200612094355
20200612|02000016|91235738|1813263638109|1813263638109|20200511000080|B3UHWVR2|1|0|18600|18600|10|0|0|550|0|0|0|0|0|0|1|0|0|20200612094349
20200612|02000016|91235737|1815208999328|1815208999328|20200511000080|B3UHWVR2|1|0|18600|18600|10|0|0|550|0|0|0|0|0|0|1|0|0|20200612094341
20200612|02000016|91235736|1813832526017|1813832526017|20200511000080|B3UHWVR2|1|0|18600|18600|10|0|0|550|0|0|0|0|0|0|1|0|0|20200612094333
20200612|02000016|91235727|1815232607038|1815232607038|20200511000080|B3UHWVR2|1|0|18600|18600|10|0|0|550|0|0|0|0|0|0|1|0|0|20200612094322
20200612|02000016|91235724|1819937271172|1819937271172|20200511000080|B3UHWVR2|1|0|18600|18600|10|0|0|550|0|0|0|0|0|0|1|0|0|20200612094321
20200612|02000016|91235722|1815840520719|1815840520719|20200511000080|B3UHWVR2|1|0|18600|18600|10|0|0|550|0|0|0|0|0|0|1|0|0|20200612094313
20200612|02000016|91235718|1815076235183|1815076235183|20200511000080|B3UHWVR2|1|0|18600|18600|10|0|0|550|0|0|0|0|0|0|1|0|0|20200612094305
20200612|02000016|91235715|1813992400727|1813992400727|20200511000080|B3UHWVR2|1|0|18600|18600|10|0|0|550|0|0|0|0|0|0|1|0|0|20200612094301
20200612|02000016|91235712|1818645566788|1818645566788|20200511000080|B3UHWVR2|1|0|18600|18600|10|0|0|550|0|0|0|0|0|0|1|0|0|20200612094249
20200612|02000016|91235706|1813932238474|1813932238474|20200511000080|B3UHWVR2|1|0|18600|18600|10|0|0|550|0|0|0|0|0|0|1|0|0|20200612094245
20200612|02000016|91235683|1815170023481|1815170023481|20200511000080|B3UHWVR2|1|0|18600|18600|10|0|0|550|0|0|0|0|0|0|1|0|0|20200612094225
20200612|02000016|91235679|1813731798775|1813731798775|20200511000080|B3UHWVR2|1|0|18600|18600|10|0|0|550|0|0|0|0|0|0|1|0|0|20200612094219
20200612|02000016|91235676|1817317033540|1817317033540|20200511000080|B3UHWVR2|1|0|18600|18600|10|0|0|550|0|0|0|0|0|0|1|0|0|20200612094206
20200612|02000016|91235675|1813582628539|1813582628539|20200511000080|B3UHWVR2|1|0|18600|18600|10|0|0|550|0|0|0|0|0|0|1|0|0|20200612094203
20200612|02000016|91235666|1815930239024|1815930239024|20200511000080|B3UHWVR2|1|0|18600|18600|10|0|0|550|0|0|0|0|0|0|1|0|0|20200612094140
20200612|02000016|91235664|1815108647893|1815108647893|20200511000080|B3UHWVR2|1|0|18600|18600|10|0|0|550|0|0|0|0|0|0|1|0|0|20200612094137
20200612|02000016|91235663|1813987956640|1813987956640|20200511000080|B3UHWVR2|1|0|18600|18600|10|0|0|550|0|0|0|0|0|0|1|0|0|20200612094136
20200612|02000016|91235661|1813709999208|1813709999208|20200511000080|B3UHWVR2|1|0|18600|18600|10|0|0|550|0|0|0|0|0|0|1|0|0|20200612094132
20200612|02000016|91235660|1813769055559|1813769055559|20200511000080|B3UHWVR2|1|0|18600|18600|10|0|0|550|0|0|0|0|0|0|1|0|0|20200612094130
20200612|02000016|91235658|1813661262290|1813661262290|20200511000080|B3UHWVR2|1|0|18600|18600|10|0|0|550|0|0|0|0|0|0|1|0|0|20200612094123
20200612|02000016|91235649|1818032580086|1818032580086|20200511000080|B3UHWVR2|1|0|18600|18600|10|0|0|550|0|0|0|0|0|0|1|0|0|20200612094112
20200612|02000016|91235645|1817303121352|1817303121352|20200511000080|B3UHWVR2|1|0|18600|18600|10|0|0|550|0|0|0|0|0|0|1|0|0|20200612094109
20200612|02000016|91235632|1815670742888|1815670742888|20200511000080|B3UHWVR2|1|0|18600|18600|10|0|0|550|0|0|0|0|0|0|1|0|0|20200612094056
20200612|02000016|91235621|1813739822199|1813739822199|20200511000080|B3UHWVR2|1|0|18600|18600|10|0|0|550|0|0|0|0|0|0|1|0|0|20200612094041
20200612|02000016|91235620|1813108558609|1813108558609|20200511000080|B3UHWVR2|1|0|18600|18600|10|0|0|550|0|0|0|0|0|0|1|0|0|20200612094039
20200612|02000016|91235614|1815184597495|1815184597495|20200511000080|B3UHWVR2|1|0|18600|18600|10|0|0|550|0|0|0|0|0|0|1|0|0|20200612094030
20200612|02000016|91235610|1815512532000|1815512532000|20200511000080|B3UHWVR2|1|0|18600|18600|10|0|0|550|0|0|0|0|0|0|1|0|0|20200612094028
20200612|02000016|91235609|1813836688159|1813836688159|20200511000080|B3UHWVR2|1|0|18600|18600|10|0|0|550|0|0|0|0|0|0|1|0|0|20200612094026
20200612|02000016|91235608|1818802455863|1818802455863|20200511000080|B3UHWVR2|1|0|18600|18600|10|0|0|550|0|0|0|0|0|0|1|0|0|20200612094025
20200612|02000016|91235605|1813578288004|1813578288004|20200511000080|B3UHWVR2|1|0|18600|18600|10|0|0|550|0|0|0|0|0|0|1|0|0|20200612094022
20200612|02000016|91235604|1815032232283|1815032232283|20200511000080|B3UHWVR2|1|0|18600|18600|10|0|0|550|0|0|0|0|0|0|1|0|0|20200612094016
20200612|02000016|91235602|1813932525581|1813932525581|20200511000080|B3UHWVR2|1|0|18600|18600|10|0|0|550|0|0|0|0|0|0|1|0|0|20200612094014
20200612|02000016|91235603|1815561743759|1815561743759|20200511000080|B3UHWVR2|1|0|18600|18600|10|0|0|550|0|0|0|0|0|0|1|0|0|20200612094014
20200612|02000016|91235594|1813597431025|1813597431025|20200511000080|B3UHWVR2|1|0|18600|18600|10|0|0|550|0|0|0|0|0|0|1|0|0|20200612094004
20200612|02000016|91235593|1815903236465|1815903236465|20200511000080|B3UHWVR2|1|0|18600|18600|10|0|0|550|0|0|0|0|0|0|1|0|0|20200612094003
20200612|02000016|91235589|1815911281296|1815911281296|20200511000080|B3UHWVR2|1|0|18600|18600|10|0|0|550|0|0|0|0|0|0|1|0|0|20200612093956
20200612|02000016|91235582|1813032006873|1813032006873|20200511000080|B3UHWVR2|1|0|18600|18600|10|0|0|550|0|0|0|0|0|0|1|0|0|20200612093951
20200612|02000016|91235578|1818833201891|1818833201891|20200511000080|B3UHWVR2|1|0|18600|18600|10|0|0|550|0|0|0|0|0|0|1|0|0|20200612093949
20200612|02000016|91235573|1818674148199|1818674148199|20200511000080|B3UHWVR2|1|0|18600|18600|10|0|0|550|0|0|0|0|0|0|1|0|0|20200612093947
20200612|02000016|91235572|1813407207108|1813407207108|20200511000080|B3UHWVR2|1|0|18600|18600|10|0|0|550|0|0|0|0|0|0|1|0|0|20200612093944
20200612|02000016|91235559|1813832935461|1813832935461|20200511000080|B3UHWVR2|1|0|18600|18600|10|0|0|550|0|0|0|0|0|0|1|0|0|20200612093925
20200612|02000016|91235558|1813779583395|1813779583395|20200511000080|B3UHWVR2|1|0|18600|18600|10|0|0|550|0|0|0|0|0|0|1|0|0|20200612093924
20200612|02000016|91235557|1815070002292|1815070002292|20200511000080|B3UHWVR2|1|0|18600|18600|10|0|0|550|0|0|0|0|0|0|1|0|0|20200612093919
20200612|02000016|91235552|1813400336006|1813400336006|20200511000080|B3UHWVR2|1|0|18600|18600|10|0|0|550|0|0|0|0|0|0|1|0|0|20200612093907
20200612|02000016|91235550|1817789888843|1817789888843|20200511000080|B3UHWVR2|1|0|18600|18600|10|0|0|550|0|0|0|0|0|0|1|0|0|20200612093906
20200612|02000016|91235547|1815733226550|1815733226550|20200511000080|B3UHWVR2|1|0|18600|18600|10|0|0|550|0|0|0|0|0|0|1|0|0|20200612093905
20200612|02000016|91235539|1813931280093|1813931280093|20200511000080|B3UHWVR2|1|0|18600|18600|10|0|0|550|0|0|0|0|0|0|1|0|0|20200612093859
20200612|02000016|91235531|1813393327863|1813393327863|20200511000080|B3UHWVR2|1|0|18600|18600|10|0|0|550|0|0|0|0|0|0|1|0|0|20200612093854
20200612|02000016|91235525|1818804688440|1818804688440|20200511000080|B3UHWVR2|1|0|18600|18600|10|0|0|550|0|0|0|0|0|0|1|0|0|20200612093844
20200612|02000016|91235522|1813730157568|1813730157568|20200511000080|B3UHWVR2|1|0|18600|18600|10|0|0|550|0|0|0|0|0|0|1|0|0|20200612093840
20200612|02000016|91235518|1813463503191|1813463503191|20200511000080|B3UHWVR2|1|0|18600|18600|10|0|0|550|0|0|0|0|0|0|1|0|0|20200612093837
20200612|02000016|91235487|1818335259239|1818335259239|20200511000080|B3UHWVR2|1|0|18600|18600|10|0|0|550|0|0|0|0|0|0|1|0|0|20200612093806
20200612|02000016|91235482|1813520629383|1813520629383|20200511000080|B3UHWVR2|1|0|18600|18600|10|0|0|550|0|0|0|0|0|0|1|0|0|20200612093800
20200612|02000016|91235481|1813722243235|1813722243235|20200511000080|B3UHWVR2|1|0|18600|18600|10|0|0|550|0|0|0|0|0|0|1|0|0|20200612093758
20200612|02000016|91235480|1813779597882|1813779597882|20200511000080|B3UHWVR2|1|0|18600|18600|10|0|0|550|0|0|0|0|0|0|1|0|0|20200612093754
20200612|02000016|91235478|1815837935909|1815837935909|20200511000080|B3UHWVR2|1|0|18600|18600|10|0|0|550|0|0|0|0|0|0|1|0|0|20200612093752
20200612|02000016|91235477|1815333225923|1815333225923|20200511000080|B3UHWVR2|1|0|18600|18600|10|0|0|550|0|0|0|0|0|0|1|0|0|20200612093750
20200612|02000016|91235462|1815046592512|1815046592512|20200511000080|B3UHWVR2|1|0|18600|18600|10|0|0|550|0|0|0|0|0|0|1|0|0|20200612093741
20200612|02000016|91235459|1818788207781|1818788207781|20200511000080|B3UHWVR2|1|0|18600|18600|10|0|0|550|0|0|0|0|0|0|1|0|0|20200612093739
20200612|02000016|91235456|1815146824446|1815146824446|20200511000080|B3UHWVR2|1|0|18600|18600|10|0|0|550|0|0|0|0|0|0|1|0|0|20200612093735
20200612|02000016|91235445|1813988267556|1813988267556|20200511000080|B3UHWVR2|1|0|18600|18600|10|0|0|550|0|0|0|0|0|0|1|0|0|20200612093729
20200612|02000016|91235428|1817866568244|1817866568244|20200511000080|B3UHWVR2|1|0|18600|18600|10|0|0|550|0|0|0|0|0|0|1|0|0|20200612093713
20200612|02000016|91235423|1818159800103|1818159800103|20200511000080|B3UHWVR2|1|0|18600|18600|10|0|0|550|0|0|0|0|0|0|1|0|0|20200612093712
20200612|02000016|91235420|1813383626357|1813383626357|20200511000080|B3UHWVR2|1|0|18600|18600|10|0|0|550|0|0|0|0|0|0|1|0|0|20200612093710
20200612|02000016|91235416|1813577542946|1813577542946|20200511000080|B3UHWVR2|1|0|18600|18600|10|0|0|550|0|0|0|0|0|0|1|0|0|20200612093707
20200612|02000016|91235419|1815087942456|1815087942456|20200511000080|B3UHWVR2|1|0|18600|18600|10|0|0|550|0|0|0|0|0|0|1|0|0|20200612093707
20200612|02000016|91235404|1815586314943|1815586314943|20200511000080|B3UHWVR2|1|0|18600|18600|10|0|0|550|0|0|0|0|0|0|1|0|0|20200612093656
20200612|02000016|91235403|1815544957559|1815544957559|20200511000080|B3UHWVR2|1|0|18600|18600|10|0|0|550|0|0|0|0|0|0|1|0|0|20200612093651
20200612|02000016|91235401|1815287133896|1815287133896|20200511000080|B3UHWVR2|1|0|18600|18600|10|0|0|550|0|0|0|0|0|0|1|0|0|20200612093650
20200612|02000016|91235400|1815184848605|1815184848605|20200511000080|B3UHWVR2|1|0|18600|18600|10|0|0|550|0|0|0|0|0|0|1|0|0|20200612093644
20200612|02000016|91235394|1800100000071|1800100000071|20200511000080|B3UHWVR2|1|0|18600|18600|10|0|0|550|0|0|0|0|0|0|1|0|0|20200612093641
20200612|02000016|91235378|1818331534443|1818331534443|20200511000080|B3UHWVR2|1|0|18600|18600|10|0|0|550|0|0|0|0|0|0|1|0|0|20200612093626
20200612|02000016|91235373|1800100000067|1800100000067|20200511000080|B3UHWVR2|1|0|18600|18600|10|0|0|550|0|0|0|0|0|0|1|0|0|20200612093624
20200612|02000016|91235370|1818746794204|1818746794204|20200511000080|B3UHWVR2|1|0|18600|18600|10|0|0|550|0|0|0|0|0|0|1|0|0|20200612093623
20200612|02000016|91235367|1813031511388|1813031511388|20200511000080|B3UHWVR2|1|0|18600|18600|10|0|0|550|0|0|0|0|0|0|1|0|0|20200612093621
20200612|02000016|91235362|1815933126808|1815933126808|20200511000080|B3UHWVR2|1|0|18600|18600|10|0|0|550|0|0|0|0|0|0|1|0|0|20200612093617
20200612|02000016|91235351|1813909114265|1813909114265|20200511000080|B3UHWVR2|1|0|18600|18600|10|0|0|550|0|0|0|0|0|0|1|0|0|20200612093610
20200612|02000016|91235339|1800100000031|1800100000031|20200511000080|B3UHWVR2|1|0|18600|18600|10|0|0|550|0|0|0|0|0|0|1|0|0|20200612093602
20200612|02000016|91235328|1813909852916|1813909852916|20200511000080|B3UHWVR2|1|0|18600|18600|10|0|0|550|0|0|0|0|0|0|1|0|0|20200612093553
20200612|02000016|91235322|1815633362628|1815633362628|20200511000080|B3UHWVR2|1|0|18600|18600|10|0|0|550|0|0|0|0|0|0|1|0|0|20200612093548
20200612|02000016|91235323|1813931380155|1813931380155|20200511000080|B3UHWVR2|1|0|18600|18600|10|0|0|550|0|0|0|0|0|0|1|0|0|20200612093548
20200612|02000016|91235302|1815630158606|1815630158606|20200511000080|B3UHWVR2|1|0|18600|18600|10|0|0|550|0|0|0|0|0|0|1|0|0|20200612093531
20200612|02000016|91235300|1818633358188|1818633358188|20200511000080|B3UHWVR2|1|0|18600|18600|10|0|0|550|0|0|0|0|0|0|1|0|0|20200612093528
20200612|02000016|91235299|1800100000099|1800100000099|20200511000080|B3UHWVR2|1|0|18600|18600|10|0|0|550|0|0|0|0|0|0|1|0|0|20200612093526
20200612|02000016|91235298|1818962060606|1818962060606|20200511000080|B3UHWVR2|1|0|18600|18600|10|0|0|550|0|0|0|0|0|0|1|0|0|20200612093523
20200612|02000016|91235296|1817614685531|1817614685531|20200511000080|B3UHWVR2|1|0|18600|18600|10|0|0|550|0|0|0|0|0|0|1|0|0|20200612093521
20200612|02000016|91235295|1813230331640|1813230331640|20200511000080|B3UHWVR2|1|0|18600|18600|10|0|0|550|0|0|0|0|0|0|1|0|0|20200612093511
20200612|02000016|91235290|1819931210376|1819931210376|20200511000080|B3UHWVR2|1|0|18600|18600|10|0|0|550|0|0|0|0|0|0|1|0|0|20200612093508
20200612|02000016|91235284|1815931437146|1815931437146|20200511000080|B3UHWVR2|1|0|18600|18600|10|0|0|550|0|0|0|0|0|0|1|0|0|20200612093506
20200612|02000016|91235283|1813998105808|1813998105808|20200511000080|B3UHWVR2|1|0|18600|18600|10|0|0|550|0|0|0|0|0|0|1|0|0|20200612093505
20200612|02000016|91235282|1813970887172|1813970887172|20200511000080|B3UHWVR2|1|0|18600|18600|10|0|0|550|0|0|0|0|0|0|1|0|0|20200612093503
20200612|02000016|91235280|1813903128198|1813903128198|20200511000080|B3UHWVR2|1|0|18600|18600|10|0|0|550|0|0|0|0|0|0|1|0|0|20200612093459
20200612|02000016|91235277|1815388839989|1815388839989|20200511000080|B3UHWVR2|1|0|18600|18600|10|0|0|550|0|0|0|0|0|0|1|0|0|20200612093454
20200612|02000016|91235274|1813607196765|1813607196765|20200511000080|B3UHWVR2|1|0|18600|18600|10|0|0|550|0|0|0|0|0|0|1|0|0|20200612093452
20200612|02000016|91235273|1800100000080|1800100000080|20200511000080|B3UHWVR2|1|0|18600|18600|10|0|0|550|0|0|0|0|0|0|1|0|0|20200612093451
20200612|02000016|91235272|1815222123742|1815222123742|20200511000080|B3UHWVR2|1|0|18600|18600|10|0|0|550|0|0|0|0|0|0|1|0|0|20200612093450
20200612|02000016|91235269|1815667931997|1815667931997|20200511000080|B3UHWVR2|1|0|18600|18600|10|0|0|550|0|0|0|0|0|0|1|0|0|20200612093445
20200612|02000016|91235267|1813733371391|1813733371391|20200511000080|B3UHWVR2|1|0|18600|18600|10|0|0|550|0|0|0|0|0|0|1|0|0|20200612093441
20200612|02000016|91235259|1815837935868|1815837935868|20200511000080|B3UHWVR2|1|0|18600|18600|10|0|0|550|0|0|0|0|0|0|1|0|0|20200612093431
20200612|02000016|91235254|1813897985407|1813897985407|20200511000080|B3UHWVR2|1|0|18600|18600|10|0|0|550|0|0|0|0|0|0|1|0|0|20200612093426
20200612|02000016|91235255|1818725226619|1818725226619|20200511000080|B3UHWVR2|1|0|18600|18600|10|0|0|550|0|0|0|0|0|0|1|0|0|20200612093426
20200612|02000016|91235246|1813556430912|1813556430912|20200511000080|B3UHWVR2|1|0|18600|18600|10|0|0|550|0|0|0|0|0|0|1|0|0|20200612093420
20200612|02000016|91235243|1813309116156|1813309116156|20200511000080|B3UHWVR2|1|0|18600|18600|10|0|0|550|0|0|0|0|0|0|1|0|0|20200612093416
20200612|02000016|91235240|1800100000048|1800100000048|20200511000080|B3UHWVR2|1|0|18600|18600|10|0|0|550|0|0|0|0|0|0|1|0|0|20200612093412
20200612|02000016|91235241|1815830908883|1815830908883|20200511000080|B3UHWVR2|1|0|18600|18600|10|0|0|550|0|0|0|0|0|0|1|0|0|20200612093412
20200612|02000016|91235239|1818231283196|1818231283196|20200511000080|B3UHWVR2|1|0|18600|18600|10|0|0|550|0|0|0|0|0|0|1|0|0|20200612093411
20200612|02000016|91235236|1813988271457|1813988271457|20200511000080|B3UHWVR2|1|0|18600|18600|10|0|0|550|0|0|0|0|0|0|1|0|0|20200612093410
20200612|02000016|91235235|1813623333299|1813623333299|20200511000080|B3UHWVR2|1|0|18600|18600|10|0|0|550|0|0|0|0|0|0|1|0|0|20200612093409
20200612|02000016|91235229|1813385213554|1813385213554|20200511000080|B3UHWVR2|1|0|18600|18600|10|0|0|550|0|0|0|0|0|0|1|0|0|20200612093349
20200612|02000016|91235224|1818690049591|1818690049591|20200511000080|B3UHWVR2|1|0|18600|18600|10|0|0|550|0|0|0|0|0|0|1|0|0|20200612093347
20200612|02000016|91235218|1813510564251|1813510564251|20200511000080|B3UHWVR2|1|0|18600|18600|10|0|0|550|0|0|0|0|0|0|1|0|0|20200612093341
20200612|02000016|91235214|1813638362781|1813638362781|20200511000080|B3UHWVR2|1|0|18600|18600|10|0|0|550|0|0|0|0|0|0|1|0|0|20200612093338
20200612|02000016|91235211|1815830799079|1815830799079|20200511000080|B3UHWVR2|1|0|18600|18600|10|0|0|550|0|0|0|0|0|0|1|0|0|20200612093329
20200612|02000016|91235200|1800100000094|1800100000094|20200511000080|B3UHWVR2|1|0|18600|18600|10|0|0|550|0|0|0|0|0|0|1|0|0|20200612093315
20200612|02000016|91235194|1815946631777|1815946631777|20200511000080|B3UHWVR2|1|0|18600|18600|10|0|0|550|0|0|0|0|0|0|1|0|0|20200612093310
20200612|02000016|91235187|1815206929588|1815206929588|20200511000080|B3UHWVR2|1|0|18600|18600|10|0|0|550|0|0|0|0|0|0|1|0|0|20200612093304
20200612|02000016|91235177|1815184855733|1815184855733|20200511000080|B3UHWVR2|1|0|18600|18600|10|0|0|550|0|0|0|0|0|0|1|0|0|20200612093249
20200612|02000016|91235178|1813313124191|1813313124191|20200511000080|B3UHWVR2|1|0|18600|18600|10|0|0|550|0|0|0|0|0|0|1|0|0|20200612093249
20200612|02000016|91235176|1815170827317|1815170827317|20200511000080|B3UHWVR2|1|0|18600|18600|10|0|0|550|0|0|0|0|0|0|1|0|0|20200612093248
20200612|02000016|91235171|1813633181332|1813633181332|20200511000080|B3UHWVR2|1|0|18600|18600|10|0|0|550|0|0|0|0|0|0|1|0|0|20200612093241
20200612|02000016|91235170|1818962075812|1818962075812|20200511000080|B3UHWVR2|1|0|18600|18600|10|0|0|550|0|0|0|0|0|0|1|0|0|20200612093240
20200612|02000016|91235163|1817796982621|1817796982621|20200511000080|B3UHWVR2|1|0|18600|18600|10|0|0|550|0|0|0|0|0|0|1|0|0|20200612093216
20200612|02000016|91235162|1813846717749|1813846717749|20200511000080|B3UHWVR2|1|0|18600|18600|10|0|0|550|0|0|0|0|0|0|1|0|0|20200612093215
20200612|02000016|91235159|1813836685281|1813836685281|20200511000080|B3UHWVR2|1|0|18600|18600|10|0|0|550|0|0|0|0|0|0|1|0|0|20200612093206
20200612|02000016|91235156|1815846656422|1815846656422|20200511000080|B3UHWVR2|1|0|18600|18600|10|0|0|550|0|0|0|0|0|0|1|0|0|20200612093130
20200612|02000016|91235155|1815231216025|1815231216025|20200511000080|B3UHWVR2|1|0|18600|18600|10|0|0|550|0|0|0|0|0|0|1|0|0|20200612093124
20200612|02000016|91235148|1815256323299|1815256323299|20200511000080|B3UHWVR2|1|0|18600|18600|10|0|0|0|0|0|0|0|0|0|1|0|0|20200612091744
20200612|02000016|91235147|1815256323299|1815256323299|20200511000080|B3UHWVR2|1|0|18600|18600|10|0|0|0|0|0|0|0|0|0|1|0|0|20200612091703
20200612|02000016|91235146|1815256323299|1815256323299|20200511000080|B3UHWVR2|1|0|18600|18600|10|0|0|0|0|0|0|0|0|0|1|0|0|20200612091631
20200612|02000016|91235145|1815256323299|1815256323299|20200511000080|B3UHWVR2|1|0|18600|18600|10|0|0|0|0|0|0|0|0|0|1|0|0|20200612091612
20200612|02000016|91235144|1815256323299|1815256323299|20200511000080|B3UHWVR2|1|0|18600|18600|10|0|0|0|0|0|0|0|0|0|1|0|0|20200612091603
20200612|02000016|91235143|1815256323299|1815256323299|20200511000080|B3UHWVR2|1|0|18600|18600|10|0|0|0|0|0|0|0|0|0|1|0|0|20200612091549
20200612|02000016|91235142|1815256323299|1815256323299|20200511000080|B3UHWVR2|1|0|18600|18600|10|0|0|0|0|0|0|0|0|0|1|0|0|20200612091541
20200612|02000016|91235141|1815256323299|1815256323299|20200511000080|B3UHWVR2|1|0|18600|18600|10|0|0|0|0|0|0|0|0|0|1|0|0|20200612091530
20200612|02000016|91235140|1815256323299|1815256323299|20200511000080|B3UHWVR2|1|0|18600|18600|10|0|0|0|0|0|0|0|0|0|1|0|0|20200612091522
20200612|02000016|91235139|1815256323299|1815256323299|20200511000080|B3UHWVR2|1|0|18600|18600|10|0|0|0|0|0|0|0|0|0|1|0|0|20200612091511
