20200420|02000134|1813558749848|1813558749848|CNY|20030|604508
20200420|02000134|1817538719135|1817538719135|CNY|90135|2999952684
20200420|02000134|1817538719131|1817538719131|CNY|0|232992
20200420|02000134|1818568888359|1818568888359|CNY|0|0
20200420|02000134|1818567881828|1818567881828|CNY|0|0
