清算中心流水号&交易所流水号&业务发生日期&交易所代码&会员编码&资金账号&出入金方式&出入金类型&出入金发起方&发生金额&币种&银行代码&银行产品代码&银行帐号&状态&备注
20070690040021479498&20070690040021479498&20200706&02000016&1818869202035&1818869202035&&1&2&100&CNY&0040&boshzjjg&6228483358609435374&0&
20070690040021479496&20070690040021479496&20200706&02000016&1813604555811&1813604555811&&1&2&10000&CNY&0040&boshzjjg&6228482666021618067&0&
20070690040021479497&20070690040021479497&20200706&02000016&1818742493073&1818742493073&&1&2&10000&CNY&0040&boshzjjg&6228480040464950019&0&
20070690040021479413&20070690040021479413&20200706&02000016&1815108646659&1815108646659&&1&2&30000&CNY&0040&boshzjjg&6228413353037590564&0&
20070690040021479412&20070690040021479412&20200706&02000016&1813323220289&1813323220289&&1&2&100&CNY&0040&boshzjjg&6217981340000850823&0&
20070690040021479577&20070690040021479577&20200706&02000016&1815094234737&1815094234737&&1&2&10000&CNY&0040&boshzjjg&6217003960001035332&0&
20070690040021479414&20070690040021479414&20200706&02000016&1817317034515&1817317034515&&1&2&200000&CNY&0040&boshzjjg&6217000140037379433&0&
20070690040021479576&20070690040021479576&20200706&02000016&1813903326296&1813903326296&&1&2&400000&CNY&0040&boshzjjg&6222080409002111292&0&
20070630020100479850&UFYBYN7K4CR42Y4J&20200706&02000016&1813584278719&1813584278719&&0&1&200601&CNY&0040&boshzjjg&6230520660061593777&0&
20070630020100479888&MJ5MA1VFA332LKEZ&20200706&02000016&1815570046829&1815570046829&&0&1&5015&CNY&0040&boshzjjg&6214837943710115&0&
20070630020100479919&M3C06MN23M25HTYC&20200706&02000016&1800100000104&1800100000104&&0&1&30090&CNY&0040&boshzjjg&6217933501713984&0&
20070630020100479968&WRR7NPCPBKBPC1AP&20200706&02000016&1813932211661&1813932211661&&0&1&10030&CNY&0040&boshzjjg&6212260409009915227&0&
20070630020100480059&FD26ZHARKRLPLKK0&20200706&02000016&1813478653378&1813478653378&&0&1&30090&CNY&0040&boshzjjg&6228480568011405673&0&
20070630020100479972&DJSKDMP77QHU7EKV&20200706&02000016&1800100000071&1800100000071&&0&1&30090&CNY&0040&boshzjjg&6228272226027369472&0&
20070630020100480154&C92Q3I2WA9LQYN1T&20200706&02000016&1813842006737&1813842006737&&0&1&35105&CNY&0040&boshzjjg&6228480049089415670&0&
20070630020100479974&OCN6LY9L8MPF7L6Z&20200706&02000016&1818161735141&1818161735141&&0&1&10030&CNY&0040&boshzjjg&6217997900073030546&0&
20070630020100479977&KL4119DX2I0810MS&20200706&02000016&1815818598480&1815818598480&&0&1&10030&CNY&0040&boshzjjg&6230520120003213679&0&
20070630020100480070&RBO43MAC06YZMT8U&20200706&02000016&1800100000390&1800100000390&&0&1&10030&CNY&0040&boshzjjg&6221882600122646686&0&
20070630020100480072&AJLSARN1V8T0OQK0&20200706&02000016&1813587758991&1813587758991&&0&1&12036&CNY&0040&boshzjjg&6228430338131279874&0&
20070630020100480073&ZHKYDSY9G17LEGXO&20200706&02000016&1818976770088&1818976770088&&0&1&25075&CNY&0040&boshzjjg&6212262201024968523&0&
20070630020100479986&NGDLYZI02Z3SKKVZ&20200706&02000016&1817304211987&1817304211987&&0&1&10030&CNY&0040&boshzjjg&6217992340002158842&0&
20070630020100479987&ZO2PE7XTG2EP93OW&20200706&02000016&1813320061039&1813320061039&&0&1&15045&CNY&0040&boshzjjg&6228482318150774770&0&
20070630020100480170&QO6F77M74798MLRA&20200706&02000016&1818187582339&1818187582339&&0&1&10030&CNY&0040&boshzjjg&6230523960012293072&0&
20070630020100480172&WLP1TXYGLP9XR4PY&20200706&02000016&1800100000028&1800100000028&&0&1&40120&CNY&0040&boshzjjg&6227000143610252802&0&
20070630020100480173&YSG29D19FS1T8UFI&20200706&02000016&1818691191808&1818691191808&&0&1&702106&CNY&0040&boshzjjg&6215583700004872469&0&
20070630020100480081&QY9IWCYV26U966YH&20200706&02000016&1817689826169&1817689826169&&0&1&10030&CNY&0040&boshzjjg&6213360159902334672&0&
20070630020100480200&HXGNZ0YBK8QCE35Z&20200706&02000016&1815389494945&1815389494945&&0&1&2006&CNY&0040&boshzjjg&6215592605003645908&0&
20070630020100480011&IA69KXV2MZ8F1FD0&20200706&02000016&1813577525294&1813577525294&&0&1&10030&CNY&0040&boshzjjg&6217003960003627946&0&
20070630020100480202&6F3MK0ZRWCK5PZNO&20200706&02000016&1818834581128&1818834581128&&0&1&10030&CNY&0040&boshzjjg&6227001540050020699&0&
20070630020100480203&Q1W2DGYJ2P1BZEVO&20200706&02000016&1813031511388&1813031511388&&0&1&10030&CNY&0040&boshzjjg&6217000180011149501&0&
20070630020100480106&D5O8YWI022HSUTXT&20200706&02000016&1815887508589&1815887508589&&0&1&10030&CNY&0040&boshzjjg&6212262510001682521&0&
20070630020100480107&JF1IATVQGP91QJML&20200706&02000016&1813903228890&1813903228890&&0&1&10030&CNY&0040&boshzjjg&4367420140818834371&0&
20070630020100480022&KM72MW49HZERVBM3&20200706&02000016&1813940061166&1813940061166&&0&1&70210&CNY&0040&boshzjjg&6228460048014710977&0&
20070630020100480024&HCCZH8MK2KOZSF9T&20200706&02000016&1813089614313&1813089614313&&0&1&20060&CNY&0040&boshzjjg&6217001070010529762&0&
20070630020100480113&W4HI06LFFO0SKEQO&20200706&02000016&1813520629383&1813520629383&&0&1&10030&CNY&0040&boshzjjg&6228481269250889979&0&
20070630020100480220&MVK4RA4NVBBJFC5A&20200706&02000016&1815771836378&1815771836378&&0&1&10030&CNY&0040&boshzjjg&6215592605004136980&0&
20070630020100480118&CY2YOKS4J1GGHTII&20200706&02000016&1813887865192&1813887865192&&0&1&130391&CNY&0040&boshzjjg&6230523350004150870&0&
20070630020100480225&AUAN43KDCGG8SVOC&20200706&02000016&1815102200735&1815102200735&&0&1&10030&CNY&0040&boshzjjg&6222030302005903040&0&
20070630020100480119&OAICS98RL9OB5KEQ&20200706&02000016&1813383626357&1813383626357&&0&1&190571&CNY&0040&boshzjjg&6228481266482264062&0&
20070630020100480258&NWH1K6H2Z8CZM50T&20200706&02000016&1815208999328&1815208999328&&0&1&10030&CNY&0040&boshzjjg&6230520150011399475&0&
20070630020100480364&2SWFBDMTILA22CB5&20200706&02000016&1818689707602&1818689707602&&0&1&10030&CNY&0040&boshzjjg&6228480158299224671&0&
20070630020100480367&6JFDYYET1ICRDJ6E&20200706&02000016&1818889422056&1818889422056&&0&1&10030&CNY&0040&boshzjjg&6228410150025333913&0&
20070630020100480471&Q9XVR4KQVPZBUR37&20200706&02000016&1815561743759&1815561743759&&0&1&3610&CNY&0040&boshzjjg&6228482688418322475&0&
20070630020100480473&S3IVILP8JCFHRKG5&20200706&02000016&1813111603824&1813111603824&&0&1&18054&CNY&0040&boshzjjg&6217000140013187099&0&
20070630020100480284&B1ODE6C7W0VGTT0F&20200706&02000016&1813323259697&1813323259697&&0&1&55165&CNY&0040&boshzjjg&6228480659208975774&0&
20070630020100480485&MW5AUSZLI6ER9FXB&20200706&02000016&1813958157143&1813958157143&&0&1&150451&CNY&0040&boshzjjg&6228480329246610979&0&
20070630020100480393&1ZX9BYNWUKMULCDR&20200706&02000016&1815132225088&1815132225088&&0&1&18355&CNY&0040&boshzjjg&6217000140005047301&0&
20070630020100480496&48AKPTFH3XDHQACL&20200706&02000016&1813931203162&1813931203162&&0&1&60180&CNY&0040&boshzjjg&6228271261255397276&0&
20070630020100480414&0H9AJUHN6KYRNMI5&20200706&02000016&1815389494945&1815389494945&&0&1&10030&CNY&0040&boshzjjg&6215592605003645908&0&
20070630020100480429&W0YEWUI8WWC0H29C&20200706&02000016&1813832293322&1813832293322&&0&1&30090&CNY&0040&boshzjjg&6228481269174012971&0&
20070630020100480643&CTC19YB0V9P8JWZI&20200706&02000016&1815940818417&1815940818417&&0&1&9528&CNY&0040&boshzjjg&6217000780000487802&0&
20070630020100480740&JELT1J4ND317CFLS&20200706&02000016&1800100000188&1800100000188&&0&1&40120&CNY&0040&boshzjjg&6228481890389855613&0&
20070630020100480650&LOAWUW9JZFXZCRAD&20200706&02000016&1817789888843&1817789888843&&0&1&10030&CNY&0040&boshzjjg&6222022201008354302&0&
20070630020100480659&KCYRWY337CJCRAMB&20200706&02000016&1813722255068&1813722255068&&0&1&100300&CNY&0040&boshzjjg&6228481268540555077&0&
20070630020100480754&WEOE4NVF77WPWDTN&20200706&02000016&1815100207285&1815100207285&&0&1&30090&CNY&0040&boshzjjg&6228481269145263778&0&
20070630020100480592&XVW6WT3KY6QQFYN6&20200706&02000016&1800100000347&1800100000347&&0&1&70210&CNY&0040&boshzjjg&6228481268946635879&0&
20070630020100480679&605R0GST29X1UGY2&20200706&02000016&1818629264385&1818629264385&&0&1&30090&CNY&0040&boshzjjg&6214831295597766&0&
20070630020100480681&NEPYBQEPLU1JMCYT&20200706&02000016&1813832256871&1813832256871&&0&1&22066&CNY&0040&boshzjjg&6228481268439319270&0&
20070630020100480601&44GILOBGBKR3UZ1H&20200706&02000016&1818725344782&1818725344782&&0&1&10030&CNY&0040&boshzjjg&6228483968611794772&0&
20070630020100480777&SCNDHOZTXA2TF6DI&20200706&02000016&1818037620665&1818037620665&&0&1&100&CNY&0040&boshzjjg&6217994930013306923&0&
20070630020100480780&1I54UJOUN3C29Q8B&20200706&02000016&1813796445877&1813796445877&&0&1&100300&CNY&0040&boshzjjg&6210952600001682669&0&
20070630020100480838&3C8S0395TSNHMYVS&20200706&02000016&1818371587990&1818371587990&&0&1&20060&CNY&0040&boshzjjg&6228463828033893772&0&
20070630020100480823&QG1MB9JYJ1VXNH1G&20200706&02000016&1815232591002&1815232591002&&0&1&50150&CNY&0040&boshzjjg&6227000180890120309&0&
20070630020100480945&QE2AJ6QY014VS7MH&20200706&02000016&1815951703440&1815951703440&&0&1&5416&CNY&0040&boshzjjg&6217002200016513150&0&
20070630020100480891&O4IY50360HAOMQ1O&20200706&02000016&1818690049591&1818690049591&&0&1&20060&CNY&0040&boshzjjg&6228480231197014211&0&
20070630020100481062&VWQ6QZJ28TEMP7H9&20200706&02000016&1815846656422&1815846656422&&0&1&45135&CNY&0040&boshzjjg&6217001070013969569&0&
20070630020100480974&ZL2VS0V8PZ2GWROL&20200706&02000016&1813897985407&1813897985407&&0&1&50150&CNY&0040&boshzjjg&6226094111357503&0&
20070630020100481078&89L7ST81092VM38B&20200706&02000016&1817332403134&1817332403134&&0&1&10030&CNY&0040&boshzjjg&6228481268295550570&0&
20070630020100481082&FU425PK8WF6I7EZ2&20200706&02000016&1818131276206&1818131276206&&0&1&10030&CNY&0040&boshzjjg&6228481268944607474&0&
20070630020100481085&04OEJ7VO6LH66H5P&20200706&02000016&1813931473408&1813931473408&&0&1&20060&CNY&0040&boshzjjg&6227000180160009950&0&
20070630020100481089&11KJOGPX1JH6ABFW&20200706&02000016&1800100000031&1800100000031&&0&1&20060&CNY&0040&boshzjjg&6230521260013799371&0&
20070630020100480933&3BQKOB59N659RFDU&20200706&02000016&1800100000045&1800100000045&&0&1&50150&CNY&0040&boshzjjg&6228481268397400476&0&
20070630020100481102&ZC4KJYK6WQ1H1XIR&20200706&02000016&1819871238258&1819871238258&&0&1&50150&CNY&0040&boshzjjg&6230523820008541571&0&
20070630020100481145&FM4TEB66BFRJLJ4H&20200706&02000016&1813633226787&1813633226787&&0&1&18054&CNY&0040&boshzjjg&6217230409000055995&0&
20070630020100481015&PP9FN7Z1MEKF0VWJ&20200706&02000016&1813633181332&1813633181332&&0&1&20060&CNY&0040&boshzjjg&6217000160005540212&0&
20070630020100481024&NZSMNHCL9CUKS34A&20200706&02000016&1813870832718&1813870832718&&0&1&300902&CNY&0040&boshzjjg&6217002020063414361&0&
20070630020100481172&OP2XQDEK9104W3TH&20200706&02000016&1815170031559&1815170031559&&0&1&280842&CNY&0040&boshzjjg&6217002020065102162&0&
20070630020100481366&FADE2522GDTSBWAZ&20200706&02000016&1813638362781&1813638362781&&0&1&40120&CNY&0040&boshzjjg&6228480478572558573&0&
20070630020100481280&PZL25PHPZTID9K92&20200706&02000016&1815100500891&1815100500891&&0&1&14042&CNY&0040&boshzjjg&6222080403002514662&0&
20070630020100481376&VE83GN3H8PVB0P59&20200706&02000016&1813992400727&1813992400727&&0&1&100300&CNY&0040&boshzjjg&6217977900044128894&0&
20070630020100481410&KJWK361HOGG6U32M&20200706&02000016&1813931267078&1813931267078&&0&1&20060&CNY&0040&boshzjjg&6228411264507692974&0&
20070630020100481636&HU5QU8VJS98819S9&20200706&02000016&1818060529819&1818060529819&&0&1&30090&CNY&0040&boshzjjg&6227002669640613256&0&
20070630020100481468&HSCR14VLES6O4YN9&20200706&02000016&1818931441806&1818931441806&&0&1&10030&CNY&0040&boshzjjg&6222030403007736303&0&
20070630020100481646&H0RT77QKK23AJBLY&20200706&02000016&1818103121030&1818103121030&&0&1&10030&CNY&0040&boshzjjg&6236680140002963580&0&
20070630020100481655&FIEZRGNNDXKTTTMK&20200706&02000016&1813988290117&1813988290117&&0&1&10030&CNY&0040&boshzjjg&6212262511001719743&0&
20070630020100481521&8IBXI1TCX984MCJ7&20200706&02000016&1813932256061&1813932256061&&0&1&15045&CNY&0040&boshzjjg&6222080409001330703&0&
20070630020100481602&IKOKMDNM72K0DVSL&20200706&02000016&1815931895927&1815931895927&&0&1&20060&CNY&0040&boshzjjg&6217000140034130391&0&
20070630020100481616&ZE2LC0UHW2SKSYMT&20200706&02000016&1818729936598&1818729936598&&0&1&66&CNY&0040&boshzjjg&6227004143490146997&0&
20070630020100481706&JLE017HVM1XN60A2&20200706&02000016&1813619405650&1813619405650&&0&1&20060&CNY&0040&boshzjjg&6228481439237393078&0&
20070630020100481842&Q6M7E512CONCYOGM&20200706&02000016&1815871931238&1815871931238&&0&1&20060&CNY&0040&boshzjjg&6236682700001675796&0&
20070630020100481764&J8GS3HJD5J2I7ZQV&20200706&02000016&1815246230377&1815246230377&&0&1&20060&CNY&0040&boshzjjg&6217992610021789581&0&
20070630020100481733&9UKT696I1JPD7NNA&20200706&02000016&1813703283113&1813703283113&&0&1&20060&CNY&0040&boshzjjg&6228481268439092075&0&
20070630020100481782&FRJH7JISC4PV5ONI&20200706&02000016&1815511961250&1815511961250&&0&1&100&CNY&0040&boshzjjg&6217000180043965932&0&
20070630020100481799&UE2628TMNCSP8MR6&20200706&02000016&1813816484689&1813816484689&&0&1&194583&CNY&0040&boshzjjg&6228480039219319975&0&
20070630020100482138&874Z8BCKYCXR1NY2&20200706&02000016&1813988238986&1813988238986&&0&1&20060&CNY&0040&boshzjjg&6230523350012901777&0&
20070630020100482141&B5OICYTS18NZSRB2&20200706&02000016&1813636870153&1813636870153&&0&1&120361&CNY&0040&boshzjjg&6215592609002415479&0&
20070630020100482240&E844A6DIBAOZL8QW&20200706&02000016&1815512532000&1815512532000&&0&1&50150&CNY&0040&boshzjjg&6222080403002647884&0&
20070630020100482153&F5UOI8X96UNLEJH6&20200706&02000016&1815232640847&1815232640847&&0&1&50150&CNY&0040&boshzjjg&6228480659200859174&0&
20070630020100482157&YVFFMKJYPNG4QRAN&20200706&02000016&1815630158606&1815630158606&&0&1&20060&CNY&0040&boshzjjg&6212260409019553661&0&
20070630020100482244&MNN0E2FITRCVNHOJ&20200706&02000016&1800100000261&1800100000261&&0&1&265797&CNY&0040&boshzjjg&6236682020000195104&0&
20070630020100482208&OSHP12ANT25LMQHE&20200706&02000016&1815003129116&1815003129116&&0&1&20060&CNY&0040&boshzjjg&6212260409001671737&0&
20070630020100482115&VY3UD5GXQZDRZIHL&20200706&02000016&1818730588858&1818730588858&&0&1&10030&CNY&0040&boshzjjg&6217000180014526994&0&
20070630020100482130&E8DV2N44OQFRL9QQ&20200706&02000016&1813733221116&1813733221116&&0&1&18054&CNY&0040&boshzjjg&6217000140011155742&0&
20070630020100482436&JWBNWBSOBXTAOIKM&20200706&02000016&1815161960908&1815161960908&&0&1&15847&CNY&0040&boshzjjg&6236681320001941667&0&
20070630020100482344&DCF1F29SL40L067L&20200706&02000016&1813887868883&1813887868883&&0&1&300902&CNY&0040&boshzjjg&6214993970005596&0&
20070630020100482495&9152NW4ZGBP85BGD&20200706&02000016&1815170899237&1815170899237&&0&1&20060&CNY&0040&boshzjjg&6217002110000855436&0&
20070630020100482397&RSKU7NJQSKJRV96H&20200706&02000016&1818604681909&1818604681909&&0&1&10030&CNY&0040&boshzjjg&6217992610209647056&0&
20070630020100482586&QLI0HEAUUUHOYI9S&20200706&02000016&1813904881393&1813904881393&&0&1&10030&CNY&0040&boshzjjg&6217992610184002293&0&
20070630020100482502&RYSOVMZ7LM4OTORR&20200706&02000016&1814787397187&1814787397187&&0&1&20060&CNY&0040&boshzjjg&6228483358606209574&0&
20070630020100482411&NO278QE0RZIGA23S&20200706&02000016&1814787397187&1814787397187&&0&1&20060&CNY&0040&boshzjjg&6228483358606209574&0&
20070630020100482598&5ZYUT882KWBXAO6N&20200706&02000016&1813988222092&1813988222092&&0&1&10030&CNY&0040&boshzjjg&6230523350002530776&0&
20070630020100482663&I7M9PG82APILYZDW&20200706&02000016&1813846055840&1813846055840&&0&1&16048&CNY&0040&boshzjjg&4367421041460035508&0&
20070630020100482666&C9PFVTP0YEWKMWCS&20200706&02000016&1818159800103&1818159800103&&0&1&10030&CNY&0040&boshzjjg&6217566400004211720&0&
20070630020100482751&20TZQJ4G08HOMRSR&20200706&02000016&1813933217166&1813933217166&&0&1&150&CNY&0040&boshzjjg&6217991340022740497&0&
20070630020100482672&AOADAIB75SUUWKPY&20200706&02000016&1813772783332&1813772783332&&0&1&90&CNY&0040&boshzjjg&6217004140001963309&0&
20070630020100482762&B2C3W7SXNDZ2SL5E&20200706&02000016&1818345857865&1818345857865&&0&1&30090&CNY&0040&boshzjjg&6228412670034997919&0&
20070630020100482685&1W1OBIAX41HG0PUE&20200706&02000016&1815287222929&1815287222929&&0&1&100300&CNY&0040&boshzjjg&6217003970003589772&0&
20070630020100482686&DBAJUE7YP565FKFI&20200706&02000016&1817703687887&1817703687887&&0&1&20060&CNY&0040&boshzjjg&6217855300030641983&0&
20070630020100482843&8AWF469S6SECH45V&20200706&02000016&1813398637313&1813398637313&&0&1&10060&CNY&0040&boshzjjg&6228481268509032175&0&
20070630020100482850&PE1PVRDVTIEBKJCF&20200706&02000016&1813931289112&1813931289112&&0&1&150451&CNY&0040&boshzjjg&6227000140810084142&0&
20070630020100482774&2WVSZ5J02ZEI2HVB&20200706&02000016&1813933293845&1813933293845&&0&1&10030&CNY&0040&boshzjjg&6227000140020031982&0&
20070630020100482779&QDB65YP31CZURFEN&20200706&02000016&1815837935909&1815837935909&&0&1&70210&CNY&0040&boshzjjg&6217994930003845310&0&
20070630020100482867&AG5EA9AXDMO3TAZD&20200706&02000016&1813658729094&1813658729094&&0&1&100300&CNY&0040&boshzjjg&6217003950002927330&0&
20070630020100482796&0U3VZ9P5YIWKIF4E&20200706&02000016&1813961959185&1813961959185&&0&1&10030&CNY&0040&boshzjjg&6228481988039225078&0&
20070630020100482726&BNXKKJLMCYTEDGBP&20200706&02000016&1815233123371&1815233123371&&0&1&50150&CNY&0040&boshzjjg&6212260409019307456&0&
20070630020100482941&7CYLNMMUXOVTW79K&20200706&02000016&1818987916256&1818987916256&&0&1&50150&CNY&0040&boshzjjg&6236684020000323225&0&
20070630020100482821&V29N83O12KMMIKTW&20200706&02000016&1813731660124&1813731660124&&0&1&30090&CNY&0040&boshzjjg&6216695000002505127&0&
20070630020100482908&03DCIEFBVZUEGULW&20200706&02000016&1815887550134&1815887550134&&0&1&50150&CNY&0040&boshzjjg&6217003970000160544&0&
20070630020100482832&DB3RBDBNHH3NEXSQ&20200706&02000016&1815108646659&1815108646659&&0&1&30090&CNY&0040&boshzjjg&6228413353037590564&0&
20070630020100482912&IZIIRJDXWCU1Z6MV&20200706&02000016&1813889877508&1813889877508&&0&1&5015&CNY&0040&boshzjjg&6228480049074333177&0&
20070630020100482924&ZBL6X0ACXX7T4FSO&20200706&02000016&1813190040355&1813190040355&&0&1&40120&CNY&0040&boshzjjg&6217850400006393067&0&
20070630020100483050&GA0ZA01O0UJZ87TA&20200706&02000016&1813833495031&1813833495031&&0&1&10030&CNY&0040&boshzjjg&6212260409018864176&0&
20070630020100482995&Y6SFSQ5U3RSAAEG8&20200706&02000016&1813673797843&1813673797843&&0&1&100300&CNY&0040&boshzjjg&6210812450008141339&0&
20070630020100483253&M7J8ZKVO7MAAE5Y4&20200706&02000016&1815903327688&1815903327688&&0&1&25175&CNY&0040&boshzjjg&6227000143210282613&0&
20070630020100483209&OZSHJUH7PXZDOIIY&20200706&02000016&1813940206553&1813940206553&&0&1&10030&CNY&0040&boshzjjg&6227000735000114508&0&
20070630020100483289&PXP6DFBNWNF4LS1C&20200706&02000016&1818468150535&1818468150535&&0&1&30090&CNY&0040&boshzjjg&6228480861114941912&0&
20070630020100483470&4KFLINF9A0EXB9NU&20200706&02000016&1813388827661&1813388827661&&0&1&100&CNY&0040&boshzjjg&6228483358580489473&0&
20070630020100483325&V89EAWN1UZEOSJ8Z&20200706&02000016&1815764559388&1815764559388&&0&1&10030&CNY&0040&boshzjjg&6217992610170452270&0&
20070630020100483385&5Q2E9XO9O7L3ME80&20200706&02000016&1815184594602&1815184594602&&0&1&10030&CNY&0040&boshzjjg&6236681070000100720&0&
20070630020100483390&4R89DDK8A4PCUEPJ&20200706&02000016&1815235078815&1815235078815&&0&1&10030&CNY&0040&boshzjjg&6222020507001539786&0&
20070630020100483494&PUVK8R3WQLPHNJPO&20200706&02000016&1813194551998&1813194551998&&0&1&20060&CNY&0040&boshzjjg&6217001070014442525&0&
20070630020100483405&K5F0VYO6KSUOCMFR&20200706&02000016&1813607196765&1813607196765&&0&1&40120&CNY&0040&boshzjjg&6228480059835911377&0&
20070630020100483510&6050MUY33LTSRMFL&20200706&02000016&1815271903817&1815271903817&&0&1&30090&CNY&0040&boshzjjg&6228270051257148475&0&
20070630020100483555&EBX0KLEJ8EDEN155&20200706&02000016&1813556430912&1813556430912&&0&1&30090&CNY&0040&boshzjjg&6222082003002115920&0&
20070630020100483556&N1JD8ZDRRXVXJ66L&20200706&02000016&1813510564251&1813510564251&&0&1&30090&CNY&0040&boshzjjg&6217007200008195755&0&
20070630020100483647&VW3TURCT97HPRKPS&20200706&02000016&1818725344782&1818725344782&&0&1&10030&CNY&0040&boshzjjg&6228483968611794772&0&
20070690040021479578&20070690040021479578&20200706&02000016&1818869202035&1818869202035&&1&2&160000&CNY&0040&boshzjjg&6228483358609435374&0&
20070690040021479495&20070690040021479495&20200706&02000016&1813529529358&1813529529358&&1&2&200000&CNY&0040&boshzjjg&6228483358605440774&0&
20070690040021479586&20070690040021479586&20200706&02000016&1815925592540&1815925592540&&1&2&150000&CNY&0040&boshzjjg&6228413960116692812&0&
20070690040021479641&20070690040021479641&20200706&02000016&1817614685531&1817614685531&&1&2&190000&CNY&0040&boshzjjg&6217992610207873787&0&
20070690040021479747&20070690040021479747&20200706&02000016&1813673128038&1813673128038&&1&2&195000&CNY&0040&boshzjjg&6228481266180496164&0&
20070690040021479657&20070690040021479657&20200706&02000016&1813931380155&1813931380155&&1&2&600000&CNY&0040&boshzjjg&6228481262203130013&0&
20070690040021479670&20070690040021479670&20200706&02000016&1813514213143&1813514213143&&1&2&800000&CNY&0040&boshzjjg&6222023301007974669&0&
20070690040021479837&20070690040021479837&20200706&02000016&1819979689479&1819979689479&&1&2&200000&CNY&0040&boshzjjg&6217856200036006612&0&
20070690040021479768&20070690040021479768&20200706&02000016&1815579647169&1815579647169&&1&2&200000&CNY&0040&boshzjjg&6217002110005451819&0&
20070690040021479848&20070690040021479848&20200706&02000016&1818003228206&1818003228206&&1&2&200000&CNY&0040&boshzjjg&6228481268630913574&0&
20070690040021479692&20070690040021479692&20200706&02000016&1815333221709&1815333221709&&1&2&250000&CNY&0040&boshzjjg&6217855000039539457&0&
20070690040021479778&20070690040021479778&20200706&02000016&1815871938967&1815871938967&&1&2&740000&CNY&0040&boshzjjg&6217857600036957400&0&
20070690040021479704&20070690040021479704&20200706&02000016&1813785222268&1813785222268&&1&2&4000&CNY&0040&boshzjjg&6228481268948566478&0&
20070690040021479876&20070690040021479876&20200706&02000016&1818158458752&1818158458752&&1&2&800000&CNY&0040&boshzjjg&6217001590021653269&0&
20070690040021479877&20070690040021479877&20200706&02000016&1818979610331&1818979610331&&1&2&1000000&CNY&0040&boshzjjg&6228482318560033379&0&
20070690040021479797&20070690040021479797&20200706&02000016&1817325423850&1817325423850&&1&2&196000&CNY&0040&boshzjjg&6212260409010000191&0&
20070690040021479882&20070690040021479882&20200706&02000016&1815126963815&1815126963815&&1&2&200000&CNY&0040&boshzjjg&6217902700004471866&0&
20070690040021479721&20070690040021479721&20200706&02000016&1817736252393&1817736252393&&1&2&200000&CNY&0040&boshzjjg&6228481268511002372&0&
20070690040021479823&20070690040021479823&20200706&02000016&1813359593740&1813359593740&&1&2&800000&CNY&0040&boshzjjg&6217855300010765059&0&
20070690040021479911&20070690040021479911&20200706&02000016&1818387540732&1818387540732&&1&2&828000&CNY&0040&boshzjjg&6212262511001893159&0&
20070690040021480053&20070690040021480053&20200706&02000016&1815333221709&1815333221709&&1&2&90000&CNY&0040&boshzjjg&6217855000039539457&0&
20070690040021480052&20070690040021480052&20200706&02000016&1813183086586&1813183086586&&1&2&200000&CNY&0040&boshzjjg&6236682450000372181&0&
20070690040021480088&20070690040021480088&20200706&02000016&1813429984705&1813429984705&&1&2&790000&CNY&0040&boshzjjg&6215581809007026247&0&
20070690040021480183&20070690040021480183&20200706&02000016&1813946779996&1813946779996&&1&2&800000&CNY&0040&boshzjjg&6212260906002203667&0&
20070690040021480089&20070690040021480089&20200706&02000016&1815987884158&1815987884158&&1&2&180000&CNY&0040&boshzjjg&6228483358614081478&0&
20070690040021480185&20070690040021480185&20200706&02000016&1818624043293&1818624043293&&1&2&4400&CNY&0040&boshzjjg&6216600400000883241&0&
20070690040021480110&20070690040021480110&20200706&02000016&1815694698860&1815694698860&&1&2&400000&CNY&0040&boshzjjg&6228483358580333275&0&
20070690040021480122&20070690040021480122&20200706&02000016&1813734591845&1813734591845&&1&2&200000&CNY&0040&boshzjjg&6217001020004093077&0&
20070690040021480227&20070690040021480227&20200706&02000016&1813363201972&1813363201972&&1&2&980000&CNY&0040&boshzjjg&6236680180004724689&0&
20070690040021480486&20070690040021480486&20200706&02000016&1813997978230&1813997978230&&1&2&1000000&CNY&0040&boshzjjg&6236682700004695551&0&
20070690040021480295&20070690040021480295&20200706&02000016&1813157116491&1813157116491&&1&2&200000&CNY&0040&boshzjjg&6230580000264200341&0&
20070690040021480488&20070690040021480488&20200706&02000016&1818053143677&1818053143677&&1&2&200000&CNY&0040&boshzjjg&6228480251376548417&0&
20070690040021480487&20070690040021480487&20200706&02000016&1815031281951&1815031281951&&1&2&200000&CNY&0040&boshzjjg&6228481269047287974&0&
20070690040021480404&20070690040021480404&20200706&02000016&1815566052711&1815566052711&&1&2&120000&CNY&0040&boshzjjg&6230520040059875173&0&
20070690040021480405&20070690040021480405&20200706&02000016&1818531229892&1818531229892&&1&2&186000&CNY&0040&boshzjjg&6217000140008298133&0&
20070690040021480510&20070690040021480510&20200706&02000016&1815245926355&1815245926355&&1&2&200000&CNY&0040&boshzjjg&6217001020000173592&0&
20070690040021480315&20070690040021480315&20200706&02000016&1813485275935&1813485275935&&1&2&200000&CNY&0040&boshzjjg&6228481985832903778&0&
20070690040021480537&20070690040021480537&20200706&02000016&1813933221582&1813933221582&&1&2&3600&CNY&0040&boshzjjg&6217000140016984757&0&
20070690040021480327&20070690040021480327&20200706&02000016&1818340870582&1818340870582&&1&2&800000&CNY&0040&boshzjjg&6212262511002171985&0&
20070690040021480524&20070690040021480524&20200706&02000016&1818132723583&1818132723583&&1&2&5000&CNY&0040&boshzjjg&6228480648923575977&0&
20070690040021480662&20070690040021480662&20200706&02000016&1813945287113&1813945287113&&1&2&200000&CNY&0040&boshzjjg&6228480188421281471&0&
20070690040021480749&20070690040021480749&20200706&02000016&1815940272518&1815940272518&&1&2&205000&CNY&0040&boshzjjg&6210810730041751349&0&
20070690040021480748&20070690040021480748&20200706&02000016&1815200093418&1815200093418&&1&2&200000&CNY&0040&boshzjjg&6214670140000988976&0&
20070690040021480750&20070690040021480750&20200706&02000016&1818032526472&1818032526472&&1&2&185000&CNY&0040&boshzjjg&6222030403005785591&0&
20070690040021480771&20070690040021480771&20200706&02000016&1818088176980&1818088176980&&1&2&200000&CNY&0040&boshzjjg&6230523350004703074&0&
20070690040021480772&20070690040021480772&20200706&02000016&1818531229892&1818531229892&&1&2&14000&CNY&0040&boshzjjg&6217000140008298133&0&
20070690040021480700&20070690040021480700&20200706&02000016&1815146681834&1815146681834&&1&2&200000&CNY&0040&boshzjjg&6228480188451939071&0&
20070690040021480617&20070690040021480617&20200706&02000016&1815679647159&1815679647159&&1&2&200000&CNY&0040&boshzjjg&6228412314521477073&0&
20070690040021480798&20070690040021480798&20200706&02000016&1813734591845&1813734591845&&1&2&200000&CNY&0040&boshzjjg&6217001020004093077&0&
20070690040021480799&20070690040021480799&20200706&02000016&1815566052711&1815566052711&&1&2&200000&CNY&0040&boshzjjg&6230520040059875173&0&
20070690040021480720&20070690040021480720&20200706&02000016&1818214662231&1818214662231&&1&2&200000&CNY&0040&boshzjjg&6212262510000861431&0&
20070690040021480803&20070690040021480803&20200706&02000016&1815946516599&1815946516599&&1&2&200000&CNY&0040&boshzjjg&6228480180374957314&0&
20070690040021480856&20070690040021480856&20200706&02000016&1815727611358&1815727611358&&1&2&100&CNY&0040&boshzjjg&6217994350001788505&0&
20070690040021480819&20070690040021480819&20200706&02000016&1815043594322&1815043594322&&1&2&2000&CNY&0040&boshzjjg&6228411864500643278&0&
20070690040021480857&20070690040021480857&20200706&02000016&1815926035432&1815926035432&&1&2&200000&CNY&0040&boshzjjg&6217995200225369872&0&
20070690040021480832&20070690040021480832&20200706&02000016&1813581875188&1813581875188&&1&2&200000&CNY&0040&boshzjjg&6217233202000887328&0&
20070690040021480833&20070690040021480833&20200706&02000016&1813921155746&1813921155746&&1&2&1000000&CNY&0040&boshzjjg&6217994350005506507&0&
20070690040021481046&20070690040021481046&20200706&02000016&1813485275935&1813485275935&&1&2&200000&CNY&0040&boshzjjg&6228481985832903778&0&
20070690040021480885&20070690040021480885&20200706&02000016&1818898439899&1818898439899&&1&2&200000&CNY&0040&boshzjjg&6217995200287489915&0&
20070690040021481045&20070690040021481045&20200706&02000016&1813085139819&1813085139819&&1&2&200000&CNY&0040&boshzjjg&6228413820001576613&0&
20070690040021480962&20070690040021480962&20200706&02000016&1815108633866&1815108633866&&1&2&180000&CNY&0040&boshzjjg&6217003970000530878&0&
20070690040021481051&20070690040021481051&20200706&02000016&1815727611358&1815727611358&&1&2&199900&CNY&0040&boshzjjg&6217994350001788505&0&
20070690040021480893&20070690040021480893&20200706&02000016&1813483435916&1813483435916&&1&2&20000&CNY&0040&boshzjjg&6236680130002387492&0&
20070690040021480963&20070690040021480963&20200706&02000016&1815188796075&1815188796075&&1&2&200000&CNY&0040&boshzjjg&6222030409004028883&0&
20070690040021480970&20070690040021480970&20200706&02000016&1818987500186&1818987500186&&1&2&200000&CNY&0040&boshzjjg&6217003960004058208&0&
20070690040021481059&20070690040021481059&20200706&02000016&1815129827688&1815129827688&&1&2&795000&CNY&0040&boshzjjg&6228483829170398175&0&
20070690040021480981&20070690040021480981&20200706&02000016&1815232499769&1815232499769&&1&2&200000&CNY&0040&boshzjjg&6212260403018836144&0&
20070690040021480910&20070690040021480910&20200706&02000016&1813133961213&1813133961213&&1&2&1000000&CNY&0040&boshzjjg&6227002112060272774&0&
20070690040021480988&20070690040021480988&20200706&02000016&1815232499769&1815232499769&&1&2&200000&CNY&0040&boshzjjg&6212260403018836144&0&
20070690040021480929&20070690040021480929&20200706&02000016&1813988283080&1813988283080&&1&2&200000&CNY&0040&boshzjjg&6228483358466511077&0&
20070690040021481003&20070690040021481003&20200706&02000016&1813810239227&1813810239227&&1&2&196000&CNY&0040&boshzjjg&6228460018003542079&0&
20070690040021481096&20070690040021481096&20200706&02000016&1815908611028&1815908611028&&1&2&1000000&CNY&0040&boshzjjg&6228483829039555379&0&
20070690040021481016&20070690040021481016&20200706&02000016&1815530285307&1815530285307&&1&2&200000&CNY&0040&boshzjjg&6217000140016881292&0&
20070690040021481148&20070690040021481148&20200706&02000016&1815629288828&1815629288828&&1&2&200000&CNY&0040&boshzjjg&6228483829406701978&0&
20070690040021481108&20070690040021481108&20200706&02000016&1813603778998&1813603778998&&1&2&195000&CNY&0040&boshzjjg&6228230976052087263&0&
20070690040021481025&20070690040021481025&20200706&02000016&1815231288093&1815231288093&&1&2&1000000&CNY&0040&boshzjjg&6217000140028607446&0&
20070690040021481154&20070690040021481154&20200706&02000016&1813731237875&1813731237875&&1&2&200000&CNY&0040&boshzjjg&6217855000078605433&0&
20070690040021481238&20070690040021481238&20200706&02000016&1815932548856&1815932548856&&1&2&13000&CNY&0040&boshzjjg&6217000180001177959&0&
20070690040021481239&20070690040021481239&20200706&02000016&1817532069209&1817532069209&&1&2&1000000&CNY&0040&boshzjjg&6228481269158622977&0&
20070690040021481130&20070690040021481130&20200706&02000016&1818288100018&1818288100018&&1&2&200000&CNY&0040&boshzjjg&6217852700022290108&0&
20070690040021481245&20070690040021481245&20200706&02000016&1815208821887&1815208821887&&1&2&200000&CNY&0040&boshzjjg&6228483358586183179&0&
20070690040021481246&20070690040021481246&20200706&02000016&1815702129504&1815702129504&&1&2&200000&CNY&0040&boshzjjg&6236562110000275470&0&
20070690040021481252&20070690040021481252&20200706&02000016&1817192939341&1817192939341&&1&2&10000&CNY&0040&boshzjjg&6230520040019132277&0&
20070690040021481185&20070690040021481185&20200706&02000016&1815969204861&1815969204861&&1&2&210000&CNY&0040&boshzjjg&6228483358609350375&0&
20070690040021481204&20070690040021481204&20200706&02000016&1819188128851&1819188128851&&1&2&200000&CNY&0040&boshzjjg&6230523960011529377&0&
20070690040021481221&20070690040021481221&20200706&02000016&1813785237539&1813785237539&&1&2&400000&CNY&0040&boshzjjg&6222030409000384587&0&
20070690040021481307&20070690040021481307&20200706&02000016&1818531222131&1818531222131&&1&2&400000&CNY&0040&boshzjjg&6217000140012949192&0&
20070690040021481444&20070690040021481444&20200706&02000016&1817761306261&1817761306261&&1&2&200000&CNY&0040&boshzjjg&6212261715005789963&0&
20070690040021481460&20070690040021481460&20200706&02000016&1815387764008&1815387764008&&1&2&200000&CNY&0040&boshzjjg&6228482318729357073&0&
20070690040021481535&20070690040021481535&20200706&02000016&1815028290277&1815028290277&&1&2&100&CNY&0040&boshzjjg&6228481268300952175&0&
20070690040021481546&20070690040021481546&20200706&02000016&1813988289962&1813988289962&&1&2&200000&CNY&0040&boshzjjg&6228483358382089778&0&
20070690040021481555&20070690040021481555&20200706&02000016&1815028290277&1815028290277&&1&2&799900&CNY&0040&boshzjjg&6228481268300952175&0&
20070690040021481647&20070690040021481647&20200706&02000016&1818565059889&1818565059889&&1&2&795000&CNY&0040&boshzjjg&6217995200318164917&0&
20070690040021481487&20070690040021481487&20200706&02000016&1813507961782&1813507961782&&1&2&1000000&CNY&0040&boshzjjg&6217566500006105240&0&
20070690040021481665&20070690040021481665&20200706&02000016&1813330594491&1813330594491&&1&2&400000&CNY&0040&boshzjjg&6222022510001334206&0&
20070690040021481571&20070690040021481571&20200706&02000016&1813333042527&1813333042527&&1&2&200000&CNY&0040&boshzjjg&6228483829385755979&0&
20070690040021481494&20070690040021481494&20200706&02000016&1818135104449&1818135104449&&1&2&5000&CNY&0040&boshzjjg&6217000260001787674&0&
20070690040021481493&20070690040021481493&20200706&02000016&1813123000589&1813123000589&&1&2&200000&CNY&0040&boshzjjg&6217001830034624877&0&
20070690040021481576&20070690040021481576&20200706&02000016&1815511961250&1815511961250&&1&2&1000&CNY&0040&boshzjjg&6217000180043965932&0&
20070690040021481586&20070690040021481586&20200706&02000016&1815511961250&1815511961250&&1&2&190000&CNY&0040&boshzjjg&6217000180043965932&0&
20070690040021481511&20070690040021481511&20200706&02000016&1817687005539&1817687005539&&1&2&400000&CNY&0040&boshzjjg&6230523350014271179&0&
20070690040021481585&20070690040021481585&20200706&02000016&1813213162591&1813213162591&&1&2&200000&CNY&0040&boshzjjg&6228480718908058578&0&
20070690040021481529&20070690040021481529&20200706&02000016&1813703120333&1813703120333&&1&2&200000&CNY&0040&boshzjjg&6217000140024173591&0&
20070690040021481703&20070690040021481703&20200706&02000016&1813292999216&1813292999216&&1&2&200000&CNY&0040&boshzjjg&6222621360001603761&0&
20070690040021481619&20070690040021481619&20200706&02000016&1813972186960&1813972186960&&1&2&3000&CNY&0040&boshzjjg&6236682700001225477&0&
20070690040021481749&20070690040021481749&20200706&02000016&1818287592529&1818287592529&&1&2&207000&CNY&0040&boshzjjg&6222032510000192561&0&
20070690040021481631&20070690040021481631&20200706&02000016&1819931595795&1819931595795&&1&2&980000&CNY&0040&boshzjjg&6228480659116555874&0&
20070690040021481725&20070690040021481725&20200706&02000016&1815987574955&1815987574955&&1&2&210000&CNY&0040&boshzjjg&6228413350251543618&0&
20070690040021481843&20070690040021481843&20200706&02000016&1813012058379&1813012058379&&1&2&200000&CNY&0040&boshzjjg&6228481261926323111&0&
20070690040021481854&20070690040021481854&20200706&02000016&1818632202657&1818632202657&&1&2&400000&CNY&0040&boshzjjg&6217991340027983480&0&
20070690040021481779&20070690040021481779&20200706&02000016&1815511961250&1815511961250&&1&2&9000&CNY&0040&boshzjjg&6217000180043965932&0&
20070690040021481788&20070690040021481788&20200706&02000016&1815033721326&1815033721326&&1&2&196000&CNY&0040&boshzjjg&6217000140035632445&0&
20070690040021481946&20070690040021481946&20200706&02000016&1813581315906&1813581315906&&1&2&200000&CNY&0040&boshzjjg&6228433829611930470&0&
20070690040021481949&20070690040021481949&20200706&02000016&1815003326193&1815003326193&&1&2&200000&CNY&0040&boshzjjg&6228481262086400418&0&
20070690040021481957&20070690040021481957&20200706&02000016&1818833332913&1818833332913&&1&2&980000&CNY&0040&boshzjjg&6228480659142317679&0&
20070690040021481804&20070690040021481804&20200706&02000016&1813722298329&1813722298329&&1&2&5000&CNY&0040&boshzjjg&6228481269192506178&0&
20070690040021481811&20070690040021481811&20200706&02000016&1815970230203&1815970230203&&1&2&140000&CNY&0040&boshzjjg&6226822017601717379&0&
20070690040021482039&20070690040021482039&20200706&02000016&1815887643806&1815887643806&&1&2&600000&CNY&0040&boshzjjg&6230523960013243175&0&
20070690040021482009&20070690040021482009&20200706&02000016&1815151547715&1815151547715&&1&2&200000&CNY&0040&boshzjjg&6228413824518965376&0&
20070690040021482014&20070690040021482014&20200706&02000016&1815933733850&1815933733850&&1&2&600000&CNY&0040&boshzjjg&6230521260026901170&0&
20070690040021482021&20070690040021482021&20200706&02000016&1818032581693&1818032581693&&1&2&195000&CNY&0040&boshzjjg&6228480659211103471&0&
20070690040021481932&20070690040021481932&20200706&02000016&1818182956649&1818182956649&&1&2&200000&CNY&0040&boshzjjg&6230523960013243076&0&
20070690040021482031&20070690040021482031&20200706&02000016&1813294103115&1813294103115&&1&2&795000&CNY&0040&boshzjjg&6228483821731478315&0&
20070690040021482142&20070690040021482142&20200706&02000016&1815311367336&1815311367336&&1&2&198000&CNY&0040&boshzjjg&6236680140001986723&0&
20070690040021482148&20070690040021482148&20200706&02000016&1818171374977&1818171374977&&1&2&795000&CNY&0040&boshzjjg&6230523820009370871&0&
20070690040021482247&20070690040021482247&20200706&02000016&1800100000072&1800100000072&&1&2&730000&CNY&0040&boshzjjg&6228482688436842579&0&
20070690040021482258&20070690040021482258&20200706&02000016&1815322448726&1815322448726&&1&2&200000&CNY&0040&boshzjjg&6217996020003851951&0&
20070690040021482177&20070690040021482177&20200706&02000016&1817732239119&1817732239119&&1&2&200000&CNY&0040&boshzjjg&6217210409014420320&0&
20070690040021482263&20070690040021482263&20200706&02000016&1813554272783&1813554272783&&1&2&759000&CNY&0040&boshzjjg&6228480059450051673&0&
20070690040021482274&20070690040021482274&20200706&02000016&1815108629994&1815108629994&&1&2&200000&CNY&0040&boshzjjg&6212262511001821580&0&
20070690040021482184&20070690040021482184&20200706&02000016&1813323220289&1813323220289&&1&2&200000&CNY&0040&boshzjjg&6217981340000850823&0&
20070690040021482273&20070690040021482273&20200706&02000016&1813986953138&1813986953138&&1&2&1000000&CNY&0040&boshzjjg&6217002700008893841&0&
20070690040021482186&20070690040021482186&20200706&02000016&1813513335550&1813513335550&&1&2&980000&CNY&0040&boshzjjg&6228480652157016419&0&
20070690040021482194&20070690040021482194&20200706&02000016&1813932888853&1813932888853&&1&2&100&CNY&0040&boshzjjg&6217991340013195743&0&
20070690040021482200&20070690040021482200&20200706&02000016&1813972934607&1813972934607&&1&2&200000&CNY&0040&boshzjjg&6228483828690321972&0&
20070690040021482295&20070690040021482295&20200706&02000016&1818507222058&1818507222058&&1&2&200000&CNY&0040&boshzjjg&6228483829749170675&0&
20070690040021482205&20070690040021482205&20200706&02000016&1813932888853&1813932888853&&1&2&195000&CNY&0040&boshzjjg&6217991340013195743&0&
20070690040021482300&20070690040021482300&20200706&02000016&1818045556220&1818045556220&&1&2&200000&CNY&0040&boshzjjg&6216696000006598028&0&
20070690040021482225&20070690040021482225&20200706&02000016&1813932888853&1813932888853&&1&2&4900&CNY&0040&boshzjjg&6217991340013195743&0&
20070690040021482228&20070690040021482228&20200706&02000016&1813329504234&1813329504234&&1&2&200000&CNY&0040&boshzjjg&6217001020008154248&0&
20070690040021482343&20070690040021482343&20200706&02000016&1815925437128&1815925437128&&1&2&200000&CNY&0040&boshzjjg&6228483358609534978&0&
20070690040021482449&20070690040021482449&20200706&02000016&1817642039238&1817642039238&&1&2&200000&CNY&0040&boshzjjg&6217850400010331988&0&
20070690040021482360&20070690040021482360&20200706&02000016&1818970800693&1818970800693&&1&2&200000&CNY&0040&boshzjjg&6215581502000949677&0&
20070690040021482548&20070690040021482548&20200706&02000016&1818787585469&1818787585469&&1&2&213000&CNY&0040&boshzjjg&6222032510000192579&0&
20070690040021482469&20070690040021482469&20200706&02000016&1813629677894&1813629677894&&1&2&200000&CNY&0040&boshzjjg&6217852700004848386&0&
20070690040021482482&20070690040021482482&20200706&02000016&1813987023412&1813987023412&&1&2&210000&CNY&0040&boshzjjg&6228483358600843477&0&
20070690040021482383&20070690040021482383&20200706&02000016&1818008829058&1818008829058&&1&2&200000&CNY&0040&boshzjjg&6217003970001982961&0&
20070690040021482496&20070690040021482496&20200706&02000016&1815770617648&1815770617648&&1&2&1000000&CNY&0040&boshzjjg&6230522310022212673&0&
20070690040021482398&20070690040021482398&20200706&02000016&1813831247315&1813831247315&&1&2&200&CNY&0040&boshzjjg&6228481266305246569&0&
20070690040021482736&20070690040021482736&20200706&02000016&1813831247315&1813831247315&&1&2&199800&CNY&0040&boshzjjg&6228481266305246569&0&
20070690040021482737&20070690040021482737&20200706&02000016&1815682951846&1815682951846&&1&2&570000&CNY&0040&boshzjjg&6222032709000584138&0&
20070690040021482657&20070690040021482657&20200706&02000016&1815394929910&1815394929910&&1&2&200000&CNY&0040&boshzjjg&6228483358464810471&0&
20070690040021482668&20070690040021482668&20200706&02000016&1813164343454&1813164343454&&1&2&200&CNY&0040&boshzjjg&6217868000010167687&0&
20070690040021482753&20070690040021482753&20200706&02000016&1813043795305&1813043795305&&1&2&200000&CNY&0040&boshzjjg&6210812450006327542&0&
20070690040021482764&20070690040021482764&20200706&02000016&1813933217166&1813933217166&&1&2&150&CNY&0040&boshzjjg&6217991340022740497&0&
20070690040021482841&20070690040021482841&20200706&02000016&1813164343454&1813164343454&&1&2&2000&CNY&0040&boshzjjg&6217868000010167687&0&
20070690040021482842&20070690040021482842&20200706&02000016&1813578262950&1813578262950&&1&2&210000&CNY&0040&boshzjjg&6230523350015315074&0&
20070690040021482782&20070690040021482782&20200706&02000016&1813577548423&1813577548423&&1&2&600000&CNY&0040&boshzjjg&6217003960004561300&0&
20070690040021482731&20070690040021482731&20200706&02000016&1818817719769&1818817719769&&1&2&1000000&CNY&0040&boshzjjg&622908113042518519&0&
20070690040021482881&20070690040021482881&20200706&02000016&1813831205568&1813831205568&&1&2&1000000&CNY&0040&boshzjjg&6013825002005583766&0&
20070690040021482814&20070690040021482814&20200706&02000016&1815391393046&1815391393046&&1&2&600&CNY&0040&boshzjjg&6221507300017503135&0&
20070690040021482815&20070690040021482815&20200706&02000016&1817731252779&1817731252779&&1&2&2000&CNY&0040&boshzjjg&6228481268396525075&0&
20070690040021482957&20070690040021482957&20200706&02000016&1815907220281&1815907220281&&1&2&200000&CNY&0040&boshzjjg&6217995200290574414&0&
20070690040021482909&20070690040021482909&20200706&02000016&1815391393046&1815391393046&&1&2&1000000&CNY&0040&boshzjjg&6221507300017503135&0&
20070690040021482931&20070690040021482931&20200706&02000016&1818725376312&1818725376312&&1&2&1000000&CNY&0040&boshzjjg&6228483968092407175&0&
20070690040021482930&20070690040021482930&20200706&02000016&1813784955082&1813784955082&&1&2&200000&CNY&0040&boshzjjg&6222020409009443501&0&
20070690040021483144&20070690040021483144&20200706&02000016&1813388827661&1813388827661&&1&2&100&CNY&0040&boshzjjg&6228483358580489473&0&
20070690040021483085&20070690040021483085&20200706&02000016&1813845935006&1813845935006&&1&2&200000&CNY&0040&boshzjjg&6222620370002923259&0&
20070690040021483206&20070690040021483206&20200706&02000016&1813697384802&1813697384802&&1&2&200000&CNY&0040&boshzjjg&6217995200297806587&0&
20070690040021483212&20070690040021483212&20200706&02000016&1818787512925&1818787512925&&1&2&200000&CNY&0040&boshzjjg&6217232510000320996&0&
20070690040021483213&20070690040021483213&20200706&02000016&1818994474771&1818994474771&&1&2&100000&CNY&0040&boshzjjg&6212261102023986238&0&
20070690040021483254&20070690040021483254&20200706&02000016&1813988203647&1813988203647&&1&2&210000&CNY&0040&boshzjjg&6228483358600855075&0&
20070690040021483255&20070690040021483255&20200706&02000016&1815737959888&1815737959888&&1&2&200000&CNY&0040&boshzjjg&6212261705003198291&0&
20070690040021483122&20070690040021483122&20200706&02000016&1813930267945&1813930267945&&1&2&200000&CNY&0040&boshzjjg&6227000140710170793&0&
20070690040021483266&20070690040021483266&20200706&02000016&1818608820875&1818608820875&&1&2&100&CNY&0040&boshzjjg&6212262511001424054&0&
20070690040021483233&20070690040021483233&20200706&02000016&1815025034255&1815025034255&&1&2&200000&CNY&0040&boshzjjg&6228273961100371271&0&
20070690040021483133&20070690040021483133&20200706&02000016&1815925434857&1815925434857&&1&2&200000&CNY&0040&boshzjjg&6228483358344185276&0&
20070690040021483441&20070690040021483441&20200706&02000016&1813544834788&1813544834788&&1&2&200000&CNY&0040&boshzjjg&6222034000002372435&0&
20070690040021483347&20070690040021483347&20200706&02000016&1818091688448&1818091688448&&1&2&400000&CNY&0040&boshzjjg&6228482908683251476&0&
20070690040021483445&20070690040021483445&20200706&02000016&1815930296196&1815930296196&&1&2&500&CNY&0040&boshzjjg&6222030409002206200&0&
20070690040021483348&20070690040021483348&20200706&02000016&1818608820875&1818608820875&&1&2&200000&CNY&0040&boshzjjg&6212262511001424054&0&
20070690040021483456&20070690040021483456&20200706&02000016&1815930296196&1815930296196&&1&2&199500&CNY&0040&boshzjjg&6222030409002206200&0&
20070690040021483468&20070690040021483468&20200706&02000016&1818288515331&1818288515331&&1&2&200000&CNY&0040&boshzjjg&6212262510001308069&0&
20070690040021483495&20070690040021483495&20200706&02000016&1813808787197&1813808787197&&1&2&210000&CNY&0040&boshzjjg&6212262511002028912&0&
20070690040021483501&20070690040021483501&20200706&02000016&1818787572916&1818787572916&&1&2&600000&CNY&0040&boshzjjg&6230523960006128573&0&
20070690040021483543&20070690040021483543&20200706&02000016&1813466148055&1813466148055&&1&2&210000&CNY&0040&boshzjjg&6228483968594680378&0&
20070690040021483544&20070690040021483544&20200706&02000016&1813521243659&1813521243659&&1&2&990000&CNY&0040&boshzjjg&6217991000020977547&0&
20070690040021483516&20070690040021483516&20200706&02000016&1815075594448&1815075594448&&1&2&200000&CNY&0040&boshzjjg&6212260403020292617&0&
20070690040021483563&20070690040021483563&20200706&02000016&1813810239227&1813810239227&&1&2&196000&CNY&0040&boshzjjg&6228460018003542079&0&
20070690040021483519&20070690040021483519&20200706&02000016&1815133920808&1815133920808&&1&2&200000&CNY&0040&boshzjjg&6217855000011993987&0&
20070690040021483565&20070690040021483565&20200706&02000016&1815830240516&1815830240516&&1&2&200000&CNY&0040&boshzjjg&6210981340001479320&0&
20070690040021483520&20070690040021483520&20200706&02000016&1815614201777&1815614201777&&1&2&1000&CNY&0040&boshzjjg&6236680140001026470&0&
20070690040021483747&20070690040021483747&20200706&02000016&1815903159889&1815903159889&&1&2&200000&CNY&0040&boshzjjg&6228480658445707578&0&
20070690040021483748&20070690040021483748&20200706&02000016&1813624662918&1813624662918&&1&2&200000&CNY&0040&boshzjjg&6217230905001171665&0&
20070690040021483593&20070690040021483593&20200706&02000016&1815208810048&1815208810048&&1&2&210000&CNY&0040&boshzjjg&6228483350316843214&0&
20070690040021483594&20070690040021483594&20200706&02000016&1815903126412&1815903126412&&1&2&200000&CNY&0040&boshzjjg&6216911006315258&0&
20070690040021483600&20070690040021483600&20200706&02000016&1813407244830&1813407244830&&1&2&200000&CNY&0040&boshzjjg&6228483829170305378&0&
